<?xml version="1.0"?>
<VTKFile type="PolyData" version="0.1" byte_order="LittleEndian">
  <PolyData>
    <Piece NumberOfPoints="      8" NumberOfVerts="  0" NumberOfLines="      0"
           NumberOfStrips="  0" NumberOfPolys="      6">
      <Points>
        <DataArray type="Float32" NumberOfComponents="3" format="ascii">
                      -3.27202                       2.33070                      87.61877
                       3.72792                       2.33073                      87.58875
                       3.72790                      -2.46927                      87.58036
                      -3.27204                      -2.46930                      87.61039
                      -3.25145                      -2.47769                      92.41034
                       3.74849                      -2.47766                      92.38031
                       3.74851                       2.32234                      92.38870
                      -3.25143                       2.32231                      92.41873
        </DataArray>
      </Points>
      <Polys>
        <DataArray type="Int32" Name="connectivity" format="ascii">
      0      1      2      3
      4      5      6      7
      7      6      1      0
      6      5      2      1
      5      4      3      2
      4      7      0      3
        </DataArray>
        <DataArray type="Int32" Name="offsets" format="ascii">
      4
      8
     12
     16
     20
     24
        </DataArray>
      </Polys>
    </Piece>
  </PolyData>
</VTKFile>
