<?xml version="1.0"?>
<VTKFile type="PolyData" version="0.1" byte_order="LittleEndian">
  <PolyData>
    <Piece NumberOfPoints="      8" NumberOfVerts="  0" NumberOfLines="      0"
           NumberOfStrips="  0" NumberOfPolys="      6">
      <Points>
        <DataArray type="Float32" NumberOfComponents="3" format="ascii">
                      -3.29363                       2.35093                      87.61658
                       3.70632                       2.35095                      87.58916
                       3.70631                      -2.44906                      87.58273
                      -3.29364                      -2.44907                      87.61015
                      -3.27484                      -2.45550                      92.41011
                       3.72511                      -2.45548                      92.38270
                       3.72512                       2.34452                      92.38912
                      -3.27483                       2.34450                      92.41654
        </DataArray>
      </Points>
      <Polys>
        <DataArray type="Int32" Name="connectivity" format="ascii">
      0      1      2      3
      4      5      6      7
      7      6      1      0
      6      5      2      1
      5      4      3      2
      4      7      0      3
        </DataArray>
        <DataArray type="Int32" Name="offsets" format="ascii">
      4
      8
     12
     16
     20
     24
        </DataArray>
      </Polys>
    </Piece>
  </PolyData>
</VTKFile>
