<?xml version="1.0"?>
<VTKFile type="PolyData" version="0.1" byte_order="LittleEndian">
  <PolyData>
    <Piece NumberOfPoints="     22" NumberOfVerts="  0" NumberOfLines="     21"
           NumberOfStrips="  0" NumberOfPolys="      0">
      <Points>
        <DataArray type="Float32" NumberOfComponents="3" format="ascii">
                       0.00009                      -0.00002                       2.19000
                       0.00092                      -0.00019                       6.57000
                       0.00275                      -0.00052                      10.95000
                       0.00568                      -0.00099                      15.33000
                       0.00971                      -0.00164                      19.71000
                       0.01484                      -0.00246                      24.08999
                       0.02102                      -0.00350                      28.46999
                       0.02821                      -0.00478                      32.84998
                       0.03641                      -0.00634                      37.22997
                       0.04562                      -0.00822                      41.60996
                       0.05587                      -0.01046                      45.98995
                       0.06720                      -0.01311                      50.36994
                       0.07968                      -0.01619                      54.74992
                       0.09335                      -0.01973                      59.12989
                       0.10825                      -0.02375                      63.50987
                       0.12434                      -0.02824                      67.88984
                       0.14149                      -0.03321                      72.26980
                       0.15946                      -0.03860                      76.64976
                       0.17782                      -0.04437                      81.02972
                       0.19593                      -0.05043                      85.40968
                       0.20462                      -0.05354                      87.59966
                       0.00000                       0.00000                       0.00000
        </DataArray>
      </Points>
      <PointData>
        <DataArray type="Float32" Name="TranslationalVelocity" NumberOfComponents="3" format="ascii">
                      -0.00000                      -0.00001                      -0.00000
                      -0.00002                      -0.00007                       0.00000
                      -0.00005                      -0.00019                       0.00000
                      -0.00011                      -0.00035                       0.00000
                      -0.00019                      -0.00056                       0.00000
                      -0.00031                      -0.00082                       0.00000
                      -0.00044                      -0.00112                       0.00000
                      -0.00061                      -0.00148                       0.00000
                      -0.00081                      -0.00188                       0.00000
                      -0.00105                      -0.00234                       0.00000
                      -0.00132                      -0.00286                       0.00000
                      -0.00164                      -0.00344                       0.00000
                      -0.00200                      -0.00408                       0.00000
                      -0.00242                      -0.00478                       0.00000
                      -0.00288                      -0.00554                       0.00000
                      -0.00340                      -0.00636                       0.00001
                      -0.00396                      -0.00723                       0.00001
                      -0.00457                      -0.00814                       0.00001
                      -0.00520                      -0.00910                       0.00001
                      -0.00583                      -0.01008                       0.00001
                      -0.00614                      -0.01058                       0.00001
                       0.00000                      -0.00000                       0.00000
        </DataArray>
        <DataArray type="Float32" Name="RotationalVelocity" NumberOfComponents="3" format="ascii">
                       0.00001                      -0.00000                       0.00000
                       0.00002                      -0.00001                       0.00000
                       0.00003                      -0.00001                       0.00000
                       0.00004                      -0.00002                       0.00000
                       0.00005                      -0.00002                       0.00000
                       0.00006                      -0.00003                       0.00000
                       0.00008                      -0.00004                       0.00000
                       0.00009                      -0.00004                       0.00000
                       0.00010                      -0.00005                       0.00000
                       0.00011                      -0.00006                       0.00000
                       0.00013                      -0.00007                       0.00000
                       0.00014                      -0.00008                       0.00000
                       0.00015                      -0.00009                       0.00000
                       0.00017                      -0.00010                       0.00000
                       0.00018                      -0.00011                       0.00000
                       0.00019                      -0.00012                       0.00000
                       0.00020                      -0.00013                       0.00000
                       0.00021                      -0.00014                       0.00000
                       0.00022                      -0.00015                       0.00000
                       0.00023                      -0.00014                       0.00000
                       0.00023                      -0.00014                       0.00000
                       0.00000                      -0.00000                       0.00000
        </DataArray>
        <DataArray type="Float32" Name="TranslationalAcceleration" NumberOfComponents="3" format="ascii">
                       0.00014                      -0.00004                      -0.00000
                       0.00128                      -0.00033                      -0.00000
                       0.00360                      -0.00088                      -0.00000
                       0.00702                      -0.00164                      -0.00000
                       0.01139                      -0.00261                      -0.00001
                       0.01650                      -0.00378                      -0.00001
                       0.02205                      -0.00515                      -0.00002
                       0.02777                      -0.00671                      -0.00003
                       0.03331                      -0.00848                      -0.00004
                       0.03838                      -0.01045                      -0.00005
                       0.04266                      -0.01263                      -0.00007
                       0.04586                      -0.01502                      -0.00008
                       0.04775                      -0.01760                      -0.00008
                       0.04813                      -0.02038                      -0.00009
                       0.04686                      -0.02334                      -0.00008
                       0.04385                      -0.02646                      -0.00008
                       0.03912                      -0.02973                      -0.00006
                       0.03272                      -0.03312                      -0.00004
                       0.02482                      -0.03660                      -0.00001
                       0.01566                      -0.04016                       0.00002
                       0.01071                      -0.04197                       0.00004
                       0.00000                      -0.00000                       0.00000
        </DataArray>
        <DataArray type="Float32" Name="RotationalAcceleration" NumberOfComponents="3" format="ascii">
                       0.00004                       0.00013                       0.00000
                       0.00010                       0.00040                       0.00000
                       0.00015                       0.00066                       0.00000
                       0.00020                       0.00090                       0.00000
                       0.00024                       0.00109                       0.00000
                       0.00029                       0.00123                       0.00000
                       0.00033                       0.00130                       0.00000
                       0.00038                       0.00130                       0.00000
                       0.00043                       0.00122                       0.00000
                       0.00047                       0.00108                       0.00000
                       0.00052                       0.00086                       0.00000
                       0.00057                       0.00059                       0.00000
                       0.00061                       0.00027                       0.00000
                       0.00066                      -0.00010                       0.00000
                       0.00070                      -0.00049                       0.00000
                       0.00073                      -0.00088                       0.00000
                       0.00076                      -0.00127                       0.00000
                       0.00079                      -0.00164                       0.00000
                       0.00080                      -0.00196                       0.00000
                       0.00082                      -0.00221                       0.00000
                       0.00082                      -0.00231                       0.00000
                       0.00000                      -0.00000                       0.00000
        </DataArray>
        <DataArray type="Float32" Name="OrientationX" NumberOfComponents="3" format="ascii">
                       1.00000                       0.00000                      -0.00009
                       1.00000                       0.00000                      -0.00030
                       1.00000                       0.00000                      -0.00054
                       1.00000                       0.00000                      -0.00079
                       1.00000                       0.00000                      -0.00105
                       1.00000                       0.00000                      -0.00129
                       1.00000                       0.00000                      -0.00153
                       1.00000                       0.00000                      -0.00176
                       1.00000                       0.00000                      -0.00199
                       1.00000                       0.00000                      -0.00222
                       1.00000                       0.00000                      -0.00246
                       1.00000                       0.00000                      -0.00272
                       1.00000                       0.00000                      -0.00298
                       0.99999                       0.00000                      -0.00326
                       0.99999                       0.00000                      -0.00354
                       0.99999                       0.00000                      -0.00380
                       0.99999                       0.00000                      -0.00402
                       0.99999                       0.00000                      -0.00417
                       0.99999                       0.00000                      -0.00419
                       0.99999                       0.00000                      -0.00404
                       0.99999                       0.00000                      -0.00388
                       1.00000                      -0.00000                       0.00000
        </DataArray>
        <DataArray type="Float32" Name="OrientationY" NumberOfComponents="3" format="ascii">
                       0.00000                       1.00000                       0.00002
                       0.00000                       1.00000                       0.00006
                       0.00000                       1.00000                       0.00009
                       0.00000                       1.00000                       0.00013
                       0.00000                       1.00000                       0.00017
                       0.00000                       1.00000                       0.00021
                       0.00000                       1.00000                       0.00026
                       0.00000                       1.00000                       0.00032
                       0.00000                       1.00000                       0.00039
                       0.00000                       1.00000                       0.00047
                       0.00000                       1.00000                       0.00056
                       0.00000                       1.00000                       0.00065
                       0.00000                       1.00000                       0.00076
                       0.00000                       1.00000                       0.00086
                       0.00000                       1.00000                       0.00097
                       0.00000                       1.00000                       0.00108
                       0.00000                       1.00000                       0.00118
                       0.00000                       1.00000                       0.00128
                       0.00000                       1.00000                       0.00135
                       0.00000                       1.00000                       0.00141
                       0.00000                       1.00000                       0.00143
                      -0.00000                       1.00000                      -0.00000
        </DataArray>
        <DataArray type="Float32" Name="OrientationZ" NumberOfComponents="3" format="ascii">
                       0.00009                      -0.00002                       1.00000
                       0.00030                      -0.00006                       1.00000
                       0.00054                      -0.00009                       1.00000
                       0.00079                      -0.00013                       1.00000
                       0.00105                      -0.00017                       1.00000
                       0.00129                      -0.00021                       1.00000
                       0.00153                      -0.00026                       1.00000
                       0.00176                      -0.00032                       1.00000
                       0.00199                      -0.00039                       1.00000
                       0.00222                      -0.00047                       1.00000
                       0.00246                      -0.00056                       1.00000
                       0.00272                      -0.00065                       1.00000
                       0.00298                      -0.00076                       1.00000
                       0.00326                      -0.00086                       0.99999
                       0.00354                      -0.00097                       0.99999
                       0.00380                      -0.00108                       0.99999
                       0.00402                      -0.00118                       0.99999
                       0.00417                      -0.00128                       0.99999
                       0.00419                      -0.00135                       0.99999
                       0.00404                      -0.00141                       0.99999
                       0.00388                      -0.00143                       0.99999
                       0.00000                      -0.00000                       1.00000
        </DataArray>
      </PointData>
      <Lines>
        <DataArray type="Int32" Name="connectivity" format="ascii">
      0      1
      1      2
      2      3
      3      4
      4      5
      5      6
      6      7
      7      8
      8      9
      9     10
     10     11
     11     12
     12     13
     13     14
     14     15
     15     16
     16     17
     17     18
     18     19
     19     20
     21      0
        </DataArray>
        <DataArray type="Int32" Name="offsets" format="ascii">
      2
      4
      6
      8
     10
     12
     14
     16
     18
     20
     22
     24
     26
     28
     30
     32
     34
     36
     38
     40
     42
        </DataArray>
      </Lines>
    </Piece>
  </PolyData>
</VTKFile>
