<?xml version="1.0"?>
<VTKFile type="PolyData" version="0.1" byte_order="LittleEndian">
  <PolyData>
    <Piece NumberOfPoints="      8" NumberOfVerts="  0" NumberOfLines="      0"
           NumberOfStrips="  0" NumberOfPolys="      6">
      <Points>
        <DataArray type="Float32" NumberOfComponents="3" format="ascii">
                      -3.29480                       2.32835                      87.61751
                       3.70515                       2.32838                      87.59039
                       3.70514                      -2.47162                      87.58176
                      -3.29481                      -2.47165                      87.60888
                      -3.27621                      -2.48028                      92.40885
                       3.72373                      -2.48025                      92.38172
                       3.72375                       2.31975                      92.39035
                      -3.27620                       2.31972                      92.41748
        </DataArray>
      </Points>
      <Polys>
        <DataArray type="Int32" Name="connectivity" format="ascii">
      0      1      2      3
      4      5      6      7
      7      6      1      0
      6      5      2      1
      5      4      3      2
      4      7      0      3
        </DataArray>
        <DataArray type="Int32" Name="offsets" format="ascii">
      4
      8
     12
     16
     20
     24
        </DataArray>
      </Polys>
    </Piece>
  </PolyData>
</VTKFile>
