<?xml version="1.0"?>
<VTKFile type="PolyData" version="0.1" byte_order="LittleEndian">
  <PolyData>
    <Piece NumberOfPoints="     19" NumberOfVerts="  0" NumberOfLines="     18"
           NumberOfStrips="  0" NumberOfPolys="      0">
      <Points>
        <DataArray type="Float32" NumberOfComponents="3" format="ascii">
                      -4.76504                      -1.26121                      90.94236
                      -4.74953                      -2.34032                      91.78102
                      -4.77025                      -4.55004                      93.39329
                      -4.81317                      -6.78535                      94.97322
                      -4.87590                      -9.59672                      96.92637
                      -4.84119                     -12.90261                      99.35445
                      -4.72432                     -16.14367                     101.86392
                      -4.59122                     -19.38893                     104.36735
                      -4.43696                     -22.63793                     106.86497
                      -4.26140                     -25.89152                     109.35540
                      -4.06622                     -29.15131                     111.83637
                      -3.85014                     -32.41618                     114.30909
                      -3.61468                     -35.68546                     116.77432
                      -3.36250                     -38.95838                     119.23309
                      -3.09521                     -42.23452                     121.68585
                      -2.86398                     -44.96655                     123.72614
                      -2.67341                     -47.14835                     125.36254
                      -2.46276                     -49.29906                     127.03862
                      -2.37411                     -50.39805                     127.84611
        </DataArray>
      </Points>
      <PointData>
        <DataArray type="Float32" Name="TranslationalVelocity" NumberOfComponents="3" format="ascii">
                      -0.12844                      -1.16753                      -1.49152
                      -0.25270                      -2.22831                      -2.85412
                      -0.50783                      -4.26217                      -5.64487
                      -0.76685                      -6.25316                      -8.46876
                      -1.09420                      -8.71408                     -12.02176
                      -1.48183                     -11.78773                     -16.20171
                      -1.86561                     -14.97532                     -20.30144
                      -2.25466                     -18.15846                     -24.40781
                      -2.64994                     -21.33772                     -28.51965
                      -3.05263                     -24.51101                     -32.63738
                      -3.46395                     -27.67488                     -36.76236
                      -3.88468                     -30.83061                     -40.89245
                      -4.31553                     -33.97861                     -45.02619
                      -4.75697                     -37.11960                     -49.16209
                      -5.20928                     -40.25376                     -53.29924
                      -5.59461                     -42.86108                     -56.74693
                      -5.90732                     -44.95243                     -59.49882
                      -6.22031                     -47.09622                     -62.21013
                      -6.38134                     -48.12718                     -63.59533
        </DataArray>
        <DataArray type="Float32" Name="RotationalVelocity" NumberOfComponents="3" format="ascii">
                       1.26257                       0.00040                      -0.11542
                       1.26269                       0.00045                      -0.11557
                       1.26300                       0.00047                      -0.11589
                       1.26336                       0.00037                      -0.11624
                       1.26386                       0.00016                      -0.11676
                       1.26444                      -0.00020                      -0.11752
                       1.26494                      -0.00063                      -0.11848
                       1.26530                      -0.00112                      -0.11965
                       1.26548                      -0.00166                      -0.12109
                       1.26547                      -0.00227                      -0.12280
                       1.26525                      -0.00297                      -0.12478
                       1.26483                      -0.00376                      -0.12700
                       1.26425                      -0.00465                      -0.12941
                       1.26355                      -0.00561                      -0.13191
                       1.26279                      -0.00661                      -0.13437
                       1.26215                      -0.00742                      -0.13628
                       1.26168                      -0.00801                      -0.13760
                       1.26128                      -0.00851                      -0.13867
                       1.26111                      -0.00871                      -0.13908
        </DataArray>
        <DataArray type="Float32" Name="TranslationalAcceleration" NumberOfComponents="3" format="ascii">
                      -0.14243                       1.93711                      -1.46524
                      -0.16455                       2.31385                      -1.77478
                      -0.46059                       6.70219                      -4.96719
                      -0.72795                      10.78358                      -7.83751
                      -1.03845                      15.58745                     -11.13578
                      -1.40798                      20.95400                     -15.01657
                      -1.78636                      26.08637                     -18.93113
                      -2.17168                      31.21941                     -22.82135
                      -2.57050                      36.41645                     -26.73580
                      -2.98531                      41.69830                     -30.68646
                      -3.41510                      47.05470                     -34.65998
                      -3.85681                      52.45153                     -38.63510
                      -4.30546                      57.84901                     -42.58537
                      -4.75509                      63.21372                     -46.49018
                      -5.19970                      68.53220                     -50.34354
                      -5.56282                      72.94057                     -53.52841
                      -5.84801                      76.46583                     -56.08825
                      -6.13690                      79.97881                     -58.74454
                      -6.27399                      81.79943                     -60.04171
        </DataArray>
        <DataArray type="Float32" Name="OrientationX" NumberOfComponents="3" format="ascii">
                       0.83411                      -0.33119                      -0.44111
                       0.83410                      -0.33089                      -0.44134
                       0.83407                      -0.32998                      -0.44209
                       0.83400                      -0.32868                      -0.44318
                       0.83387                      -0.32662                      -0.44495
                       0.85081                      -0.30691                      -0.42653
                       0.86229                      -0.29127                      -0.41427
                       0.87172                      -0.27682                      -0.40433
                       0.88112                      -0.26156                      -0.39398
                       0.89017                      -0.24592                      -0.38357
                       0.89805                      -0.23107                      -0.37432
                       0.90526                      -0.21665                      -0.36546
                       0.91117                      -0.20382                      -0.35809
                       0.91491                      -0.19427                      -0.35385
                       0.91840                      -0.18582                      -0.34931
                       0.92132                      -0.17965                      -0.34481
                       0.92350                      -0.17580                      -0.34095
                       0.92434                      -0.17496                      -0.33911
                       0.92398                      -0.17614                      -0.33946
        </DataArray>
        <DataArray type="Float32" Name="OrientationY" NumberOfComponents="3" format="ascii">
                       0.55145                       0.51895                       0.65314
                       0.55146                       0.51888                       0.65319
                       0.55149                       0.51872                       0.65329
                       0.55156                       0.51856                       0.65336
                       0.55169                       0.51838                       0.65340
                       0.52507                       0.52828                       0.66725
                       0.50583                       0.53493                       0.67675
                       0.48915                       0.54038                       0.68463
                       0.47168                       0.54578                       0.69256
                       0.45395                       0.55092                       0.70030
                       0.43764                       0.55534                       0.70715
                       0.42192                       0.55929                       0.71356
                       0.40837                       0.56244                       0.71896
                       0.39928                       0.56438                       0.72253
                       0.39063                       0.56609                       0.72592
                       0.38338                       0.56743                       0.72873
                       0.37801                       0.56837                       0.73080
                       0.37603                       0.56867                       0.73159
                       0.37701                       0.56845                       0.73125
        </DataArray>
        <DataArray type="Float32" Name="OrientationZ" NumberOfComponents="3" format="ascii">
                       0.01260                      -0.78804                       0.61550
                       0.01287                      -0.78821                       0.61527
                       0.01375                      -0.78870                       0.61463
                       0.01507                      -0.78935                       0.61376
                       0.01724                      -0.79032                       0.61245
                       0.02054                      -0.79166                       0.61062
                       0.02449                      -0.79310                       0.60860
                       0.02897                      -0.79458                       0.60646
                       0.03388                      -0.79606                       0.60427
                       0.03910                      -0.79750                       0.60205
                       0.04447                      -0.79888                       0.59985
                       0.04981                      -0.80016                       0.59772
                       0.05487                      -0.80132                       0.59571
                       0.05934                      -0.80233                       0.59392
                       0.06285                      -0.80313                       0.59248
                       0.06474                      -0.80359                       0.59165
                       0.06531                      -0.80377                       0.59134
                       0.06484                      -0.80375                       0.59143
                       0.06416                      -0.80364                       0.59164
        </DataArray>
        <DataArray type="Float32" Name="Force" NumberOfComponents="3" format="ascii">
                       0.86552                       7.41891                       9.48091
                     455.32762                      54.54867                      60.30995
                     532.08652                     117.95294                     139.09647
                     439.69945                     141.03983                     169.77921
                    2258.86886                   -1139.69901                   -1524.46051
                    2814.64653                   -1496.57428                   -2014.30096
                    2924.30239                   -1334.54632                   -1830.94970
                    3124.41645                   -1229.60246                   -1729.27667
                    2874.78100                    -981.14488                   -1423.10692
                    2704.31785                    -811.29444                   -1219.93419
                    2912.76374                    -771.96682                   -1210.25757
                    2781.24954                    -656.13527                   -1077.19518
                    2539.56945                    -546.58495                    -938.21692
                    2168.40181                    -415.54948                    -751.97856
                    1794.66727                    -307.02749                    -585.68865
                    1504.76322                    -233.63575                    -465.31327
                    1217.15288                    -172.79948                    -356.71049
                     615.58783                     -75.14136                    -164.10989
                   -5728.61026                     415.11178                    1153.81020
        </DataArray>
        <DataArray type="Float32" Name="Moment" NumberOfComponents="3" format="ascii">
                       0.00000                       0.00000                       0.00000
                       0.00000                       0.00000                       0.00000
                       0.00000                       0.00000                       0.00000
                       0.00000                       0.00000                       0.00000
                     -15.19296                     684.74586                    -534.43371
                     -20.39200                     767.81063                    -598.95813
                     -35.08934                    1104.75852                    -861.28159
                     -57.38362                    1524.17815                   -1187.44650
                     -84.88059                    1925.54700                   -1499.01154
                    -103.72719                    2037.88817                   -1585.19914
                    -123.11367                    2125.99910                   -1652.37704
                    -141.03160                    2174.27223                   -1688.51551
                    -117.89698                    1649.99700                   -1280.37672
                    -121.93402                    1577.80094                   -1223.51401
                    -122.13942                    1492.13591                   -1156.46149
                    -117.76906                    1396.55036                   -1082.06379
                    -104.41810                    1227.24454                    -950.79907
                     -51.45413                     609.00245                    -471.85339
                      12.14198                    -145.22738                     112.53347
        </DataArray>
      </PointData>
      <Lines>
        <DataArray type="Int32" Name="connectivity" format="ascii">
      0      1
      1      2
      2      3
      3      4
      4      5
      5      6
      6      7
      7      8
      8      9
      9     10
     10     11
     11     12
     12     13
     13     14
     14     15
     15     16
     16     17
     17     18
        </DataArray>
        <DataArray type="Int32" Name="offsets" format="ascii">
      2
      4
      6
      8
     10
     12
     14
     16
     18
     20
     22
     24
     26
     28
     30
     32
     34
     36
        </DataArray>
      </Lines>
    </Piece>
  </PolyData>
</VTKFile>
