<?xml version="1.0"?>
<VTKFile type="PolyData" version="0.1" byte_order="LittleEndian">
  <PolyData>
    <Piece NumberOfPoints="    550" NumberOfVerts="  0" NumberOfLines="     21"
           NumberOfStrips="  0" NumberOfPolys="    567">
      <Points>
        <DataArray type="Float32" NumberOfComponents="3" format="ascii">
                       2.97347                      -0.00003                       2.18974
                       2.88005                       0.73942                       2.18977
                       2.60568                       1.43241                       2.18981
                       2.16759                       2.03539                       2.18986
                       1.59330                       2.51048                       2.18993
                       0.91891                       2.82782                       2.18999
                       0.18679                       2.96748                       2.19006
                      -0.55706                       2.92068                       2.19012
                      -1.26591                       2.69036                       2.19018
                      -1.89521                       2.29100                       2.19022
                      -2.40542                       1.74768                       2.19025
                      -2.76448                       1.09455                       2.19026
                      -2.94984                       0.37264                       2.19026
                      -2.94984                      -0.37269                       2.19024
                      -2.76448                      -1.09460                       2.19021
                      -2.40542                      -1.74773                       2.19016
                      -1.89521                      -2.29105                       2.19011
                      -1.26591                      -2.69042                       2.19004
                      -0.55706                      -2.92074                       2.18998
                       0.18679                      -2.96754                       2.18991
                       0.91891                      -2.82788                       2.18985
                       1.59330                      -2.51053                       2.18980
                       2.16759                      -2.03544                       2.18976
                       2.60568                      -1.43246                       2.18974
                       2.88005                      -0.73948                       2.18973
                       2.92104                      -0.00024                       6.56913
                       2.82930                       0.72597                       6.56921
                       2.55984                       1.40655                       6.56934
                       2.12960                       1.99873                       6.56951
                       1.56560                       2.46531                       6.56971
                       0.90328                       2.77697                       6.56992
                       0.18427                       2.91413                       6.57015
                      -0.54626                       2.86817                       6.57036
                      -1.24241                       2.64197                       6.57055
                      -1.86044                       2.24976                       6.57071
                      -2.36152                       1.71617                       6.57082
                      -2.71415                       1.07473                       6.57088
                      -2.89618                       0.36575                       6.57089
                      -2.89618                      -0.36622                       6.57084
                      -2.71415                      -1.07521                       6.57073
                      -2.36151                      -1.71664                       6.57058
                      -1.86044                      -2.25023                       6.57040
                      -1.24241                      -2.64244                       6.57019
                      -0.54626                      -2.86864                       6.56996
                       0.18427                      -2.91460                       6.56974
                       0.90328                      -2.77744                       6.56954
                       1.56560                      -2.46578                       6.56936
                       2.12959                      -1.99920                       6.56923
                       2.55984                      -1.40702                       6.56914
                       2.82930                      -0.72644                       6.56911
                       2.86962                      -0.00063                      10.94845
                       2.77955                       0.71233                      10.94858
                       2.51501                       1.38049                      10.94880
                       2.09261                       1.96188                      10.94909
                       1.53889                       2.41995                      10.94944
                       0.88866                       2.72593                      10.94983
                       0.18276                       2.86058                      10.95022
                      -0.53445                       2.81546                      10.95061
                      -1.21791                       2.59339                      10.95095
                      -1.82467                       2.20833                      10.95124
                      -2.31660                       1.68447                      10.95144
                      -2.66281                       1.05473                      10.95156
                      -2.84152                       0.35868                      10.95158
                      -2.84152                      -0.35995                      10.95150
                      -2.66281                      -1.05600                      10.95132
                      -2.31660                      -1.68574                      10.95107
                      -1.82467                      -2.20960                      10.95074
                      -1.21791                      -2.59466                      10.95037
                      -0.53445                      -2.81673                      10.94997
                       0.18276                      -2.86185                      10.94958
                       0.88866                      -2.72719                      10.94921
                       1.53889                      -2.42122                      10.94890
                       2.09261                      -1.96315                      10.94865
                       2.51501                      -1.38176                      10.94849
                       2.77955                      -0.71360                      10.94842
                       2.81929                      -0.00122                      15.32776
                       2.73090                       0.69850                      15.32794
                       2.47127                       1.35426                      15.32825
                       2.05671                       1.92484                      15.32867
                       1.51329                       2.37440                      15.32917
                       0.87513                       2.67470                      15.32972
                       0.18234                       2.80685                      15.33029
                      -0.52155                       2.76257                      15.33085
                      -1.19231                       2.54463                      15.33135
                      -1.78780                       2.16672                      15.33176
                      -2.27060                       1.65259                      15.33206
                      -2.61037                       1.03455                      15.33224
                      -2.78577                       0.35142                      15.33227
                      -2.78577                      -0.35386                      15.33216
                      -2.61037                      -1.03698                      15.33192
                      -2.27060                      -1.65503                      15.33155
                      -1.78780                      -2.16915                      15.33109
                      -1.19231                      -2.54706                      15.33056
                      -0.52155                      -2.76501                      15.32999
                       0.18234                      -2.80929                      15.32942
                       0.87513                      -2.67713                      15.32889
                       1.51329                      -2.37684                      15.32843
                       2.05671                      -1.92728                      15.32807
                       2.47127                      -1.35669                      15.32783
                       2.73090                      -0.70094                      15.32772
                       2.77008                      -0.00199                      19.70710
                       2.68336                       0.68448                      19.70733
                       2.42865                       1.32783                      19.70773
                       2.02194                       1.88761                      19.70826
                       1.48879                       2.32867                      19.70891
                       0.86271                       2.62328                      19.70963
                       0.18304                       2.75293                      19.71037
                      -0.50753                       2.70949                      19.71108
                      -1.16560                       2.49567                      19.71173
                      -1.74982                       2.12491                      19.71227
                      -2.22348                       1.62051                      19.71266
                      -2.55682                       1.01417                      19.71289
                      -2.72890                       0.34397                      19.71294
                      -2.72890                      -0.34796                      19.71280
                      -2.55682                      -1.01816                      19.71248
                      -2.22348                      -1.62450                      19.71201
                      -1.74982                      -2.12890                      19.71142
                      -1.16560                      -2.49966                      19.71073
                      -0.50753                      -2.71348                      19.71000
                       0.18304                      -2.75692                      19.70926
                       0.86271                      -2.62727                      19.70858
                       1.48879                      -2.33266                      19.70798
                       2.02194                      -1.89160                      19.70751
                       2.42864                      -1.33182                      19.70719
                       2.68336                      -0.68847                      19.70705
                       2.72197                      -0.00298                      24.08649
                       2.63692                       0.67025                      24.08676
                       2.38712                       1.30118                      24.08725
                       1.98826                       1.85017                      24.08790
                       1.46540                       2.28272                      24.08869
                       0.85140                       2.57165                      24.08956
                       0.18483                       2.69880                      24.09045
                      -0.49241                       2.65619                      24.09132
                      -1.13779                       2.44650                      24.09210
                      -1.71074                       2.08289                      24.09275
                      -2.17526                       1.58822                      24.09323
                      -2.50217                       0.99358                      24.09351
                      -2.67093                       0.33631                      24.09356
                      -2.67093                      -0.34228                      24.09339
                      -2.50217                      -0.99954                      24.09300
                      -2.17526                      -1.59419                      24.09243
                      -1.71074                      -2.08886                      24.09170
                      -1.13779                      -2.45246                      24.09087
                      -0.49242                      -2.66216                      24.08998
                       0.18483                      -2.70477                      24.08909
                       0.85140                      -2.57761                      24.08826
                       1.46540                      -2.28868                      24.08754
                       1.98826                      -1.85614                      24.08697
                       2.38712                      -1.30715                      24.08659
                       2.63692                      -0.67622                      24.08643
                       2.67492                      -0.00421                      28.46591
                       2.59155                       0.65578                      28.46625
                       2.34666                       1.27430                      28.46682
                       1.95564                       1.81249                      28.46758
                       1.44307                       2.23653                      28.46850
                       0.84114                       2.51978                      28.46951
                       0.18769                       2.64443                      28.47055
                      -0.47623                       2.60266                      28.47156
                      -1.10891                       2.39709                      28.47247
                      -1.67059                       2.04064                      28.47322
                      -2.12598                       1.55570                      28.47377
                      -2.44646                       0.97275                      28.47408
                      -2.61189                       0.32841                      28.47413
                      -2.61189                      -0.33683                      28.47393
                      -2.44646                      -0.98117                      28.47347
                      -2.12598                      -1.56412                      28.47280
                      -1.67059                      -2.04906                      28.47195
                      -1.10891                      -2.40551                      28.47098
                      -0.47624                      -2.61108                      28.46994
                       0.18769                      -2.65285                      28.46891
                       0.84114                      -2.52819                      28.46795
                       1.44307                      -2.24495                      28.46711
                       1.95564                      -1.82091                      28.46646
                       2.34666                      -1.28272                      28.46602
                       2.59155                      -0.66420                      28.46584
                       2.62891                      -0.00571                      32.84538
                       2.54721                       0.64104                      32.84577
                       2.30723                       1.24715                      32.84642
                       1.92406                       1.77454                      32.84730
                       1.42177                       2.19007                      32.84834
                       0.83193                       2.46763                      32.84949
                       0.19158                       2.58978                      32.85067
                      -0.45902                       2.54885                      32.85181
                      -1.07900                       2.34740                      32.85283
                      -1.62941                       1.99810                      32.85367
                      -2.07566                       1.52290                      32.85428
                      -2.38971                       0.95164                      32.85462
                      -2.55183                       0.32023                      32.85467
                      -2.55183                      -0.33166                      32.85442
                      -2.38971                      -0.96307                      32.85390
                      -2.07566                      -1.53432                      32.85313
                      -1.62941                      -2.00953                      32.85216
                      -1.07900                      -2.35883                      32.85105
                      -0.45902                      -2.56027                      32.84988
                       0.19158                      -2.60120                      32.84871
                       0.83192                      -2.47905                      32.84763
                       1.42177                      -2.20149                      32.84669
                       1.92406                      -1.78596                      32.84596
                       2.30723                      -1.25857                      32.84548
                       2.54721                      -0.65246                      32.84528
                       2.58392                      -0.00753                      37.22487
                       2.50389                       0.62598                      37.22532
                       2.26883                       1.21968                      37.22606
                       1.89350                       1.73627                      37.22705
                       1.40150                       2.14329                      37.22822
                       0.82373                       2.41517                      37.22950
                       0.19650                       2.53482                      37.23081
                      -0.44078                       2.49473                      37.23206
                      -1.04807                       2.29741                      37.23319
                      -1.58720                       1.95526                      37.23412
                      -2.02432                       1.48978                      37.23478
                      -2.33193                       0.93022                      37.23514
                      -2.49073                       0.31174                      37.23518
                      -2.49073                      -0.32680                      37.23489
                      -2.33194                      -0.94528                      37.23429
                      -2.02432                      -1.50484                      37.23342
                      -1.58721                      -1.97031                      37.23234
                      -1.04807                      -2.31246                      37.23110
                      -0.44078                      -2.50978                      37.22980
                       0.19650                      -2.54987                      37.22850
                       0.82373                      -2.43022                      37.22730
                       1.40150                      -2.15835                      37.22627
                       1.89350                      -1.75132                      37.22546
                       2.26883                      -1.23473                      37.22495
                       2.50389                      -0.64103                      37.22474
                       2.53996                      -0.00970                      41.60437
                       2.46161                       0.61057                      41.60488
                       2.23146                       1.19186                      41.60571
                       1.86398                       1.69765                      41.60681
                       1.38226                       2.09616                      41.60810
                       0.81657                       2.36236                      41.60952
                       0.20245                       2.47951                      41.61096
                      -0.42151                       2.44025                      41.61233
                      -1.01610                       2.24705                      41.61356
                      -1.54397                       1.91206                      41.61456
                      -1.97194                       1.45631                      41.61528
                      -2.27313                       0.90845                      41.61566
                      -2.42861                       0.30290                      41.61568
                      -2.42861                      -0.32229                      41.61534
                      -2.27313                      -0.92785                      41.61467
                      -1.97194                      -1.47571                      41.61370
                      -1.54397                      -1.93145                      41.61249
                      -1.01610                      -2.26645                      41.61113
                      -0.42151                      -2.45964                      41.60969
                       0.20245                      -2.49890                      41.60827
                       0.81657                      -2.38175                      41.60696
                       1.38226                      -2.11556                      41.60583
                       1.86398                      -1.71704                      41.60497
                       2.23146                      -1.21125                      41.60442
                       2.46160                      -0.62996                      41.60421
                       2.49707                      -0.01226                      45.98387
                       2.42039                       0.59476                      45.98445
                       2.19516                       1.16364                      45.98537
                       1.83552                       1.65863                      45.98658
                       1.36409                       2.04863                      45.98800
                       0.81048                       2.30915                      45.98954
                       0.20947                       2.42379                      45.99112
                      -0.40117                       2.38537                      45.99261
                      -0.98306                       2.19630                      45.99394
                      -1.49966                       1.86846                      45.99502
                      -1.91850                       1.42244                      45.99578
                      -2.21325                       0.88628                      45.99618
                      -2.36541                       0.29366                      45.99618
                      -2.36541                      -0.31819                      45.99579
                      -2.21326                      -0.91081                      45.99504
                      -1.91850                      -1.44698                      45.99396
                      -1.49966                      -1.89299                      45.99263
                      -0.98307                      -2.22084                      45.99114
                      -0.40117                      -2.40991                      45.98957
                       0.20947                      -2.44832                      45.98802
                       0.81047                      -2.33367                      45.98660
                       1.36409                      -2.07316                      45.98538
                       1.83552                      -1.68316                      45.98446
                       2.19515                      -1.18816                      45.98387
                       2.42039                      -0.61928                      45.98367
                       2.45531                      -0.01527                      50.36336
                       2.38030                       0.57851                      50.36400
                       2.15998                       1.13498                      50.36502
                       1.80819                       1.61917                      50.36635
                       1.34704                       2.00067                      50.36790
                       0.80551                       2.25550                      50.36958
                       0.21761                       2.36764                      50.37128
                      -0.37970                       2.33006                      50.37290
                      -0.94890                       2.14512                      50.37433
                      -1.45423                       1.82442                      50.37549
                      -1.86393                       1.38814                      50.37629
                      -2.15226                       0.86367                      50.37670
                      -2.30110                       0.28398                      50.37668
                      -2.30110                      -0.31452                      50.37624
                      -2.15226                      -0.89422                      50.37540
                      -1.86393                      -1.41868                      50.37422
                      -1.45423                      -1.85497                      50.37277
                      -0.94891                      -2.17566                      50.37114
                      -0.37971                      -2.36060                      50.36943
                       0.21761                      -2.39818                      50.36776
                       0.80550                      -2.28604                      50.36622
                       1.34704                      -2.03121                      50.36492
                       1.80819                      -1.64971                      50.36393
                       2.15997                      -1.16552                      50.36332
                       2.38030                      -0.60905                      50.36312
                       2.41473                      -0.01874                      54.74283
                       2.34139                       0.56179                      54.74355
                       2.12598                       1.10585                      54.74467
                       1.78204                       1.57925                      54.74611
                       1.33118                       1.95223                      54.74780
                       0.80172                       2.20138                      54.74961
                       0.22694                       2.31102                      54.75145
                      -0.35705                       2.27428                      54.75319
                      -0.91356                       2.09346                      54.75472
                      -1.40761                       1.77992                      54.75596
                      -1.80818                       1.35336                      54.75681
                      -2.09007                       0.84059                      54.75723
                      -2.23559                       0.27383                      54.75719
                      -2.23559                      -0.31132                      54.75669
                      -2.09007                      -0.87809                      54.75577
                      -1.80818                      -1.39086                      54.75448
                      -1.40762                      -1.81741                      54.75290
                      -0.91356                      -2.13095                      54.75114
                      -0.35706                      -2.31177                      54.74929
                       0.22694                      -2.34851                      54.74749
                       0.80172                      -2.23887                      54.74584
                       1.33118                      -1.98972                      54.74445
                       1.78204                      -1.61673                      54.74340
                       2.12598                      -1.14334                      54.74275
                       2.34139                      -0.59928                      54.74256
                       2.37539                      -0.02271                      59.12231
                       2.30373                       0.54458                      59.12310
                       2.09323                       1.07622                      59.12431
                       1.75714                       1.53882                      59.12587
                       1.31656                       1.90330                      59.12769
                       0.79918                       2.14676                      59.12964
                       0.23751                       2.25390                      59.13161
                      -0.33316                       2.21800                      59.13347
                      -0.87697                       2.04130                      59.13511
                      -1.35976                       1.73492                      59.13642
                      -1.75118                       1.31809                      59.13731
                      -2.02665                       0.81702                      59.13775
                      -2.16885                       0.26318                      59.13768
                      -2.16885                      -0.30862                      59.13713
                      -2.02665                      -0.86246                      59.13612
                      -1.75118                      -1.36353                      59.13473
                      -1.35976                      -1.78036                      59.13302
                      -0.87698                      -2.08674                      59.13112
                      -0.33316                      -2.26344                      59.12915
                       0.23751                      -2.29934                      59.12722
                       0.79918                      -2.19220                      59.12546
                       1.31656                      -1.94873                      59.12397
                       1.75713                      -1.58425                      59.12286
                       2.09323                      -1.12166                      59.12219
                       2.30372                      -0.59001                      59.12200
                       2.33732                      -0.02720                      63.50182
                       2.26733                       0.52685                      63.50267
                       2.06175                       1.04609                      63.50398
                       1.73350                       1.49789                      63.50565
                       1.30321                       1.85386                      63.50759
                       0.79791                       2.09163                      63.50967
                       0.24935                       2.19628                      63.51176
                      -0.30800                       2.16121                      63.51374
                      -0.83911                       1.98864                      63.51547
                      -1.31063                       1.68940                      63.51685
                      -1.69291                       1.28231                      63.51779
                      -1.96195                       0.79293                      63.51823
                      -2.10083                       0.25202                      63.51814
                      -2.10083                      -0.30643                      63.51754
                      -1.96195                      -0.84734                      63.51645
                      -1.69292                      -1.33672                      63.51495
                      -1.31063                      -1.74381                      63.51313
                      -0.83912                      -2.04304                      63.51110
                      -0.30800                      -2.21562                      63.50900
                       0.24934                      -2.25068                      63.50695
                       0.79790                      -2.14603                      63.50508
                       1.30320                      -1.90826                      63.50352
                       1.73350                      -1.55228                      63.50235
                       2.06175                      -1.10049                      63.50165
                       2.26733                      -0.58125                      63.50147
                       2.30049                      -0.03219                      67.88139
                       2.23217                       0.50861                      67.88230
                       2.03150                       1.01544                      67.88369
                       1.71110                       1.45644                      67.88546
                       1.29110                       1.80390                      67.88750
                       0.79787                       2.03599                      67.88970
                       0.26243                       2.13813                      67.89190
                      -0.28160                       2.10391                      67.89397
                      -0.80002                       1.93546                      67.89578
                      -1.26027                       1.64337                      67.89722
                      -1.63341                       1.24601                      67.89819
                      -1.89602                       0.76833                      67.89864
                      -2.03158                       0.24035                      67.89853
                      -2.03158                      -0.30476                      67.89788
                      -1.89602                      -0.83274                      67.89672
                      -1.63342                      -1.31041                      67.89513
                      -1.26027                      -1.70778                      67.89320
                      -0.80003                      -1.99986                      67.89107
                      -0.28161                      -2.16830                      67.88885
                       0.26242                      -2.20253                      67.88670
                       0.79786                      -2.10039                      67.88474
                       1.29109                      -1.86829                      67.88310
                       1.71110                      -1.52083                      67.88189
                       2.03150                      -1.07983                      67.88117
                       2.23217                      -0.57300                      67.88100
                       2.26477                      -0.03768                      72.26107
                       2.19812                       0.48988                      72.26203
                       2.00237                       0.98429                      72.26348
                       1.68982                       1.41449                      72.26533
                       1.28009                       1.75345                      72.26746
                       0.79895                       1.97986                      72.26973
                       0.27662                       2.07950                      72.27201
                      -0.25409                       2.04611                      72.27415
                      -0.75982                       1.88178                      72.27602
                      -1.20879                       1.59685                      72.27749
                      -1.57280                       1.20922                      72.27848
                      -1.82898                       0.74323                      72.27892
                      -1.96122                       0.22818                      72.27879
                      -1.96122                      -0.30357                      72.27810
                      -1.82898                      -0.81862                      72.27688
                      -1.57281                      -1.28461                      72.27522
                      -1.20880                      -1.67224                      72.27321
                      -0.75983                      -1.95717                      72.27099
                      -0.25410                      -2.12149                      72.26870
                       0.27660                      -2.15488                      72.26647
                       0.79894                      -2.05523                      72.26446
                       1.28008                      -1.82882                      72.26277
                       1.68981                      -1.48987                      72.26153
                       2.00237                      -1.05966                      72.26081
                       2.19812                      -0.56525                      72.26065
                       2.22990                      -0.04363                      76.64092
                       2.16493                       0.47069                      76.64192
                       1.97409                       0.95269                      76.64342
                       1.66938                       1.37209                      76.64531
                       1.26995                       1.70254                      76.64748
                       0.80088                       1.92326                      76.64979
                       0.29166                       2.02040                      76.65210
                      -0.22572                       1.98785                      76.65426
                      -0.71876                       1.82765                      76.65614
                      -1.15646                       1.54987                      76.65761
                      -1.51133                       1.17197                      76.65860
                      -1.76108                       0.71768                      76.65902
                      -1.89000                       0.21556                      76.65887
                      -1.89000                      -0.30285                      76.65814
                      -1.76108                      -0.80497                      76.65688
                      -1.51134                      -1.25926                      76.65518
                      -1.15647                      -1.63716                      76.65313
                      -0.71877                      -1.91494                      76.65087
                      -0.22573                      -2.07513                      76.64854
                       0.29165                      -2.10768                      76.64629
                       0.80087                      -2.01054                      76.64425
                       1.26994                      -1.78981                      76.64256
                       1.66938                      -1.45936                      76.64132
                       1.97409                      -1.03996                      76.64061
                       2.16493                      -0.55796                      76.64048
                       2.19546                      -0.04998                      81.02104
                       2.13216                       0.45110                      81.02206
                       1.94624                       0.92069                      81.02356
                       1.64938                       1.32929                      81.02544
                       1.26023                       1.65123                      81.02759
                       0.80324                       1.86627                      81.02988
                       0.30713                       1.96091                      81.03215
                      -0.19693                       1.92920                      81.03427
                      -0.67727                       1.77312                      81.03610
                      -1.10371                       1.50249                      81.03753
                      -1.44944                       1.13432                      81.03847
                      -1.69276                       0.69173                      81.03886
                      -1.81836                       0.20254                      81.03867
                      -1.81836                      -0.30252                      81.03792
                      -1.69276                      -0.79172                      81.03665
                      -1.44945                      -1.23431                      81.03495
                      -1.10372                      -1.60248                      81.03291
                      -0.67728                      -1.87310                      81.03068
                      -0.19695                      -2.02917                      81.02838
                       0.30711                      -2.06088                      81.02617
                       0.80323                      -1.96624                      81.02417
                       1.26021                      -1.75120                      81.02253
                       1.64937                      -1.42926                      81.02134
                       1.94624                      -1.02065                      81.02067
                       2.13216                      -0.55106                      81.02057
                       2.16079                      -0.05664                      85.40152
                       2.09916                       0.43120                      85.40253
                       1.91815                       0.88838                      85.40399
                       1.62913                       1.28618                      85.40580
                       1.25027                       1.59961                      85.40786
                       0.80536                       1.80897                      85.41003
                       0.32236                       1.90111                      85.41218
                      -0.16838                       1.87023                      85.41416
                      -0.63603                       1.71828                      85.41587
                      -1.05119                       1.45481                      85.41718
                      -1.38779                       1.09636                      85.41802
                      -1.62467                       0.66547                      85.41834
                      -1.74696                       0.18921                      85.41811
                      -1.74696                      -0.30251                      85.41735
                      -1.62468                      -0.77877                      85.41611
                      -1.38780                      -1.20966                      85.41446
                      -1.05120                      -1.56810                      85.41251
                      -0.63604                      -1.83158                      85.41038
                      -0.16840                      -1.98352                      85.40820
                       0.32234                      -2.01439                      85.40612
                       0.80534                      -1.92226                      85.40426
                       1.25026                      -1.71289                      85.40274
                       1.62913                      -1.39946                      85.40165
                       1.91815                      -1.00166                      85.40107
                       2.09916                      -0.54447                      85.40102
                       2.14308                      -0.06005                      87.59193
                       2.08229                       0.42116                      87.59293
                       1.90374                       0.87214                      87.59434
                       1.61864                       1.26454                      87.59609
                       1.24492                       1.57372                      87.59806
                       0.80604                       1.78024                      87.60014
                       0.32960                       1.87112                      87.60217
                      -0.15448                       1.84066                      87.60405
                      -0.61578                       1.69078                      87.60566
                      -1.02531                       1.43088                      87.60688
                      -1.35734                       1.07730                      87.60765
                      -1.59101                       0.65226                      87.60792
                      -1.71163                       0.18246                      87.60766
                      -1.71163                      -0.30258                      87.60690
                      -1.59101                      -0.77238                      87.60569
                      -1.35734                      -1.19743                      87.60409
                      -1.02532                      -1.55100                      87.60222
                      -0.61579                      -1.81090                      87.60018
                      -0.15449                      -1.96078                      87.59811
                       0.32959                      -1.99124                      87.59613
                       0.80603                      -1.90035                      87.59438
                       1.24491                      -1.69383                      87.59295
                       1.61863                      -1.38465                      87.59195
                       1.90373                      -0.99224                      87.59143
                       2.08229                      -0.54127                      87.59142
                       3.00000                       0.00000                       0.00000
                       2.90575                       0.74607                       0.00000
                       2.62892                       1.44526                       0.00000
                       2.18691                       2.05364                       0.00000
                       1.60748                       2.53298                       0.00000
                       0.92705                       2.85317                       0.00000
                       0.18837                       2.99408                       0.00000
                      -0.56214                       2.94686                       0.00000
                      -1.27734                       2.71448                       0.00000
                      -1.91227                       2.31154                       0.00000
                      -2.42705                       1.76336                       0.00000
                      -2.78933                       1.10437                       0.00000
                      -2.97634                       0.37600                       0.00000
                      -2.97634                      -0.37600                       0.00000
                      -2.78933                      -1.10437                       0.00000
                      -2.42705                      -1.76336                       0.00000
                      -1.91227                      -2.31154                       0.00000
                      -1.27734                      -2.71448                       0.00000
                      -0.56214                      -2.94686                       0.00000
                       0.18837                      -2.99408                       0.00000
                       0.92705                      -2.85317                       0.00000
                       1.60748                      -2.53298                       0.00000
                       2.18691                      -2.05364                       0.00000
                       2.62892                      -1.44526                       0.00000
                       2.90575                      -0.74607                       0.00000
        </DataArray>
      </Points>
      <Polys>
        <DataArray type="Int32" Name="connectivity" format="ascii">
      0      1     26     25
      1      2     27     26
      2      3     28     27
      3      4     29     28
      4      5     30     29
      5      6     31     30
      6      7     32     31
      7      8     33     32
      8      9     34     33
      9     10     35     34
     10     11     36     35
     11     12     37     36
     12     13     38     37
     13     14     39     38
     14     15     40     39
     15     16     41     40
     16     17     42     41
     17     18     43     42
     18     19     44     43
     19     20     45     44
     20     21     46     45
     21     22     47     46
     22     23     48     47
     23     24     49     48
     24      0     25     49
     24     23     22     21     20     19     18     17     16     15     14     13     12     11     10      9      8      7      6      5      4      3      2      1      0
     25     26     27     28     29     30     31     32     33     34     35     36     37     38     39     40     41     42     43     44     45     46     47     48     49
     25     26     51     50
     26     27     52     51
     27     28     53     52
     28     29     54     53
     29     30     55     54
     30     31     56     55
     31     32     57     56
     32     33     58     57
     33     34     59     58
     34     35     60     59
     35     36     61     60
     36     37     62     61
     37     38     63     62
     38     39     64     63
     39     40     65     64
     40     41     66     65
     41     42     67     66
     42     43     68     67
     43     44     69     68
     44     45     70     69
     45     46     71     70
     46     47     72     71
     47     48     73     72
     48     49     74     73
     49     25     50     74
     49     48     47     46     45     44     43     42     41     40     39     38     37     36     35     34     33     32     31     30     29     28     27     26     25
     50     51     52     53     54     55     56     57     58     59     60     61     62     63     64     65     66     67     68     69     70     71     72     73     74
     50     51     76     75
     51     52     77     76
     52     53     78     77
     53     54     79     78
     54     55     80     79
     55     56     81     80
     56     57     82     81
     57     58     83     82
     58     59     84     83
     59     60     85     84
     60     61     86     85
     61     62     87     86
     62     63     88     87
     63     64     89     88
     64     65     90     89
     65     66     91     90
     66     67     92     91
     67     68     93     92
     68     69     94     93
     69     70     95     94
     70     71     96     95
     71     72     97     96
     72     73     98     97
     73     74     99     98
     74     50     75     99
     74     73     72     71     70     69     68     67     66     65     64     63     62     61     60     59     58     57     56     55     54     53     52     51     50
     75     76     77     78     79     80     81     82     83     84     85     86     87     88     89     90     91     92     93     94     95     96     97     98     99
     75     76    101    100
     76     77    102    101
     77     78    103    102
     78     79    104    103
     79     80    105    104
     80     81    106    105
     81     82    107    106
     82     83    108    107
     83     84    109    108
     84     85    110    109
     85     86    111    110
     86     87    112    111
     87     88    113    112
     88     89    114    113
     89     90    115    114
     90     91    116    115
     91     92    117    116
     92     93    118    117
     93     94    119    118
     94     95    120    119
     95     96    121    120
     96     97    122    121
     97     98    123    122
     98     99    124    123
     99     75    100    124
     99     98     97     96     95     94     93     92     91     90     89     88     87     86     85     84     83     82     81     80     79     78     77     76     75
    100    101    102    103    104    105    106    107    108    109    110    111    112    113    114    115    116    117    118    119    120    121    122    123    124
    100    101    126    125
    101    102    127    126
    102    103    128    127
    103    104    129    128
    104    105    130    129
    105    106    131    130
    106    107    132    131
    107    108    133    132
    108    109    134    133
    109    110    135    134
    110    111    136    135
    111    112    137    136
    112    113    138    137
    113    114    139    138
    114    115    140    139
    115    116    141    140
    116    117    142    141
    117    118    143    142
    118    119    144    143
    119    120    145    144
    120    121    146    145
    121    122    147    146
    122    123    148    147
    123    124    149    148
    124    100    125    149
    124    123    122    121    120    119    118    117    116    115    114    113    112    111    110    109    108    107    106    105    104    103    102    101    100
    125    126    127    128    129    130    131    132    133    134    135    136    137    138    139    140    141    142    143    144    145    146    147    148    149
    125    126    151    150
    126    127    152    151
    127    128    153    152
    128    129    154    153
    129    130    155    154
    130    131    156    155
    131    132    157    156
    132    133    158    157
    133    134    159    158
    134    135    160    159
    135    136    161    160
    136    137    162    161
    137    138    163    162
    138    139    164    163
    139    140    165    164
    140    141    166    165
    141    142    167    166
    142    143    168    167
    143    144    169    168
    144    145    170    169
    145    146    171    170
    146    147    172    171
    147    148    173    172
    148    149    174    173
    149    125    150    174
    149    148    147    146    145    144    143    142    141    140    139    138    137    136    135    134    133    132    131    130    129    128    127    126    125
    150    151    152    153    154    155    156    157    158    159    160    161    162    163    164    165    166    167    168    169    170    171    172    173    174
    150    151    176    175
    151    152    177    176
    152    153    178    177
    153    154    179    178
    154    155    180    179
    155    156    181    180
    156    157    182    181
    157    158    183    182
    158    159    184    183
    159    160    185    184
    160    161    186    185
    161    162    187    186
    162    163    188    187
    163    164    189    188
    164    165    190    189
    165    166    191    190
    166    167    192    191
    167    168    193    192
    168    169    194    193
    169    170    195    194
    170    171    196    195
    171    172    197    196
    172    173    198    197
    173    174    199    198
    174    150    175    199
    174    173    172    171    170    169    168    167    166    165    164    163    162    161    160    159    158    157    156    155    154    153    152    151    150
    175    176    177    178    179    180    181    182    183    184    185    186    187    188    189    190    191    192    193    194    195    196    197    198    199
    175    176    201    200
    176    177    202    201
    177    178    203    202
    178    179    204    203
    179    180    205    204
    180    181    206    205
    181    182    207    206
    182    183    208    207
    183    184    209    208
    184    185    210    209
    185    186    211    210
    186    187    212    211
    187    188    213    212
    188    189    214    213
    189    190    215    214
    190    191    216    215
    191    192    217    216
    192    193    218    217
    193    194    219    218
    194    195    220    219
    195    196    221    220
    196    197    222    221
    197    198    223    222
    198    199    224    223
    199    175    200    224
    199    198    197    196    195    194    193    192    191    190    189    188    187    186    185    184    183    182    181    180    179    178    177    176    175
    200    201    202    203    204    205    206    207    208    209    210    211    212    213    214    215    216    217    218    219    220    221    222    223    224
    200    201    226    225
    201    202    227    226
    202    203    228    227
    203    204    229    228
    204    205    230    229
    205    206    231    230
    206    207    232    231
    207    208    233    232
    208    209    234    233
    209    210    235    234
    210    211    236    235
    211    212    237    236
    212    213    238    237
    213    214    239    238
    214    215    240    239
    215    216    241    240
    216    217    242    241
    217    218    243    242
    218    219    244    243
    219    220    245    244
    220    221    246    245
    221    222    247    246
    222    223    248    247
    223    224    249    248
    224    200    225    249
    224    223    222    221    220    219    218    217    216    215    214    213    212    211    210    209    208    207    206    205    204    203    202    201    200
    225    226    227    228    229    230    231    232    233    234    235    236    237    238    239    240    241    242    243    244    245    246    247    248    249
    225    226    251    250
    226    227    252    251
    227    228    253    252
    228    229    254    253
    229    230    255    254
    230    231    256    255
    231    232    257    256
    232    233    258    257
    233    234    259    258
    234    235    260    259
    235    236    261    260
    236    237    262    261
    237    238    263    262
    238    239    264    263
    239    240    265    264
    240    241    266    265
    241    242    267    266
    242    243    268    267
    243    244    269    268
    244    245    270    269
    245    246    271    270
    246    247    272    271
    247    248    273    272
    248    249    274    273
    249    225    250    274
    249    248    247    246    245    244    243    242    241    240    239    238    237    236    235    234    233    232    231    230    229    228    227    226    225
    250    251    252    253    254    255    256    257    258    259    260    261    262    263    264    265    266    267    268    269    270    271    272    273    274
    250    251    276    275
    251    252    277    276
    252    253    278    277
    253    254    279    278
    254    255    280    279
    255    256    281    280
    256    257    282    281
    257    258    283    282
    258    259    284    283
    259    260    285    284
    260    261    286    285
    261    262    287    286
    262    263    288    287
    263    264    289    288
    264    265    290    289
    265    266    291    290
    266    267    292    291
    267    268    293    292
    268    269    294    293
    269    270    295    294
    270    271    296    295
    271    272    297    296
    272    273    298    297
    273    274    299    298
    274    250    275    299
    274    273    272    271    270    269    268    267    266    265    264    263    262    261    260    259    258    257    256    255    254    253    252    251    250
    275    276    277    278    279    280    281    282    283    284    285    286    287    288    289    290    291    292    293    294    295    296    297    298    299
    275    276    301    300
    276    277    302    301
    277    278    303    302
    278    279    304    303
    279    280    305    304
    280    281    306    305
    281    282    307    306
    282    283    308    307
    283    284    309    308
    284    285    310    309
    285    286    311    310
    286    287    312    311
    287    288    313    312
    288    289    314    313
    289    290    315    314
    290    291    316    315
    291    292    317    316
    292    293    318    317
    293    294    319    318
    294    295    320    319
    295    296    321    320
    296    297    322    321
    297    298    323    322
    298    299    324    323
    299    275    300    324
    299    298    297    296    295    294    293    292    291    290    289    288    287    286    285    284    283    282    281    280    279    278    277    276    275
    300    301    302    303    304    305    306    307    308    309    310    311    312    313    314    315    316    317    318    319    320    321    322    323    324
    300    301    326    325
    301    302    327    326
    302    303    328    327
    303    304    329    328
    304    305    330    329
    305    306    331    330
    306    307    332    331
    307    308    333    332
    308    309    334    333
    309    310    335    334
    310    311    336    335
    311    312    337    336
    312    313    338    337
    313    314    339    338
    314    315    340    339
    315    316    341    340
    316    317    342    341
    317    318    343    342
    318    319    344    343
    319    320    345    344
    320    321    346    345
    321    322    347    346
    322    323    348    347
    323    324    349    348
    324    300    325    349
    324    323    322    321    320    319    318    317    316    315    314    313    312    311    310    309    308    307    306    305    304    303    302    301    300
    325    326    327    328    329    330    331    332    333    334    335    336    337    338    339    340    341    342    343    344    345    346    347    348    349
    325    326    351    350
    326    327    352    351
    327    328    353    352
    328    329    354    353
    329    330    355    354
    330    331    356    355
    331    332    357    356
    332    333    358    357
    333    334    359    358
    334    335    360    359
    335    336    361    360
    336    337    362    361
    337    338    363    362
    338    339    364    363
    339    340    365    364
    340    341    366    365
    341    342    367    366
    342    343    368    367
    343    344    369    368
    344    345    370    369
    345    346    371    370
    346    347    372    371
    347    348    373    372
    348    349    374    373
    349    325    350    374
    349    348    347    346    345    344    343    342    341    340    339    338    337    336    335    334    333    332    331    330    329    328    327    326    325
    350    351    352    353    354    355    356    357    358    359    360    361    362    363    364    365    366    367    368    369    370    371    372    373    374
    350    351    376    375
    351    352    377    376
    352    353    378    377
    353    354    379    378
    354    355    380    379
    355    356    381    380
    356    357    382    381
    357    358    383    382
    358    359    384    383
    359    360    385    384
    360    361    386    385
    361    362    387    386
    362    363    388    387
    363    364    389    388
    364    365    390    389
    365    366    391    390
    366    367    392    391
    367    368    393    392
    368    369    394    393
    369    370    395    394
    370    371    396    395
    371    372    397    396
    372    373    398    397
    373    374    399    398
    374    350    375    399
    374    373    372    371    370    369    368    367    366    365    364    363    362    361    360    359    358    357    356    355    354    353    352    351    350
    375    376    377    378    379    380    381    382    383    384    385    386    387    388    389    390    391    392    393    394    395    396    397    398    399
    375    376    401    400
    376    377    402    401
    377    378    403    402
    378    379    404    403
    379    380    405    404
    380    381    406    405
    381    382    407    406
    382    383    408    407
    383    384    409    408
    384    385    410    409
    385    386    411    410
    386    387    412    411
    387    388    413    412
    388    389    414    413
    389    390    415    414
    390    391    416    415
    391    392    417    416
    392    393    418    417
    393    394    419    418
    394    395    420    419
    395    396    421    420
    396    397    422    421
    397    398    423    422
    398    399    424    423
    399    375    400    424
    399    398    397    396    395    394    393    392    391    390    389    388    387    386    385    384    383    382    381    380    379    378    377    376    375
    400    401    402    403    404    405    406    407    408    409    410    411    412    413    414    415    416    417    418    419    420    421    422    423    424
    400    401    426    425
    401    402    427    426
    402    403    428    427
    403    404    429    428
    404    405    430    429
    405    406    431    430
    406    407    432    431
    407    408    433    432
    408    409    434    433
    409    410    435    434
    410    411    436    435
    411    412    437    436
    412    413    438    437
    413    414    439    438
    414    415    440    439
    415    416    441    440
    416    417    442    441
    417    418    443    442
    418    419    444    443
    419    420    445    444
    420    421    446    445
    421    422    447    446
    422    423    448    447
    423    424    449    448
    424    400    425    449
    424    423    422    421    420    419    418    417    416    415    414    413    412    411    410    409    408    407    406    405    404    403    402    401    400
    425    426    427    428    429    430    431    432    433    434    435    436    437    438    439    440    441    442    443    444    445    446    447    448    449
    425    426    451    450
    426    427    452    451
    427    428    453    452
    428    429    454    453
    429    430    455    454
    430    431    456    455
    431    432    457    456
    432    433    458    457
    433    434    459    458
    434    435    460    459
    435    436    461    460
    436    437    462    461
    437    438    463    462
    438    439    464    463
    439    440    465    464
    440    441    466    465
    441    442    467    466
    442    443    468    467
    443    444    469    468
    444    445    470    469
    445    446    471    470
    446    447    472    471
    447    448    473    472
    448    449    474    473
    449    425    450    474
    449    448    447    446    445    444    443    442    441    440    439    438    437    436    435    434    433    432    431    430    429    428    427    426    425
    450    451    452    453    454    455    456    457    458    459    460    461    462    463    464    465    466    467    468    469    470    471    472    473    474
    450    451    476    475
    451    452    477    476
    452    453    478    477
    453    454    479    478
    454    455    480    479
    455    456    481    480
    456    457    482    481
    457    458    483    482
    458    459    484    483
    459    460    485    484
    460    461    486    485
    461    462    487    486
    462    463    488    487
    463    464    489    488
    464    465    490    489
    465    466    491    490
    466    467    492    491
    467    468    493    492
    468    469    494    493
    469    470    495    494
    470    471    496    495
    471    472    497    496
    472    473    498    497
    473    474    499    498
    474    450    475    499
    474    473    472    471    470    469    468    467    466    465    464    463    462    461    460    459    458    457    456    455    454    453    452    451    450
    475    476    477    478    479    480    481    482    483    484    485    486    487    488    489    490    491    492    493    494    495    496    497    498    499
    475    476    501    500
    476    477    502    501
    477    478    503    502
    478    479    504    503
    479    480    505    504
    480    481    506    505
    481    482    507    506
    482    483    508    507
    483    484    509    508
    484    485    510    509
    485    486    511    510
    486    487    512    511
    487    488    513    512
    488    489    514    513
    489    490    515    514
    490    491    516    515
    491    492    517    516
    492    493    518    517
    493    494    519    518
    494    495    520    519
    495    496    521    520
    496    497    522    521
    497    498    523    522
    498    499    524    523
    499    475    500    524
    499    498    497    496    495    494    493    492    491    490    489    488    487    486    485    484    483    482    481    480    479    478    477    476    475
    500    501    502    503    504    505    506    507    508    509    510    511    512    513    514    515    516    517    518    519    520    521    522    523    524
    525    526      1      0
    526    527      2      1
    527    528      3      2
    528    529      4      3
    529    530      5      4
    530    531      6      5
    531    532      7      6
    532    533      8      7
    533    534      9      8
    534    535     10      9
    535    536     11     10
    536    537     12     11
    537    538     13     12
    538    539     14     13
    539    540     15     14
    540    541     16     15
    541    542     17     16
    542    543     18     17
    543    544     19     18
    544    545     20     19
    545    546     21     20
    546    547     22     21
    547    548     23     22
    548    549     24     23
    549    525      0     24
    549    548    547    546    545    544    543    542    541    540    539    538    537    536    535    534    533    532    531    530    529    528    527    526    525
      0      1      2      3      4      5      6      7      8      9     10     11     12     13     14     15     16     17     18     19     20     21     22     23     24
        </DataArray>
        <DataArray type="Int32" Name="offsets" format="ascii">
      4
      8
     12
     16
     20
     24
     28
     32
     36
     40
     44
     48
     52
     56
     60
     64
     68
     72
     76
     80
     84
     88
     92
     96
    100
    125
    150
    154
    158
    162
    166
    170
    174
    178
    182
    186
    190
    194
    198
    202
    206
    210
    214
    218
    222
    226
    230
    234
    238
    242
    246
    250
    275
    300
    304
    308
    312
    316
    320
    324
    328
    332
    336
    340
    344
    348
    352
    356
    360
    364
    368
    372
    376
    380
    384
    388
    392
    396
    400
    425
    450
    454
    458
    462
    466
    470
    474
    478
    482
    486
    490
    494
    498
    502
    506
    510
    514
    518
    522
    526
    530
    534
    538
    542
    546
    550
    575
    600
    604
    608
    612
    616
    620
    624
    628
    632
    636
    640
    644
    648
    652
    656
    660
    664
    668
    672
    676
    680
    684
    688
    692
    696
    700
    725
    750
    754
    758
    762
    766
    770
    774
    778
    782
    786
    790
    794
    798
    802
    806
    810
    814
    818
    822
    826
    830
    834
    838
    842
    846
    850
    875
    900
    904
    908
    912
    916
    920
    924
    928
    932
    936
    940
    944
    948
    952
    956
    960
    964
    968
    972
    976
    980
    984
    988
    992
    996
   1000
   1025
   1050
   1054
   1058
   1062
   1066
   1070
   1074
   1078
   1082
   1086
   1090
   1094
   1098
   1102
   1106
   1110
   1114
   1118
   1122
   1126
   1130
   1134
   1138
   1142
   1146
   1150
   1175
   1200
   1204
   1208
   1212
   1216
   1220
   1224
   1228
   1232
   1236
   1240
   1244
   1248
   1252
   1256
   1260
   1264
   1268
   1272
   1276
   1280
   1284
   1288
   1292
   1296
   1300
   1325
   1350
   1354
   1358
   1362
   1366
   1370
   1374
   1378
   1382
   1386
   1390
   1394
   1398
   1402
   1406
   1410
   1414
   1418
   1422
   1426
   1430
   1434
   1438
   1442
   1446
   1450
   1475
   1500
   1504
   1508
   1512
   1516
   1520
   1524
   1528
   1532
   1536
   1540
   1544
   1548
   1552
   1556
   1560
   1564
   1568
   1572
   1576
   1580
   1584
   1588
   1592
   1596
   1600
   1625
   1650
   1654
   1658
   1662
   1666
   1670
   1674
   1678
   1682
   1686
   1690
   1694
   1698
   1702
   1706
   1710
   1714
   1718
   1722
   1726
   1730
   1734
   1738
   1742
   1746
   1750
   1775
   1800
   1804
   1808
   1812
   1816
   1820
   1824
   1828
   1832
   1836
   1840
   1844
   1848
   1852
   1856
   1860
   1864
   1868
   1872
   1876
   1880
   1884
   1888
   1892
   1896
   1900
   1925
   1950
   1954
   1958
   1962
   1966
   1970
   1974
   1978
   1982
   1986
   1990
   1994
   1998
   2002
   2006
   2010
   2014
   2018
   2022
   2026
   2030
   2034
   2038
   2042
   2046
   2050
   2075
   2100
   2104
   2108
   2112
   2116
   2120
   2124
   2128
   2132
   2136
   2140
   2144
   2148
   2152
   2156
   2160
   2164
   2168
   2172
   2176
   2180
   2184
   2188
   2192
   2196
   2200
   2225
   2250
   2254
   2258
   2262
   2266
   2270
   2274
   2278
   2282
   2286
   2290
   2294
   2298
   2302
   2306
   2310
   2314
   2318
   2322
   2326
   2330
   2334
   2338
   2342
   2346
   2350
   2375
   2400
   2404
   2408
   2412
   2416
   2420
   2424
   2428
   2432
   2436
   2440
   2444
   2448
   2452
   2456
   2460
   2464
   2468
   2472
   2476
   2480
   2484
   2488
   2492
   2496
   2500
   2525
   2550
   2554
   2558
   2562
   2566
   2570
   2574
   2578
   2582
   2586
   2590
   2594
   2598
   2602
   2606
   2610
   2614
   2618
   2622
   2626
   2630
   2634
   2638
   2642
   2646
   2650
   2675
   2700
   2704
   2708
   2712
   2716
   2720
   2724
   2728
   2732
   2736
   2740
   2744
   2748
   2752
   2756
   2760
   2764
   2768
   2772
   2776
   2780
   2784
   2788
   2792
   2796
   2800
   2825
   2850
   2854
   2858
   2862
   2866
   2870
   2874
   2878
   2882
   2886
   2890
   2894
   2898
   2902
   2906
   2910
   2914
   2918
   2922
   2926
   2930
   2934
   2938
   2942
   2946
   2950
   2975
   3000
   3004
   3008
   3012
   3016
   3020
   3024
   3028
   3032
   3036
   3040
   3044
   3048
   3052
   3056
   3060
   3064
   3068
   3072
   3076
   3080
   3084
   3088
   3092
   3096
   3100
   3125
   3150
        </DataArray>
      </Polys>
    </Piece>
  </PolyData>
</VTKFile>
