<?xml version="1.0"?>
<VTKFile type="PolyData" version="0.1" byte_order="LittleEndian">
  <PolyData>
    <Piece NumberOfPoints="    625" NumberOfVerts="  0" NumberOfLines="      0"
           NumberOfStrips="  0" NumberOfPolys="    600">
      <Points>
        <DataArray type="Float32" NumberOfComponents="3" format="ascii">
                      -4.91361                      -0.56426                      88.61093
                      -4.91361                      -0.56426                      88.61093
                      -4.91361                      -0.56426                      88.61093
                      -4.91361                      -0.56426                      88.61093
                      -4.91361                      -0.56426                      88.61093
                      -4.91361                      -0.56426                      88.61093
                      -4.91361                      -0.56426                      88.61093
                      -4.91361                      -0.56426                      88.61093
                      -4.91361                      -0.56426                      88.61093
                      -4.91361                      -0.56426                      88.61093
                      -4.91361                      -0.56426                      88.61093
                      -4.91361                      -0.56426                      88.61093
                      -4.91361                      -0.56426                      88.61093
                      -4.91361                      -0.56426                      88.61093
                      -4.91361                      -0.56426                      88.61093
                      -4.91361                      -0.56426                      88.61093
                      -4.91361                      -0.56426                      88.61093
                      -4.91361                      -0.56426                      88.61093
                      -4.91361                      -0.56426                      88.61093
                      -4.91361                      -0.56426                      88.61093
                      -4.91361                      -0.56426                      88.61093
                      -4.91361                      -0.56426                      88.61093
                      -4.91361                      -0.56426                      88.61093
                      -4.91361                      -0.56426                      88.61093
                      -4.91361                      -0.56426                      88.61093
                      -4.30590                      -0.52246                      88.67371
                      -4.32920                      -0.38192                      88.62588
                      -4.38855                      -0.25022                      88.58449
                      -4.48022                      -0.13563                      88.55213
                      -4.59845                      -0.04535                      88.53084
                      -4.73580                       0.01494                      88.52196
                      -4.88365                       0.04146                      88.52604
                      -5.03272                       0.03255                      88.54283
                      -5.17362                      -0.01125                      88.57127
                      -5.29751                      -0.08717                      88.60958
                      -5.39661                      -0.19044                      88.65534
                      -5.46469                      -0.31459                      88.70569
                      -5.49746                      -0.45180                      88.75745
                      -5.49288                      -0.59346                      88.80739
                      -5.45122                      -0.73066                      88.85235
                      -5.37511                      -0.85478                      88.88952
                      -5.26933                      -0.95803                      88.91655
                      -5.14053                      -1.03391                      88.93176
                      -4.99679                      -1.07767                      88.93418
                      -4.84715                      -1.08654                      88.92366
                      -4.70101                      -1.05998                      88.90087
                      -4.56756                      -0.99965                      88.86723
                      -4.45518                      -0.90933                      88.82486
                      -4.37093                      -0.79472                      88.77642
                      -4.32011                      -0.66300                      88.72496
                      -4.06645                      -0.48072                      88.77014
                      -4.09869                      -0.28634                      88.70400
                      -4.18077                      -0.10418                      88.64675
                      -4.30756                       0.05431                      88.60199
                      -4.47108                       0.17918                      88.57255
                      -4.66106                       0.26258                      88.56026
                      -4.86556                       0.29926                      88.56591
                      -5.07174                       0.28693                      88.58913
                      -5.26663                       0.22636                      88.62846
                      -5.43799                       0.12135                      88.68144
                      -5.57505                      -0.02150                      88.74474
                      -5.66921                      -0.19320                      88.81438
                      -5.71454                      -0.38298                      88.88598
                      -5.70820                      -0.57891                      88.95504
                      -5.65058                      -0.76868                      89.01723
                      -5.54532                      -0.94036                      89.06864
                      -5.39901                      -1.08316                      89.10603
                      -5.22085                      -1.18812                      89.12706
                      -5.02204                      -1.24864                      89.13041
                      -4.81507                      -1.26092                      89.11586
                      -4.61295                      -1.22417                      89.08434
                      -4.42837                      -1.14073                      89.03781
                      -4.27293                      -1.01581                      88.97921
                      -4.15640                      -0.85729                      88.91221
                      -4.08610                      -0.67511                      88.84104
                      -3.89341                      -0.43898                      88.87265
                      -3.93198                      -0.20639                      88.79350
                      -4.03020                       0.01158                      88.72500
                      -4.18192                       0.20123                      88.67145
                      -4.37758                       0.35064                      88.63621
                      -4.60491                       0.45043                      88.62151
                      -4.84961                       0.49433                      88.62826
                      -5.09632                       0.47957                      88.65605
                      -5.32952                       0.40709                      88.70312
                      -5.53457                       0.28144                      88.76651
                      -5.69858                       0.11052                      88.84226
                      -5.81124                      -0.09495                      88.92558
                      -5.86549                      -0.32204                      89.01126
                      -5.85790                      -0.55648                      89.09390
                      -5.78896                      -0.78355                      89.16831
                      -5.66299                      -0.98898                      89.22982
                      -5.48792                      -1.15986                      89.27457
                      -5.27474                      -1.28546                      89.29974
                      -5.03685                      -1.35787                      89.30374
                      -4.78920                      -1.37256                      89.28633
                      -4.54734                      -1.32859                      89.24861
                      -4.32647                      -1.22874                      89.19294
                      -4.14048                      -1.07927                      89.12282
                      -4.00104                      -0.88958                      89.04265
                      -3.91692                      -0.67159                      88.95748
                      -3.75733                      -0.39726                      88.97854
                      -3.80079                      -0.13515                      88.88935
                      -3.91148                       0.11047                      88.81215
                      -4.08245                       0.32418                      88.75181
                      -4.30294                       0.49255                      88.71210
                      -4.55911                       0.60500                      88.69554
                      -4.83485                       0.65447                      88.70315
                      -5.11286                       0.63784                      88.73446
                      -5.37565                       0.55617                      88.78750
                      -5.60671                       0.41457                      88.85894
                      -5.79153                       0.22196                      88.94429
                      -5.91849                      -0.00957                      89.03818
                      -5.97961                      -0.26547                      89.13473
                      -5.97106                      -0.52966                      89.22786
                      -5.89337                      -0.78554                      89.31171
                      -5.75143                      -1.01703                      89.38103
                      -5.55415                      -1.20959                      89.43145
                      -5.31392                      -1.35112                      89.45981
                      -5.04585                      -1.43272                      89.46432
                      -4.76677                      -1.44927                      89.44471
                      -4.49423                      -1.39973                      89.40220
                      -4.24534                      -1.28721                      89.33946
                      -4.03575                      -1.11878                      89.26044
                      -3.87862                      -0.90502                      89.17011
                      -3.78383                      -0.65937                      89.07413
                      -3.64671                      -0.35553                      89.08675
                      -3.69407                      -0.06991                      88.98956
                      -3.81469                       0.19775                      88.90544
                      -4.00100                       0.43064                      88.83968
                      -4.24127                       0.61412                      88.79641
                      -4.52043                       0.73666                      88.77836
                      -4.82092                       0.79056                      88.78665
                      -5.12386                       0.77244                      88.82077
                      -5.41023                       0.68344                      88.87857
                      -5.66202                       0.52914                      88.95642
                      -5.86342                       0.31924                      89.04943
                      -6.00178                       0.06694                      89.15175
                      -6.06839                      -0.21192                      89.25696
                      -6.05907                      -0.49981                      89.35844
                      -5.97441                      -0.77865                      89.44982
                      -5.81973                      -1.03092                      89.52536
                      -5.60475                      -1.24076                      89.58030
                      -5.34297                      -1.39498                      89.61120
                      -5.05084                      -1.48391                      89.61612
                      -4.74673                      -1.50194                      89.59475
                      -4.44973                      -1.44795                      89.54842
                      -4.17851                      -1.32533                      89.48006
                      -3.95011                      -1.14179                      89.39395
                      -3.77888                      -0.90885                      89.29551
                      -3.67559                      -0.64116                      89.19092
                      -3.55564                      -0.31381                      89.19676
                      -3.60614                      -0.00927                      89.09312
                      -3.73475                       0.27612                      89.00343
                      -3.93338                       0.52443                      88.93332
                      -4.18957                       0.72006                      88.88718
                      -4.48721                       0.85071                      88.86794
                      -4.80761                       0.90819                      88.87678
                      -5.13061                       0.88887                      88.91316
                      -5.43595                       0.79397                      88.97478
                      -5.70442                       0.62945                      89.05779
                      -5.91916                       0.40566                      89.15696
                      -6.06667                       0.13664                      89.26606
                      -6.13769                      -0.16069                      89.37823
                      -6.12776                      -0.46765                      89.48643
                      -6.03749                      -0.76495                      89.58387
                      -5.87257                      -1.03393                      89.66440
                      -5.64335                      -1.25766                      89.72299
                      -5.36423                      -1.42210                      89.75594
                      -5.05276                      -1.51691                      89.76118
                      -4.72850                      -1.53614                      89.73839
                      -4.41183                      -1.47858                      89.68900
                      -4.12265                      -1.34784                      89.61611
                      -3.87913                      -1.15214                      89.52430
                      -3.69656                      -0.90378                      89.41934
                      -3.58642                      -0.61835                      89.30782
                      -3.48063                      -0.27209                      89.30823
                      -3.53364                       0.04758                      89.19944
                      -3.66864                       0.34715                      89.10529
                      -3.87715                       0.60780                      89.03170
                      -4.14607                       0.81315                      88.98327
                      -4.45850                       0.95030                      88.96307
                      -4.79481                       1.01063                      88.97235
                      -5.13387                       0.99035                      89.01053
                      -5.45438                       0.89074                      89.07522
                      -5.73619                       0.71804                      89.16235
                      -5.96160                       0.48313                      89.26645
                      -6.11644                       0.20075                      89.38097
                      -6.19099                      -0.11136                      89.49872
                      -6.18057                      -0.43357                      89.61230
                      -6.08582                      -0.74565                      89.71457
                      -5.91270                      -1.02799                      89.79911
                      -5.67208                      -1.26284                      89.86061
                      -5.37910                      -1.43545                      89.89520
                      -5.05215                      -1.53498                      89.90070
                      -4.71178                      -1.55516                      89.87678
                      -4.37938                      -1.49474                      89.82493
                      -4.07582                      -1.35750                      89.74842
                      -3.82020                      -1.15208                      89.65204
                      -3.62856                      -0.89137                      89.54187
                      -3.51295                      -0.59177                      89.42481
                      -3.41950                      -0.23037                      89.42096
                      -3.47447                       0.10117                      89.30814
                      -3.61449                       0.41186                      89.21050
                      -3.83074                       0.68218                      89.13417
                      -4.10964                       0.89516                      89.08395
                      -4.43367                       1.03740                      89.06299
                      -4.78247                       1.09997                      89.07262
                      -5.13412                       1.07894                      89.11222
                      -5.46652                       0.97562                      89.17931
                      -5.75879                       0.79652                      89.26968
                      -5.99257                       0.55288                      89.37764
                      -6.15317                       0.26002                      89.49641
                      -6.23048                      -0.06367                      89.61853
                      -6.21967                      -0.39785                      89.73633
                      -6.12140                      -0.72152                      89.84240
                      -5.94185                      -1.01433                      89.93008
                      -5.69231                      -1.25791                      89.99385
                      -5.38845                      -1.43692                      90.02973
                      -5.04936                      -1.54014                      90.03544
                      -4.69635                      -1.56108                      90.01063
                      -4.35161                      -1.49841                      89.95685
                      -4.03679                      -1.35608                      89.87750
                      -3.77167                      -1.14303                      89.77755
                      -3.57292                      -0.87265                      89.66328
                      -3.45302                      -0.56192                      89.54188
                      -3.37078                      -0.18865                      89.53484
                      -3.42724                       0.15183                      89.41897
                      -3.57103                       0.47090                      89.31869
                      -3.79311                       0.74852                      89.24030
                      -4.07954                       0.96724                      89.18873
                      -4.41231                       1.11332                      89.16721
                      -4.77052                       1.17758                      89.17709
                      -5.13166                       1.15598                      89.21776
                      -5.47303                       1.04988                      89.28667
                      -5.77319                       0.86594                      89.37947
                      -6.01327                       0.61573                      89.49034
                      -6.17820                       0.31497                      89.61232
                      -6.25761                      -0.01746                      89.73773
                      -6.24650                      -0.36065                      89.85871
                      -6.14558                      -0.69305                      89.96764
                      -5.96119                      -0.99377                      90.05768
                      -5.70491                      -1.24391                      90.12318
                      -5.39285                      -1.42776                      90.16002
                      -5.04461                      -1.53377                      90.16589
                      -4.68208                      -1.55526                      90.14041
                      -4.32804                      -1.49091                      90.08518
                      -4.00472                      -1.34474                      90.00369
                      -3.73245                      -1.12594                      89.90104
                      -3.52834                      -0.84826                      89.78369
                      -3.40520                      -0.52915                      89.65901
                      -3.33352                      -0.14694                      89.64976
                      -3.39101                       0.19979                      89.53177
                      -3.53744                       0.52472                      89.42965
                      -3.76360                       0.80743                      89.34982
                      -4.05529                       1.03017                      89.29730
                      -4.39417                       1.17893                      89.27538
                      -4.75895                       1.24436                      89.28545
                      -5.12671                       1.22237                      89.32687
                      -5.47435                       1.11432                      89.39703
                      -5.78001                       0.92701                      89.49154
                      -6.02450                       0.67221                      89.60445
                      -6.19246                       0.36592                      89.72866
                      -6.27332                       0.02740                      89.85638
                      -6.26201                      -0.32209                      89.97957
                      -6.15924                      -0.66059                      90.09050
                      -5.97146                      -0.96683                      90.18220
                      -5.71048                      -1.22156                      90.24890
                      -5.39269                      -1.40878                      90.28642
                      -5.03807                      -1.51673                      90.29239
                      -4.66888                      -1.53863                      90.26644
                      -4.30834                      -1.47309                      90.21020
                      -3.97909                      -1.32424                      90.12721
                      -3.70183                      -1.10142                      90.02268
                      -3.49397                      -0.81865                      89.90318
                      -3.36857                      -0.49368                      89.77621
                      -3.30710                      -0.10523                      89.76567
                      -3.36521                       0.24520                      89.64642
                      -3.51320                       0.57359                      89.54321
                      -3.74177                       0.85932                      89.46253
                      -4.03656                       1.08443                      89.40945
                      -4.37905                       1.23477                      89.38730
                      -4.74772                       1.30091                      89.39748
                      -5.11940                       1.27868                      89.43934
                      -5.47074                       1.16948                      89.51025
                      -5.77967                       0.98017                      89.60576
                      -6.02676                       0.72265                      89.71987
                      -6.19651                       0.41310                      89.84541
                      -6.27823                       0.07097                      89.97449
                      -6.26680                      -0.28225                      90.09900
                      -6.16293                      -0.62435                      90.21111
                      -5.97316                      -0.93385                      90.30379
                      -5.70939                      -1.19130                      90.37120
                      -5.38822                      -1.38052                      90.40911
                      -5.02982                      -1.48962                      90.41515
                      -4.65670                      -1.51175                      90.38892
                      -4.29231                      -1.44551                      90.33209
                      -3.95956                      -1.29507                      90.24821
                      -3.67934                      -1.06988                      90.14257
                      -3.46926                      -0.78409                      90.02179
                      -3.34253                      -0.45566                      89.89347
                      -3.29118                      -0.06351                      89.88254
                      -3.34949                       0.28813                      89.76288
                      -3.49800                       0.61767                      89.65931
                      -3.72737                       0.90440                      89.57835
                      -4.02319                       1.13029                      89.52508
                      -4.36688                       1.28116                      89.50285
                      -4.73683                       1.34753                      89.51306
                      -5.10981                       1.32522                      89.55507
                      -5.46238                       1.21564                      89.62623
                      -5.77238                       1.02567                      89.72208
                      -6.02034                       0.76725                      89.83659
                      -6.19068                       0.45662                      89.96256
                      -6.27268                       0.11330                      90.09209
                      -6.26121                      -0.24115                      90.21703
                      -6.15698                      -0.58445                      90.32954
                      -5.96655                      -0.89503                      90.42254
                      -5.70186                      -1.15338                      90.49018
                      -5.37957                      -1.34326                      90.52823
                      -5.01991                      -1.45274                      90.53429
                      -4.64549                      -1.47494                      90.50797
                      -4.27983                      -1.40847                      90.45094
                      -3.94592                      -1.25751                      90.36677
                      -3.66472                      -1.03154                      90.26076
                      -3.45391                      -0.74475                      90.13956
                      -3.32673                      -0.41517                      90.01079
                      -3.28566                      -0.02180                      90.00036
                      -3.34377                       0.32862                      89.88111
                      -3.49175                       0.65701                      89.77791
                      -3.72033                       0.94274                      89.69723
                      -4.01512                       1.16785                      89.64414
                      -4.35761                       1.31819                      89.62199
                      -4.72628                       1.38433                      89.63217
                      -5.09796                       1.36210                      89.67403
                      -5.44930                       1.25290                      89.74494
                      -5.75823                       1.06359                      89.84046
                      -6.00532                       0.80607                      89.95457
                      -6.17506                       0.49652                      90.08011
                      -6.25679                       0.15439                      90.20918
                      -6.24536                      -0.19882                      90.33369
                      -6.14149                      -0.54093                      90.44580
                      -5.95171                      -0.85043                      90.53848
                      -5.68795                      -1.10788                      90.60589
                      -5.36678                      -1.29710                      90.64381
                      -5.00837                      -1.40620                      90.64984
                      -4.63526                      -1.42832                      90.62362
                      -4.27087                      -1.36209                      90.56678
                      -3.93811                      -1.21165                      90.48291
                      -3.65789                      -0.98646                      90.37726
                      -3.44782                      -0.70067                      90.25648
                      -3.32108                      -0.37224                      90.12816
                      -3.29064                       0.01991                      90.11915
                      -3.34813                       0.36663                      90.00115
                      -3.49456                       0.69156                      89.89903
                      -3.72072                       0.97428                      89.81920
                      -4.01240                       1.19701                      89.76668
                      -4.35128                       1.34577                      89.74477
                      -4.71606                       1.41121                      89.75483
                      -5.08382                       1.38921                      89.79625
                      -5.43146                       1.28117                      89.86642
                      -5.73713                       1.09386                      89.96092
                      -5.98162                       0.83905                      90.07383
                      -6.14957                       0.53277                      90.19805
                      -6.23043                       0.19424                      90.32576
                      -6.21912                      -0.15525                      90.44896
                      -6.11635                      -0.49375                      90.55989
                      -5.92858                      -0.79998                      90.65159
                      -5.66760                      -1.05472                      90.71829
                      -5.34981                      -1.24194                      90.75580
                      -4.99518                      -1.34989                      90.76177
                      -4.62600                      -1.37178                      90.73583
                      -4.26546                      -1.30624                      90.67959
                      -3.93621                      -1.15739                      90.59660
                      -3.65894                      -0.93458                      90.49207
                      -3.45108                      -0.65180                      90.37256
                      -3.32569                      -0.32684                      90.24560
                      -3.30645                       0.06161                      90.23892
                      -3.36291                       0.40209                      90.12305
                      -3.50670                       0.72117                      90.02277
                      -3.72879                       0.99879                      89.94438
                      -4.01522                       1.21751                      89.89281
                      -4.34799                       1.36359                      89.87129
                      -4.70620                       1.42785                      89.88117
                      -5.06733                       1.40625                      89.92184
                      -5.40870                       1.30015                      89.99075
                      -5.70886                       1.11621                      90.08355
                      -5.94895                       0.86600                      90.19442
                      -6.11387                       0.56523                      90.31640
                      -6.19328                       0.23281                      90.44181
                      -6.18217                      -0.11038                      90.56279
                      -6.08125                      -0.44278                      90.67172
                      -5.89686                      -0.74350                      90.76176
                      -5.64058                      -0.99364                      90.82726
                      -5.32852                      -1.17749                      90.86410
                      -4.98029                      -1.28350                      90.86997
                      -4.61776                      -1.30500                      90.84449
                      -4.26371                      -1.24064                      90.78926
                      -3.94040                      -1.09447                      90.70777
                      -3.66813                      -0.87567                      90.60512
                      -3.46401                      -0.59799                      90.48777
                      -3.34088                      -0.27888                      90.36309
                      -3.33373                       0.10332                      90.35974
                      -3.38871                       0.43486                      90.24692
                      -3.52872                       0.74555                      90.14927
                      -3.74497                       1.01587                      90.07294
                      -4.02387                       1.22885                      90.02272
                      -4.34790                       1.37109                      90.00176
                      -4.69670                       1.43366                      90.01139
                      -5.04835                       1.41263                      90.05099
                      -5.38075                       1.30931                      90.11809
                      -5.67302                       1.13021                      90.20845
                      -5.90680                       0.88657                      90.31641
                      -6.06740                       0.59371                      90.43518
                      -6.14472                       0.27002                      90.55730
                      -6.13390                      -0.06416                      90.67510
                      -6.03563                      -0.38783                      90.78117
                      -5.85608                      -0.68064                      90.86885
                      -5.60654                      -0.92422                      90.93263
                      -5.30268                      -1.10324                      90.96850
                      -4.96359                      -1.20645                      90.97421
                      -4.61058                      -1.22739                      90.94940
                      -4.26584                      -1.16472                      90.89563
                      -3.95102                      -1.02239                      90.81627
                      -3.68590                      -0.80934                      90.71632
                      -3.48715                      -0.53896                      90.60205
                      -3.36725                      -0.22823                      90.48065
                      -3.37342                       0.14502                      90.48169
                      -3.42643                       0.46469                      90.37291
                      -3.56143                       0.76426                      90.27876
                      -3.76994                       1.02491                      90.20516
                      -4.03886                       1.23026                      90.15674
                      -4.35129                       1.36741                      90.13653
                      -4.68760                       1.42774                      90.14581
                      -5.02666                       1.40746                      90.18400
                      -5.34717                       1.30785                      90.24869
                      -5.62898                       1.13516                      90.33582
                      -5.85439                       0.90024                      90.43992
                      -6.00923                       0.61786                      90.55444
                      -6.08378                       0.30575                      90.67219
                      -6.07336                      -0.01646                      90.78577
                      -5.97861                      -0.32854                      90.88804
                      -5.80549                      -0.61088                      90.97258
                      -5.56487                      -0.84573                      91.03408
                      -5.27189                      -1.01834                      91.06866
                      -4.94494                      -1.11787                      91.07417
                      -4.60457                      -1.13805                      91.05025
                      -4.27217                      -1.07763                      90.99840
                      -3.96861                      -0.94039                      90.92188
                      -3.71299                      -0.73497                      90.82551
                      -3.52135                      -0.47426                      90.71533
                      -3.40574                      -0.17466                      90.59828
                      -3.42699                       0.18673                      90.60492
                      -3.47748                       0.49126                      90.50128
                      -3.60609                       0.77665                      90.41159
                      -3.80473                       1.02496                      90.34148
                      -4.06092                       1.22059                      90.29534
                      -4.35856                       1.35125                      90.27610
                      -4.67895                       1.40872                      90.28494
                      -5.00196                       1.38940                      90.32132
                      -5.30729                       1.29450                      90.38294
                      -5.57576                       1.12999                      90.46595
                      -5.79050                       0.90619                      90.56512
                      -5.93802                       0.63718                      90.67422
                      -6.00904                       0.33985                      90.78639
                      -5.99911                       0.03289                      90.89459
                      -5.90884                      -0.26442                      90.99203
                      -5.74392                      -0.53339                      91.07256
                      -5.51469                      -0.75713                      91.13115
                      -5.23558                      -0.92157                      91.16410
                      -4.92411                      -1.01638                      91.16934
                      -4.59985                      -1.03561                      91.14655
                      -4.28318                      -0.97804                      91.09716
                      -3.99400                      -0.84731                      91.02427
                      -3.75048                      -0.65161                      90.93246
                      -3.56791                      -0.40324                      90.82750
                      -3.45777                      -0.11782                      90.71598
                      -3.49662                       0.22843                      90.72961
                      -3.54398                       0.51404                      90.63241
                      -3.66460                       0.78171                      90.54829
                      -3.85090                       1.01459                      90.48253
                      -4.09118                       1.19807                      90.43927
                      -4.37033                       1.32061                      90.42121
                      -4.67082                       1.37452                      90.42950
                      -4.97377                       1.35640                      90.46362
                      -5.26013                       1.26739                      90.52142
                      -5.51193                       1.11310                      90.59927
                      -5.71333                       0.90320                      90.69228
                      -5.85168                       0.65090                      90.79460
                      -5.91829                       0.37204                      90.89981
                      -5.90897                       0.08414                      91.00129
                      -5.82432                      -0.19470                      91.09267
                      -5.66963                      -0.44696                      91.16821
                      -5.45465                      -0.65680                      91.22315
                      -5.19287                      -0.81102                      91.25406
                      -4.90075                      -0.89995                      91.25898
                      -4.59663                      -0.91798                      91.23760
                      -4.29963                      -0.86400                      91.19128
                      -4.02841                      -0.74138                      91.12291
                      -3.80001                      -0.55783                      91.03681
                      -3.62879                      -0.32490                      90.93836
                      -3.52549                      -0.05720                      90.83377
                      -3.58580                       0.27012                      90.85609
                      -3.62926                       0.53223                      90.76689
                      -3.73995                       0.77785                      90.68970
                      -3.91091                       0.99156                      90.62935
                      -4.13140                       1.15993                      90.58965
                      -4.38757                       1.27238                      90.57308
                      -4.66332                       1.32185                      90.58069
                      -4.94132                       1.30522                      90.61200
                      -5.20411                       1.22355                      90.66504
                      -5.43517                       1.08195                      90.73648
                      -5.61999                       0.88934                      90.82183
                      -5.74695                       0.65781                      90.91573
                      -5.80807                       0.40191                      91.01228
                      -5.79953                       0.13772                      91.10540
                      -5.72184                      -0.11816                      91.18926
                      -5.57989                      -0.34966                      91.25857
                      -5.38261                      -0.54222                      91.30900
                      -5.14239                      -0.68374                      91.33735
                      -4.87431                      -0.76534                      91.34187
                      -4.59524                      -0.78189                      91.32225
                      -4.32269                      -0.73235                      91.27974
                      -4.07380                      -0.61983                      91.21701
                      -3.86421                      -0.45140                      91.13799
                      -3.70708                      -0.23764                      91.04765
                      -3.61229                       0.00801                      90.95168
                      -3.70043                       0.31182                      90.98489
                      -3.73900                       0.54441                      90.90574
                      -3.83722                       0.76238                      90.83724
                      -3.98894                       0.95203                      90.78369
                      -4.18461                       1.10144                      90.74845
                      -4.41193                       1.20123                      90.73375
                      -4.65663                       1.24513                      90.74050
                      -4.90334                       1.23038                      90.76829
                      -5.13654                       1.15790                      90.81536
                      -5.34159                       1.03224                      90.87875
                      -5.50560                       0.86132                      90.95450
                      -5.61826                       0.65585                      91.03782
                      -5.67251                       0.42877                      91.12350
                      -5.66492                       0.19432                      91.20614
                      -5.59598                      -0.03275                      91.28055
                      -5.47001                      -0.23818                      91.34206
                      -5.29494                      -0.40906                      91.38681
                      -5.08177                      -0.53465                      91.41197
                      -4.84387                      -0.60707                      91.41598
                      -4.59622                      -0.62176                      91.39857
                      -4.35436                      -0.57779                      91.36085
                      -4.13349                      -0.47794                      91.30518
                      -3.94750                      -0.32847                      91.23506
                      -3.80806                      -0.13878                      91.15489
                      -3.72394                       0.07922                      91.06972
                      -3.85203                       0.35351                      91.11708
                      -3.88426                       0.54789                      91.05093
                      -3.96635                       0.73004                      90.99368
                      -4.09314                       0.88854                      90.94893
                      -4.25666                       1.01340                      90.91948
                      -4.44664                       1.09680                      90.90720
                      -4.65114                       1.13349                      90.91284
                      -4.85732                       1.12116                      90.93606
                      -5.05220                       1.06058                      90.97540
                      -5.22356                       0.95557                      91.02838
                      -5.36063                       0.81273                      91.09167
                      -5.45479                       0.64102                      91.16131
                      -5.50012                       0.45124                      91.23291
                      -5.49378                       0.25531                      91.30197
                      -5.43616                       0.06555                      91.36416
                      -5.33089                      -0.10613                      91.41557
                      -5.18458                      -0.24894                      91.45296
                      -5.00643                      -0.35390                      91.47399
                      -4.80762                      -0.41442                      91.47734
                      -4.60065                      -0.42669                      91.46280
                      -4.39853                      -0.38995                      91.43127
                      -4.21395                      -0.30650                      91.38474
                      -4.05851                      -0.18159                      91.32614
                      -3.94198                      -0.02306                      91.25915
                      -3.87168                       0.15912                      91.18797
                      -4.07003                       0.39518                      91.25533
                      -4.09334                       0.53572                      91.20751
                      -4.15269                       0.66742                      91.16612
                      -4.24436                       0.78201                      91.13376
                      -4.36258                       0.87229                      91.11247
                      -4.49994                       0.93259                      91.10359
                      -4.64779                       0.95911                      91.10767
                      -4.79685                       0.95019                      91.12446
                      -4.93776                       0.90640                      91.15290
                      -5.06165                       0.83048                      91.19120
                      -5.16075                       0.72720                      91.23697
                      -5.22882                       0.60306                      91.28731
                      -5.26160                       0.46585                      91.33908
                      -5.25701                       0.32419                      91.38901
                      -5.21536                       0.18699                      91.43397
                      -5.13925                       0.06287                      91.47114
                      -5.03347                      -0.04038                      91.49818
                      -4.90466                      -0.11627                      91.51338
                      -4.76092                      -0.16002                      91.51580
                      -4.61129                      -0.16890                      91.50529
                      -4.46515                      -0.14233                      91.48249
                      -4.33170                      -0.08200                      91.44885
                      -4.21932                       0.00831                      91.40649
                      -4.13507                       0.12293                      91.35805
                      -4.08424                       0.25464                      91.30659
                      -4.65630                       0.43681                      91.42725
                      -4.65630                       0.43681                      91.42725
                      -4.65630                       0.43681                      91.42725
                      -4.65630                       0.43681                      91.42725
                      -4.65630                       0.43681                      91.42725
                      -4.65630                       0.43681                      91.42725
                      -4.65630                       0.43681                      91.42725
                      -4.65630                       0.43681                      91.42725
                      -4.65630                       0.43681                      91.42725
                      -4.65630                       0.43681                      91.42725
                      -4.65630                       0.43681                      91.42725
                      -4.65630                       0.43681                      91.42725
                      -4.65630                       0.43681                      91.42725
                      -4.65630                       0.43681                      91.42725
                      -4.65630                       0.43681                      91.42725
                      -4.65630                       0.43681                      91.42725
                      -4.65630                       0.43681                      91.42725
                      -4.65630                       0.43681                      91.42725
                      -4.65630                       0.43681                      91.42725
                      -4.65630                       0.43681                      91.42725
                      -4.65630                       0.43681                      91.42725
                      -4.65630                       0.43681                      91.42725
                      -4.65630                       0.43681                      91.42725
                      -4.65630                       0.43681                      91.42725
                      -4.65630                       0.43681                      91.42725
        </DataArray>
      </Points>
      <Polys>
        <DataArray type="Int32" Name="connectivity" format="ascii">
      0      1     26     25
      1      2     27     26
      2      3     28     27
      3      4     29     28
      4      5     30     29
      5      6     31     30
      6      7     32     31
      7      8     33     32
      8      9     34     33
      9     10     35     34
     10     11     36     35
     11     12     37     36
     12     13     38     37
     13     14     39     38
     14     15     40     39
     15     16     41     40
     16     17     42     41
     17     18     43     42
     18     19     44     43
     19     20     45     44
     20     21     46     45
     21     22     47     46
     22     23     48     47
     23     24     49     48
     24      0     25     49
     25     26     51     50
     26     27     52     51
     27     28     53     52
     28     29     54     53
     29     30     55     54
     30     31     56     55
     31     32     57     56
     32     33     58     57
     33     34     59     58
     34     35     60     59
     35     36     61     60
     36     37     62     61
     37     38     63     62
     38     39     64     63
     39     40     65     64
     40     41     66     65
     41     42     67     66
     42     43     68     67
     43     44     69     68
     44     45     70     69
     45     46     71     70
     46     47     72     71
     47     48     73     72
     48     49     74     73
     49     25     50     74
     50     51     76     75
     51     52     77     76
     52     53     78     77
     53     54     79     78
     54     55     80     79
     55     56     81     80
     56     57     82     81
     57     58     83     82
     58     59     84     83
     59     60     85     84
     60     61     86     85
     61     62     87     86
     62     63     88     87
     63     64     89     88
     64     65     90     89
     65     66     91     90
     66     67     92     91
     67     68     93     92
     68     69     94     93
     69     70     95     94
     70     71     96     95
     71     72     97     96
     72     73     98     97
     73     74     99     98
     74     50     75     99
     75     76    101    100
     76     77    102    101
     77     78    103    102
     78     79    104    103
     79     80    105    104
     80     81    106    105
     81     82    107    106
     82     83    108    107
     83     84    109    108
     84     85    110    109
     85     86    111    110
     86     87    112    111
     87     88    113    112
     88     89    114    113
     89     90    115    114
     90     91    116    115
     91     92    117    116
     92     93    118    117
     93     94    119    118
     94     95    120    119
     95     96    121    120
     96     97    122    121
     97     98    123    122
     98     99    124    123
     99     75    100    124
    100    101    126    125
    101    102    127    126
    102    103    128    127
    103    104    129    128
    104    105    130    129
    105    106    131    130
    106    107    132    131
    107    108    133    132
    108    109    134    133
    109    110    135    134
    110    111    136    135
    111    112    137    136
    112    113    138    137
    113    114    139    138
    114    115    140    139
    115    116    141    140
    116    117    142    141
    117    118    143    142
    118    119    144    143
    119    120    145    144
    120    121    146    145
    121    122    147    146
    122    123    148    147
    123    124    149    148
    124    100    125    149
    125    126    151    150
    126    127    152    151
    127    128    153    152
    128    129    154    153
    129    130    155    154
    130    131    156    155
    131    132    157    156
    132    133    158    157
    133    134    159    158
    134    135    160    159
    135    136    161    160
    136    137    162    161
    137    138    163    162
    138    139    164    163
    139    140    165    164
    140    141    166    165
    141    142    167    166
    142    143    168    167
    143    144    169    168
    144    145    170    169
    145    146    171    170
    146    147    172    171
    147    148    173    172
    148    149    174    173
    149    125    150    174
    150    151    176    175
    151    152    177    176
    152    153    178    177
    153    154    179    178
    154    155    180    179
    155    156    181    180
    156    157    182    181
    157    158    183    182
    158    159    184    183
    159    160    185    184
    160    161    186    185
    161    162    187    186
    162    163    188    187
    163    164    189    188
    164    165    190    189
    165    166    191    190
    166    167    192    191
    167    168    193    192
    168    169    194    193
    169    170    195    194
    170    171    196    195
    171    172    197    196
    172    173    198    197
    173    174    199    198
    174    150    175    199
    175    176    201    200
    176    177    202    201
    177    178    203    202
    178    179    204    203
    179    180    205    204
    180    181    206    205
    181    182    207    206
    182    183    208    207
    183    184    209    208
    184    185    210    209
    185    186    211    210
    186    187    212    211
    187    188    213    212
    188    189    214    213
    189    190    215    214
    190    191    216    215
    191    192    217    216
    192    193    218    217
    193    194    219    218
    194    195    220    219
    195    196    221    220
    196    197    222    221
    197    198    223    222
    198    199    224    223
    199    175    200    224
    200    201    226    225
    201    202    227    226
    202    203    228    227
    203    204    229    228
    204    205    230    229
    205    206    231    230
    206    207    232    231
    207    208    233    232
    208    209    234    233
    209    210    235    234
    210    211    236    235
    211    212    237    236
    212    213    238    237
    213    214    239    238
    214    215    240    239
    215    216    241    240
    216    217    242    241
    217    218    243    242
    218    219    244    243
    219    220    245    244
    220    221    246    245
    221    222    247    246
    222    223    248    247
    223    224    249    248
    224    200    225    249
    225    226    251    250
    226    227    252    251
    227    228    253    252
    228    229    254    253
    229    230    255    254
    230    231    256    255
    231    232    257    256
    232    233    258    257
    233    234    259    258
    234    235    260    259
    235    236    261    260
    236    237    262    261
    237    238    263    262
    238    239    264    263
    239    240    265    264
    240    241    266    265
    241    242    267    266
    242    243    268    267
    243    244    269    268
    244    245    270    269
    245    246    271    270
    246    247    272    271
    247    248    273    272
    248    249    274    273
    249    225    250    274
    250    251    276    275
    251    252    277    276
    252    253    278    277
    253    254    279    278
    254    255    280    279
    255    256    281    280
    256    257    282    281
    257    258    283    282
    258    259    284    283
    259    260    285    284
    260    261    286    285
    261    262    287    286
    262    263    288    287
    263    264    289    288
    264    265    290    289
    265    266    291    290
    266    267    292    291
    267    268    293    292
    268    269    294    293
    269    270    295    294
    270    271    296    295
    271    272    297    296
    272    273    298    297
    273    274    299    298
    274    250    275    299
    275    276    301    300
    276    277    302    301
    277    278    303    302
    278    279    304    303
    279    280    305    304
    280    281    306    305
    281    282    307    306
    282    283    308    307
    283    284    309    308
    284    285    310    309
    285    286    311    310
    286    287    312    311
    287    288    313    312
    288    289    314    313
    289    290    315    314
    290    291    316    315
    291    292    317    316
    292    293    318    317
    293    294    319    318
    294    295    320    319
    295    296    321    320
    296    297    322    321
    297    298    323    322
    298    299    324    323
    299    275    300    324
    300    301    326    325
    301    302    327    326
    302    303    328    327
    303    304    329    328
    304    305    330    329
    305    306    331    330
    306    307    332    331
    307    308    333    332
    308    309    334    333
    309    310    335    334
    310    311    336    335
    311    312    337    336
    312    313    338    337
    313    314    339    338
    314    315    340    339
    315    316    341    340
    316    317    342    341
    317    318    343    342
    318    319    344    343
    319    320    345    344
    320    321    346    345
    321    322    347    346
    322    323    348    347
    323    324    349    348
    324    300    325    349
    325    326    351    350
    326    327    352    351
    327    328    353    352
    328    329    354    353
    329    330    355    354
    330    331    356    355
    331    332    357    356
    332    333    358    357
    333    334    359    358
    334    335    360    359
    335    336    361    360
    336    337    362    361
    337    338    363    362
    338    339    364    363
    339    340    365    364
    340    341    366    365
    341    342    367    366
    342    343    368    367
    343    344    369    368
    344    345    370    369
    345    346    371    370
    346    347    372    371
    347    348    373    372
    348    349    374    373
    349    325    350    374
    350    351    376    375
    351    352    377    376
    352    353    378    377
    353    354    379    378
    354    355    380    379
    355    356    381    380
    356    357    382    381
    357    358    383    382
    358    359    384    383
    359    360    385    384
    360    361    386    385
    361    362    387    386
    362    363    388    387
    363    364    389    388
    364    365    390    389
    365    366    391    390
    366    367    392    391
    367    368    393    392
    368    369    394    393
    369    370    395    394
    370    371    396    395
    371    372    397    396
    372    373    398    397
    373    374    399    398
    374    350    375    399
    375    376    401    400
    376    377    402    401
    377    378    403    402
    378    379    404    403
    379    380    405    404
    380    381    406    405
    381    382    407    406
    382    383    408    407
    383    384    409    408
    384    385    410    409
    385    386    411    410
    386    387    412    411
    387    388    413    412
    388    389    414    413
    389    390    415    414
    390    391    416    415
    391    392    417    416
    392    393    418    417
    393    394    419    418
    394    395    420    419
    395    396    421    420
    396    397    422    421
    397    398    423    422
    398    399    424    423
    399    375    400    424
    400    401    426    425
    401    402    427    426
    402    403    428    427
    403    404    429    428
    404    405    430    429
    405    406    431    430
    406    407    432    431
    407    408    433    432
    408    409    434    433
    409    410    435    434
    410    411    436    435
    411    412    437    436
    412    413    438    437
    413    414    439    438
    414    415    440    439
    415    416    441    440
    416    417    442    441
    417    418    443    442
    418    419    444    443
    419    420    445    444
    420    421    446    445
    421    422    447    446
    422    423    448    447
    423    424    449    448
    424    400    425    449
    425    426    451    450
    426    427    452    451
    427    428    453    452
    428    429    454    453
    429    430    455    454
    430    431    456    455
    431    432    457    456
    432    433    458    457
    433    434    459    458
    434    435    460    459
    435    436    461    460
    436    437    462    461
    437    438    463    462
    438    439    464    463
    439    440    465    464
    440    441    466    465
    441    442    467    466
    442    443    468    467
    443    444    469    468
    444    445    470    469
    445    446    471    470
    446    447    472    471
    447    448    473    472
    448    449    474    473
    449    425    450    474
    450    451    476    475
    451    452    477    476
    452    453    478    477
    453    454    479    478
    454    455    480    479
    455    456    481    480
    456    457    482    481
    457    458    483    482
    458    459    484    483
    459    460    485    484
    460    461    486    485
    461    462    487    486
    462    463    488    487
    463    464    489    488
    464    465    490    489
    465    466    491    490
    466    467    492    491
    467    468    493    492
    468    469    494    493
    469    470    495    494
    470    471    496    495
    471    472    497    496
    472    473    498    497
    473    474    499    498
    474    450    475    499
    475    476    501    500
    476    477    502    501
    477    478    503    502
    478    479    504    503
    479    480    505    504
    480    481    506    505
    481    482    507    506
    482    483    508    507
    483    484    509    508
    484    485    510    509
    485    486    511    510
    486    487    512    511
    487    488    513    512
    488    489    514    513
    489    490    515    514
    490    491    516    515
    491    492    517    516
    492    493    518    517
    493    494    519    518
    494    495    520    519
    495    496    521    520
    496    497    522    521
    497    498    523    522
    498    499    524    523
    499    475    500    524
    500    501    526    525
    501    502    527    526
    502    503    528    527
    503    504    529    528
    504    505    530    529
    505    506    531    530
    506    507    532    531
    507    508    533    532
    508    509    534    533
    509    510    535    534
    510    511    536    535
    511    512    537    536
    512    513    538    537
    513    514    539    538
    514    515    540    539
    515    516    541    540
    516    517    542    541
    517    518    543    542
    518    519    544    543
    519    520    545    544
    520    521    546    545
    521    522    547    546
    522    523    548    547
    523    524    549    548
    524    500    525    549
    525    526    551    550
    526    527    552    551
    527    528    553    552
    528    529    554    553
    529    530    555    554
    530    531    556    555
    531    532    557    556
    532    533    558    557
    533    534    559    558
    534    535    560    559
    535    536    561    560
    536    537    562    561
    537    538    563    562
    538    539    564    563
    539    540    565    564
    540    541    566    565
    541    542    567    566
    542    543    568    567
    543    544    569    568
    544    545    570    569
    545    546    571    570
    546    547    572    571
    547    548    573    572
    548    549    574    573
    549    525    550    574
    550    551    576    575
    551    552    577    576
    552    553    578    577
    553    554    579    578
    554    555    580    579
    555    556    581    580
    556    557    582    581
    557    558    583    582
    558    559    584    583
    559    560    585    584
    560    561    586    585
    561    562    587    586
    562    563    588    587
    563    564    589    588
    564    565    590    589
    565    566    591    590
    566    567    592    591
    567    568    593    592
    568    569    594    593
    569    570    595    594
    570    571    596    595
    571    572    597    596
    572    573    598    597
    573    574    599    598
    574    550    575    599
    575    576    601    600
    576    577    602    601
    577    578    603    602
    578    579    604    603
    579    580    605    604
    580    581    606    605
    581    582    607    606
    582    583    608    607
    583    584    609    608
    584    585    610    609
    585    586    611    610
    586    587    612    611
    587    588    613    612
    588    589    614    613
    589    590    615    614
    590    591    616    615
    591    592    617    616
    592    593    618    617
    593    594    619    618
    594    595    620    619
    595    596    621    620
    596    597    622    621
    597    598    623    622
    598    599    624    623
    599    575    600    624
        </DataArray>
        <DataArray type="Int32" Name="offsets" format="ascii">
      4
      8
     12
     16
     20
     24
     28
     32
     36
     40
     44
     48
     52
     56
     60
     64
     68
     72
     76
     80
     84
     88
     92
     96
    100
    104
    108
    112
    116
    120
    124
    128
    132
    136
    140
    144
    148
    152
    156
    160
    164
    168
    172
    176
    180
    184
    188
    192
    196
    200
    204
    208
    212
    216
    220
    224
    228
    232
    236
    240
    244
    248
    252
    256
    260
    264
    268
    272
    276
    280
    284
    288
    292
    296
    300
    304
    308
    312
    316
    320
    324
    328
    332
    336
    340
    344
    348
    352
    356
    360
    364
    368
    372
    376
    380
    384
    388
    392
    396
    400
    404
    408
    412
    416
    420
    424
    428
    432
    436
    440
    444
    448
    452
    456
    460
    464
    468
    472
    476
    480
    484
    488
    492
    496
    500
    504
    508
    512
    516
    520
    524
    528
    532
    536
    540
    544
    548
    552
    556
    560
    564
    568
    572
    576
    580
    584
    588
    592
    596
    600
    604
    608
    612
    616
    620
    624
    628
    632
    636
    640
    644
    648
    652
    656
    660
    664
    668
    672
    676
    680
    684
    688
    692
    696
    700
    704
    708
    712
    716
    720
    724
    728
    732
    736
    740
    744
    748
    752
    756
    760
    764
    768
    772
    776
    780
    784
    788
    792
    796
    800
    804
    808
    812
    816
    820
    824
    828
    832
    836
    840
    844
    848
    852
    856
    860
    864
    868
    872
    876
    880
    884
    888
    892
    896
    900
    904
    908
    912
    916
    920
    924
    928
    932
    936
    940
    944
    948
    952
    956
    960
    964
    968
    972
    976
    980
    984
    988
    992
    996
   1000
   1004
   1008
   1012
   1016
   1020
   1024
   1028
   1032
   1036
   1040
   1044
   1048
   1052
   1056
   1060
   1064
   1068
   1072
   1076
   1080
   1084
   1088
   1092
   1096
   1100
   1104
   1108
   1112
   1116
   1120
   1124
   1128
   1132
   1136
   1140
   1144
   1148
   1152
   1156
   1160
   1164
   1168
   1172
   1176
   1180
   1184
   1188
   1192
   1196
   1200
   1204
   1208
   1212
   1216
   1220
   1224
   1228
   1232
   1236
   1240
   1244
   1248
   1252
   1256
   1260
   1264
   1268
   1272
   1276
   1280
   1284
   1288
   1292
   1296
   1300
   1304
   1308
   1312
   1316
   1320
   1324
   1328
   1332
   1336
   1340
   1344
   1348
   1352
   1356
   1360
   1364
   1368
   1372
   1376
   1380
   1384
   1388
   1392
   1396
   1400
   1404
   1408
   1412
   1416
   1420
   1424
   1428
   1432
   1436
   1440
   1444
   1448
   1452
   1456
   1460
   1464
   1468
   1472
   1476
   1480
   1484
   1488
   1492
   1496
   1500
   1504
   1508
   1512
   1516
   1520
   1524
   1528
   1532
   1536
   1540
   1544
   1548
   1552
   1556
   1560
   1564
   1568
   1572
   1576
   1580
   1584
   1588
   1592
   1596
   1600
   1604
   1608
   1612
   1616
   1620
   1624
   1628
   1632
   1636
   1640
   1644
   1648
   1652
   1656
   1660
   1664
   1668
   1672
   1676
   1680
   1684
   1688
   1692
   1696
   1700
   1704
   1708
   1712
   1716
   1720
   1724
   1728
   1732
   1736
   1740
   1744
   1748
   1752
   1756
   1760
   1764
   1768
   1772
   1776
   1780
   1784
   1788
   1792
   1796
   1800
   1804
   1808
   1812
   1816
   1820
   1824
   1828
   1832
   1836
   1840
   1844
   1848
   1852
   1856
   1860
   1864
   1868
   1872
   1876
   1880
   1884
   1888
   1892
   1896
   1900
   1904
   1908
   1912
   1916
   1920
   1924
   1928
   1932
   1936
   1940
   1944
   1948
   1952
   1956
   1960
   1964
   1968
   1972
   1976
   1980
   1984
   1988
   1992
   1996
   2000
   2004
   2008
   2012
   2016
   2020
   2024
   2028
   2032
   2036
   2040
   2044
   2048
   2052
   2056
   2060
   2064
   2068
   2072
   2076
   2080
   2084
   2088
   2092
   2096
   2100
   2104
   2108
   2112
   2116
   2120
   2124
   2128
   2132
   2136
   2140
   2144
   2148
   2152
   2156
   2160
   2164
   2168
   2172
   2176
   2180
   2184
   2188
   2192
   2196
   2200
   2204
   2208
   2212
   2216
   2220
   2224
   2228
   2232
   2236
   2240
   2244
   2248
   2252
   2256
   2260
   2264
   2268
   2272
   2276
   2280
   2284
   2288
   2292
   2296
   2300
   2304
   2308
   2312
   2316
   2320
   2324
   2328
   2332
   2336
   2340
   2344
   2348
   2352
   2356
   2360
   2364
   2368
   2372
   2376
   2380
   2384
   2388
   2392
   2396
   2400
        </DataArray>
      </Polys>
    </Piece>
  </PolyData>
</VTKFile>
