<?xml version="1.0"?>
<VTKFile type="PolyData" version="0.1" byte_order="LittleEndian">
  <PolyData>
    <Piece NumberOfPoints="     22" NumberOfVerts="  0" NumberOfLines="     21"
           NumberOfStrips="  0" NumberOfPolys="      0">
      <Points>
        <DataArray type="Float32" NumberOfComponents="3" format="ascii">
                       0.00009                      -0.00004                       2.19000
                       0.00093                      -0.00032                       6.57000
                       0.00278                      -0.00087                      10.95000
                       0.00573                      -0.00165                      15.33000
                       0.00980                      -0.00268                      19.71000
                       0.01496                      -0.00398                      24.08999
                       0.02118                      -0.00557                      28.46999
                       0.02841                      -0.00750                      32.84998
                       0.03665                      -0.00979                      37.22997
                       0.04590                      -0.01249                      41.60996
                       0.05618                      -0.01565                      45.98995
                       0.06753                      -0.01931                      50.36993
                       0.08003                      -0.02350                      54.74991
                       0.09371                      -0.02824                      59.12989
                       0.10859                      -0.03355                      63.50986
                       0.12466                      -0.03943                      67.88983
                       0.14178                      -0.04584                      72.26979
                       0.15970                      -0.05275                      76.64975
                       0.17801                      -0.06010                      81.02970
                       0.19605                      -0.06777                      85.40966
                       0.20470                      -0.07170                      87.59964
                       0.00000                       0.00000                       0.00000
        </DataArray>
      </Points>
      <PointData>
        <DataArray type="Float32" Name="TranslationalVelocity" NumberOfComponents="3" format="ascii">
                       0.00000                       0.00000                      -0.00000
                       0.00001                       0.00001                      -0.00000
                       0.00004                       0.00003                      -0.00000
                       0.00008                       0.00006                      -0.00000
                       0.00014                       0.00010                      -0.00000
                       0.00022                       0.00016                      -0.00000
                       0.00031                       0.00024                      -0.00000
                       0.00042                       0.00035                      -0.00000
                       0.00054                       0.00050                      -0.00000
                       0.00068                       0.00068                      -0.00000
                       0.00083                       0.00092                      -0.00000
                       0.00100                       0.00121                      -0.00000
                       0.00119                       0.00157                      -0.00000
                       0.00139                       0.00199                      -0.00000
                       0.00162                       0.00249                      -0.00000
                       0.00186                       0.00305                      -0.00000
                       0.00211                       0.00369                      -0.00000
                       0.00238                       0.00440                      -0.00000
                       0.00266                       0.00516                      -0.00000
                       0.00293                       0.00597                      -0.00000
                       0.00306                       0.00639                      -0.00000
                       0.00000                      -0.00000                       0.00000
        </DataArray>
        <DataArray type="Float32" Name="RotationalVelocity" NumberOfComponents="3" format="ascii">
                      -0.00000                       0.00000                       0.00000
                      -0.00000                       0.00000                       0.00000
                      -0.00001                       0.00001                       0.00000
                      -0.00001                       0.00001                       0.00000
                      -0.00001                       0.00002                       0.00000
                      -0.00002                       0.00002                       0.00000
                      -0.00002                       0.00002                       0.00000
                      -0.00003                       0.00003                       0.00000
                      -0.00004                       0.00003                       0.00000
                      -0.00005                       0.00003                       0.00000
                      -0.00006                       0.00004                       0.00000
                      -0.00007                       0.00004                       0.00000
                      -0.00009                       0.00004                       0.00000
                      -0.00010                       0.00005                       0.00000
                      -0.00012                       0.00005                       0.00000
                      -0.00014                       0.00006                       0.00000
                      -0.00015                       0.00006                       0.00000
                      -0.00017                       0.00006                       0.00000
                      -0.00018                       0.00006                       0.00000
                      -0.00019                       0.00006                       0.00000
                      -0.00019                       0.00006                       0.00000
                       0.00000                      -0.00000                       0.00000
        </DataArray>
        <DataArray type="Float32" Name="TranslationalAcceleration" NumberOfComponents="3" format="ascii">
                       0.00009                       0.00001                      -0.00000
                       0.00082                       0.00012                      -0.00000
                       0.00231                       0.00031                      -0.00000
                       0.00451                       0.00061                      -0.00000
                       0.00733                       0.00102                      -0.00000
                       0.01063                       0.00156                      -0.00001
                       0.01424                       0.00225                      -0.00001
                       0.01797                       0.00312                      -0.00002
                       0.02162                       0.00421                      -0.00003
                       0.02500                       0.00554                      -0.00003
                       0.02791                       0.00716                      -0.00004
                       0.03017                       0.00909                      -0.00004
                       0.03165                       0.01136                      -0.00004
                       0.03222                       0.01401                      -0.00004
                       0.03178                       0.01705                      -0.00004
                       0.03030                       0.02047                      -0.00003
                       0.02776                       0.02427                      -0.00001
                       0.02421                       0.02843                       0.00001
                       0.01973                       0.03291                       0.00004
                       0.01446                       0.03762                       0.00006
                       0.01158                       0.04004                       0.00008
                       0.00000                      -0.00000                       0.00000
        </DataArray>
        <DataArray type="Float32" Name="RotationalAcceleration" NumberOfComponents="3" format="ascii">
                      -0.00001                       0.00008                       0.00000
                      -0.00003                       0.00025                       0.00000
                      -0.00006                       0.00042                       0.00000
                      -0.00008                       0.00058                       0.00000
                      -0.00011                       0.00070                       0.00000
                      -0.00014                       0.00080                       0.00000
                      -0.00018                       0.00085                       0.00000
                      -0.00022                       0.00085                       0.00000
                      -0.00027                       0.00081                       0.00000
                      -0.00034                       0.00072                       0.00000
                      -0.00040                       0.00060                       0.00000
                      -0.00048                       0.00043                       0.00000
                      -0.00056                       0.00024                       0.00000
                      -0.00065                       0.00002                       0.00000
                      -0.00074                      -0.00022                       0.00000
                      -0.00083                      -0.00046                       0.00000
                      -0.00091                      -0.00070                       0.00000
                      -0.00099                      -0.00092                       0.00000
                      -0.00105                      -0.00112                       0.00000
                      -0.00110                      -0.00128                       0.00000
                      -0.00111                      -0.00134                       0.00000
                       0.00000                      -0.00000                       0.00000
        </DataArray>
        <DataArray type="Float32" Name="OrientationX" NumberOfComponents="3" format="ascii">
                       1.00000                       0.00000                      -0.00009
                       1.00000                       0.00000                      -0.00030
                       1.00000                       0.00000                      -0.00055
                       1.00000                       0.00000                      -0.00080
                       1.00000                       0.00000                      -0.00105
                       1.00000                       0.00000                      -0.00130
                       1.00000                       0.00000                      -0.00154
                       1.00000                       0.00000                      -0.00177
                       1.00000                       0.00000                      -0.00200
                       1.00000                       0.00000                      -0.00223
                       1.00000                       0.00000                      -0.00247
                       1.00000                       0.00000                      -0.00272
                       1.00000                       0.00000                      -0.00299
                       0.99999                       0.00000                      -0.00326
                       0.99999                       0.00000                      -0.00354
                       0.99999                       0.00000                      -0.00379
                       0.99999                       0.00000                      -0.00401
                       0.99999                       0.00000                      -0.00416
                       0.99999                       0.00000                      -0.00418
                       0.99999                       0.00000                      -0.00403
                       0.99999                       0.00000                      -0.00386
                       1.00000                      -0.00000                       0.00000
        </DataArray>
        <DataArray type="Float32" Name="OrientationY" NumberOfComponents="3" format="ascii">
                       0.00000                       1.00000                       0.00003
                       0.00000                       1.00000                       0.00010
                       0.00000                       1.00000                       0.00015
                       0.00000                       1.00000                       0.00021
                       0.00000                       1.00000                       0.00027
                       0.00000                       1.00000                       0.00033
                       0.00000                       1.00000                       0.00040
                       0.00000                       1.00000                       0.00048
                       0.00000                       1.00000                       0.00057
                       0.00000                       1.00000                       0.00067
                       0.00000                       1.00000                       0.00078
                       0.00000                       1.00000                       0.00089
                       0.00000                       1.00000                       0.00102
                       0.00000                       1.00000                       0.00115
                       0.00000                       1.00000                       0.00128
                       0.00000                       1.00000                       0.00140
                       0.00000                       1.00000                       0.00152
                       0.00000                       1.00000                       0.00163
                       0.00000                       1.00000                       0.00172
                       0.00000                       1.00000                       0.00178
                       0.00000                       1.00000                       0.00180
                      -0.00000                       1.00000                      -0.00000
        </DataArray>
        <DataArray type="Float32" Name="OrientationZ" NumberOfComponents="3" format="ascii">
                       0.00009                      -0.00003                       1.00000
                       0.00030                      -0.00010                       1.00000
                       0.00055                      -0.00015                       1.00000
                       0.00080                      -0.00021                       1.00000
                       0.00105                      -0.00027                       1.00000
                       0.00130                      -0.00033                       1.00000
                       0.00154                      -0.00040                       1.00000
                       0.00177                      -0.00048                       1.00000
                       0.00200                      -0.00057                       1.00000
                       0.00223                      -0.00067                       1.00000
                       0.00247                      -0.00078                       1.00000
                       0.00272                      -0.00089                       1.00000
                       0.00299                      -0.00102                       1.00000
                       0.00326                      -0.00115                       0.99999
                       0.00354                      -0.00128                       0.99999
                       0.00379                      -0.00140                       0.99999
                       0.00401                      -0.00152                       0.99999
                       0.00416                      -0.00163                       0.99999
                       0.00418                      -0.00172                       0.99999
                       0.00403                      -0.00178                       0.99999
                       0.00386                      -0.00180                       0.99999
                       0.00000                      -0.00000                       1.00000
        </DataArray>
      </PointData>
      <Lines>
        <DataArray type="Int32" Name="connectivity" format="ascii">
      0      1
      1      2
      2      3
      3      4
      4      5
      5      6
      6      7
      7      8
      8      9
      9     10
     10     11
     11     12
     12     13
     13     14
     14     15
     15     16
     16     17
     17     18
     18     19
     19     20
     21      0
        </DataArray>
        <DataArray type="Int32" Name="offsets" format="ascii">
      2
      4
      6
      8
     10
     12
     14
     16
     18
     20
     22
     24
     26
     28
     30
     32
     34
     36
     38
     40
     42
        </DataArray>
      </Lines>
    </Piece>
  </PolyData>
</VTKFile>
