<?xml version="1.0"?>
<VTKFile type="PolyData" version="0.1" byte_order="LittleEndian">
  <PolyData>
    <Piece NumberOfPoints="    625" NumberOfVerts="  0" NumberOfLines="      0"
           NumberOfStrips="  0" NumberOfPolys="    600">
      <Points>
        <DataArray type="Float32" NumberOfComponents="3" format="ascii">
                      -4.68537                      -0.75388                      91.35684
                      -4.68537                      -0.75388                      91.35684
                      -4.68537                      -0.75388                      91.35684
                      -4.68537                      -0.75388                      91.35684
                      -4.68537                      -0.75388                      91.35684
                      -4.68537                      -0.75388                      91.35684
                      -4.68537                      -0.75388                      91.35684
                      -4.68537                      -0.75388                      91.35684
                      -4.68537                      -0.75388                      91.35684
                      -4.68537                      -0.75388                      91.35684
                      -4.68537                      -0.75388                      91.35684
                      -4.68537                      -0.75388                      91.35684
                      -4.68537                      -0.75388                      91.35684
                      -4.68537                      -0.75388                      91.35684
                      -4.68537                      -0.75388                      91.35684
                      -4.68537                      -0.75388                      91.35684
                      -4.68537                      -0.75388                      91.35684
                      -4.68537                      -0.75388                      91.35684
                      -4.68537                      -0.75388                      91.35684
                      -4.68537                      -0.75388                      91.35684
                      -4.68537                      -0.75388                      91.35684
                      -4.68537                      -0.75388                      91.35684
                      -4.68537                      -0.75388                      91.35684
                      -4.68537                      -0.75388                      91.35684
                      -4.68537                      -0.75388                      91.35684
                      -4.09854                      -0.69845                      91.19086
                      -4.12325                      -0.83215                      91.12686
                      -4.18392                      -0.95745                      91.07031
                      -4.27674                      -1.06649                      91.02474
                      -4.39587                      -1.15241                      90.99302
                      -4.53384                      -1.20981                      90.97715
                      -4.68196                      -1.23509                      90.97812
                      -4.83094                      -1.22666                      90.99588
                      -4.97141                      -1.18504                      91.02930
                      -5.09455                      -1.11286                      91.07628
                      -5.19262                      -1.01464                      91.13388
                      -5.25945                      -0.89657                      91.19848
                      -5.29085                      -0.76605                      91.26601
                      -5.28485                      -0.63130                      91.33223
                      -5.24182                      -0.50077                      91.39299
                      -5.16446                      -0.38267                      91.44446
                      -5.05764                      -0.28441                      91.48341
                      -4.92807                      -0.21218                      91.50739
                      -4.78389                      -0.17051                      91.51490
                      -4.63416                      -0.16203                      91.50546
                      -4.48828                      -0.18725                      91.47967
                      -4.35543                      -0.24460                      91.43914
                      -4.24395                      -0.33048                      91.38644
                      -4.16085                      -0.43948                      91.32485
                      -4.11134                      -0.56476                      91.25827
                      -3.87998                      -0.64310                      91.05840
                      -3.91416                      -0.82802                      90.96989
                      -3.99807                      -1.00133                      90.89166
                      -4.12645                      -1.15214                      90.82864
                      -4.29123                      -1.27098                      90.78477
                      -4.48205                      -1.35037                      90.76282
                      -4.68693                      -1.38533                      90.76417
                      -4.89299                      -1.37367                      90.78872
                      -5.08728                      -1.31611                      90.83495
                      -5.25759                      -1.21627                      90.89993
                      -5.39323                      -1.08043                      90.97960
                      -5.48567                      -0.91712                      91.06894
                      -5.52910                      -0.73660                      91.16235
                      -5.52080                      -0.55021                      91.25394
                      -5.46128                      -0.36967                      91.33797
                      -5.35429                      -0.20632                      91.40916
                      -5.20654                      -0.07043                      91.46303
                      -5.02733                       0.02948                      91.49620
                      -4.82791                       0.08711                      91.50659
                      -4.62081                       0.09885                      91.49353
                      -4.41905                       0.06396                      91.45786
                      -4.23530                      -0.01536                      91.40182
                      -4.08110                      -0.13414                      91.32891
                      -3.96616                      -0.28490                      91.24374
                      -3.89768                      -0.45819                      91.15164
                      -3.72782                      -0.58775                      90.93199
                      -3.76872                      -0.80903                      90.82608
                      -3.86913                      -1.01641                      90.73248
                      -4.02275                      -1.19687                      90.65706
                      -4.21992                      -1.33907                      90.60457
                      -4.44826                      -1.43407                      90.57830
                      -4.69341                      -1.47591                      90.57991
                      -4.93997                      -1.46195                      90.60930
                      -5.17246                      -1.39307                      90.66461
                      -5.37625                      -1.27361                      90.74237
                      -5.53856                      -1.11106                      90.83770
                      -5.64917                      -0.91564                      90.94461
                      -5.70114                      -0.69963                      91.05637
                      -5.69120                      -0.47661                      91.16597
                      -5.61999                      -0.26058                      91.26652
                      -5.49196                      -0.06512                      91.35171
                      -5.31517                       0.09750                      91.41617
                      -5.10073                       0.21704                      91.45586
                      -4.86210                       0.28600                      91.46829
                      -4.61429                       0.30005                      91.45267
                      -4.37286                       0.25830                      91.40998
                      -4.15299                       0.16339                      91.34292
                      -3.96849                       0.02126                      91.25568
                      -3.83094                      -0.15915                      91.15376
                      -3.74901                      -0.36649                      91.04355
                      -3.61263                      -0.53242                      90.80895
                      -3.65872                      -0.78177                      90.68960
                      -3.77188                      -1.01546                      90.58412
                      -3.94498                      -1.21881                      90.49913
                      -4.16717                      -1.37905                      90.43998
                      -4.42447                      -1.48611                      90.41038
                      -4.70073                      -1.53325                      90.41220
                      -4.97857                      -1.51752                      90.44531
                      -5.24055                      -1.43991                      90.50764
                      -5.47021                      -1.30529                      90.59527
                      -5.65310                      -1.12212                      90.70269
                      -5.77775                      -0.90191                      90.82316
                      -5.83631                      -0.65849                      90.94911
                      -5.82512                      -0.40717                      91.07261
                      -5.74486                      -0.16373                      91.18592
                      -5.60059                       0.05653                      91.28191
                      -5.40138                       0.23977                      91.35455
                      -5.15973                       0.37448                      91.39928
                      -4.89083                       0.45219                      91.41328
                      -4.61157                       0.46802                      91.39568
                      -4.33952                       0.42098                      91.34758
                      -4.09175                       0.31402                      91.27200
                      -3.88383                       0.15386                      91.17370
                      -3.72884                      -0.04943                      91.05885
                      -3.63651                      -0.28308                      90.93466
                      -3.52290                      -0.47709                      90.68822
                      -3.57313                      -0.74881                      90.55816
                      -3.69643                      -1.00347                      90.44322
                      -3.88507                      -1.22507                      90.35061
                      -4.12720                      -1.39968                      90.28615
                      -4.40759                      -1.51634                      90.25390
                      -4.70863                      -1.56772                      90.25587
                      -5.01140                      -1.55058                      90.29196
                      -5.29689                      -1.46600                      90.35988
                      -5.54715                      -1.31930                      90.45537
                      -5.74645                      -1.11970                      90.57243
                      -5.88228                      -0.87973                      90.70371
                      -5.94610                      -0.61447                      90.84096
                      -5.93390                      -0.34060                      90.97554
                      -5.84645                      -0.07532                      91.09902
                      -5.68923                       0.16470                      91.20362
                      -5.47214                       0.36439                      91.28278
                      -5.20881                       0.51118                      91.33152
                      -4.91578                       0.59587                      91.34678
                      -4.61147                       0.61312                      91.32760
                      -4.31501                       0.56186                      91.27518
                      -4.04500                       0.44530                      91.19283
                      -3.81844                       0.27077                      91.08570
                      -3.64954                       0.04924                      90.96055
                      -3.54892                      -0.20538                      90.82522
                      -3.45272                      -0.42176                      90.56927
                      -3.50627                      -0.71147                      90.43060
                      -3.63774                      -0.98300                      90.30804
                      -3.83888                      -1.21928                      90.20930
                      -4.09703                      -1.40546                      90.14057
                      -4.39599                      -1.52984                      90.10618
                      -4.71697                      -1.58462                      90.10829
                      -5.03980                      -1.56635                      90.14676
                      -5.34419                      -1.47617                      90.21918
                      -5.61102                      -1.31975                      90.32100
                      -5.82353                      -1.10693                      90.44582
                      -5.96835                      -0.85107                      90.58579
                      -6.03640                      -0.56824                      90.73212
                      -6.02339                      -0.27623                      90.87562
                      -5.93015                       0.00662                      91.00728
                      -5.76252                       0.26254                      91.11881
                      -5.53105                       0.47544                      91.20321
                      -5.25028                       0.63196                      91.25517
                      -4.93784                       0.72225                      91.27144
                      -4.61338                       0.74065                      91.25099
                      -4.29728                       0.68599                      91.19511
                      -4.00940                       0.56172                      91.10730
                      -3.76782                       0.37563                      90.99308
                      -3.58774                       0.13942                      90.85963
                      -3.48046                      -0.13206                      90.71534
                      -3.39861                      -0.36643                      90.45179
                      -3.45482                      -0.67055                      90.30622
                      -3.59282                      -0.95556                      90.17758
                      -3.80395                      -1.20358                      90.07393
                      -4.07494                      -1.39901                      90.00179
                      -4.38875                      -1.52958                      89.96569
                      -4.72568                      -1.58708                      89.96790
                      -5.06455                      -1.56790                      90.00828
                      -5.38407                      -1.47324                      90.08430
                      -5.66416                      -1.30905                      90.19118
                      -5.88723                      -1.08565                      90.32220
                      -6.03925                      -0.81707                      90.46912
                      -6.11067                      -0.52020                      90.62273
                      -6.09702                      -0.21368                      90.77336
                      -5.99914                       0.08323                      90.91156
                      -5.82319                       0.35186                      91.02863
                      -5.58021                       0.57535                      91.11722
                      -5.28549                       0.73965                      91.17177
                      -4.95753                       0.83443                      91.18885
                      -4.61695                       0.85374                      91.16738
                      -4.28513                       0.79636                      91.10872
                      -3.98295                       0.66591                      91.01655
                      -3.72937                       0.47058                      90.89665
                      -3.54034                       0.22263                      90.75658
                      -3.42772                      -0.06234                      90.60511
                      -3.35836                      -0.31111                      90.33556
                      -3.41666                      -0.62651                      90.18460
                      -3.55979                      -0.92211                      90.05117
                      -3.77876                      -1.17934                      89.94368
                      -4.05980                      -1.38203                      89.86886
                      -4.38527                      -1.51744                      89.83142
                      -4.73471                      -1.57708                      89.83371
                      -5.08616                      -1.55718                      89.87559
                      -5.41754                      -1.45901                      89.95443
                      -5.70803                      -1.28872                      90.06528
                      -5.93937                      -1.05703                      90.20116
                      -6.09704                      -0.77848                      90.35354
                      -6.17112                      -0.47058                      90.51285
                      -6.15696                      -0.15268                      90.66908
                      -6.05544                       0.15524                      90.81240
                      -5.87296                       0.43385                      90.93382
                      -5.62096                       0.66564                      91.02570
                      -5.31530                       0.83603                      91.08228
                      -4.97516                       0.93433                      91.09999
                      -4.62193                       0.95436                      91.07773
                      -4.27780                       0.89486                      91.01689
                      -3.96440                       0.75956                      90.92129
                      -3.70141                       0.55697                      90.79695
                      -3.50535                       0.29982                      90.65167
                      -3.38856                       0.00427                      90.49458
                      -3.33054                      -0.25579                      90.22047
                      -3.39041                      -0.57970                      90.06543
                      -3.53740                      -0.88328                      89.92841
                      -3.76227                      -1.14744                      89.81801
                      -4.05090                      -1.35560                      89.74117
                      -4.38515                      -1.49467                      89.70272
                      -4.74401                      -1.55591                      89.70508
                      -5.10495                      -1.53548                      89.74809
                      -5.44527                      -1.43466                      89.82906
                      -5.74360                      -1.25978                      89.94289
                      -5.98118                      -1.02183                      90.08244
                      -6.14310                      -0.73577                      90.23894
                      -6.21918                      -0.41957                      90.40254
                      -6.20464                      -0.09309                      90.56298
                      -6.10038                       0.22315                      90.71018
                      -5.91297                       0.50927                      90.83487
                      -5.65418                       0.74731                      90.92923
                      -5.34027                       0.92230                      90.98733
                      -4.99096                       1.02325                      91.00552
                      -4.62820                       1.04382                      90.98266
                      -4.27478                       0.98271                      90.92018
                      -3.95292                       0.84377                      90.82200
                      -3.68284                       0.63571                      90.69430
                      -3.48149                       0.37163                      90.54510
                      -3.36155                       0.06810                      90.38378
                      -3.31417                      -0.20047                      90.10642
                      -3.37514                      -0.53033                      89.94854
                      -3.52483                      -0.83948                      89.80900
                      -3.75383                      -1.10849                      89.69657
                      -4.04775                      -1.32046                      89.61833
                      -4.38813                      -1.46209                      89.57917
                      -4.75358                      -1.52445                      89.58157
                      -5.12114                      -1.50364                      89.62537
                      -5.46770                      -1.40097                      89.70783
                      -5.77151                      -1.22288                      89.82375
                      -6.01345                      -0.98057                      89.96586
                      -6.17835                      -0.68926                      90.12523
                      -6.25582                      -0.36725                      90.29184
                      -6.24101                      -0.03479                      90.45522
                      -6.13484                       0.28725                      90.60511
                      -5.94399                       0.57863                      90.73209
                      -5.68045                       0.82104                      90.82819
                      -5.36078                       0.99924                      90.88736
                      -5.00506                       1.10204                      90.90588
                      -4.63564                       1.12299                      90.88260
                      -4.27574                       1.06076                      90.81897
                      -3.94797                       0.91926                      90.71899
                      -3.67293                       0.70739                      90.58895
                      -3.46789                       0.43846                      90.43701
                      -3.34575                       0.12936                      90.27273
                      -3.30864                      -0.14516                      89.99336
                      -3.37026                      -0.47853                      89.83379
                      -3.52155                      -0.79097                      89.69277
                      -3.75299                      -1.06285                      89.57914
                      -4.05004                      -1.27709                      89.50006
                      -4.39405                      -1.42022                      89.46049
                      -4.76340                      -1.48325                      89.46292
                      -5.13487                      -1.46222                      89.50719
                      -5.48513                      -1.35845                      89.59052
                      -5.79217                      -1.17846                      89.70768
                      -6.03670                      -0.93357                      89.85130
                      -6.20334                      -0.63915                      90.01236
                      -6.28164                      -0.31372                      90.18075
                      -6.26668                       0.02229                      90.34587
                      -6.15938                       0.34777                      90.49736
                      -5.96650                       0.64225                      90.62570
                      -5.70014                       0.88724                      90.72282
                      -5.37706                       1.06734                      90.78262
                      -5.01755                       1.17124                      90.80134
                      -4.64420                       1.19241                      90.77781
                      -4.28047                       1.12951                      90.71350
                      -3.94920                       0.98651                      90.61246
                      -3.67123                       0.77238                      90.48103
                      -3.46401                       0.50058                      90.32747
                      -3.34056                       0.18819                      90.16144
                      -3.31362                      -0.08985                      89.88125
                      -3.37545                      -0.42438                      89.72113
                      -3.52726                      -0.73791                      89.57961
                      -3.75951                      -1.01074                      89.46559
                      -4.05761                      -1.22572                      89.38623
                      -4.40282                      -1.36935                      89.34652
                      -4.77345                      -1.43260                      89.34896
                      -5.14622                      -1.41150                      89.39338
                      -5.49770                      -1.30737                      89.47701
                      -5.80582                      -1.12676                      89.59457
                      -6.05119                      -0.88101                      89.73870
                      -6.21842                      -0.58556                      89.90032
                      -6.29700                      -0.25899                      90.06930
                      -6.28198                       0.07819                      90.23500
                      -6.17431                       0.40480                      90.38702
                      -5.98075                       0.70031                      90.51580
                      -5.71347                       0.94616                      90.61326
                      -5.38926                       1.12689                      90.67327
                      -5.02849                       1.23115                      90.69205
                      -4.65384                       1.25239                      90.66844
                      -4.28883                       1.18928                      90.60390
                      -3.95642                       1.04577                      90.50251
                      -3.67747                       0.83090                      90.37062
                      -3.46953                       0.55815                      90.21653
                      -3.34565                       0.24467                      90.04992
                      -3.32899                      -0.03453                      89.77009
                      -3.39061                      -0.36790                      89.61053
                      -3.54189                      -0.68034                      89.46950
                      -3.77333                      -0.95222                      89.35588
                      -4.07039                      -1.16646                      89.27680
                      -4.41440                      -1.30959                      89.23722
                      -4.78374                      -1.37262                      89.23965
                      -5.15522                      -1.35159                      89.28392
                      -5.50548                      -1.24782                      89.36725
                      -5.81251                      -1.06784                      89.48441
                      -6.05704                      -0.82294                      89.62803
                      -6.22369                      -0.52853                      89.78910
                      -6.30199                      -0.20309                      89.95748
                      -6.28702                       0.13292                      90.12261
                      -6.17972                       0.45839                      90.27410
                      -5.98684                       0.75288                      90.40243
                      -5.72049                       0.99786                      90.49955
                      -5.39741                       1.17797                      90.55935
                      -5.03790                       1.28187                      90.57807
                      -4.66454                       1.30303                      90.55454
                      -4.30081                       1.24014                      90.49023
                      -3.96955                       1.09714                      90.38919
                      -3.69157                       0.88301                      90.25776
                      -3.48435                       0.61121                      90.10421
                      -3.36091                       0.29882                      89.93817
                      -3.35486                       0.02078                      89.65989
                      -3.41583                      -0.30908                      89.50200
                      -3.56552                      -0.61822                      89.36247
                      -3.79452                      -0.88724                      89.25004
                      -4.08844                      -1.09921                      89.17179
                      -4.42882                      -1.24083                      89.13264
                      -4.79427                      -1.30320                      89.13504
                      -5.16183                      -1.28239                      89.17884
                      -5.50839                      -1.17972                      89.26129
                      -5.81220                      -1.00163                      89.37722
                      -6.05414                      -0.75932                      89.51933
                      -6.21903                      -0.46801                      89.67869
                      -6.29651                      -0.14600                      89.84530
                      -6.28170                       0.18646                      90.00869
                      -6.17553                       0.50850                      90.15858
                      -5.98468                       0.79988                      90.28556
                      -5.72114                       1.04229                      90.38166
                      -5.40147                       1.22049                      90.44082
                      -5.04575                       1.32329                      90.45935
                      -4.67633                       1.34424                      90.43606
                      -4.31643                       1.28201                      90.37243
                      -3.98866                       1.14051                      90.27246
                      -3.71362                       0.92864                      90.14241
                      -3.50858                       0.65971                      89.99048
                      -3.38644                       0.35061                      89.82620
                      -3.39157                       0.07608                      89.55067
                      -3.45144                      -0.24783                      89.39563
                      -3.59843                      -0.55140                      89.25861
                      -3.82331                      -0.81557                      89.14821
                      -4.11194                      -1.02372                      89.07137
                      -4.44618                      -1.16279                      89.03292
                      -4.80505                      -1.22403                      89.03528
                      -5.16598                      -1.20360                      89.07829
                      -5.50630                      -1.10278                      89.15926
                      -5.80463                      -0.92790                      89.27309
                      -6.04222                      -0.68996                      89.41264
                      -6.20414                      -0.40389                      89.56914
                      -6.28022                      -0.08769                      89.73274
                      -6.26567                       0.23879                      89.89318
                      -6.16142                       0.55502                      90.04038
                      -5.97401                       0.84115                      90.16507
                      -5.71522                       1.07919                      90.25943
                      -5.40130                       1.25418                      90.31753
                      -5.05199                       1.35513                      90.33572
                      -4.68923                       1.37570                      90.31286
                      -4.33582                       1.31459                      90.25038
                      -4.01396                       1.17564                      90.15220
                      -3.74387                       0.96759                      90.02450
                      -3.54253                       0.70350                      89.87530
                      -3.42258                       0.39998                      89.71398
                      -3.43974                       0.13139                      89.44250
                      -3.49804                      -0.18401                      89.29153
                      -3.64117                      -0.47961                      89.15811
                      -3.86014                      -0.73684                      89.05061
                      -4.14118                      -0.93952                      88.97579
                      -4.46665                      -1.07494                      88.93835
                      -4.81609                      -1.13457                      88.94064
                      -5.16754                      -1.11468                      88.98253
                      -5.49892                      -1.01650                      89.06137
                      -5.78941                      -0.84622                      89.17221
                      -6.02075                      -0.61452                      89.30809
                      -6.17842                      -0.33598                      89.46048
                      -6.25250                      -0.02808                      89.61979
                      -6.23834                       0.28982                      89.77601
                      -6.13682                       0.59775                      89.91934
                      -5.95434                       0.87636                      90.04075
                      -5.70234                       1.10814                      90.13264
                      -5.39668                       1.27854                      90.18921
                      -5.05654                       1.37684                      90.20692
                      -4.70331                       1.39686                      90.18466
                      -4.35918                       1.33736                      90.12382
                      -4.04578                       1.20206                      90.02822
                      -3.78278                       0.99948                      89.90388
                      -3.58673                       0.74233                      89.75860
                      -3.46994                       0.44678                      89.60152
                      -3.50033                       0.18669                      89.33545
                      -3.55654                      -0.11742                      89.18989
                      -3.69455                      -0.40244                      89.06124
                      -3.90568                      -0.65045                      88.95759
                      -4.17666                      -0.84589                      88.88545
                      -4.49048                      -0.97645                      88.84935
                      -4.82741                      -1.03395                      88.85157
                      -5.16627                      -1.01477                      88.89195
                      -5.48579                      -0.92011                      88.96797
                      -5.76588                      -0.75592                      89.07484
                      -5.98895                      -0.53252                      89.20586
                      -6.14097                      -0.26394                      89.35279
                      -6.21240                       0.03293                      89.50640
                      -6.19874                       0.33945                      89.65703
                      -6.10086                       0.63636                      89.79522
                      -5.92491                       0.90499                      89.91229
                      -5.68194                       1.12848                      90.00089
                      -5.38721                       1.29278                      90.05544
                      -5.05925                       1.38756                      90.07252
                      -4.71867                       1.40687                      90.05105
                      -4.38686                       1.34949                      89.99239
                      -4.08467                       1.21904                      89.90021
                      -3.83109                       1.02370                      89.78032
                      -3.64206                       0.77576                      89.64024
                      -3.52945                       0.49079                      89.48878
                      -3.57479                       0.24199                      89.22967
                      -3.62834                      -0.04772                      89.09100
                      -3.75981                      -0.31925                      88.96844
                      -3.96094                      -0.55552                      88.86970
                      -4.21910                      -0.74170                      88.80097
                      -4.51806                      -0.86609                      88.76658
                      -4.83904                      -0.92087                      88.76869
                      -5.16187                      -0.90259                      88.80716
                      -5.46626                      -0.81241                      88.87958
                      -5.73309                      -0.65600                      88.98140
                      -5.94560                      -0.44317                      89.10621
                      -6.09042                      -0.18731                      89.24619
                      -6.15847                       0.09551                      89.39252
                      -6.14546                       0.38752                      89.53602
                      -6.05221                       0.67037                      89.66768
                      -5.88459                       0.92629                      89.77921
                      -5.65312                       1.13920                      89.86361
                      -5.37235                       1.29572                      89.91557
                      -5.05991                       1.38601                      89.93184
                      -4.73545                       1.40440                      89.91139
                      -4.41935                       1.34975                      89.85551
                      -4.13147                       1.22547                      89.76770
                      -3.88989                       1.03938                      89.65348
                      -3.70981                       0.80318                      89.52003
                      -3.60253                       0.53169                      89.37574
                      -3.66532                       0.29729                      89.12535
                      -3.71554                       0.02557                      88.99529
                      -3.83885                      -0.22909                      88.88035
                      -4.02749                      -0.45069                      88.78774
                      -4.26961                      -0.62530                      88.72328
                      -4.55000                      -0.74196                      88.69103
                      -4.85104                      -0.79334                      88.69301
                      -5.15382                      -0.77620                      88.72909
                      -5.43930                      -0.69162                      88.79701
                      -5.68956                      -0.54492                      88.89250
                      -5.88887                      -0.34532                      89.00956
                      -6.02470                      -0.10535                      89.14084
                      -6.08851                       0.15991                      89.27809
                      -6.07631                       0.43378                      89.41268
                      -5.98886                       0.69906                      89.53615
                      -5.83165                       0.93908                      89.64075
                      -5.61455                       1.13877                      89.71991
                      -5.35122                       1.28556                      89.76865
                      -5.05819                       1.37025                      89.78391
                      -4.75389                       1.38750                      89.76473
                      -4.45742                       1.33624                      89.71231
                      -4.18742                       1.21968                      89.62996
                      -3.96085                       1.04515                      89.52284
                      -3.79195                       0.82362                      89.39768
                      -3.69133                       0.56900                      89.26235
                      -3.77539                       0.35259                      89.02281
                      -3.82148                       0.10324                      88.90346
                      -3.93463                      -0.13045                      88.79798
                      -4.10774                      -0.33381                      88.71300
                      -4.32993                      -0.49405                      88.65385
                      -4.58723                      -0.60110                      88.62425
                      -4.86349                      -0.64824                      88.62606
                      -5.14133                      -0.63252                      88.65918
                      -5.40331                      -0.55490                      88.72150
                      -5.63296                      -0.42028                      88.80913
                      -5.81586                      -0.23711                      88.91656
                      -5.94051                      -0.01690                      89.03703
                      -5.99907                       0.22651                      89.16297
                      -5.98787                       0.47784                      89.28648
                      -5.90762                       0.72127                      89.39979
                      -5.76335                       0.94154                      89.49578
                      -5.56413                       1.12478                      89.56842
                      -5.32248                       1.25949                      89.61314
                      -5.05358                       1.33720                      89.62715
                      -4.77433                       1.35303                      89.60955
                      -4.50227                       1.30599                      89.56145
                      -4.25450                       1.19903                      89.48587
                      -4.04659                       1.03887                      89.38757
                      -3.89160                       0.83558                      89.27272
                      -3.79926                       0.60192                      89.14853
                      -3.91092                       0.40788                      88.92259
                      -3.95182                       0.18660                      88.81668
                      -4.05224                      -0.02078                      88.72307
                      -4.20585                      -0.20124                      88.64766
                      -4.40303                      -0.34344                      88.59517
                      -4.63136                      -0.43844                      88.56890
                      -4.87651                      -0.48027                      88.57051
                      -5.12308                      -0.46632                      88.59990
                      -5.35556                      -0.39744                      88.65521
                      -5.55936                      -0.27798                      88.73297
                      -5.72166                      -0.11543                      88.82830
                      -5.83227                       0.07999                      88.93521
                      -5.88424                       0.29600                      89.04697
                      -5.87431                       0.51902                      89.15657
                      -5.80309                       0.73505                      89.25712
                      -5.67506                       0.93052                      89.34231
                      -5.49827                       1.09313                      89.40677
                      -5.28383                       1.21267                      89.44646
                      -5.04521                       1.28163                      89.45888
                      -4.79739                       1.29568                      89.44326
                      -4.55597                       1.25394                      89.40058
                      -4.33609                       1.15902                      89.33351
                      -4.15159                       1.01689                      89.24628
                      -4.01405                       0.83649                      89.14436
                      -3.93211                       0.62914                      89.03415
                      -4.08342                       0.46316                      88.82573
                      -4.11760                       0.27824                      88.73722
                      -4.20152                       0.10493                      88.65900
                      -4.32990                      -0.04588                      88.59597
                      -4.49468                      -0.16472                      88.55210
                      -4.68550                      -0.24411                      88.53015
                      -4.89038                      -0.27908                      88.53150
                      -5.09643                      -0.26741                      88.55605
                      -5.29072                      -0.20985                      88.60228
                      -5.46104                      -0.11002                      88.66727
                      -5.59668                       0.02583                      88.74693
                      -5.68912                       0.18914                      88.83628
                      -5.73255                       0.36966                      88.92968
                      -5.72425                       0.55605                      89.02128
                      -5.66473                       0.73659                      89.10531
                      -5.55774                       0.89993                      89.17649
                      -5.40999                       1.03583                      89.23037
                      -5.23078                       1.13573                      89.26354
                      -5.03136                       1.19337                      89.27392
                      -4.82426                       1.20511                      89.26087
                      -4.62249                       1.17022                      89.22520
                      -4.43874                       1.09090                      89.16915
                      -4.28455                       0.97212                      89.09624
                      -4.16961                       0.82135                      89.01107
                      -4.10113                       0.64807                      88.91897
                      -4.32233                       0.51843                      88.73492
                      -4.34704                       0.38473                      88.67093
                      -4.40771                       0.25943                      88.61437
                      -4.50053                       0.15039                      88.56880
                      -4.61967                       0.06447                      88.53709
                      -4.75763                       0.00707                      88.52122
                      -4.90575                      -0.01821                      88.52219
                      -5.05473                      -0.00977                      88.53994
                      -5.19520                       0.03184                      88.57336
                      -5.31834                       0.10402                      88.62035
                      -5.41641                       0.20224                      88.67795
                      -5.48324                       0.32031                      88.74254
                      -5.51464                       0.45083                      88.81008
                      -5.50864                       0.58559                      88.87630
                      -5.46561                       0.71612                      88.93705
                      -5.38825                       0.83422                      88.98852
                      -5.28143                       0.93247                      89.02747
                      -5.15186                       1.00470                      89.05145
                      -5.00768                       1.04637                      89.05896
                      -4.85795                       1.05486                      89.04952
                      -4.71208                       1.02963                      89.02373
                      -4.57922                       0.97228                      88.98321
                      -4.46774                       0.88641                      88.93050
                      -4.38464                       0.77740                      88.86892
                      -4.33513                       0.65212                      88.80233
                      -4.92951                       0.57363                      88.67764
                      -4.92951                       0.57363                      88.67764
                      -4.92951                       0.57363                      88.67764
                      -4.92951                       0.57363                      88.67764
                      -4.92951                       0.57363                      88.67764
                      -4.92951                       0.57363                      88.67764
                      -4.92951                       0.57363                      88.67764
                      -4.92951                       0.57363                      88.67764
                      -4.92951                       0.57363                      88.67764
                      -4.92951                       0.57363                      88.67764
                      -4.92951                       0.57363                      88.67764
                      -4.92951                       0.57363                      88.67764
                      -4.92951                       0.57363                      88.67764
                      -4.92951                       0.57363                      88.67764
                      -4.92951                       0.57363                      88.67764
                      -4.92951                       0.57363                      88.67764
                      -4.92951                       0.57363                      88.67764
                      -4.92951                       0.57363                      88.67764
                      -4.92951                       0.57363                      88.67764
                      -4.92951                       0.57363                      88.67764
                      -4.92951                       0.57363                      88.67764
                      -4.92951                       0.57363                      88.67764
                      -4.92951                       0.57363                      88.67764
                      -4.92951                       0.57363                      88.67764
                      -4.92951                       0.57363                      88.67764
        </DataArray>
      </Points>
      <Polys>
        <DataArray type="Int32" Name="connectivity" format="ascii">
      0      1     26     25
      1      2     27     26
      2      3     28     27
      3      4     29     28
      4      5     30     29
      5      6     31     30
      6      7     32     31
      7      8     33     32
      8      9     34     33
      9     10     35     34
     10     11     36     35
     11     12     37     36
     12     13     38     37
     13     14     39     38
     14     15     40     39
     15     16     41     40
     16     17     42     41
     17     18     43     42
     18     19     44     43
     19     20     45     44
     20     21     46     45
     21     22     47     46
     22     23     48     47
     23     24     49     48
     24      0     25     49
     25     26     51     50
     26     27     52     51
     27     28     53     52
     28     29     54     53
     29     30     55     54
     30     31     56     55
     31     32     57     56
     32     33     58     57
     33     34     59     58
     34     35     60     59
     35     36     61     60
     36     37     62     61
     37     38     63     62
     38     39     64     63
     39     40     65     64
     40     41     66     65
     41     42     67     66
     42     43     68     67
     43     44     69     68
     44     45     70     69
     45     46     71     70
     46     47     72     71
     47     48     73     72
     48     49     74     73
     49     25     50     74
     50     51     76     75
     51     52     77     76
     52     53     78     77
     53     54     79     78
     54     55     80     79
     55     56     81     80
     56     57     82     81
     57     58     83     82
     58     59     84     83
     59     60     85     84
     60     61     86     85
     61     62     87     86
     62     63     88     87
     63     64     89     88
     64     65     90     89
     65     66     91     90
     66     67     92     91
     67     68     93     92
     68     69     94     93
     69     70     95     94
     70     71     96     95
     71     72     97     96
     72     73     98     97
     73     74     99     98
     74     50     75     99
     75     76    101    100
     76     77    102    101
     77     78    103    102
     78     79    104    103
     79     80    105    104
     80     81    106    105
     81     82    107    106
     82     83    108    107
     83     84    109    108
     84     85    110    109
     85     86    111    110
     86     87    112    111
     87     88    113    112
     88     89    114    113
     89     90    115    114
     90     91    116    115
     91     92    117    116
     92     93    118    117
     93     94    119    118
     94     95    120    119
     95     96    121    120
     96     97    122    121
     97     98    123    122
     98     99    124    123
     99     75    100    124
    100    101    126    125
    101    102    127    126
    102    103    128    127
    103    104    129    128
    104    105    130    129
    105    106    131    130
    106    107    132    131
    107    108    133    132
    108    109    134    133
    109    110    135    134
    110    111    136    135
    111    112    137    136
    112    113    138    137
    113    114    139    138
    114    115    140    139
    115    116    141    140
    116    117    142    141
    117    118    143    142
    118    119    144    143
    119    120    145    144
    120    121    146    145
    121    122    147    146
    122    123    148    147
    123    124    149    148
    124    100    125    149
    125    126    151    150
    126    127    152    151
    127    128    153    152
    128    129    154    153
    129    130    155    154
    130    131    156    155
    131    132    157    156
    132    133    158    157
    133    134    159    158
    134    135    160    159
    135    136    161    160
    136    137    162    161
    137    138    163    162
    138    139    164    163
    139    140    165    164
    140    141    166    165
    141    142    167    166
    142    143    168    167
    143    144    169    168
    144    145    170    169
    145    146    171    170
    146    147    172    171
    147    148    173    172
    148    149    174    173
    149    125    150    174
    150    151    176    175
    151    152    177    176
    152    153    178    177
    153    154    179    178
    154    155    180    179
    155    156    181    180
    156    157    182    181
    157    158    183    182
    158    159    184    183
    159    160    185    184
    160    161    186    185
    161    162    187    186
    162    163    188    187
    163    164    189    188
    164    165    190    189
    165    166    191    190
    166    167    192    191
    167    168    193    192
    168    169    194    193
    169    170    195    194
    170    171    196    195
    171    172    197    196
    172    173    198    197
    173    174    199    198
    174    150    175    199
    175    176    201    200
    176    177    202    201
    177    178    203    202
    178    179    204    203
    179    180    205    204
    180    181    206    205
    181    182    207    206
    182    183    208    207
    183    184    209    208
    184    185    210    209
    185    186    211    210
    186    187    212    211
    187    188    213    212
    188    189    214    213
    189    190    215    214
    190    191    216    215
    191    192    217    216
    192    193    218    217
    193    194    219    218
    194    195    220    219
    195    196    221    220
    196    197    222    221
    197    198    223    222
    198    199    224    223
    199    175    200    224
    200    201    226    225
    201    202    227    226
    202    203    228    227
    203    204    229    228
    204    205    230    229
    205    206    231    230
    206    207    232    231
    207    208    233    232
    208    209    234    233
    209    210    235    234
    210    211    236    235
    211    212    237    236
    212    213    238    237
    213    214    239    238
    214    215    240    239
    215    216    241    240
    216    217    242    241
    217    218    243    242
    218    219    244    243
    219    220    245    244
    220    221    246    245
    221    222    247    246
    222    223    248    247
    223    224    249    248
    224    200    225    249
    225    226    251    250
    226    227    252    251
    227    228    253    252
    228    229    254    253
    229    230    255    254
    230    231    256    255
    231    232    257    256
    232    233    258    257
    233    234    259    258
    234    235    260    259
    235    236    261    260
    236    237    262    261
    237    238    263    262
    238    239    264    263
    239    240    265    264
    240    241    266    265
    241    242    267    266
    242    243    268    267
    243    244    269    268
    244    245    270    269
    245    246    271    270
    246    247    272    271
    247    248    273    272
    248    249    274    273
    249    225    250    274
    250    251    276    275
    251    252    277    276
    252    253    278    277
    253    254    279    278
    254    255    280    279
    255    256    281    280
    256    257    282    281
    257    258    283    282
    258    259    284    283
    259    260    285    284
    260    261    286    285
    261    262    287    286
    262    263    288    287
    263    264    289    288
    264    265    290    289
    265    266    291    290
    266    267    292    291
    267    268    293    292
    268    269    294    293
    269    270    295    294
    270    271    296    295
    271    272    297    296
    272    273    298    297
    273    274    299    298
    274    250    275    299
    275    276    301    300
    276    277    302    301
    277    278    303    302
    278    279    304    303
    279    280    305    304
    280    281    306    305
    281    282    307    306
    282    283    308    307
    283    284    309    308
    284    285    310    309
    285    286    311    310
    286    287    312    311
    287    288    313    312
    288    289    314    313
    289    290    315    314
    290    291    316    315
    291    292    317    316
    292    293    318    317
    293    294    319    318
    294    295    320    319
    295    296    321    320
    296    297    322    321
    297    298    323    322
    298    299    324    323
    299    275    300    324
    300    301    326    325
    301    302    327    326
    302    303    328    327
    303    304    329    328
    304    305    330    329
    305    306    331    330
    306    307    332    331
    307    308    333    332
    308    309    334    333
    309    310    335    334
    310    311    336    335
    311    312    337    336
    312    313    338    337
    313    314    339    338
    314    315    340    339
    315    316    341    340
    316    317    342    341
    317    318    343    342
    318    319    344    343
    319    320    345    344
    320    321    346    345
    321    322    347    346
    322    323    348    347
    323    324    349    348
    324    300    325    349
    325    326    351    350
    326    327    352    351
    327    328    353    352
    328    329    354    353
    329    330    355    354
    330    331    356    355
    331    332    357    356
    332    333    358    357
    333    334    359    358
    334    335    360    359
    335    336    361    360
    336    337    362    361
    337    338    363    362
    338    339    364    363
    339    340    365    364
    340    341    366    365
    341    342    367    366
    342    343    368    367
    343    344    369    368
    344    345    370    369
    345    346    371    370
    346    347    372    371
    347    348    373    372
    348    349    374    373
    349    325    350    374
    350    351    376    375
    351    352    377    376
    352    353    378    377
    353    354    379    378
    354    355    380    379
    355    356    381    380
    356    357    382    381
    357    358    383    382
    358    359    384    383
    359    360    385    384
    360    361    386    385
    361    362    387    386
    362    363    388    387
    363    364    389    388
    364    365    390    389
    365    366    391    390
    366    367    392    391
    367    368    393    392
    368    369    394    393
    369    370    395    394
    370    371    396    395
    371    372    397    396
    372    373    398    397
    373    374    399    398
    374    350    375    399
    375    376    401    400
    376    377    402    401
    377    378    403    402
    378    379    404    403
    379    380    405    404
    380    381    406    405
    381    382    407    406
    382    383    408    407
    383    384    409    408
    384    385    410    409
    385    386    411    410
    386    387    412    411
    387    388    413    412
    388    389    414    413
    389    390    415    414
    390    391    416    415
    391    392    417    416
    392    393    418    417
    393    394    419    418
    394    395    420    419
    395    396    421    420
    396    397    422    421
    397    398    423    422
    398    399    424    423
    399    375    400    424
    400    401    426    425
    401    402    427    426
    402    403    428    427
    403    404    429    428
    404    405    430    429
    405    406    431    430
    406    407    432    431
    407    408    433    432
    408    409    434    433
    409    410    435    434
    410    411    436    435
    411    412    437    436
    412    413    438    437
    413    414    439    438
    414    415    440    439
    415    416    441    440
    416    417    442    441
    417    418    443    442
    418    419    444    443
    419    420    445    444
    420    421    446    445
    421    422    447    446
    422    423    448    447
    423    424    449    448
    424    400    425    449
    425    426    451    450
    426    427    452    451
    427    428    453    452
    428    429    454    453
    429    430    455    454
    430    431    456    455
    431    432    457    456
    432    433    458    457
    433    434    459    458
    434    435    460    459
    435    436    461    460
    436    437    462    461
    437    438    463    462
    438    439    464    463
    439    440    465    464
    440    441    466    465
    441    442    467    466
    442    443    468    467
    443    444    469    468
    444    445    470    469
    445    446    471    470
    446    447    472    471
    447    448    473    472
    448    449    474    473
    449    425    450    474
    450    451    476    475
    451    452    477    476
    452    453    478    477
    453    454    479    478
    454    455    480    479
    455    456    481    480
    456    457    482    481
    457    458    483    482
    458    459    484    483
    459    460    485    484
    460    461    486    485
    461    462    487    486
    462    463    488    487
    463    464    489    488
    464    465    490    489
    465    466    491    490
    466    467    492    491
    467    468    493    492
    468    469    494    493
    469    470    495    494
    470    471    496    495
    471    472    497    496
    472    473    498    497
    473    474    499    498
    474    450    475    499
    475    476    501    500
    476    477    502    501
    477    478    503    502
    478    479    504    503
    479    480    505    504
    480    481    506    505
    481    482    507    506
    482    483    508    507
    483    484    509    508
    484    485    510    509
    485    486    511    510
    486    487    512    511
    487    488    513    512
    488    489    514    513
    489    490    515    514
    490    491    516    515
    491    492    517    516
    492    493    518    517
    493    494    519    518
    494    495    520    519
    495    496    521    520
    496    497    522    521
    497    498    523    522
    498    499    524    523
    499    475    500    524
    500    501    526    525
    501    502    527    526
    502    503    528    527
    503    504    529    528
    504    505    530    529
    505    506    531    530
    506    507    532    531
    507    508    533    532
    508    509    534    533
    509    510    535    534
    510    511    536    535
    511    512    537    536
    512    513    538    537
    513    514    539    538
    514    515    540    539
    515    516    541    540
    516    517    542    541
    517    518    543    542
    518    519    544    543
    519    520    545    544
    520    521    546    545
    521    522    547    546
    522    523    548    547
    523    524    549    548
    524    500    525    549
    525    526    551    550
    526    527    552    551
    527    528    553    552
    528    529    554    553
    529    530    555    554
    530    531    556    555
    531    532    557    556
    532    533    558    557
    533    534    559    558
    534    535    560    559
    535    536    561    560
    536    537    562    561
    537    538    563    562
    538    539    564    563
    539    540    565    564
    540    541    566    565
    541    542    567    566
    542    543    568    567
    543    544    569    568
    544    545    570    569
    545    546    571    570
    546    547    572    571
    547    548    573    572
    548    549    574    573
    549    525    550    574
    550    551    576    575
    551    552    577    576
    552    553    578    577
    553    554    579    578
    554    555    580    579
    555    556    581    580
    556    557    582    581
    557    558    583    582
    558    559    584    583
    559    560    585    584
    560    561    586    585
    561    562    587    586
    562    563    588    587
    563    564    589    588
    564    565    590    589
    565    566    591    590
    566    567    592    591
    567    568    593    592
    568    569    594    593
    569    570    595    594
    570    571    596    595
    571    572    597    596
    572    573    598    597
    573    574    599    598
    574    550    575    599
    575    576    601    600
    576    577    602    601
    577    578    603    602
    578    579    604    603
    579    580    605    604
    580    581    606    605
    581    582    607    606
    582    583    608    607
    583    584    609    608
    584    585    610    609
    585    586    611    610
    586    587    612    611
    587    588    613    612
    588    589    614    613
    589    590    615    614
    590    591    616    615
    591    592    617    616
    592    593    618    617
    593    594    619    618
    594    595    620    619
    595    596    621    620
    596    597    622    621
    597    598    623    622
    598    599    624    623
    599    575    600    624
        </DataArray>
        <DataArray type="Int32" Name="offsets" format="ascii">
      4
      8
     12
     16
     20
     24
     28
     32
     36
     40
     44
     48
     52
     56
     60
     64
     68
     72
     76
     80
     84
     88
     92
     96
    100
    104
    108
    112
    116
    120
    124
    128
    132
    136
    140
    144
    148
    152
    156
    160
    164
    168
    172
    176
    180
    184
    188
    192
    196
    200
    204
    208
    212
    216
    220
    224
    228
    232
    236
    240
    244
    248
    252
    256
    260
    264
    268
    272
    276
    280
    284
    288
    292
    296
    300
    304
    308
    312
    316
    320
    324
    328
    332
    336
    340
    344
    348
    352
    356
    360
    364
    368
    372
    376
    380
    384
    388
    392
    396
    400
    404
    408
    412
    416
    420
    424
    428
    432
    436
    440
    444
    448
    452
    456
    460
    464
    468
    472
    476
    480
    484
    488
    492
    496
    500
    504
    508
    512
    516
    520
    524
    528
    532
    536
    540
    544
    548
    552
    556
    560
    564
    568
    572
    576
    580
    584
    588
    592
    596
    600
    604
    608
    612
    616
    620
    624
    628
    632
    636
    640
    644
    648
    652
    656
    660
    664
    668
    672
    676
    680
    684
    688
    692
    696
    700
    704
    708
    712
    716
    720
    724
    728
    732
    736
    740
    744
    748
    752
    756
    760
    764
    768
    772
    776
    780
    784
    788
    792
    796
    800
    804
    808
    812
    816
    820
    824
    828
    832
    836
    840
    844
    848
    852
    856
    860
    864
    868
    872
    876
    880
    884
    888
    892
    896
    900
    904
    908
    912
    916
    920
    924
    928
    932
    936
    940
    944
    948
    952
    956
    960
    964
    968
    972
    976
    980
    984
    988
    992
    996
   1000
   1004
   1008
   1012
   1016
   1020
   1024
   1028
   1032
   1036
   1040
   1044
   1048
   1052
   1056
   1060
   1064
   1068
   1072
   1076
   1080
   1084
   1088
   1092
   1096
   1100
   1104
   1108
   1112
   1116
   1120
   1124
   1128
   1132
   1136
   1140
   1144
   1148
   1152
   1156
   1160
   1164
   1168
   1172
   1176
   1180
   1184
   1188
   1192
   1196
   1200
   1204
   1208
   1212
   1216
   1220
   1224
   1228
   1232
   1236
   1240
   1244
   1248
   1252
   1256
   1260
   1264
   1268
   1272
   1276
   1280
   1284
   1288
   1292
   1296
   1300
   1304
   1308
   1312
   1316
   1320
   1324
   1328
   1332
   1336
   1340
   1344
   1348
   1352
   1356
   1360
   1364
   1368
   1372
   1376
   1380
   1384
   1388
   1392
   1396
   1400
   1404
   1408
   1412
   1416
   1420
   1424
   1428
   1432
   1436
   1440
   1444
   1448
   1452
   1456
   1460
   1464
   1468
   1472
   1476
   1480
   1484
   1488
   1492
   1496
   1500
   1504
   1508
   1512
   1516
   1520
   1524
   1528
   1532
   1536
   1540
   1544
   1548
   1552
   1556
   1560
   1564
   1568
   1572
   1576
   1580
   1584
   1588
   1592
   1596
   1600
   1604
   1608
   1612
   1616
   1620
   1624
   1628
   1632
   1636
   1640
   1644
   1648
   1652
   1656
   1660
   1664
   1668
   1672
   1676
   1680
   1684
   1688
   1692
   1696
   1700
   1704
   1708
   1712
   1716
   1720
   1724
   1728
   1732
   1736
   1740
   1744
   1748
   1752
   1756
   1760
   1764
   1768
   1772
   1776
   1780
   1784
   1788
   1792
   1796
   1800
   1804
   1808
   1812
   1816
   1820
   1824
   1828
   1832
   1836
   1840
   1844
   1848
   1852
   1856
   1860
   1864
   1868
   1872
   1876
   1880
   1884
   1888
   1892
   1896
   1900
   1904
   1908
   1912
   1916
   1920
   1924
   1928
   1932
   1936
   1940
   1944
   1948
   1952
   1956
   1960
   1964
   1968
   1972
   1976
   1980
   1984
   1988
   1992
   1996
   2000
   2004
   2008
   2012
   2016
   2020
   2024
   2028
   2032
   2036
   2040
   2044
   2048
   2052
   2056
   2060
   2064
   2068
   2072
   2076
   2080
   2084
   2088
   2092
   2096
   2100
   2104
   2108
   2112
   2116
   2120
   2124
   2128
   2132
   2136
   2140
   2144
   2148
   2152
   2156
   2160
   2164
   2168
   2172
   2176
   2180
   2184
   2188
   2192
   2196
   2200
   2204
   2208
   2212
   2216
   2220
   2224
   2228
   2232
   2236
   2240
   2244
   2248
   2252
   2256
   2260
   2264
   2268
   2272
   2276
   2280
   2284
   2288
   2292
   2296
   2300
   2304
   2308
   2312
   2316
   2320
   2324
   2328
   2332
   2336
   2340
   2344
   2348
   2352
   2356
   2360
   2364
   2368
   2372
   2376
   2380
   2384
   2388
   2392
   2396
   2400
        </DataArray>
      </Polys>
    </Piece>
  </PolyData>
</VTKFile>
