<?xml version="1.0"?>
<VTKFile type="PolyData" version="0.1" byte_order="LittleEndian">
  <PolyData>
    <Piece NumberOfPoints="      8" NumberOfVerts="  0" NumberOfLines="      0"
           NumberOfStrips="  0" NumberOfPolys="      6">
      <Points>
        <DataArray type="Float32" NumberOfComponents="3" format="ascii">
                      -3.29465                       2.33346                      87.61725
                       3.70530                       2.33348                      87.59018
                       3.70529                      -2.46652                      87.58203
                      -3.29466                      -2.46654                      87.60910
                      -3.27610                      -2.47469                      92.40907
                       3.72385                      -2.47467                      92.38200
                       3.72386                       2.32533                      92.39015
                      -3.27608                       2.32531                      92.41722
        </DataArray>
      </Points>
      <Polys>
        <DataArray type="Int32" Name="connectivity" format="ascii">
      0      1      2      3
      4      5      6      7
      7      6      1      0
      6      5      2      1
      5      4      3      2
      4      7      0      3
        </DataArray>
        <DataArray type="Int32" Name="offsets" format="ascii">
      4
      8
     12
     16
     20
     24
        </DataArray>
      </Polys>
    </Piece>
  </PolyData>
</VTKFile>
