<?xml version="1.0"?>
<VTKFile type="PolyData" version="0.1" byte_order="LittleEndian">
  <PolyData>
    <Piece NumberOfPoints="     19" NumberOfVerts="  0" NumberOfLines="     18"
           NumberOfStrips="  0" NumberOfPolys="      0">
      <Points>
        <DataArray type="Float32" NumberOfComponents="3" format="ascii">
                      -4.78336                      -1.39867                      90.73202
                      -4.78537                      -2.60287                      91.37852
                      -4.84194                      -5.05041                      92.59880
                      -4.92118                      -7.51747                      93.78285
                      -5.02980                     -10.61455                      95.23842
                      -5.04962                     -14.28014                      97.07918
                      -4.98697                     -17.89681                      99.01072
                      -4.90886                     -21.51697                     100.93544
                      -4.81049                     -25.14023                     102.85374
                      -4.69191                     -28.76718                     104.76420
                      -4.55492                     -32.39896                     106.66442
                      -4.39838                     -36.03465                     108.55588
                      -4.22386                     -39.67365                     110.43953
                      -4.03406                     -43.31531                     112.31659
                      -3.83062                     -46.95927                     114.18761
                      -3.65368                     -49.99720                     115.74320
                      -3.50711                     -52.42452                     116.99262
                      -3.34049                     -54.82814                     118.28650
                      -3.27439                     -56.04783                     118.89945
        </DataArray>
      </Points>
      <PointData>
        <DataArray type="Float32" Name="TranslationalVelocity" NumberOfComponents="3" format="ascii">
                      -0.14687                      -0.89489                      -1.66428
                      -0.28559                      -1.71071                      -3.18425
                      -0.56830                      -3.24466                      -6.27393
                      -0.85434                      -4.73046                      -9.38880
                      -1.21530                      -6.55590                     -13.30002
                      -1.64581                      -8.87851                     -17.93044
                      -2.07516                     -11.32597                     -22.50001
                      -2.51073                     -13.76707                     -27.07444
                      -2.95366                     -16.20266                     -31.65262
                      -3.40521                     -18.63072                     -36.23463
                      -3.86660                     -21.04778                     -40.82120
                      -4.33865                     -23.45560                     -45.41050
                      -4.82197                     -25.85499                     -50.00119
                      -5.31689                     -28.24701                     -54.59200
                      -5.82338                     -30.63210                     -59.18220
                      -6.25416                     -32.61528                     -63.00624
                      -6.60334                     -34.20831                     -66.06001
                      -6.95352                     -35.85979                     -69.08251
                      -7.13232                     -36.64026                     -70.61593
        </DataArray>
        <DataArray type="Float32" Name="RotationalVelocity" NumberOfComponents="3" format="ascii">
                       1.26213                       0.00053                      -0.11545
                       1.26221                       0.00055                      -0.11556
                       1.26240                       0.00054                      -0.11587
                       1.26262                       0.00044                      -0.11628
                       1.26290                       0.00024                      -0.11691
                       1.26320                      -0.00011                      -0.11787
                       1.26341                      -0.00053                      -0.11905
                       1.26348                      -0.00102                      -0.12050
                       1.26338                      -0.00156                      -0.12222
                       1.26310                      -0.00214                      -0.12423
                       1.26264                      -0.00276                      -0.12654
                       1.26199                      -0.00341                      -0.12910
                       1.26121                      -0.00408                      -0.13185
                       1.26033                      -0.00476                      -0.13468
                       1.25942                      -0.00542                      -0.13742
                       1.25870                      -0.00593                      -0.13949
                       1.25821                      -0.00629                      -0.14087
                       1.25781                      -0.00659                      -0.14191
                       1.25767                      -0.00671                      -0.14227
        </DataArray>
        <DataArray type="Float32" Name="TranslationalAcceleration" NumberOfComponents="3" format="ascii">
                      -0.13716                       2.14946                      -1.13251
                      -0.13624                       2.57704                      -1.36260
                      -0.37405                       7.43634                      -3.77315
                      -0.58118                      11.94000                      -5.91435
                      -0.81420                      17.22826                      -8.35037
                      -1.09276                      23.17144                     -11.25553
                      -1.38024                      28.89056                     -14.22695
                      -1.66958                      34.60436                     -17.17229
                      -1.96686                      40.38205                     -20.13186
                      -2.27537                      46.24513                     -23.11665
                      -2.59640                      52.18054                     -26.11717
                      -2.93080                      58.15073                     -29.11943
                      -3.27900                      64.11198                     -32.10429
                      -3.64193                      70.02804                     -35.05629
                      -4.02181                      75.88506                     -37.96985
                      -4.35491                      80.73499                     -40.37694
                      -4.63543                      84.61382                     -42.31345
                      -4.93769                      88.49495                     -44.34510
                      -5.09063                      90.49356                     -45.31803
        </DataArray>
        <DataArray type="Float32" Name="OrientationX" NumberOfComponents="3" format="ascii">
                       0.82946                      -0.26555                      -0.49141
                       0.82946                      -0.26522                      -0.49159
                       0.82943                      -0.26420                      -0.49218
                       0.82939                      -0.26276                      -0.49303
                       0.82929                      -0.26046                      -0.49441
                       0.84649                      -0.24445                      -0.47297
                       0.85818                      -0.23137                      -0.45825
                       0.86781                      -0.21908                      -0.44600
                       0.87741                      -0.20610                      -0.43320
                       0.88668                      -0.19281                      -0.42027
                       0.89476                      -0.18013                      -0.40861
                       0.90217                      -0.16783                      -0.39739
                       0.90825                      -0.15687                      -0.38790
                       0.91213                      -0.14859                      -0.38203
                       0.91574                      -0.14144                      -0.37606
                       0.91874                      -0.13644                      -0.37054
                       0.92097                      -0.13352                      -0.36605
                       0.92181                      -0.13315                      -0.36407
                       0.92143                      -0.13430                      -0.36460
        </DataArray>
        <DataArray type="Float32" Name="OrientationY" NumberOfComponents="3" format="ascii">
                       0.55857                       0.39402                       0.72990
                       0.55857                       0.39392                       0.72995
                       0.55860                       0.39370                       0.73004
                       0.55867                       0.39347                       0.73011
                       0.55881                       0.39321                       0.73015
                       0.53235                       0.40096                       0.74554
                       0.51323                       0.40611                       0.75609
                       0.49666                       0.41031                       0.76483
                       0.47931                       0.41448                       0.77361
                       0.46171                       0.41844                       0.78213
                       0.44553                       0.42183                       0.78966
                       0.42994                       0.42484                       0.79666
                       0.41652                       0.42720                       0.80251
                       0.40755                       0.42861                       0.80635
                       0.39901                       0.42984                       0.80995
                       0.39184                       0.43079                       0.81294
                       0.38654                       0.43146                       0.81513
                       0.38460                       0.43165                       0.81594
                       0.38560                       0.43146                       0.81557
        </DataArray>
        <DataArray type="Float32" Name="OrientationZ" NumberOfComponents="3" format="ascii">
                      -0.00020                      -0.87991                       0.47515
                       0.00005                      -0.88005                       0.47488
                       0.00089                      -0.88045                       0.47414
                       0.00215                      -0.88099                       0.47314
                       0.00423                      -0.88179                       0.47163
                       0.00739                      -0.88288                       0.46954
                       0.01116                      -0.88405                       0.46726
                       0.01544                      -0.88524                       0.46488
                       0.02011                      -0.88641                       0.46246
                       0.02506                      -0.88754                       0.46005
                       0.03012                      -0.88860                       0.45769
                       0.03512                      -0.88958                       0.45543
                       0.03982                      -0.89045                       0.45334
                       0.04393                      -0.89118                       0.45151
                       0.04708                      -0.89176                       0.45006
                       0.04871                      -0.89208                       0.44925
                       0.04910                      -0.89220                       0.44897
                       0.04850                      -0.89216                       0.44911
                       0.04778                      -0.89208                       0.44935
        </DataArray>
        <DataArray type="Float32" Name="Force" NumberOfComponents="3" format="ascii">
                       1.06529                       6.29569                      11.65926
                     456.08867                      38.52893                      71.28109
                     533.49877                      87.00165                     160.05424
                     441.23425                     105.68416                     193.65441
                    2225.10362                    -899.35864                   -1688.19565
                    2763.52150                   -1165.21614                   -2206.88189
                    2841.56637                   -1022.54441                   -1968.72616
                    3028.97158                    -939.87685                   -1850.02568
                    2780.28177                    -746.83335                   -1512.76740
                    2601.08449                    -612.27834                   -1283.98227
                    2803.76899                    -580.68267                   -1268.74552
                    2665.15683                    -488.68511                   -1118.32681
                    2413.82061                    -400.58725                    -960.19729
                    2038.39650                    -299.25540                    -756.93208
                    1663.91121                    -216.25074                    -577.37562
                    1369.71256                    -159.81207                    -446.30416
                    1090.08239                    -115.16830                    -333.70478
                     524.23018                     -45.82195                    -141.90474
                   -5719.26116                     324.84095                    1211.55701
        </DataArray>
        <DataArray type="Float32" Name="Moment" NumberOfComponents="3" format="ascii">
                       0.00000                       0.00000                       0.00000
                       0.00000                       0.00000                       0.00000
                       0.00000                       0.00000                       0.00000
                       0.00000                       0.00000                       0.00000
                      -3.83405                     746.36992                    -402.66980
                      -7.90410                     886.35285                    -477.88502
                     -16.76096                    1249.93757                    -673.40196
                     -31.43689                    1701.44231                    -915.86171
                     -51.56855                    2149.38970                   -1155.90210
                     -67.71346                    2271.42384                   -1220.32219
                     -84.76713                    2370.48389                   -1272.25383
                    -100.83499                    2422.64045                   -1298.94890
                     -86.23368                    1829.76306                    -980.14482
                     -91.09046                    1753.73886                    -938.64999
                     -92.26171                    1658.16177                    -886.93386
                     -89.20510                    1549.91771                    -828.76420
                     -79.03494                    1362.03662                    -728.24259
                     -38.76233                     676.00718                    -361.48442
                       9.46166                    -167.47570                      89.56797
        </DataArray>
      </PointData>
      <Lines>
        <DataArray type="Int32" Name="connectivity" format="ascii">
      0      1
      1      2
      2      3
      3      4
      4      5
      5      6
      6      7
      7      8
      8      9
      9     10
     10     11
     11     12
     12     13
     13     14
     14     15
     15     16
     16     17
     17     18
        </DataArray>
        <DataArray type="Int32" Name="offsets" format="ascii">
      2
      4
      6
      8
     10
     12
     14
     16
     18
     20
     22
     24
     26
     28
     30
     32
     34
     36
        </DataArray>
      </Lines>
    </Piece>
  </PolyData>
</VTKFile>
