<?xml version="1.0"?>
<VTKFile type="PolyData" version="0.1" byte_order="LittleEndian">
  <PolyData>
    <Piece NumberOfPoints="    550" NumberOfVerts="  0" NumberOfLines="     21"
           NumberOfStrips="  0" NumberOfPolys="    567">
      <Points>
        <DataArray type="Float32" NumberOfComponents="3" format="ascii">
                       2.97347                      -0.00003                       2.18975
                       2.88005                       0.73942                       2.18978
                       2.60568                       1.43240                       2.18982
                       2.16759                       2.03538                       2.18988
                       1.59330                       2.51047                       2.18994
                       0.91891                       2.82782                       2.19000
                       0.18679                       2.96748                       2.19007
                      -0.55706                       2.92068                       2.19013
                      -1.26591                       2.69036                       2.19019
                      -1.89521                       2.29099                       2.19023
                      -2.40542                       1.74767                       2.19026
                      -2.76448                       1.09454                       2.19027
                      -2.94984                       0.37263                       2.19026
                      -2.94984                      -0.37270                       2.19024
                      -2.76448                      -1.09461                       2.19020
                      -2.40542                      -1.74774                       2.19015
                      -1.89521                      -2.29106                       2.19009
                      -1.26591                      -2.69042                       2.19003
                      -0.55706                      -2.92074                       2.18996
                       0.18679                      -2.96754                       2.18990
                       0.91891                      -2.82788                       2.18984
                       1.59330                      -2.51054                       2.18979
                       2.16759                      -2.03545                       2.18975
                       2.60568                      -1.43247                       2.18974
                       2.88005                      -0.73948                       2.18973
                       2.92103                      -0.00028                       6.56914
                       2.82929                       0.72592                       6.56922
                       2.55983                       1.40650                       6.56936
                       2.12959                       1.99868                       6.56954
                       1.56559                       2.46526                       6.56974
                       0.90328                       2.77692                       6.56996
                       0.18427                       2.91408                       6.57019
                      -0.54627                       2.86812                       6.57040
                      -1.24242                       2.64193                       6.57059
                      -1.86045                       2.24971                       6.57074
                      -2.36152                       1.71612                       6.57084
                      -2.71415                       1.07469                       6.57089
                      -2.89619                       0.36571                       6.57089
                      -2.89619                      -0.36627                       6.57083
                      -2.71415                      -1.07525                       6.57071
                      -2.36152                      -1.71669                       6.57056
                      -1.86045                      -2.25028                       6.57036
                      -1.24242                      -2.64249                       6.57015
                      -0.54627                      -2.86868                       6.56992
                       0.18427                      -2.91464                       6.56970
                       0.90328                      -2.77749                       6.56950
                       1.56559                      -2.46582                       6.56933
                       2.12959                      -1.99924                       6.56920
                       2.55983                      -1.40706                       6.56913
                       2.82929                      -0.72649                       6.56910
                       2.86960                      -0.00075                      10.94846
                       2.77953                       0.71221                      10.94860
                       2.51499                       1.38037                      10.94883
                       2.09259                       1.96176                      10.94914
                       1.53887                       2.41983                      10.94950
                       0.88864                       2.72581                      10.94989
                       0.18274                       2.86046                      10.95028
                      -0.53447                       2.81534                      10.95066
                      -1.21793                       2.59327                      10.95100
                      -1.82469                       2.20821                      10.95127
                      -2.31662                       1.68435                      10.95147
                      -2.66283                       1.05461                      10.95157
                      -2.84154                       0.35856                      10.95157
                      -2.84154                      -0.36007                      10.95148
                      -2.66283                      -1.05612                      10.95129
                      -2.31662                      -1.68586                      10.95102
                      -1.82469                      -2.20972                      10.95069
                      -1.21793                      -2.59478                      10.95031
                      -0.53447                      -2.81685                      10.94991
                       0.18274                      -2.86197                      10.94952
                       0.88864                      -2.72731                      10.94916
                       1.53887                      -2.42134                      10.94885
                       2.09259                      -1.96327                      10.94862
                       2.51499                      -1.38188                      10.94847
                       2.77953                      -0.71372                      10.94841
                       2.81925                      -0.00144                      15.32778
                       2.73086                       0.69828                      15.32798
                       2.47123                       1.35403                      15.32830
                       2.05667                       1.92462                      15.32873
                       1.51324                       2.37418                      15.32924
                       0.87509                       2.67447                      15.32980
                       0.18230                       2.80663                      15.33037
                      -0.52159                       2.76234                      15.33092
                      -1.19235                       2.54440                      15.33141
                      -1.78784                       2.16649                      15.33181
                      -2.27064                       1.65236                      15.33210
                      -2.61041                       1.03432                      15.33225
                      -2.78581                       0.35120                      15.33227
                      -2.78581                      -0.35408                      15.33214
                      -2.61041                      -1.03721                      15.33187
                      -2.27064                      -1.65525                      15.33149
                      -1.78784                      -2.16938                      15.33102
                      -1.19235                      -2.54729                      15.33048
                      -0.52159                      -2.76523                      15.32991
                       0.18230                      -2.80952                      15.32935
                       0.87509                      -2.67736                      15.32882
                       1.51324                      -2.37707                      15.32838
                       2.05667                      -1.92750                      15.32803
                       2.47123                      -1.35692                      15.32781
                       2.73086                      -0.70116                      15.32772
                       2.77001                      -0.00235                      19.70712
                       2.68329                       0.68412                      19.70738
                       2.42857                       1.32747                      19.70779
                       2.02186                       1.88725                      19.70835
                       1.48872                       2.32831                      19.70900
                       0.86264                       2.62292                      19.70972
                       0.18296                       2.75257                      19.71046
                      -0.50760                       2.70913                      19.71117
                      -1.16567                       2.49531                      19.71180
                      -1.74989                       2.12455                      19.71233
                      -2.22355                       1.62015                      19.71270
                      -2.55689                       1.01381                      19.71290
                      -2.72897                       0.34361                      19.71293
                      -2.72897                      -0.34832                      19.71276
                      -2.55689                      -1.01852                      19.71243
                      -2.22355                      -1.62486                      19.71194
                      -1.74989                      -2.12926                      19.71133
                      -1.16567                      -2.50002                      19.71063
                      -0.50761                      -2.71384                      19.70990
                       0.18296                      -2.75728                      19.70917
                       0.86264                      -2.62763                      19.70849
                       1.48872                      -2.33302                      19.70791
                       2.02186                      -1.89196                      19.70746
                       2.42857                      -1.33217                      19.70717
                       2.68329                      -0.68883                      19.70705
                       2.72186                      -0.00350                      24.08651
                       2.63681                       0.66973                      24.08682
                       2.38700                       1.30066                      24.08733
                       1.98814                       1.84965                      24.08800
                       1.46528                       2.28220                      24.08880
                       0.85128                       2.57112                      24.08967
                       0.18472                       2.69828                      24.09056
                      -0.49253                       2.65567                      24.09142
                      -1.13790                       2.44597                      24.09219
                      -1.71085                       2.08237                      24.09282
                      -2.17537                       1.58770                      24.09327
                      -2.50229                       0.99305                      24.09352
                      -2.67104                       0.33579                      24.09354
                      -2.67104                      -0.34280                      24.09335
                      -2.50229                      -1.00006                      24.09294
                      -2.17538                      -1.59471                      24.09234
                      -1.71085                      -2.08938                      24.09160
                      -1.13790                      -2.45298                      24.09076
                      -0.49253                      -2.66268                      24.08987
                       0.18471                      -2.70529                      24.08899
                       0.85128                      -2.57813                      24.08817
                       1.46528                      -2.28921                      24.08746
                       1.98814                      -1.85666                      24.08692
                       2.38700                      -1.30767                      24.08656
                       2.63681                      -0.67674                      24.08643
                       2.67475                      -0.00492                      28.46595
                       2.59138                       0.65507                      28.46631
                       2.34649                       1.27359                      28.46691
                       1.95547                       1.81178                      28.46769
                       1.44290                       2.23582                      28.46863
                       0.84097                       2.51906                      28.46964
                       0.18752                       2.64371                      28.47068
                      -0.47640                       2.60194                      28.47168
                      -1.10908                       2.39637                      28.47257
                      -1.67076                       2.03992                      28.47329
                      -2.12615                       1.55498                      28.47381
                      -2.44663                       0.97203                      28.47409
                      -2.61206                       0.32769                      28.47411
                      -2.61206                      -0.33754                      28.47388
                      -2.44663                      -0.98188                      28.47339
                      -2.12615                      -1.56483                      28.47270
                      -1.67076                      -2.04977                      28.47183
                      -1.10908                      -2.40622                      28.47085
                      -0.47641                      -2.61179                      28.46981
                       0.18752                      -2.65356                      28.46879
                       0.84097                      -2.52891                      28.46784
                       1.44290                      -2.24566                      28.46702
                       1.95547                      -1.82163                      28.46640
                       2.34649                      -1.28344                      28.46599
                       2.59138                      -0.66491                      28.46584
                       2.62867                      -0.00665                      32.84542
                       2.54697                       0.64010                      32.84585
                       2.30700                       1.24622                      32.84653
                       1.92383                       1.77360                      32.84743
                       1.42154                       2.18913                      32.84849
                       0.83169                       2.46670                      32.84964
                       0.19135                       2.58885                      32.85081
                      -0.45925                       2.54791                      32.85194
                      -1.07924                       2.34647                      32.85294
                      -1.62964                       1.99717                      32.85375
                      -2.07589                       1.52196                      32.85433
                      -2.38994                       0.95071                      32.85463
                      -2.55206                       0.31930                      32.85465
                      -2.55206                      -0.33259                      32.85436
                      -2.38994                      -0.96400                      32.85381
                      -2.07589                      -1.53526                      32.85301
                      -1.62964                      -2.01046                      32.85202
                      -1.07924                      -2.35976                      32.85091
                      -0.45926                      -2.56121                      32.84974
                       0.19135                      -2.60214                      32.84858
                       0.83169                      -2.47999                      32.84751
                       1.42153                      -2.20243                      32.84659
                       1.92382                      -1.78690                      32.84589
                       2.30699                      -1.25951                      32.84545
                       2.54697                      -0.65339                      32.84529
                       2.58360                      -0.00871                      37.22492
                       2.50357                       0.62479                      37.22541
                       2.26851                       1.21849                      37.22618
                       1.89319                       1.73509                      37.22719
                       1.40118                       2.14211                      37.22837
                       0.82342                       2.41398                      37.22966
                       0.19619                       2.53363                      37.23097
                      -0.44109                       2.49354                      37.23221
                      -1.04838                       2.29622                      37.23331
                      -1.58752                       1.95407                      37.23420
                      -2.02463                       1.48859                      37.23483
                      -2.33225                       0.92904                      37.23515
                      -2.49105                       0.31056                      37.23515
                      -2.49105                      -0.32799                      37.23482
                      -2.33225                      -0.94647                      37.23419
                      -2.02463                      -1.50602                      37.23329
                      -1.58752                      -1.97150                      37.23218
                      -1.04838                      -2.31365                      37.23094
                      -0.44110                      -2.51097                      37.22963
                       0.19618                      -2.55106                      37.22835
                       0.82341                      -2.43141                      37.22717
                       1.40118                      -2.15953                      37.22616
                       1.89319                      -1.75251                      37.22539
                       2.26851                      -1.23592                      37.22492
                       2.50357                      -0.64222                      37.22475
                       2.53955                      -0.01117                      41.60443
                       2.46120                       0.60910                      41.60498
                       2.23105                       1.19039                      41.60584
                       1.86357                       1.69618                      41.60697
                       1.38185                       2.09469                      41.60828
                       0.81616                       2.36089                      41.60970
                       0.20204                       2.47803                      41.61113
                      -0.42191                       2.43878                      41.61249
                      -1.01651                       2.24558                      41.61369
                      -1.54437                       1.91059                      41.61466
                      -1.97235                       1.45484                      41.61533
                      -2.27354                       0.90698                      41.61567
                      -2.42902                       0.30143                      41.61564
                      -2.42902                      -0.32377                      41.61526
                      -2.27354                      -0.92932                      41.61455
                      -1.97235                      -1.47718                      41.61355
                      -1.54438                      -1.93293                      41.61232
                      -1.01651                      -2.26792                      41.61095
                      -0.42192                      -2.46112                      41.60951
                       0.20204                      -2.50037                      41.60810
                       0.81616                      -2.38322                      41.60681
                       1.38185                      -2.11703                      41.60572
                       1.86357                      -1.71851                      41.60489
                       2.23105                      -1.21272                      41.60438
                       2.46120                      -0.63143                      41.60423
                       2.49656                      -0.01405                      45.98394
                       2.41987                       0.59297                      45.98456
                       2.19464                       1.16185                      45.98552
                       1.83501                       1.65684                      45.98675
                       1.36357                       2.04684                      45.98819
                       0.80996                       2.30736                      45.98974
                       0.20895                       2.42200                      45.99131
                      -0.40168                       2.38358                      45.99278
                      -0.98358                       2.19451                      45.99408
                      -1.50018                       1.86667                      45.99512
                      -1.91901                       1.42065                      45.99584
                      -2.21377                       0.88449                      45.99618
                      -2.36593                       0.29187                      45.99614
                      -2.36593                      -0.31998                      45.99570
                      -2.21377                      -0.91260                      45.99491
                      -1.91902                      -1.44877                      45.99380
                      -1.50018                      -1.89478                      45.99245
                      -0.98359                      -2.22262                      45.99094
                      -0.40169                      -2.41169                      45.98937
                       0.20895                      -2.45011                      45.98784
                       0.80996                      -2.33546                      45.98644
                       1.36357                      -2.07495                      45.98526
                       1.83500                      -1.68495                      45.98438
                       2.19464                      -1.18995                      45.98384
                       2.41987                      -0.62107                      45.98369
                       2.45466                      -0.01741                      50.36343
                       2.37965                       0.57637                      50.36412
                       2.15933                       1.13284                      50.36518
                       1.80754                       1.61703                      50.36654
                       1.34640                       1.99853                      50.36811
                       0.80486                       2.25335                      50.36979
                       0.21697                       2.36550                      50.37149
                      -0.38035                       2.32792                      50.37308
                      -0.94955                       2.14297                      50.37448
                      -1.45488                       1.82228                      50.37559
                      -1.86458                       1.38600                      50.37635
                      -2.15290                       0.86153                      50.37670
                      -2.30174                       0.28183                      50.37663
                      -2.30174                      -0.31666                      50.37614
                      -2.15291                      -0.89636                      50.37526
                      -1.86458                      -1.42082                      50.37404
                      -1.45488                      -1.85711                      50.37257
                      -0.94955                      -2.17780                      50.37093
                      -0.38035                      -2.36274                      50.36922
                       0.21696                      -2.40032                      50.36757
                       0.80486                      -2.28818                      50.36606
                       1.34639                      -2.03335                      50.36479
                       1.80754                      -1.65185                      50.36385
                       2.15933                      -1.16766                      50.36329
                       2.37965                      -0.61119                      50.36315
                       2.41393                      -0.02127                      54.74292
                       2.34060                       0.55926                      54.74369
                       2.12519                       1.10332                      54.74484
                       1.78125                       1.57672                      54.74632
                       1.33039                       1.94971                      54.74802
                       0.80093                       2.19885                      54.74984
                       0.22615                       2.30849                      54.75167
                      -0.35784                       2.27175                      54.75338
                      -0.91435                       2.09093                      54.75488
                      -1.40841                       1.77739                      54.75607
                      -1.80897                       1.35083                      54.75687
                      -2.09087                       0.83806                      54.75723
                      -2.23639                       0.27130                      54.75713
                      -2.23639                      -0.31385                      54.75658
                      -2.09087                      -0.88062                      54.75561
                      -1.80897                      -1.39339                      54.75428
                      -1.40841                      -1.81994                      54.75268
                      -0.91436                      -2.13348                      54.75091
                      -0.35785                      -2.31430                      54.74907
                       0.22614                      -2.35104                      54.74728
                       0.80092                      -2.24139                      54.74566
                       1.33038                      -1.99225                      54.74431
                       1.78125                      -1.61926                      54.74331
                       2.12519                      -1.14586                      54.74273
                       2.34059                      -0.60181                      54.74259
                       2.37443                      -0.02566                      59.12241
                       2.30276                       0.54163                      59.12325
                       2.09227                       1.07328                      59.12450
                       1.75618                       1.53587                      59.12610
                       1.31560                       1.90035                      59.12793
                       0.79822                       2.14381                      59.12989
                       0.23655                       2.25096                      59.13185
                      -0.33412                       2.21505                      59.13368
                      -0.87793                       2.03836                      59.13527
                      -1.36072                       1.73197                      59.13653
                      -1.75214                       1.31514                      59.13737
                      -2.02761                       0.81407                      59.13774
                      -2.16981                       0.26023                      59.13762
                      -2.16981                      -0.31157                      59.13701
                      -2.02761                      -0.86541                      59.13595
                      -1.75215                      -1.36648                      59.13452
                      -1.36072                      -1.78330                      59.13279
                      -0.87794                      -2.08969                      59.13088
                      -0.33413                      -2.26639                      59.12891
                       0.23654                      -2.30229                      59.12700
                       0.79821                      -2.19514                      59.12527
                       1.31559                      -1.95168                      59.12383
                       1.75617                      -1.58720                      59.12277
                       2.09227                      -1.12460                      59.12216
                       2.30276                      -0.59295                      59.12204
                       2.33617                      -0.03060                      63.50192
                       2.26618                       0.52345                      63.50283
                       2.06060                       1.04269                      63.50418
                       1.73235                       1.49449                      63.50589
                       1.30206                       1.85046                      63.50785
                       0.79676                       2.08823                      63.50993
                       0.24820                       2.19288                      63.51201
                      -0.30915                       2.15781                      63.51395
                      -0.84027                       1.98524                      63.51564
                      -1.31178                       1.68600                      63.51697
                      -1.69407                       1.27891                      63.51784
                      -1.96311                       0.78953                      63.51822
                      -2.10199                       0.24862                      63.51807
                      -2.10199                      -0.30983                      63.51741
                      -1.96311                      -0.85074                      63.51627
                      -1.69407                      -1.34012                      63.51473
                      -1.31179                      -1.74721                      63.51288
                      -0.84028                      -2.04644                      63.51085
                      -0.30916                      -2.21901                      63.50875
                       0.24819                      -2.25408                      63.50672
                       0.79675                      -2.14943                      63.50489
                       1.30205                      -1.91165                      63.50337
                       1.73234                      -1.55568                      63.50226
                       2.06059                      -1.10388                      63.50163
                       2.26617                      -0.58465                      63.50151
                       2.29912                      -0.03607                      67.88150
                       2.23080                       0.50473                      67.88247
                       2.03014                       1.01156                      67.88390
                       1.70974                       1.45256                      67.88571
                       1.28973                       1.80002                      67.88777
                       0.79651                       2.03211                      67.88997
                       0.26106                       2.13425                      67.89215
                      -0.28297                       2.10002                      67.89419
                      -0.80139                       1.93158                      67.89596
                      -1.26163                       1.63949                      67.89734
                      -1.63478                       1.24213                      67.89825
                      -1.89739                       0.76445                      67.89863
                      -2.03295                       0.23647                      67.89845
                      -2.03295                      -0.30864                      67.89774
                      -1.89739                      -0.83662                      67.89653
                      -1.63479                      -1.31430                      67.89489
                      -1.26164                      -1.71166                      67.89294
                      -0.80140                      -2.00374                      67.89080
                      -0.28298                      -2.17219                      67.88859
                       0.26105                      -2.20641                      67.88646
                       0.79650                      -2.10427                      67.88454
                       1.28972                      -1.87217                      67.88296
                       1.70973                      -1.52471                      67.88180
                       2.03013                      -1.08371                      67.88115
                       2.23080                      -0.57688                      67.88105
                       2.26316                      -0.04207                      72.26118
                       2.19652                       0.48549                      72.26221
                       2.00077                       0.97990                      72.26371
                       1.68821                       1.41010                      72.26559
                       1.27849                       1.74906                      72.26774
                       0.79735                       1.97547                      72.27001
                       0.27501                       2.07511                      72.27227
                      -0.25569                       2.04172                      72.27438
                      -0.76142                       1.87739                      72.27620
                      -1.21039                       1.59246                      72.27761
                      -1.57440                       1.20483                      72.27853
                      -1.83058                       0.73884                      72.27891
                      -1.96282                       0.22379                      72.27871
                      -1.96282                      -0.30797                      72.27795
                      -1.83058                      -0.82302                      72.27668
                      -1.57441                      -1.28900                      72.27497
                      -1.21040                      -1.67663                      72.27294
                      -0.76143                      -1.96156                      72.27072
                      -0.25570                      -2.12588                      72.26843
                       0.27500                      -2.15927                      72.26623
                       0.79734                      -2.05962                      72.26425
                       1.27848                      -1.83321                      72.26262
                       1.68821                      -1.49426                      72.26144
                       2.00076                      -1.06405                      72.26079
                       2.19652                      -0.56964                      72.26070
                       2.22805                      -0.04856                      76.64105
                       2.16308                       0.46576                      76.64211
                       1.97224                       0.94777                      76.64365
                       1.66753                       1.36717                      76.64557
                       1.26809                       1.69761                      76.64776
                       0.79903                       1.91834                      76.65007
                       0.28981                       2.01548                      76.65236
                      -0.22758                       1.98292                      76.65449
                      -0.72061                       1.82273                      76.65632
                      -1.15831                       1.54495                      76.65774
                      -1.51319                       1.16704                      76.65865
                      -1.76293                       0.71276                      76.65901
                      -1.89186                       0.21063                      76.65878
                      -1.89186                      -0.30778                      76.65799
                      -1.76294                      -0.80990                      76.65667
                      -1.51319                      -1.26418                      76.65493
                      -1.15832                      -1.64209                      76.65286
                      -0.72062                      -1.91986                      76.65059
                      -0.22759                      -2.08006                      76.64827
                       0.28979                      -2.11261                      76.64604
                       0.79902                      -2.01546                      76.64405
                       1.26808                      -1.79474                      76.64241
                       1.66752                      -1.46429                      76.64124
                       1.97223                      -1.04488                      76.64060
                       2.16307                      -0.56288                      76.64053
                       2.19335                      -0.05546                      81.02117
                       2.13005                       0.44562                      81.02225
                       1.94413                       0.91521                      81.02379
                       1.64726                       1.32381                      81.02571
                       1.25811                       1.64575                      81.02788
                       0.80112                       1.86079                      81.03016
                       0.30501                       1.95543                      81.03242
                      -0.19905                       1.92372                      81.03450
                      -0.67939                       1.76764                      81.03629
                      -1.10582                       1.49702                      81.03766
                      -1.45156                       1.12884                      81.03853
                      -1.69487                       0.68625                      81.03884
                      -1.82048                       0.19706                      81.03858
                      -1.82048                      -0.30800                      81.03777
                      -1.69488                      -0.79720                      81.03644
                      -1.45157                      -1.23978                      81.03470
                      -1.10583                      -1.60796                      81.03264
                      -0.67940                      -1.87858                      81.03039
                      -0.19906                      -2.03465                      81.02810
                       0.30500                      -2.06636                      81.02592
                       0.80111                      -1.97172                      81.02397
                       1.25810                      -1.75668                      81.02238
                       1.64725                      -1.43474                      81.02125
                       1.94412                      -1.02613                      81.02065
                       2.13005                      -0.55654                      81.02063
                       2.15841                      -0.06269                      85.40164
                       2.09678                       0.42515                      85.40271
                       1.91577                       0.88233                      85.40422
                       1.62675                       1.28014                      85.40607
                       1.24789                       1.59356                      85.40814
                       0.80298                       1.80292                      85.41031
                       0.31998                       1.89506                      85.41244
                      -0.17076                       1.86418                      85.41440
                      -0.63841                       1.71223                      85.41605
                      -1.05357                       1.44876                      85.41731
                      -1.39017                       1.09032                      85.41808
                      -1.62706                       0.65942                      85.41833
                      -1.74934                       0.18316                      85.41803
                      -1.74934                      -0.30855                      85.41720
                      -1.62706                      -0.78482                      85.41590
                      -1.39018                      -1.21571                      85.41421
                      -1.05358                      -1.57415                      85.41224
                      -0.63842                      -1.83762                      85.41010
                      -0.17078                      -1.98957                      85.40793
                       0.31996                      -2.02044                      85.40587
                       0.80296                      -1.92830                      85.40405
                       1.24788                      -1.71894                      85.40259
                       1.62675                      -1.40551                      85.40156
                       1.91577                      -1.00770                      85.40105
                       2.09678                      -0.55052                      85.40108
                       2.14057                      -0.06639                      87.59205
                       2.07978                       0.41483                      87.59310
                       1.90123                       0.86580                      87.59457
                       1.61613                       1.25821                      87.59635
                       1.24241                       1.56738                      87.59834
                       0.80353                       1.77390                      87.60042
                       0.32709                       1.86478                      87.60244
                      -0.15699                       1.83433                      87.60429
                      -0.61829                       1.68444                      87.60584
                      -1.02782                       1.42454                      87.60701
                      -1.35985                       1.07096                      87.60771
                      -1.59352                       0.64592                      87.60791
                      -1.71414                       0.17612                      87.60758
                      -1.71414                      -0.30892                      87.60676
                      -1.59352                      -0.77872                      87.60549
                      -1.35986                      -1.20376                      87.60385
                      -1.02783                      -1.55734                      87.60195
                      -0.61830                      -1.81724                      87.59990
                      -0.15700                      -1.96712                      87.59784
                       0.32708                      -1.99757                      87.59589
                       0.80352                      -1.90669                      87.59417
                       1.24240                      -1.70016                      87.59280
                       1.61612                      -1.39099                      87.59186
                       1.90122                      -0.99858                      87.59140
                       2.07978                      -0.54760                      87.59147
                       3.00000                       0.00000                       0.00000
                       2.90575                       0.74607                       0.00000
                       2.62892                       1.44526                       0.00000
                       2.18691                       2.05364                       0.00000
                       1.60748                       2.53298                       0.00000
                       0.92705                       2.85317                       0.00000
                       0.18837                       2.99408                       0.00000
                      -0.56214                       2.94686                       0.00000
                      -1.27734                       2.71448                       0.00000
                      -1.91227                       2.31154                       0.00000
                      -2.42705                       1.76336                       0.00000
                      -2.78933                       1.10437                       0.00000
                      -2.97634                       0.37600                       0.00000
                      -2.97634                      -0.37600                       0.00000
                      -2.78933                      -1.10437                       0.00000
                      -2.42705                      -1.76336                       0.00000
                      -1.91227                      -2.31154                       0.00000
                      -1.27734                      -2.71448                       0.00000
                      -0.56214                      -2.94686                       0.00000
                       0.18837                      -2.99408                       0.00000
                       0.92705                      -2.85317                       0.00000
                       1.60748                      -2.53298                       0.00000
                       2.18691                      -2.05364                       0.00000
                       2.62892                      -1.44526                       0.00000
                       2.90575                      -0.74607                       0.00000
        </DataArray>
      </Points>
      <Polys>
        <DataArray type="Int32" Name="connectivity" format="ascii">
      0      1     26     25
      1      2     27     26
      2      3     28     27
      3      4     29     28
      4      5     30     29
      5      6     31     30
      6      7     32     31
      7      8     33     32
      8      9     34     33
      9     10     35     34
     10     11     36     35
     11     12     37     36
     12     13     38     37
     13     14     39     38
     14     15     40     39
     15     16     41     40
     16     17     42     41
     17     18     43     42
     18     19     44     43
     19     20     45     44
     20     21     46     45
     21     22     47     46
     22     23     48     47
     23     24     49     48
     24      0     25     49
     24     23     22     21     20     19     18     17     16     15     14     13     12     11     10      9      8      7      6      5      4      3      2      1      0
     25     26     27     28     29     30     31     32     33     34     35     36     37     38     39     40     41     42     43     44     45     46     47     48     49
     25     26     51     50
     26     27     52     51
     27     28     53     52
     28     29     54     53
     29     30     55     54
     30     31     56     55
     31     32     57     56
     32     33     58     57
     33     34     59     58
     34     35     60     59
     35     36     61     60
     36     37     62     61
     37     38     63     62
     38     39     64     63
     39     40     65     64
     40     41     66     65
     41     42     67     66
     42     43     68     67
     43     44     69     68
     44     45     70     69
     45     46     71     70
     46     47     72     71
     47     48     73     72
     48     49     74     73
     49     25     50     74
     49     48     47     46     45     44     43     42     41     40     39     38     37     36     35     34     33     32     31     30     29     28     27     26     25
     50     51     52     53     54     55     56     57     58     59     60     61     62     63     64     65     66     67     68     69     70     71     72     73     74
     50     51     76     75
     51     52     77     76
     52     53     78     77
     53     54     79     78
     54     55     80     79
     55     56     81     80
     56     57     82     81
     57     58     83     82
     58     59     84     83
     59     60     85     84
     60     61     86     85
     61     62     87     86
     62     63     88     87
     63     64     89     88
     64     65     90     89
     65     66     91     90
     66     67     92     91
     67     68     93     92
     68     69     94     93
     69     70     95     94
     70     71     96     95
     71     72     97     96
     72     73     98     97
     73     74     99     98
     74     50     75     99
     74     73     72     71     70     69     68     67     66     65     64     63     62     61     60     59     58     57     56     55     54     53     52     51     50
     75     76     77     78     79     80     81     82     83     84     85     86     87     88     89     90     91     92     93     94     95     96     97     98     99
     75     76    101    100
     76     77    102    101
     77     78    103    102
     78     79    104    103
     79     80    105    104
     80     81    106    105
     81     82    107    106
     82     83    108    107
     83     84    109    108
     84     85    110    109
     85     86    111    110
     86     87    112    111
     87     88    113    112
     88     89    114    113
     89     90    115    114
     90     91    116    115
     91     92    117    116
     92     93    118    117
     93     94    119    118
     94     95    120    119
     95     96    121    120
     96     97    122    121
     97     98    123    122
     98     99    124    123
     99     75    100    124
     99     98     97     96     95     94     93     92     91     90     89     88     87     86     85     84     83     82     81     80     79     78     77     76     75
    100    101    102    103    104    105    106    107    108    109    110    111    112    113    114    115    116    117    118    119    120    121    122    123    124
    100    101    126    125
    101    102    127    126
    102    103    128    127
    103    104    129    128
    104    105    130    129
    105    106    131    130
    106    107    132    131
    107    108    133    132
    108    109    134    133
    109    110    135    134
    110    111    136    135
    111    112    137    136
    112    113    138    137
    113    114    139    138
    114    115    140    139
    115    116    141    140
    116    117    142    141
    117    118    143    142
    118    119    144    143
    119    120    145    144
    120    121    146    145
    121    122    147    146
    122    123    148    147
    123    124    149    148
    124    100    125    149
    124    123    122    121    120    119    118    117    116    115    114    113    112    111    110    109    108    107    106    105    104    103    102    101    100
    125    126    127    128    129    130    131    132    133    134    135    136    137    138    139    140    141    142    143    144    145    146    147    148    149
    125    126    151    150
    126    127    152    151
    127    128    153    152
    128    129    154    153
    129    130    155    154
    130    131    156    155
    131    132    157    156
    132    133    158    157
    133    134    159    158
    134    135    160    159
    135    136    161    160
    136    137    162    161
    137    138    163    162
    138    139    164    163
    139    140    165    164
    140    141    166    165
    141    142    167    166
    142    143    168    167
    143    144    169    168
    144    145    170    169
    145    146    171    170
    146    147    172    171
    147    148    173    172
    148    149    174    173
    149    125    150    174
    149    148    147    146    145    144    143    142    141    140    139    138    137    136    135    134    133    132    131    130    129    128    127    126    125
    150    151    152    153    154    155    156    157    158    159    160    161    162    163    164    165    166    167    168    169    170    171    172    173    174
    150    151    176    175
    151    152    177    176
    152    153    178    177
    153    154    179    178
    154    155    180    179
    155    156    181    180
    156    157    182    181
    157    158    183    182
    158    159    184    183
    159    160    185    184
    160    161    186    185
    161    162    187    186
    162    163    188    187
    163    164    189    188
    164    165    190    189
    165    166    191    190
    166    167    192    191
    167    168    193    192
    168    169    194    193
    169    170    195    194
    170    171    196    195
    171    172    197    196
    172    173    198    197
    173    174    199    198
    174    150    175    199
    174    173    172    171    170    169    168    167    166    165    164    163    162    161    160    159    158    157    156    155    154    153    152    151    150
    175    176    177    178    179    180    181    182    183    184    185    186    187    188    189    190    191    192    193    194    195    196    197    198    199
    175    176    201    200
    176    177    202    201
    177    178    203    202
    178    179    204    203
    179    180    205    204
    180    181    206    205
    181    182    207    206
    182    183    208    207
    183    184    209    208
    184    185    210    209
    185    186    211    210
    186    187    212    211
    187    188    213    212
    188    189    214    213
    189    190    215    214
    190    191    216    215
    191    192    217    216
    192    193    218    217
    193    194    219    218
    194    195    220    219
    195    196    221    220
    196    197    222    221
    197    198    223    222
    198    199    224    223
    199    175    200    224
    199    198    197    196    195    194    193    192    191    190    189    188    187    186    185    184    183    182    181    180    179    178    177    176    175
    200    201    202    203    204    205    206    207    208    209    210    211    212    213    214    215    216    217    218    219    220    221    222    223    224
    200    201    226    225
    201    202    227    226
    202    203    228    227
    203    204    229    228
    204    205    230    229
    205    206    231    230
    206    207    232    231
    207    208    233    232
    208    209    234    233
    209    210    235    234
    210    211    236    235
    211    212    237    236
    212    213    238    237
    213    214    239    238
    214    215    240    239
    215    216    241    240
    216    217    242    241
    217    218    243    242
    218    219    244    243
    219    220    245    244
    220    221    246    245
    221    222    247    246
    222    223    248    247
    223    224    249    248
    224    200    225    249
    224    223    222    221    220    219    218    217    216    215    214    213    212    211    210    209    208    207    206    205    204    203    202    201    200
    225    226    227    228    229    230    231    232    233    234    235    236    237    238    239    240    241    242    243    244    245    246    247    248    249
    225    226    251    250
    226    227    252    251
    227    228    253    252
    228    229    254    253
    229    230    255    254
    230    231    256    255
    231    232    257    256
    232    233    258    257
    233    234    259    258
    234    235    260    259
    235    236    261    260
    236    237    262    261
    237    238    263    262
    238    239    264    263
    239    240    265    264
    240    241    266    265
    241    242    267    266
    242    243    268    267
    243    244    269    268
    244    245    270    269
    245    246    271    270
    246    247    272    271
    247    248    273    272
    248    249    274    273
    249    225    250    274
    249    248    247    246    245    244    243    242    241    240    239    238    237    236    235    234    233    232    231    230    229    228    227    226    225
    250    251    252    253    254    255    256    257    258    259    260    261    262    263    264    265    266    267    268    269    270    271    272    273    274
    250    251    276    275
    251    252    277    276
    252    253    278    277
    253    254    279    278
    254    255    280    279
    255    256    281    280
    256    257    282    281
    257    258    283    282
    258    259    284    283
    259    260    285    284
    260    261    286    285
    261    262    287    286
    262    263    288    287
    263    264    289    288
    264    265    290    289
    265    266    291    290
    266    267    292    291
    267    268    293    292
    268    269    294    293
    269    270    295    294
    270    271    296    295
    271    272    297    296
    272    273    298    297
    273    274    299    298
    274    250    275    299
    274    273    272    271    270    269    268    267    266    265    264    263    262    261    260    259    258    257    256    255    254    253    252    251    250
    275    276    277    278    279    280    281    282    283    284    285    286    287    288    289    290    291    292    293    294    295    296    297    298    299
    275    276    301    300
    276    277    302    301
    277    278    303    302
    278    279    304    303
    279    280    305    304
    280    281    306    305
    281    282    307    306
    282    283    308    307
    283    284    309    308
    284    285    310    309
    285    286    311    310
    286    287    312    311
    287    288    313    312
    288    289    314    313
    289    290    315    314
    290    291    316    315
    291    292    317    316
    292    293    318    317
    293    294    319    318
    294    295    320    319
    295    296    321    320
    296    297    322    321
    297    298    323    322
    298    299    324    323
    299    275    300    324
    299    298    297    296    295    294    293    292    291    290    289    288    287    286    285    284    283    282    281    280    279    278    277    276    275
    300    301    302    303    304    305    306    307    308    309    310    311    312    313    314    315    316    317    318    319    320    321    322    323    324
    300    301    326    325
    301    302    327    326
    302    303    328    327
    303    304    329    328
    304    305    330    329
    305    306    331    330
    306    307    332    331
    307    308    333    332
    308    309    334    333
    309    310    335    334
    310    311    336    335
    311    312    337    336
    312    313    338    337
    313    314    339    338
    314    315    340    339
    315    316    341    340
    316    317    342    341
    317    318    343    342
    318    319    344    343
    319    320    345    344
    320    321    346    345
    321    322    347    346
    322    323    348    347
    323    324    349    348
    324    300    325    349
    324    323    322    321    320    319    318    317    316    315    314    313    312    311    310    309    308    307    306    305    304    303    302    301    300
    325    326    327    328    329    330    331    332    333    334    335    336    337    338    339    340    341    342    343    344    345    346    347    348    349
    325    326    351    350
    326    327    352    351
    327    328    353    352
    328    329    354    353
    329    330    355    354
    330    331    356    355
    331    332    357    356
    332    333    358    357
    333    334    359    358
    334    335    360    359
    335    336    361    360
    336    337    362    361
    337    338    363    362
    338    339    364    363
    339    340    365    364
    340    341    366    365
    341    342    367    366
    342    343    368    367
    343    344    369    368
    344    345    370    369
    345    346    371    370
    346    347    372    371
    347    348    373    372
    348    349    374    373
    349    325    350    374
    349    348    347    346    345    344    343    342    341    340    339    338    337    336    335    334    333    332    331    330    329    328    327    326    325
    350    351    352    353    354    355    356    357    358    359    360    361    362    363    364    365    366    367    368    369    370    371    372    373    374
    350    351    376    375
    351    352    377    376
    352    353    378    377
    353    354    379    378
    354    355    380    379
    355    356    381    380
    356    357    382    381
    357    358    383    382
    358    359    384    383
    359    360    385    384
    360    361    386    385
    361    362    387    386
    362    363    388    387
    363    364    389    388
    364    365    390    389
    365    366    391    390
    366    367    392    391
    367    368    393    392
    368    369    394    393
    369    370    395    394
    370    371    396    395
    371    372    397    396
    372    373    398    397
    373    374    399    398
    374    350    375    399
    374    373    372    371    370    369    368    367    366    365    364    363    362    361    360    359    358    357    356    355    354    353    352    351    350
    375    376    377    378    379    380    381    382    383    384    385    386    387    388    389    390    391    392    393    394    395    396    397    398    399
    375    376    401    400
    376    377    402    401
    377    378    403    402
    378    379    404    403
    379    380    405    404
    380    381    406    405
    381    382    407    406
    382    383    408    407
    383    384    409    408
    384    385    410    409
    385    386    411    410
    386    387    412    411
    387    388    413    412
    388    389    414    413
    389    390    415    414
    390    391    416    415
    391    392    417    416
    392    393    418    417
    393    394    419    418
    394    395    420    419
    395    396    421    420
    396    397    422    421
    397    398    423    422
    398    399    424    423
    399    375    400    424
    399    398    397    396    395    394    393    392    391    390    389    388    387    386    385    384    383    382    381    380    379    378    377    376    375
    400    401    402    403    404    405    406    407    408    409    410    411    412    413    414    415    416    417    418    419    420    421    422    423    424
    400    401    426    425
    401    402    427    426
    402    403    428    427
    403    404    429    428
    404    405    430    429
    405    406    431    430
    406    407    432    431
    407    408    433    432
    408    409    434    433
    409    410    435    434
    410    411    436    435
    411    412    437    436
    412    413    438    437
    413    414    439    438
    414    415    440    439
    415    416    441    440
    416    417    442    441
    417    418    443    442
    418    419    444    443
    419    420    445    444
    420    421    446    445
    421    422    447    446
    422    423    448    447
    423    424    449    448
    424    400    425    449
    424    423    422    421    420    419    418    417    416    415    414    413    412    411    410    409    408    407    406    405    404    403    402    401    400
    425    426    427    428    429    430    431    432    433    434    435    436    437    438    439    440    441    442    443    444    445    446    447    448    449
    425    426    451    450
    426    427    452    451
    427    428    453    452
    428    429    454    453
    429    430    455    454
    430    431    456    455
    431    432    457    456
    432    433    458    457
    433    434    459    458
    434    435    460    459
    435    436    461    460
    436    437    462    461
    437    438    463    462
    438    439    464    463
    439    440    465    464
    440    441    466    465
    441    442    467    466
    442    443    468    467
    443    444    469    468
    444    445    470    469
    445    446    471    470
    446    447    472    471
    447    448    473    472
    448    449    474    473
    449    425    450    474
    449    448    447    446    445    444    443    442    441    440    439    438    437    436    435    434    433    432    431    430    429    428    427    426    425
    450    451    452    453    454    455    456    457    458    459    460    461    462    463    464    465    466    467    468    469    470    471    472    473    474
    450    451    476    475
    451    452    477    476
    452    453    478    477
    453    454    479    478
    454    455    480    479
    455    456    481    480
    456    457    482    481
    457    458    483    482
    458    459    484    483
    459    460    485    484
    460    461    486    485
    461    462    487    486
    462    463    488    487
    463    464    489    488
    464    465    490    489
    465    466    491    490
    466    467    492    491
    467    468    493    492
    468    469    494    493
    469    470    495    494
    470    471    496    495
    471    472    497    496
    472    473    498    497
    473    474    499    498
    474    450    475    499
    474    473    472    471    470    469    468    467    466    465    464    463    462    461    460    459    458    457    456    455    454    453    452    451    450
    475    476    477    478    479    480    481    482    483    484    485    486    487    488    489    490    491    492    493    494    495    496    497    498    499
    475    476    501    500
    476    477    502    501
    477    478    503    502
    478    479    504    503
    479    480    505    504
    480    481    506    505
    481    482    507    506
    482    483    508    507
    483    484    509    508
    484    485    510    509
    485    486    511    510
    486    487    512    511
    487    488    513    512
    488    489    514    513
    489    490    515    514
    490    491    516    515
    491    492    517    516
    492    493    518    517
    493    494    519    518
    494    495    520    519
    495    496    521    520
    496    497    522    521
    497    498    523    522
    498    499    524    523
    499    475    500    524
    499    498    497    496    495    494    493    492    491    490    489    488    487    486    485    484    483    482    481    480    479    478    477    476    475
    500    501    502    503    504    505    506    507    508    509    510    511    512    513    514    515    516    517    518    519    520    521    522    523    524
    525    526      1      0
    526    527      2      1
    527    528      3      2
    528    529      4      3
    529    530      5      4
    530    531      6      5
    531    532      7      6
    532    533      8      7
    533    534      9      8
    534    535     10      9
    535    536     11     10
    536    537     12     11
    537    538     13     12
    538    539     14     13
    539    540     15     14
    540    541     16     15
    541    542     17     16
    542    543     18     17
    543    544     19     18
    544    545     20     19
    545    546     21     20
    546    547     22     21
    547    548     23     22
    548    549     24     23
    549    525      0     24
    549    548    547    546    545    544    543    542    541    540    539    538    537    536    535    534    533    532    531    530    529    528    527    526    525
      0      1      2      3      4      5      6      7      8      9     10     11     12     13     14     15     16     17     18     19     20     21     22     23     24
        </DataArray>
        <DataArray type="Int32" Name="offsets" format="ascii">
      4
      8
     12
     16
     20
     24
     28
     32
     36
     40
     44
     48
     52
     56
     60
     64
     68
     72
     76
     80
     84
     88
     92
     96
    100
    125
    150
    154
    158
    162
    166
    170
    174
    178
    182
    186
    190
    194
    198
    202
    206
    210
    214
    218
    222
    226
    230
    234
    238
    242
    246
    250
    275
    300
    304
    308
    312
    316
    320
    324
    328
    332
    336
    340
    344
    348
    352
    356
    360
    364
    368
    372
    376
    380
    384
    388
    392
    396
    400
    425
    450
    454
    458
    462
    466
    470
    474
    478
    482
    486
    490
    494
    498
    502
    506
    510
    514
    518
    522
    526
    530
    534
    538
    542
    546
    550
    575
    600
    604
    608
    612
    616
    620
    624
    628
    632
    636
    640
    644
    648
    652
    656
    660
    664
    668
    672
    676
    680
    684
    688
    692
    696
    700
    725
    750
    754
    758
    762
    766
    770
    774
    778
    782
    786
    790
    794
    798
    802
    806
    810
    814
    818
    822
    826
    830
    834
    838
    842
    846
    850
    875
    900
    904
    908
    912
    916
    920
    924
    928
    932
    936
    940
    944
    948
    952
    956
    960
    964
    968
    972
    976
    980
    984
    988
    992
    996
   1000
   1025
   1050
   1054
   1058
   1062
   1066
   1070
   1074
   1078
   1082
   1086
   1090
   1094
   1098
   1102
   1106
   1110
   1114
   1118
   1122
   1126
   1130
   1134
   1138
   1142
   1146
   1150
   1175
   1200
   1204
   1208
   1212
   1216
   1220
   1224
   1228
   1232
   1236
   1240
   1244
   1248
   1252
   1256
   1260
   1264
   1268
   1272
   1276
   1280
   1284
   1288
   1292
   1296
   1300
   1325
   1350
   1354
   1358
   1362
   1366
   1370
   1374
   1378
   1382
   1386
   1390
   1394
   1398
   1402
   1406
   1410
   1414
   1418
   1422
   1426
   1430
   1434
   1438
   1442
   1446
   1450
   1475
   1500
   1504
   1508
   1512
   1516
   1520
   1524
   1528
   1532
   1536
   1540
   1544
   1548
   1552
   1556
   1560
   1564
   1568
   1572
   1576
   1580
   1584
   1588
   1592
   1596
   1600
   1625
   1650
   1654
   1658
   1662
   1666
   1670
   1674
   1678
   1682
   1686
   1690
   1694
   1698
   1702
   1706
   1710
   1714
   1718
   1722
   1726
   1730
   1734
   1738
   1742
   1746
   1750
   1775
   1800
   1804
   1808
   1812
   1816
   1820
   1824
   1828
   1832
   1836
   1840
   1844
   1848
   1852
   1856
   1860
   1864
   1868
   1872
   1876
   1880
   1884
   1888
   1892
   1896
   1900
   1925
   1950
   1954
   1958
   1962
   1966
   1970
   1974
   1978
   1982
   1986
   1990
   1994
   1998
   2002
   2006
   2010
   2014
   2018
   2022
   2026
   2030
   2034
   2038
   2042
   2046
   2050
   2075
   2100
   2104
   2108
   2112
   2116
   2120
   2124
   2128
   2132
   2136
   2140
   2144
   2148
   2152
   2156
   2160
   2164
   2168
   2172
   2176
   2180
   2184
   2188
   2192
   2196
   2200
   2225
   2250
   2254
   2258
   2262
   2266
   2270
   2274
   2278
   2282
   2286
   2290
   2294
   2298
   2302
   2306
   2310
   2314
   2318
   2322
   2326
   2330
   2334
   2338
   2342
   2346
   2350
   2375
   2400
   2404
   2408
   2412
   2416
   2420
   2424
   2428
   2432
   2436
   2440
   2444
   2448
   2452
   2456
   2460
   2464
   2468
   2472
   2476
   2480
   2484
   2488
   2492
   2496
   2500
   2525
   2550
   2554
   2558
   2562
   2566
   2570
   2574
   2578
   2582
   2586
   2590
   2594
   2598
   2602
   2606
   2610
   2614
   2618
   2622
   2626
   2630
   2634
   2638
   2642
   2646
   2650
   2675
   2700
   2704
   2708
   2712
   2716
   2720
   2724
   2728
   2732
   2736
   2740
   2744
   2748
   2752
   2756
   2760
   2764
   2768
   2772
   2776
   2780
   2784
   2788
   2792
   2796
   2800
   2825
   2850
   2854
   2858
   2862
   2866
   2870
   2874
   2878
   2882
   2886
   2890
   2894
   2898
   2902
   2906
   2910
   2914
   2918
   2922
   2926
   2930
   2934
   2938
   2942
   2946
   2950
   2975
   3000
   3004
   3008
   3012
   3016
   3020
   3024
   3028
   3032
   3036
   3040
   3044
   3048
   3052
   3056
   3060
   3064
   3068
   3072
   3076
   3080
   3084
   3088
   3092
   3096
   3100
   3125
   3150
        </DataArray>
      </Polys>
    </Piece>
  </PolyData>
</VTKFile>
