<?xml version="1.0"?>
<VTKFile type="PolyData" version="0.1" byte_order="LittleEndian">
  <PolyData>
    <Piece NumberOfPoints="     19" NumberOfVerts="  0" NumberOfLines="     18"
           NumberOfStrips="  0" NumberOfPolys="      0">
      <Points>
        <DataArray type="Float32" NumberOfComponents="3" format="ascii">
                      -4.71801                       0.21322                      91.49128
                      -4.65671                       0.46373                      92.83349
                      -4.57810                       0.88046                      95.53586
                      -4.51771                       1.25666                      98.24691
                      -4.44849                       1.70163                     101.64119
                      -4.26509                       2.35412                     105.68721
                      -4.00868                       3.11939                     109.70823
                      -3.73492                       3.88305                     113.72850
                      -3.43890                       4.64559                     117.74748
                      -3.12034                       5.40493                     121.76538
                      -2.78059                       6.15766                     125.78280
                      -2.41854                       6.90487                     129.79934
                      -2.03574                       7.64685                     133.81494
                      -1.63495                       8.38417                     137.82963
                      -1.21783                       9.11690                     141.84340
                      -0.86089                       9.72470                     145.18759
                      -0.57000                      10.21722                     147.86104
                      -0.26359                      10.76112                     150.52365
                      -0.12326                      10.99407                     151.86292
        </DataArray>
      </Points>
      <PointData>
        <DataArray type="Float32" Name="TranslationalVelocity" NumberOfComponents="3" format="ascii">
                       0.02699                      -1.89042                       0.35008
                       0.05585                      -3.59065                       0.66610
                       0.10421                      -7.01027                       1.19200
                       0.14853                     -10.44110                       1.66698
                       0.20218                     -14.73972                       2.22910
                       0.28236                     -19.88138                       3.05403
                       0.37873                     -25.00683                       4.02264
                       0.47909                     -30.14055                       4.99033
                       0.58435                     -35.28233                       5.95759
                       0.69511                     -40.43219                       6.92158
                       0.81174                     -45.59031                       7.87776
                       0.93500                     -50.75583                       8.82727
                       1.06545                     -55.92797                       9.77024
                       1.20348                     -61.10597                      10.70722
                       1.34926                     -66.28920                      11.63816
                       1.47682                     -70.61219                      12.41015
                       1.58347                     -74.07077                      13.03561
                       1.69950                     -77.51921                      13.72651
                       1.75409                     -79.25278                      14.02222
        </DataArray>
        <DataArray type="Float32" Name="RotationalVelocity" NumberOfComponents="3" format="ascii">
                       1.26123                      -0.00001                      -0.11521
                       1.26149                       0.00005                      -0.11507
                       1.26220                       0.00023                      -0.11491
                       1.26309                       0.00049                      -0.11490
                       1.26438                       0.00091                      -0.11508
                       1.26607                       0.00156                      -0.11551
                       1.26779                       0.00238                      -0.11612
                       1.26947                       0.00337                      -0.11687
                       1.27108                       0.00455                      -0.11768
                       1.27260                       0.00593                      -0.11852
                       1.27401                       0.00750                      -0.11935
                       1.27534                       0.00925                      -0.12012
                       1.27658                       0.01114                      -0.12080
                       1.27774                       0.01311                      -0.12137
                       1.27881                       0.01508                      -0.12180
                       1.27960                       0.01665                      -0.12205
                       1.28014                       0.01778                      -0.12218
                       1.28056                       0.01875                      -0.12223
                       1.28072                       0.01915                      -0.12223
        </DataArray>
        <DataArray type="Float32" Name="TranslationalAcceleration" NumberOfComponents="3" format="ascii">
                      -0.20822                      -0.45312                      -2.36243
                      -0.26065                      -0.53759                      -2.84856
                      -0.74939                      -1.40303                      -8.17637
                      -1.20318                      -2.12224                     -13.09265
                      -1.74167                      -2.90331                     -18.85114
                      -2.36426                      -3.96190                     -25.38353
                      -2.97785                      -5.17379                     -31.73229
                      -3.59852                      -6.38428                     -38.07982
                      -4.23531                      -7.60827                     -44.50476
                      -4.89325                      -8.84568                     -51.03200
                      -5.57410                     -10.08660                     -57.64764
                      -6.27714                     -11.32397                     -64.31297
                      -7.00052                     -12.54810                     -70.98170
                      -7.74265                     -13.75137                     -77.61548
                      -8.50368                     -14.92994                     -84.19966
                      -9.15557                     -15.89620                     -89.66455
                      -9.69070                     -16.67685                     -94.04645
                     -10.24483                     -17.54549                     -98.46377
                     -10.53056                     -17.92073                    -100.71839
        </DataArray>
        <DataArray type="Float32" Name="OrientationX" NumberOfComponents="3" format="ascii">
                       0.87892                      -0.47449                       0.04863
                       0.87890                      -0.47455                       0.04832
                       0.87885                      -0.47475                       0.04734
                       0.87876                      -0.47505                       0.04591
                       0.87861                      -0.47554                       0.04358
                       0.89306                      -0.44863                       0.03410
                       0.90274                      -0.42942                       0.02559
                       0.91061                      -0.41291                       0.01708
                       0.91837                      -0.39564                       0.00794
                       0.92575                      -0.37813                      -0.00159
                       0.93207                      -0.36210                      -0.01098
                       0.93777                      -0.34666                      -0.02022
                       0.94235                      -0.33340                      -0.02871
                       0.94518                      -0.32461                      -0.03563
                       0.94781                      -0.31613                      -0.04144
                       0.95003                      -0.30887                      -0.04518
                       0.95171                      -0.30337                      -0.04705
                       0.95241                      -0.30116                      -0.04708
                       0.95220                      -0.30198                      -0.04618
        </DataArray>
        <DataArray type="Float32" Name="OrientationY" NumberOfComponents="3" format="ascii">
                       0.47476                       0.86048                      -0.18486
                       0.47476                       0.86047                      -0.18494
                       0.47476                       0.86041                      -0.18520
                       0.47477                       0.86032                      -0.18558
                       0.47479                       0.86018                      -0.18619
                       0.44660                       0.87470                      -0.18830
                       0.42613                       0.88450                      -0.18990
                       0.40832                       0.89258                      -0.19126
                       0.38966                       0.90063                      -0.19242
                       0.37071                       0.90840                      -0.19332
                       0.35326                       0.91520                      -0.19394
                       0.33644                       0.92145                      -0.19426
                       0.32191                       0.92661                      -0.19434
                       0.31206                       0.92998                      -0.19432
                       0.30273                       0.93310                      -0.19412
                       0.29497                       0.93564                      -0.19383
                       0.28926                       0.93748                      -0.19356
                       0.28709                       0.93817                      -0.19343
                       0.28805                       0.93787                      -0.19346
        </DataArray>
        <DataArray type="Float32" Name="OrientationZ" NumberOfComponents="3" format="ascii">
                       0.04587                       0.18556                       0.98156
                       0.04618                       0.18548                       0.98156
                       0.04719                       0.18524                       0.98156
                       0.04866                       0.18488                       0.98156
                       0.05105                       0.18429                       0.98155
                       0.05465                       0.18340                       0.98152
                       0.05892                       0.18234                       0.98147
                       0.06373                       0.18114                       0.98139
                       0.06898                       0.17981                       0.98128
                       0.07454                       0.17838                       0.98113
                       0.08027                       0.17689                       0.98095
                       0.08597                       0.17537                       0.98074
                       0.09139                       0.17389                       0.98051
                       0.09621                       0.17254                       0.98029
                       0.10003                       0.17144                       0.98010
                       0.10214                       0.17082                       0.97999
                       0.10283                       0.17060                       0.97996
                       0.10242                       0.17071                       0.97998
                       0.10173                       0.17090                       0.98002
        </DataArray>
        <DataArray type="Float32" Name="Force" NumberOfComponents="3" format="ascii">
                      -0.04619                       2.66346                      -0.50136
                     442.61332                      75.51161                     -35.10048
                     505.57678                     171.41557                     -56.71289
                     409.67359                     207.51427                     -59.54619
                    2493.56129                   -1761.05234                     203.40685
                    2972.55193                   -2284.73074                     266.80515
                    3363.55008                   -2314.48343                     236.24086
                    3579.54722                   -2121.39930                     169.36574
                    3300.25420                   -1712.56465                      92.56200
                    3141.13693                   -1448.15131                      35.93731
                    3333.64852                   -1377.45263                     -11.47527
                    3199.04190                   -1197.87703                     -53.06922
                    2953.36586                   -1011.90585                     -83.14236
                    2546.06915                    -805.00201                     -96.99739
                    2123.99770                    -614.87547                     -99.98129
                    1782.77113                    -477.36019                     -95.11962
                    1443.96768                    -359.23212                     -83.27297
                     760.24857                    -168.93044                     -47.36338
                   -5689.79995                     686.58675                     460.26624
        </DataArray>
        <DataArray type="Float32" Name="Moment" NumberOfComponents="3" format="ascii">
                       0.00000                       0.00000                       0.00000
                       0.00000                       0.00000                       0.00000
                       0.00000                       0.00000                       0.00000
                       0.00000                       0.00000                       0.00000
                     -50.93634                    -185.25559                    -979.47497
                     -46.43869                    -157.84026                    -834.24574
                     -77.33053                    -243.91927                   -1288.69322
                    -119.47634                    -348.55175                   -1840.66884
                    -161.06817                    -434.28831                   -2292.31119
                    -186.22901                    -464.79322                   -2452.04997
                    -208.75883                    -483.96976                   -2551.84936
                    -229.33027                    -496.52330                   -2616.64454
                    -188.91078                    -384.81722                   -2026.93143
                    -189.09649                    -365.93416                   -1926.59833
                    -184.83398                    -344.04979                   -1810.73060
                    -176.70307                    -322.14870                   -1695.13048
                    -156.33758                    -283.10951                   -1489.61162
                     -77.12132                    -140.21692                    -737.79510
                      15.89276                      29.08940                     153.07280
        </DataArray>
      </PointData>
      <Lines>
        <DataArray type="Int32" Name="connectivity" format="ascii">
      0      1
      1      2
      2      3
      3      4
      4      5
      5      6
      6      7
      7      8
      8      9
      9     10
     10     11
     11     12
     12     13
     13     14
     14     15
     15     16
     16     17
     17     18
        </DataArray>
        <DataArray type="Int32" Name="offsets" format="ascii">
      2
      4
      6
      8
     10
     12
     14
     16
     18
     20
     22
     24
     26
     28
     30
     32
     34
     36
        </DataArray>
      </Lines>
    </Piece>
  </PolyData>
</VTKFile>
