<?xml version="1.0"?>
<VTKFile type="PolyData" version="0.1" byte_order="LittleEndian">
  <PolyData>
    <Piece NumberOfPoints="    625" NumberOfVerts="  0" NumberOfLines="      0"
           NumberOfStrips="  0" NumberOfPolys="    600">
      <Points>
        <DataArray type="Float32" NumberOfComponents="3" format="ascii">
                      -4.91667                      -0.46127                      88.57947
                      -4.91667                      -0.46127                      88.57947
                      -4.91667                      -0.46127                      88.57947
                      -4.91667                      -0.46127                      88.57947
                      -4.91667                      -0.46127                      88.57947
                      -4.91667                      -0.46127                      88.57947
                      -4.91667                      -0.46127                      88.57947
                      -4.91667                      -0.46127                      88.57947
                      -4.91667                      -0.46127                      88.57947
                      -4.91667                      -0.46127                      88.57947
                      -4.91667                      -0.46127                      88.57947
                      -4.91667                      -0.46127                      88.57947
                      -4.91667                      -0.46127                      88.57947
                      -4.91667                      -0.46127                      88.57947
                      -4.91667                      -0.46127                      88.57947
                      -4.91667                      -0.46127                      88.57947
                      -4.91667                      -0.46127                      88.57947
                      -4.91667                      -0.46127                      88.57947
                      -4.91667                      -0.46127                      88.57947
                      -4.91667                      -0.46127                      88.57947
                      -4.91667                      -0.46127                      88.57947
                      -4.91667                      -0.46127                      88.57947
                      -4.91667                      -0.46127                      88.57947
                      -4.91667                      -0.46127                      88.57947
                      -4.91667                      -0.46127                      88.57947
                      -4.30872                      -0.42784                      88.64487
                      -4.33112                      -0.28416                      88.60697
                      -4.38962                      -0.14952                      88.57489
                      -4.48054                      -0.03237                      88.55063
                      -4.59819                       0.05993                      88.53572
                      -4.73515                       0.12158                      88.53110
                      -4.88283                       0.14869                      88.53706
                      -5.03195                       0.13958                      88.55322
                      -5.17314                       0.09481                      88.57856
                      -5.29752                       0.01719                      88.61151
                      -5.39729                      -0.08839                      88.64997
                      -5.46617                      -0.21531                      88.69155
                      -5.49983                      -0.35559                      88.73362
                      -5.49616                      -0.50041                      88.77355
                      -5.45539                      -0.64068                      88.80882
                      -5.38008                      -0.76758                      88.83721
                      -5.27497                      -0.87313                      88.85695
                      -5.14665                      -0.95072                      88.86679
                      -5.00320                      -0.99545                      88.86612
                      -4.85362                      -1.00452                      88.85497
                      -4.70731                      -0.97737                      88.83406
                      -4.57347                      -0.91569                      88.80468
                      -4.46050                      -0.82336                      88.76869
                      -4.37551                      -0.70618                      88.72835
                      -4.32384                      -0.57152                      88.68619
                      -4.06903                      -0.39446                      88.74393
                      -4.10001                      -0.19573                      88.69152
                      -4.18092                      -0.00950                      88.64714
                      -4.30669                       0.15253                      88.61359
                      -4.46940                       0.28019                      88.59297
                      -4.65884                       0.36545                      88.58657
                      -4.86311                       0.40296                      88.59481
                      -5.06936                       0.39035                      88.61716
                      -5.26464                       0.32843                      88.65222
                      -5.43668                       0.22108                      88.69778
                      -5.57466                       0.07504                      88.75099
                      -5.66993                      -0.10051                      88.80850
                      -5.71649                      -0.29453                      88.86669
                      -5.71141                      -0.49483                      88.92191
                      -5.65502                      -0.68884                      88.97069
                      -5.55086                      -0.86436                      89.00996
                      -5.40548                      -1.01036                      89.03726
                      -5.22800                      -1.11766                      89.05088
                      -5.02958                      -1.17954                      89.04995
                      -4.82270                      -1.19209                      89.03453
                      -4.62033                      -1.15452                      89.00560
                      -4.43522                      -1.06921                      88.96497
                      -4.27897                      -0.94151                      88.91519
                      -4.16142                      -0.77944                      88.85939
                      -4.08994                      -0.59319                      88.80109
                      -3.89575                      -0.36109                      88.84906
                      -3.93281                      -0.12330                      88.78634
                      -4.02963                       0.09955                      88.73324
                      -4.18012                       0.29344                      88.69309
                      -4.37482                       0.44619                      88.66842
                      -4.60151                       0.54821                      88.66077
                      -4.84592                       0.59309                      88.67063
                      -5.09272                       0.57801                      88.69737
                      -5.32639                       0.50391                      88.73932
                      -5.53225                       0.37545                      88.79384
                      -5.69736                       0.20071                      88.85751
                      -5.81136                      -0.00935                      88.92632
                      -5.86707                      -0.24151                      88.99595
                      -5.86100                      -0.48119                      89.06203
                      -5.79352                      -0.71334                      89.12040
                      -5.66889                      -0.92336                      89.16739
                      -5.49492                      -1.09806                      89.20006
                      -5.28255                      -1.22646                      89.21635
                      -5.04513                      -1.30050                      89.21524
                      -4.79757                      -1.31552                      89.19679
                      -4.55543                      -1.27057                      89.16217
                      -4.33391                      -1.16849                      89.11355
                      -4.14695                      -1.01568                      89.05399
                      -4.00629                      -0.82175                      88.98722
                      -3.92077                      -0.59889                      88.91745
                      -3.75943                      -0.32772                      88.95757
                      -3.80120                      -0.05976                      88.88690
                      -3.91030                       0.19136                      88.82706
                      -4.07988                       0.40984                      88.78181
                      -4.29929                       0.58198                      88.75401
                      -4.55473                       0.69695                      88.74539
                      -4.83016                       0.74752                      88.75650
                      -5.10827                       0.73052                      88.78664
                      -5.37158                       0.64702                      88.83391
                      -5.60356                       0.50227                      88.89535
                      -5.78962                       0.30535                      88.96709
                      -5.91808                       0.06865                      89.04463
                      -5.98086                      -0.19297                      89.12310
                      -5.97401                      -0.46306                      89.19756
                      -5.89798                      -0.72466                      89.26333
                      -5.75753                      -0.96133                      89.31629
                      -5.56149                      -1.15820                      89.35310
                      -5.32218                      -1.30289                      89.37146
                      -5.05464                      -1.38632                      89.37020
                      -4.77567                      -1.40324                      89.34942
                      -4.50280                      -1.35259                      89.31040
                      -4.25319                      -1.23756                      89.25562
                      -4.04251                      -1.06536                      89.18850
                      -3.88400                      -0.84683                      89.11326
                      -3.78762                      -0.59569                      89.03464
                      -3.64857                      -0.29435                      89.06841
                      -3.69409                      -0.00235                      88.99139
                      -3.81298                       0.27129                      88.92618
                      -3.99777                       0.50939                      88.87688
                      -4.23687                       0.69697                      88.84658
                      -4.51523                       0.82225                      88.83719
                      -4.81537                       0.87736                      88.84930
                      -5.11843                       0.85884                      88.88214
                      -5.40537                       0.76785                      88.93365
                      -5.65816                       0.61010                      89.00060
                      -5.86092                       0.39552                      89.07878
                      -6.00090                       0.13758                      89.16328
                      -6.06931                      -0.14752                      89.24878
                      -6.06186                      -0.44184                      89.32992
                      -5.97900                      -0.72692                      89.40160
                      -5.82595                      -0.98482                      89.45931
                      -5.61232                      -1.19935                      89.49943
                      -5.35154                      -1.35702                      89.51943
                      -5.05999                      -1.44794                      89.51806
                      -4.75599                      -1.46638                      89.49541
                      -4.45864                      -1.41118                      89.45290
                      -4.18663                      -1.28583                      89.39320
                      -3.95705                      -1.09818                      89.32005
                      -3.78432                      -0.86004                      89.23807
                      -3.67929                      -0.58637                      89.15239
                      -3.55725                      -0.26099                      89.18103
                      -3.60579                       0.05035                      89.09891
                      -3.73255                       0.34212                      89.02939
                      -3.92959                       0.59598                      88.97682
                      -4.18451                       0.79598                      88.94451
                      -4.48131                       0.92956                      88.93450
                      -4.80133                       0.98832                      88.94741
                      -5.12446                       0.96857                      88.98242
                      -5.43041                       0.87156                      89.03735
                      -5.69994                       0.70336                      89.10874
                      -5.91612                       0.47457                      89.19209
                      -6.06538                       0.19954                      89.28219
                      -6.13832                      -0.10443                      89.37335
                      -6.13037                      -0.41825                      89.45987
                      -6.04202                      -0.72220                      89.53629
                      -5.87884                      -0.99719                      89.59782
                      -5.65106                      -1.22592                      89.64060
                      -5.37301                      -1.39404                      89.66193
                      -5.06215                      -1.49097                      89.66047
                      -4.73801                      -1.51063                      89.63632
                      -4.42097                      -1.45179                      89.59099
                      -4.13095                      -1.31813                      89.52733
                      -3.88616                      -1.11806                      89.44934
                      -3.70199                      -0.86415                      89.36193
                      -3.59001                      -0.57235                      89.27058
                      -3.48201                      -0.22763                      89.29512
                      -3.53295                       0.09918                      89.20893
                      -3.66602                       0.40544                      89.13595
                      -3.87284                       0.67192                      89.08077
                      -4.14043                       0.88186                      89.04685
                      -4.45198                       1.02208                      89.03634
                      -4.78790                       1.08376                      89.04989
                      -5.12709                       1.06303                      89.08665
                      -5.44824                       0.96119                      89.14430
                      -5.73117                       0.78464                      89.21924
                      -5.95809                       0.54448                      89.30674
                      -6.11476                       0.25579                      89.40131
                      -6.19133                      -0.06329                      89.49700
                      -6.18298                      -0.39271                      89.58782
                      -6.09025                      -0.71176                      89.66804
                      -5.91895                      -1.00041                      89.73263
                      -5.67986                      -1.24051                      89.77753
                      -5.38799                      -1.41698                      89.79992
                      -5.06168                      -1.51873                      89.79839
                      -4.72144                      -1.53937                      89.77303
                      -4.38865                      -1.47760                      89.72545
                      -4.08421                      -1.33730                      89.65863
                      -3.82726                      -1.12729                      89.57677
                      -3.63394                      -0.86076                      89.48501
                      -3.51639                      -0.55446                      89.38912
                      -3.42063                      -0.19428                      89.41048
                      -3.47347                       0.14467                      89.32109
                      -3.61147                       0.46231                      89.24540
                      -3.82598                       0.73868                      89.18817
                      -4.10350                       0.95641                      89.15300
                      -4.42661                       1.10183                      89.14210
                      -4.77501                       1.16581                      89.15615
                      -5.12679                       1.14431                      89.19427
                      -5.45986                       1.03869                      89.25406
                      -5.75329                       0.85558                      89.33178
                      -5.98864                       0.60650                      89.42253
                      -6.15113                       0.30709                      89.52061
                      -6.23054                      -0.02383                      89.61986
                      -6.22188                      -0.36548                      89.71404
                      -6.12571                      -0.69638                      89.79724
                      -5.94805                      -0.99574                      89.86423
                      -5.70008                      -1.24476                      89.91080
                      -5.39737                      -1.42778                      89.93402
                      -5.05895                      -1.53331                      89.93243
                      -4.70608                      -1.55471                      89.90614
                      -4.36093                      -1.49065                      89.85679
                      -4.04519                      -1.34514                      89.78749
                      -3.77870                      -1.12733                      89.70259
                      -3.57820                      -0.85091                      89.60742
                      -3.45629                      -0.53323                      89.50797
                      -3.37167                      -0.16092                      89.52698
                      -3.42593                       0.18717                      89.43517
                      -3.56766                       0.51338                      89.35744
                      -3.78795                       0.79720                      89.29867
                      -4.07297                       1.02081                      89.26255
                      -4.40480                       1.17016                      89.25135
                      -4.76259                       1.23586                      89.26578
                      -5.12386                       1.21378                      89.30493
                      -5.46592                       1.10531                      89.36634
                      -5.76727                       0.91726                      89.44615
                      -6.00897                       0.66146                      89.53935
                      -6.17584                       0.35398                      89.64008
                      -6.25739                       0.01412                      89.74200
                      -6.24850                      -0.33674                      89.83873
                      -6.14973                      -0.67657                      89.92417
                      -5.96728                      -0.98401                      89.99297
                      -5.71262                      -1.23974                      90.04079
                      -5.40175                      -1.42770                      90.06464
                      -5.05419                      -1.53608                      90.06301
                      -4.69180                      -1.55806                      90.03600
                      -4.33734                      -1.49227                      89.98532
                      -4.01308                      -1.34283                      89.91415
                      -3.73940                      -1.11915                      89.82696
                      -3.53349                      -0.83527                      89.72923
                      -3.40829                      -0.50902                      89.62710
                      -3.33417                      -0.12757                      89.64452
                      -3.38943                       0.22691                      89.55103
                      -3.53375                       0.55910                      89.47187
                      -3.75809                       0.84814                      89.41202
                      -4.04833                       1.07585                      89.37524
                      -4.38625                       1.22794                      89.36384
                      -4.75061                       1.29484                      89.37853
                      -5.11851                       1.27236                      89.41840
                      -5.46685                       1.16190                      89.48094
                      -5.77372                       0.97040                      89.56221
                      -6.01986                       0.70991                      89.65712
                      -6.18979                       0.39678                      89.75969
                      -6.27284                       0.05069                      89.86349
                      -6.26379                      -0.30661                      89.96199
                      -6.16320                      -0.65268                      90.04901
                      -5.97741                      -0.96576                      90.11906
                      -5.71807                      -1.22619                      90.16776
                      -5.40149                      -1.41760                      90.19205
                      -5.04757                      -1.52796                      90.19039
                      -4.67852                      -1.55035                      90.16289
                      -4.31756                      -1.48335                      90.11128
                      -3.98735                      -1.33117                      90.03880
                      -3.70865                      -1.10338                      89.95001
                      -3.49896                      -0.81429                      89.85048
                      -3.37146                      -0.48206                      89.74648
                      -3.30751                      -0.09421                      89.76306
                      -3.36335                       0.26404                      89.66857
                      -3.50922                       0.59977                      89.58856
                      -3.73595                       0.89189                      89.52807
                      -4.02928                       1.12203                      89.49090
                      -4.37080                       1.27574                      89.47938
                      -4.73905                       1.34335                      89.49423
                      -5.11087                       1.32063                      89.53452
                      -5.46292                       1.20899                      89.59773
                      -5.77306                       1.01546                      89.67987
                      -6.02182                       0.75219                      89.77579
                      -6.19357                       0.43572                      89.87945
                      -6.27750                       0.08594                      89.98436
                      -6.26835                      -0.27517                      90.08391
                      -6.16669                      -0.62492                      90.17185
                      -5.97892                      -0.94134                      90.24265
                      -5.71682                      -1.20454                      90.29187
                      -5.39687                      -1.39799                      90.31642
                      -5.03917                      -1.50953                      90.31474
                      -4.66619                      -1.53216                      90.28695
                      -4.30138                      -1.46444                      90.23479
                      -3.96765                      -1.31064                      90.16154
                      -3.68598                      -1.08043                      90.07180
                      -3.47406                      -0.78825                      89.97121
                      -3.34520                      -0.45248                      89.86610
                      -3.29135                      -0.06086                      89.88255
                      -3.34739                       0.29864                      89.78773
                      -3.49377                       0.63555                      89.70745
                      -3.72128                       0.92868                      89.64675
                      -4.01565                       1.15963                      89.60945
                      -4.35836                       1.31387                      89.59788
                      -4.72788                       1.38172                      89.61279
                      -5.10101                       1.35892                      89.65322
                      -5.45428                       1.24689                      89.71664
                      -5.76551                       1.05268                      89.79907
                      -6.01514                       0.78849                      89.89532
                      -6.18748                       0.47092                      89.99936
                      -6.27171                       0.11992                      90.10463
                      -6.26253                      -0.24245                      90.20452
                      -6.16052                      -0.59342                      90.29277
                      -5.97208                      -0.91094                      90.36382
                      -5.70907                      -1.17507                      90.41321
                      -5.38800                      -1.36919                      90.43784
                      -5.02905                      -1.48112                      90.43616
                      -4.65478                      -1.50382                      90.40827
                      -4.28869                      -1.43587                      90.35593
                      -3.95380                      -1.28154                      90.28242
                      -3.67114                      -1.05052                      90.19237
                      -3.45848                      -0.75732                      90.09143
                      -3.32917                      -0.42038                      89.98595
                      -3.28559                      -0.02751                      90.00299
                      -3.34143                       0.33074                      89.90850
                      -3.48730                       0.66648                      89.82850
                      -3.71402                       0.95859                      89.76801
                      -4.00736                       1.18873                      89.73084
                      -4.34888                       1.34244                      89.71932
                      -4.71712                       1.41005                      89.73417
                      -5.08895                       1.38733                      89.77446
                      -5.44099                       1.27569                      89.83766
                      -5.75114                       1.08216                      89.91981
                      -5.99990                       0.81889                      90.01572
                      -6.17164                       0.50242                      90.11939
                      -6.25558                       0.15264                      90.22430
                      -6.24643                      -0.20847                      90.32385
                      -6.14477                      -0.55822                      90.41179
                      -5.95699                      -0.87464                      90.48259
                      -5.69489                      -1.13784                      90.53181
                      -5.37494                      -1.33129                      90.55635
                      -5.01724                      -1.44283                      90.55468
                      -4.64427                      -1.46546                      90.52688
                      -4.27946                      -1.39774                      90.47473
                      -3.94573                      -1.24394                      90.40148
                      -3.66405                      -1.01372                      90.31174
                      -3.45213                      -0.72155                      90.21115
                      -3.32328                      -0.38578                      90.10603
                      -3.29032                       0.00584                      90.12440
                      -3.34558                       0.36031                      90.03090
                      -3.48990                       0.69251                      89.95175
                      -3.71424                       0.98154                      89.89189
                      -4.00448                       1.20925                      89.85511
                      -4.34240                       1.36134                      89.84371
                      -4.70676                       1.42824                      89.85841
                      -5.07466                       1.40576                      89.89827
                      -5.42300                       1.29530                      89.96081
                      -5.72987                       1.10381                      90.04209
                      -5.97601                       0.84331                      90.13699
                      -6.14594                       0.53018                      90.23957
                      -6.22899                       0.18409                      90.34337
                      -6.21994                      -0.17321                      90.44187
                      -6.11935                      -0.51927                      90.52888
                      -5.93356                      -0.83236                      90.59894
                      -5.67422                      -1.09278                      90.64764
                      -5.35765                      -1.28419                      90.67192
                      -5.00372                      -1.39456                      90.67026
                      -4.63468                      -1.41694                      90.64276
                      -4.27371                      -1.34994                      90.59115
                      -3.94350                      -1.19777                      90.51868
                      -3.66480                      -0.96998                      90.42989
                      -3.45511                      -0.68088                      90.33036
                      -3.32761                      -0.34865                      90.22635
                      -3.30590                       0.03918                      90.24679
                      -3.36016                       0.38727                      90.15498
                      -3.50189                       0.71348                      90.07725
                      -3.72218                       0.99731                      90.01848
                      -4.00719                       1.22092                      89.98236
                      -4.33902                       1.37026                      89.97116
                      -4.69681                       1.43596                      89.98559
                      -5.05809                       1.41388                      90.02474
                      -5.40015                       1.30541                      90.08615
                      -5.70149                       1.11737                      90.16596
                      -5.94319                       0.86157                      90.25916
                      -6.11006                       0.55408                      90.35989
                      -6.19162                       0.21423                      90.46182
                      -6.18273                      -0.13664                      90.55854
                      -6.08395                      -0.47646                      90.64399
                      -5.90151                      -0.78390                      90.71278
                      -5.64684                      -1.03964                      90.76061
                      -5.33597                      -1.22760                      90.78445
                      -4.98842                      -1.33598                      90.78282
                      -4.62603                      -1.35796                      90.75582
                      -4.27157                      -1.29217                      90.70514
                      -3.94731                      -1.14273                      90.63397
                      -3.67363                      -0.91904                      90.54678
                      -3.46772                      -0.63516                      90.44904
                      -3.34252                      -0.30892                      90.34691
                      -3.33293                       0.07253                      90.37024
                      -3.38577                       0.41147                      90.28084
                      -3.52377                       0.72911                      90.20515
                      -3.73828                       1.00548                      90.14792
                      -4.01580                       1.22322                      90.11275
                      -4.33892                       1.36864                      90.10185
                      -4.68731                       1.43261                      90.11590
                      -5.03909                       1.41111                      90.15402
                      -5.37216                       1.30549                      90.21382
                      -5.66559                       1.12239                      90.29153
                      -5.90094                       0.87331                      90.38228
                      -6.06343                       0.57390                      90.48036
                      -6.14284                       0.24297                      90.57961
                      -6.13418                      -0.09867                      90.67380
                      -6.03801                      -0.42957                      90.75700
                      -5.86035                      -0.72894                      90.82398
                      -5.61238                      -0.97795                      90.87055
                      -5.30967                      -1.16097                      90.89377
                      -4.97125                      -1.26650                      90.89218
                      -4.61838                      -1.28791                      90.86589
                      -4.27323                      -1.22384                      90.81654
                      -3.95749                      -1.07834                      90.74724
                      -3.69100                      -0.86053                      90.66234
                      -3.49050                      -0.58410                      90.56717
                      -3.36859                      -0.26643                      90.46772
                      -3.37239                       0.10587                      90.49481
                      -3.42333                       0.43268                      90.40862
                      -3.55639                       0.73895                      90.33564
                      -3.76322                       1.00543                      90.28046
                      -4.03081                       1.21537                      90.24654
                      -4.34236                       1.35559                      90.23603
                      -4.67828                       1.41727                      90.24958
                      -5.01747                       1.39654                      90.28634
                      -5.33862                       1.29470                      90.34399
                      -5.62154                       1.11815                      90.41893
                      -5.84847                       0.87799                      90.50643
                      -6.00514                       0.58929                      90.60100
                      -6.08171                       0.27022                      90.69669
                      -6.07336                      -0.05920                      90.78751
                      -5.98063                      -0.37825                      90.86773
                      -5.80933                      -0.66690                      90.93232
                      -5.57023                      -0.90700                      90.97722
                      -5.27836                      -1.08348                      90.99961
                      -4.95206                      -1.18523                      90.99808
                      -4.61182                      -1.20587                      90.97272
                      -4.27903                      -1.14409                      90.92514
                      -3.97459                      -1.00379                      90.85832
                      -3.71764                      -0.79378                      90.77646
                      -3.52431                      -0.52725                      90.68470
                      -3.40677                      -0.22095                      90.58881
                      -3.42571                       0.13921                      90.62066
                      -3.47424                       0.45056                      90.53854
                      -3.60100                       0.74232                      90.46902
                      -3.79804                       0.99619                      90.41645
                      -4.05296                       1.19619                      90.38414
                      -4.34976                       1.32977                      90.37413
                      -4.66978                       1.38853                      90.38704
                      -4.99291                       1.36878                      90.42205
                      -5.29886                       1.27176                      90.47698
                      -5.56839                       1.10357                      90.54836
                      -5.78458                       0.87478                      90.63172
                      -5.93383                       0.59975                      90.72181
                      -6.00677                       0.29578                      90.81298
                      -5.99882                      -0.01804                      90.89950
                      -5.91047                      -0.32199                      90.97592
                      -5.74729                      -0.59698                      91.03745
                      -5.51951                      -0.82571                      91.08023
                      -5.24146                      -0.99383                      91.10155
                      -4.93060                      -1.09077                      91.10010
                      -4.60647                      -1.11043                      91.07594
                      -4.28943                      -1.05158                      91.03062
                      -3.99940                      -0.91792                      90.96696
                      -3.75461                      -0.71785                      90.88897
                      -3.57044                      -0.46394                      90.80156
                      -3.45846                      -0.17214                      90.71021
                      -3.49510                       0.17255                      90.74797
                      -3.54061                       0.46456                      90.67096
                      -3.65951                       0.73820                      90.60575
                      -3.84430                       0.97629                      90.55645
                      -4.08339                       1.16388                      90.52615
                      -4.36175                       1.28916                      90.51676
                      -4.66190                       1.34427                      90.52886
                      -4.96496                       1.32575                      90.56170
                      -5.25190                       1.23476                      90.61322
                      -5.50469                       1.07701                      90.68017
                      -5.70745                       0.86243                      90.75835
                      -5.84743                       0.60449                      90.84285
                      -5.91584                       0.31939                      90.92835
                      -5.90838                       0.02506                      91.00949
                      -5.82553                      -0.26001                      91.08117
                      -5.67248                      -0.51791                      91.13888
                      -5.45885                      -0.73244                      91.17900
                      -5.19807                      -0.89011                      91.19900
                      -4.90652                      -0.98103                      91.19763
                      -4.60252                      -0.99947                      91.17498
                      -4.30517                      -0.94427                      91.13247
                      -4.03316                      -0.81892                      91.07276
                      -3.80357                      -0.63127                      90.99962
                      -3.63084                      -0.39313                      90.91763
                      -3.52582                      -0.11946                      90.83196
                      -3.58404                       0.20589                      90.87707
                      -3.62580                       0.47385                      90.80640
                      -3.73491                       0.72497                      90.74656
                      -3.90449                       0.94345                      90.70132
                      -4.12389                       1.11559                      90.67351
                      -4.37933                       1.23056                      90.66489
                      -4.65476                       1.28113                      90.67600
                      -4.93287                       1.26413                      90.70614
                      -5.19619                       1.18063                      90.75341
                      -5.42816                       1.03588                      90.81485
                      -5.61423                       0.83896                      90.88660
                      -5.74268                       0.60226                      90.96414
                      -5.80546                       0.34064                      91.04260
                      -5.79862                       0.07055                      91.11706
                      -5.72258                      -0.19105                      91.18283
                      -5.58213                      -0.42772                      91.23579
                      -5.38609                      -0.62459                      91.27261
                      -5.14679                      -0.76928                      91.29096
                      -4.87924                      -0.85271                      91.28971
                      -4.60027                      -0.86963                      91.26892
                      -4.32741                      -0.81898                      91.22991
                      -4.07779                      -0.70395                      91.17512
                      -3.86711                      -0.53175                      91.10800
                      -3.70860                      -0.31322                      91.03277
                      -3.61223                      -0.06208                      90.95414
                      -3.69843                       0.23923                      91.00850
                      -3.73549                       0.47702                      90.94578
                      -3.83231                       0.69986                      90.89268
                      -3.98280                       0.89375                      90.85253
                      -4.17750                       1.04650                      90.82786
                      -4.40418                       1.14853                      90.82021
                      -4.64860                       1.19341                      90.83007
                      -4.89540                       1.17832                      90.85681
                      -5.12907                       1.10422                      90.89876
                      -5.33493                       0.97577                      90.95329
                      -5.50004                       0.80102                      91.01695
                      -5.61404                       0.59097                      91.08576
                      -5.66975                       0.35880                      91.15539
                      -5.66367                       0.11912                      91.22147
                      -5.59620                      -0.11303                      91.27984
                      -5.47156                      -0.32305                      91.32683
                      -5.29760                      -0.49775                      91.35950
                      -5.08523                      -0.62615                      91.37579
                      -4.84781                      -0.70019                      91.37468
                      -4.60025                      -0.71520                      91.35623
                      -4.35810                      -0.67026                      91.32161
                      -4.13659                      -0.56818                      91.27299
                      -3.94963                      -0.41537                      91.21343
                      -3.80897                      -0.22144                      91.14667
                      -3.72344                       0.00143                      91.07689
                      -3.84979                       0.27255                      91.14331
                      -3.88076                       0.47128                      91.09090
                      -3.96168                       0.65751                      91.04652
                      -4.08744                       0.81955                      91.01297
                      -4.25016                       0.94720                      90.99235
                      -4.43960                       1.03247                      90.98595
                      -4.64386                       1.06997                      90.99419
                      -4.85011                       1.05737                      91.01654
                      -5.04539                       0.99544                      91.05160
                      -5.21743                       0.88809                      91.09716
                      -5.35542                       0.74205                      91.15037
                      -5.45068                       0.56651                      91.20788
                      -5.49724                       0.37249                      91.26607
                      -5.49217                       0.17218                      91.32129
                      -5.43578                      -0.02183                      91.37007
                      -5.33162                      -0.19735                      91.40934
                      -5.18623                      -0.34335                      91.43665
                      -5.00876                      -0.45065                      91.45026
                      -4.81034                      -0.51252                      91.44933
                      -4.60345                      -0.52507                      91.43391
                      -4.40109                      -0.48751                      91.40498
                      -4.21597                      -0.40220                      91.36435
                      -4.05972                      -0.27450                      91.31457
                      -3.94217                      -0.11243                      91.25877
                      -3.87070                       0.07382                      91.20047
                      -4.06755                       0.30587                      91.28419
                      -4.08995                       0.44955                      91.24629
                      -4.14845                       0.58420                      91.21421
                      -4.23937                       0.70135                      91.18995
                      -4.35702                       0.79365                      91.17504
                      -4.49398                       0.85529                      91.17042
                      -4.64166                       0.88241                      91.17638
                      -4.79078                       0.87329                      91.19253
                      -4.93197                       0.82852                      91.21788
                      -5.05635                       0.75090                      91.25082
                      -5.15612                       0.64532                      91.28929
                      -5.22500                       0.51840                      91.33087
                      -5.25866                       0.37812                      91.37294
                      -5.25499                       0.23330                      91.41287
                      -5.21422                       0.09304                      91.44813
                      -5.13891                      -0.03386                      91.47653
                      -5.03380                      -0.13942                      91.49627
                      -4.90548                      -0.21700                      91.50611
                      -4.76203                      -0.26174                      91.50544
                      -4.61245                      -0.27081                      91.49429
                      -4.46614                      -0.24365                      91.47337
                      -4.33230                      -0.18197                      91.44400
                      -4.21933                      -0.08964                      91.40801
                      -4.13434                       0.02753                      91.36767
                      -4.08267                       0.16219                      91.32551
                      -4.65358                       0.33914                      91.45873
                      -4.65358                       0.33914                      91.45873
                      -4.65358                       0.33914                      91.45873
                      -4.65358                       0.33914                      91.45873
                      -4.65358                       0.33914                      91.45873
                      -4.65358                       0.33914                      91.45873
                      -4.65358                       0.33914                      91.45873
                      -4.65358                       0.33914                      91.45873
                      -4.65358                       0.33914                      91.45873
                      -4.65358                       0.33914                      91.45873
                      -4.65358                       0.33914                      91.45873
                      -4.65358                       0.33914                      91.45873
                      -4.65358                       0.33914                      91.45873
                      -4.65358                       0.33914                      91.45873
                      -4.65358                       0.33914                      91.45873
                      -4.65358                       0.33914                      91.45873
                      -4.65358                       0.33914                      91.45873
                      -4.65358                       0.33914                      91.45873
                      -4.65358                       0.33914                      91.45873
                      -4.65358                       0.33914                      91.45873
                      -4.65358                       0.33914                      91.45873
                      -4.65358                       0.33914                      91.45873
                      -4.65358                       0.33914                      91.45873
                      -4.65358                       0.33914                      91.45873
                      -4.65358                       0.33914                      91.45873
        </DataArray>
      </Points>
      <Polys>
        <DataArray type="Int32" Name="connectivity" format="ascii">
      0      1     26     25
      1      2     27     26
      2      3     28     27
      3      4     29     28
      4      5     30     29
      5      6     31     30
      6      7     32     31
      7      8     33     32
      8      9     34     33
      9     10     35     34
     10     11     36     35
     11     12     37     36
     12     13     38     37
     13     14     39     38
     14     15     40     39
     15     16     41     40
     16     17     42     41
     17     18     43     42
     18     19     44     43
     19     20     45     44
     20     21     46     45
     21     22     47     46
     22     23     48     47
     23     24     49     48
     24      0     25     49
     25     26     51     50
     26     27     52     51
     27     28     53     52
     28     29     54     53
     29     30     55     54
     30     31     56     55
     31     32     57     56
     32     33     58     57
     33     34     59     58
     34     35     60     59
     35     36     61     60
     36     37     62     61
     37     38     63     62
     38     39     64     63
     39     40     65     64
     40     41     66     65
     41     42     67     66
     42     43     68     67
     43     44     69     68
     44     45     70     69
     45     46     71     70
     46     47     72     71
     47     48     73     72
     48     49     74     73
     49     25     50     74
     50     51     76     75
     51     52     77     76
     52     53     78     77
     53     54     79     78
     54     55     80     79
     55     56     81     80
     56     57     82     81
     57     58     83     82
     58     59     84     83
     59     60     85     84
     60     61     86     85
     61     62     87     86
     62     63     88     87
     63     64     89     88
     64     65     90     89
     65     66     91     90
     66     67     92     91
     67     68     93     92
     68     69     94     93
     69     70     95     94
     70     71     96     95
     71     72     97     96
     72     73     98     97
     73     74     99     98
     74     50     75     99
     75     76    101    100
     76     77    102    101
     77     78    103    102
     78     79    104    103
     79     80    105    104
     80     81    106    105
     81     82    107    106
     82     83    108    107
     83     84    109    108
     84     85    110    109
     85     86    111    110
     86     87    112    111
     87     88    113    112
     88     89    114    113
     89     90    115    114
     90     91    116    115
     91     92    117    116
     92     93    118    117
     93     94    119    118
     94     95    120    119
     95     96    121    120
     96     97    122    121
     97     98    123    122
     98     99    124    123
     99     75    100    124
    100    101    126    125
    101    102    127    126
    102    103    128    127
    103    104    129    128
    104    105    130    129
    105    106    131    130
    106    107    132    131
    107    108    133    132
    108    109    134    133
    109    110    135    134
    110    111    136    135
    111    112    137    136
    112    113    138    137
    113    114    139    138
    114    115    140    139
    115    116    141    140
    116    117    142    141
    117    118    143    142
    118    119    144    143
    119    120    145    144
    120    121    146    145
    121    122    147    146
    122    123    148    147
    123    124    149    148
    124    100    125    149
    125    126    151    150
    126    127    152    151
    127    128    153    152
    128    129    154    153
    129    130    155    154
    130    131    156    155
    131    132    157    156
    132    133    158    157
    133    134    159    158
    134    135    160    159
    135    136    161    160
    136    137    162    161
    137    138    163    162
    138    139    164    163
    139    140    165    164
    140    141    166    165
    141    142    167    166
    142    143    168    167
    143    144    169    168
    144    145    170    169
    145    146    171    170
    146    147    172    171
    147    148    173    172
    148    149    174    173
    149    125    150    174
    150    151    176    175
    151    152    177    176
    152    153    178    177
    153    154    179    178
    154    155    180    179
    155    156    181    180
    156    157    182    181
    157    158    183    182
    158    159    184    183
    159    160    185    184
    160    161    186    185
    161    162    187    186
    162    163    188    187
    163    164    189    188
    164    165    190    189
    165    166    191    190
    166    167    192    191
    167    168    193    192
    168    169    194    193
    169    170    195    194
    170    171    196    195
    171    172    197    196
    172    173    198    197
    173    174    199    198
    174    150    175    199
    175    176    201    200
    176    177    202    201
    177    178    203    202
    178    179    204    203
    179    180    205    204
    180    181    206    205
    181    182    207    206
    182    183    208    207
    183    184    209    208
    184    185    210    209
    185    186    211    210
    186    187    212    211
    187    188    213    212
    188    189    214    213
    189    190    215    214
    190    191    216    215
    191    192    217    216
    192    193    218    217
    193    194    219    218
    194    195    220    219
    195    196    221    220
    196    197    222    221
    197    198    223    222
    198    199    224    223
    199    175    200    224
    200    201    226    225
    201    202    227    226
    202    203    228    227
    203    204    229    228
    204    205    230    229
    205    206    231    230
    206    207    232    231
    207    208    233    232
    208    209    234    233
    209    210    235    234
    210    211    236    235
    211    212    237    236
    212    213    238    237
    213    214    239    238
    214    215    240    239
    215    216    241    240
    216    217    242    241
    217    218    243    242
    218    219    244    243
    219    220    245    244
    220    221    246    245
    221    222    247    246
    222    223    248    247
    223    224    249    248
    224    200    225    249
    225    226    251    250
    226    227    252    251
    227    228    253    252
    228    229    254    253
    229    230    255    254
    230    231    256    255
    231    232    257    256
    232    233    258    257
    233    234    259    258
    234    235    260    259
    235    236    261    260
    236    237    262    261
    237    238    263    262
    238    239    264    263
    239    240    265    264
    240    241    266    265
    241    242    267    266
    242    243    268    267
    243    244    269    268
    244    245    270    269
    245    246    271    270
    246    247    272    271
    247    248    273    272
    248    249    274    273
    249    225    250    274
    250    251    276    275
    251    252    277    276
    252    253    278    277
    253    254    279    278
    254    255    280    279
    255    256    281    280
    256    257    282    281
    257    258    283    282
    258    259    284    283
    259    260    285    284
    260    261    286    285
    261    262    287    286
    262    263    288    287
    263    264    289    288
    264    265    290    289
    265    266    291    290
    266    267    292    291
    267    268    293    292
    268    269    294    293
    269    270    295    294
    270    271    296    295
    271    272    297    296
    272    273    298    297
    273    274    299    298
    274    250    275    299
    275    276    301    300
    276    277    302    301
    277    278    303    302
    278    279    304    303
    279    280    305    304
    280    281    306    305
    281    282    307    306
    282    283    308    307
    283    284    309    308
    284    285    310    309
    285    286    311    310
    286    287    312    311
    287    288    313    312
    288    289    314    313
    289    290    315    314
    290    291    316    315
    291    292    317    316
    292    293    318    317
    293    294    319    318
    294    295    320    319
    295    296    321    320
    296    297    322    321
    297    298    323    322
    298    299    324    323
    299    275    300    324
    300    301    326    325
    301    302    327    326
    302    303    328    327
    303    304    329    328
    304    305    330    329
    305    306    331    330
    306    307    332    331
    307    308    333    332
    308    309    334    333
    309    310    335    334
    310    311    336    335
    311    312    337    336
    312    313    338    337
    313    314    339    338
    314    315    340    339
    315    316    341    340
    316    317    342    341
    317    318    343    342
    318    319    344    343
    319    320    345    344
    320    321    346    345
    321    322    347    346
    322    323    348    347
    323    324    349    348
    324    300    325    349
    325    326    351    350
    326    327    352    351
    327    328    353    352
    328    329    354    353
    329    330    355    354
    330    331    356    355
    331    332    357    356
    332    333    358    357
    333    334    359    358
    334    335    360    359
    335    336    361    360
    336    337    362    361
    337    338    363    362
    338    339    364    363
    339    340    365    364
    340    341    366    365
    341    342    367    366
    342    343    368    367
    343    344    369    368
    344    345    370    369
    345    346    371    370
    346    347    372    371
    347    348    373    372
    348    349    374    373
    349    325    350    374
    350    351    376    375
    351    352    377    376
    352    353    378    377
    353    354    379    378
    354    355    380    379
    355    356    381    380
    356    357    382    381
    357    358    383    382
    358    359    384    383
    359    360    385    384
    360    361    386    385
    361    362    387    386
    362    363    388    387
    363    364    389    388
    364    365    390    389
    365    366    391    390
    366    367    392    391
    367    368    393    392
    368    369    394    393
    369    370    395    394
    370    371    396    395
    371    372    397    396
    372    373    398    397
    373    374    399    398
    374    350    375    399
    375    376    401    400
    376    377    402    401
    377    378    403    402
    378    379    404    403
    379    380    405    404
    380    381    406    405
    381    382    407    406
    382    383    408    407
    383    384    409    408
    384    385    410    409
    385    386    411    410
    386    387    412    411
    387    388    413    412
    388    389    414    413
    389    390    415    414
    390    391    416    415
    391    392    417    416
    392    393    418    417
    393    394    419    418
    394    395    420    419
    395    396    421    420
    396    397    422    421
    397    398    423    422
    398    399    424    423
    399    375    400    424
    400    401    426    425
    401    402    427    426
    402    403    428    427
    403    404    429    428
    404    405    430    429
    405    406    431    430
    406    407    432    431
    407    408    433    432
    408    409    434    433
    409    410    435    434
    410    411    436    435
    411    412    437    436
    412    413    438    437
    413    414    439    438
    414    415    440    439
    415    416    441    440
    416    417    442    441
    417    418    443    442
    418    419    444    443
    419    420    445    444
    420    421    446    445
    421    422    447    446
    422    423    448    447
    423    424    449    448
    424    400    425    449
    425    426    451    450
    426    427    452    451
    427    428    453    452
    428    429    454    453
    429    430    455    454
    430    431    456    455
    431    432    457    456
    432    433    458    457
    433    434    459    458
    434    435    460    459
    435    436    461    460
    436    437    462    461
    437    438    463    462
    438    439    464    463
    439    440    465    464
    440    441    466    465
    441    442    467    466
    442    443    468    467
    443    444    469    468
    444    445    470    469
    445    446    471    470
    446    447    472    471
    447    448    473    472
    448    449    474    473
    449    425    450    474
    450    451    476    475
    451    452    477    476
    452    453    478    477
    453    454    479    478
    454    455    480    479
    455    456    481    480
    456    457    482    481
    457    458    483    482
    458    459    484    483
    459    460    485    484
    460    461    486    485
    461    462    487    486
    462    463    488    487
    463    464    489    488
    464    465    490    489
    465    466    491    490
    466    467    492    491
    467    468    493    492
    468    469    494    493
    469    470    495    494
    470    471    496    495
    471    472    497    496
    472    473    498    497
    473    474    499    498
    474    450    475    499
    475    476    501    500
    476    477    502    501
    477    478    503    502
    478    479    504    503
    479    480    505    504
    480    481    506    505
    481    482    507    506
    482    483    508    507
    483    484    509    508
    484    485    510    509
    485    486    511    510
    486    487    512    511
    487    488    513    512
    488    489    514    513
    489    490    515    514
    490    491    516    515
    491    492    517    516
    492    493    518    517
    493    494    519    518
    494    495    520    519
    495    496    521    520
    496    497    522    521
    497    498    523    522
    498    499    524    523
    499    475    500    524
    500    501    526    525
    501    502    527    526
    502    503    528    527
    503    504    529    528
    504    505    530    529
    505    506    531    530
    506    507    532    531
    507    508    533    532
    508    509    534    533
    509    510    535    534
    510    511    536    535
    511    512    537    536
    512    513    538    537
    513    514    539    538
    514    515    540    539
    515    516    541    540
    516    517    542    541
    517    518    543    542
    518    519    544    543
    519    520    545    544
    520    521    546    545
    521    522    547    546
    522    523    548    547
    523    524    549    548
    524    500    525    549
    525    526    551    550
    526    527    552    551
    527    528    553    552
    528    529    554    553
    529    530    555    554
    530    531    556    555
    531    532    557    556
    532    533    558    557
    533    534    559    558
    534    535    560    559
    535    536    561    560
    536    537    562    561
    537    538    563    562
    538    539    564    563
    539    540    565    564
    540    541    566    565
    541    542    567    566
    542    543    568    567
    543    544    569    568
    544    545    570    569
    545    546    571    570
    546    547    572    571
    547    548    573    572
    548    549    574    573
    549    525    550    574
    550    551    576    575
    551    552    577    576
    552    553    578    577
    553    554    579    578
    554    555    580    579
    555    556    581    580
    556    557    582    581
    557    558    583    582
    558    559    584    583
    559    560    585    584
    560    561    586    585
    561    562    587    586
    562    563    588    587
    563    564    589    588
    564    565    590    589
    565    566    591    590
    566    567    592    591
    567    568    593    592
    568    569    594    593
    569    570    595    594
    570    571    596    595
    571    572    597    596
    572    573    598    597
    573    574    599    598
    574    550    575    599
    575    576    601    600
    576    577    602    601
    577    578    603    602
    578    579    604    603
    579    580    605    604
    580    581    606    605
    581    582    607    606
    582    583    608    607
    583    584    609    608
    584    585    610    609
    585    586    611    610
    586    587    612    611
    587    588    613    612
    588    589    614    613
    589    590    615    614
    590    591    616    615
    591    592    617    616
    592    593    618    617
    593    594    619    618
    594    595    620    619
    595    596    621    620
    596    597    622    621
    597    598    623    622
    598    599    624    623
    599    575    600    624
        </DataArray>
        <DataArray type="Int32" Name="offsets" format="ascii">
      4
      8
     12
     16
     20
     24
     28
     32
     36
     40
     44
     48
     52
     56
     60
     64
     68
     72
     76
     80
     84
     88
     92
     96
    100
    104
    108
    112
    116
    120
    124
    128
    132
    136
    140
    144
    148
    152
    156
    160
    164
    168
    172
    176
    180
    184
    188
    192
    196
    200
    204
    208
    212
    216
    220
    224
    228
    232
    236
    240
    244
    248
    252
    256
    260
    264
    268
    272
    276
    280
    284
    288
    292
    296
    300
    304
    308
    312
    316
    320
    324
    328
    332
    336
    340
    344
    348
    352
    356
    360
    364
    368
    372
    376
    380
    384
    388
    392
    396
    400
    404
    408
    412
    416
    420
    424
    428
    432
    436
    440
    444
    448
    452
    456
    460
    464
    468
    472
    476
    480
    484
    488
    492
    496
    500
    504
    508
    512
    516
    520
    524
    528
    532
    536
    540
    544
    548
    552
    556
    560
    564
    568
    572
    576
    580
    584
    588
    592
    596
    600
    604
    608
    612
    616
    620
    624
    628
    632
    636
    640
    644
    648
    652
    656
    660
    664
    668
    672
    676
    680
    684
    688
    692
    696
    700
    704
    708
    712
    716
    720
    724
    728
    732
    736
    740
    744
    748
    752
    756
    760
    764
    768
    772
    776
    780
    784
    788
    792
    796
    800
    804
    808
    812
    816
    820
    824
    828
    832
    836
    840
    844
    848
    852
    856
    860
    864
    868
    872
    876
    880
    884
    888
    892
    896
    900
    904
    908
    912
    916
    920
    924
    928
    932
    936
    940
    944
    948
    952
    956
    960
    964
    968
    972
    976
    980
    984
    988
    992
    996
   1000
   1004
   1008
   1012
   1016
   1020
   1024
   1028
   1032
   1036
   1040
   1044
   1048
   1052
   1056
   1060
   1064
   1068
   1072
   1076
   1080
   1084
   1088
   1092
   1096
   1100
   1104
   1108
   1112
   1116
   1120
   1124
   1128
   1132
   1136
   1140
   1144
   1148
   1152
   1156
   1160
   1164
   1168
   1172
   1176
   1180
   1184
   1188
   1192
   1196
   1200
   1204
   1208
   1212
   1216
   1220
   1224
   1228
   1232
   1236
   1240
   1244
   1248
   1252
   1256
   1260
   1264
   1268
   1272
   1276
   1280
   1284
   1288
   1292
   1296
   1300
   1304
   1308
   1312
   1316
   1320
   1324
   1328
   1332
   1336
   1340
   1344
   1348
   1352
   1356
   1360
   1364
   1368
   1372
   1376
   1380
   1384
   1388
   1392
   1396
   1400
   1404
   1408
   1412
   1416
   1420
   1424
   1428
   1432
   1436
   1440
   1444
   1448
   1452
   1456
   1460
   1464
   1468
   1472
   1476
   1480
   1484
   1488
   1492
   1496
   1500
   1504
   1508
   1512
   1516
   1520
   1524
   1528
   1532
   1536
   1540
   1544
   1548
   1552
   1556
   1560
   1564
   1568
   1572
   1576
   1580
   1584
   1588
   1592
   1596
   1600
   1604
   1608
   1612
   1616
   1620
   1624
   1628
   1632
   1636
   1640
   1644
   1648
   1652
   1656
   1660
   1664
   1668
   1672
   1676
   1680
   1684
   1688
   1692
   1696
   1700
   1704
   1708
   1712
   1716
   1720
   1724
   1728
   1732
   1736
   1740
   1744
   1748
   1752
   1756
   1760
   1764
   1768
   1772
   1776
   1780
   1784
   1788
   1792
   1796
   1800
   1804
   1808
   1812
   1816
   1820
   1824
   1828
   1832
   1836
   1840
   1844
   1848
   1852
   1856
   1860
   1864
   1868
   1872
   1876
   1880
   1884
   1888
   1892
   1896
   1900
   1904
   1908
   1912
   1916
   1920
   1924
   1928
   1932
   1936
   1940
   1944
   1948
   1952
   1956
   1960
   1964
   1968
   1972
   1976
   1980
   1984
   1988
   1992
   1996
   2000
   2004
   2008
   2012
   2016
   2020
   2024
   2028
   2032
   2036
   2040
   2044
   2048
   2052
   2056
   2060
   2064
   2068
   2072
   2076
   2080
   2084
   2088
   2092
   2096
   2100
   2104
   2108
   2112
   2116
   2120
   2124
   2128
   2132
   2136
   2140
   2144
   2148
   2152
   2156
   2160
   2164
   2168
   2172
   2176
   2180
   2184
   2188
   2192
   2196
   2200
   2204
   2208
   2212
   2216
   2220
   2224
   2228
   2232
   2236
   2240
   2244
   2248
   2252
   2256
   2260
   2264
   2268
   2272
   2276
   2280
   2284
   2288
   2292
   2296
   2300
   2304
   2308
   2312
   2316
   2320
   2324
   2328
   2332
   2336
   2340
   2344
   2348
   2352
   2356
   2360
   2364
   2368
   2372
   2376
   2380
   2384
   2388
   2392
   2396
   2400
        </DataArray>
      </Polys>
    </Piece>
  </PolyData>
</VTKFile>
