<?xml version="1.0"?>
<VTKFile type="PolyData" version="0.1" byte_order="LittleEndian">
  <PolyData>
    <Piece NumberOfPoints="     19" NumberOfVerts="  0" NumberOfLines="     18"
           NumberOfStrips="  0" NumberOfPolys="      0">
      <Points>
        <DataArray type="Float32" NumberOfComponents="3" format="ascii">
                      -4.79257                       1.28953                      90.63349
                      -4.80266                       2.53515                      91.19597
                      -4.86170                       4.99019                      92.40103
                      -4.93716                       7.42856                      93.64365
                      -5.03781                      10.46729                      95.21883
                      -5.06973                      14.16830                      96.98913
                      -5.04114                      17.92034                      98.64576
                      -5.00135                      21.67414                     100.29825
                      -4.94694                      25.42999                     101.94575
                      -4.87889                      29.18698                     103.59017
                      -4.79963                      32.94358                     105.23491
                      -4.70925                      36.70019                     106.87905
                      -4.61016                      40.45679                     108.52266
                      -4.50562                      44.21343                     110.16564
                      -4.39735                      47.97002                     111.80820
                      -4.30732                      51.10066                     113.17636
                      -4.23599                      53.60843                     114.26306
                      -4.15710                      56.13821                     115.29953
                      -4.12952                      57.38696                     115.85436
        </DataArray>
      </Points>
      <PointData>
        <DataArray type="Float32" Name="TranslationalVelocity" NumberOfComponents="3" format="ascii">
                       0.16564                      -0.75024                       1.72869
                       0.30974                      -1.45925                       3.30136
                       0.59470                      -2.97430                       6.40173
                       0.87906                      -4.53542                       9.48213
                       1.23580                      -6.51466                      13.32276
                       1.67461                      -8.74999                      18.00328
                       2.12564                     -10.85031                      22.75180
                       2.58525                     -12.94850                      27.50641
                       3.05562                     -15.04404                      32.26764
                       3.53892                     -17.13945                      37.03450
                       4.03729                     -19.23892                      41.80520
                       4.55293                     -21.34144                      46.58033
                       5.08779                     -23.44693                      51.35998
                       5.64348                     -25.55497                      56.14436
                       6.22115                     -27.66572                      60.93345
                       6.72023                     -29.42604                      64.92842
                       7.13078                     -30.82564                      68.13102
                       7.55315                     -32.16354                      71.36376
                       7.76641                     -32.87797                      72.96067
        </DataArray>
        <DataArray type="Float32" Name="RotationalVelocity" NumberOfComponents="3" format="ascii">
                       1.26245                       0.00043                      -0.11549
                       1.26258                       0.00034                      -0.11565
                       1.26293                       0.00029                      -0.11605
                       1.26339                       0.00042                      -0.11657
                       1.26407                       0.00077                      -0.11736
                       1.26498                       0.00146                      -0.11856
                       1.26596                       0.00242                      -0.12007
                       1.26700                       0.00368                      -0.12193
                       1.26808                       0.00527                      -0.12421
                       1.26922                       0.00724                      -0.12695
                       1.27043                       0.00959                      -0.13016
                       1.27172                       0.01231                      -0.13383
                       1.27309                       0.01535                      -0.13792
                       1.27450                       0.01858                      -0.14232
                       1.27591                       0.02178                      -0.14686
                       1.27703                       0.02423                      -0.15058
                       1.27785                       0.02588                      -0.15339
                       1.27854                       0.02708                      -0.15592
                       1.27882                       0.02746                      -0.15704
        </DataArray>
        <DataArray type="Float32" Name="TranslationalAcceleration" NumberOfComponents="3" format="ascii">
                      -0.10196                      -2.16475                      -0.97381
                      -0.11032                      -2.64635                      -1.18886
                      -0.32615                      -7.52054                      -3.52545
                      -0.52851                     -11.97864                      -5.74174
                      -0.76374                     -17.17241                      -8.37726
                      -1.00600                     -23.17095                     -11.20849
                      -1.21178                     -29.10942                     -13.79243
                      -1.39815                     -35.04845                     -16.35866
                      -1.56739                     -41.06186                     -18.94026
                      -1.72328                     -47.17166                     -21.55285
                      -1.87263                     -53.36263                     -24.19916
                      -2.02601                     -59.60062                     -26.86679
                      -2.19996                     -65.84309                     -29.54228
                      -2.41838                     -72.05426                     -32.21598
                      -2.71414                     -78.21875                     -34.88973
                      -3.05315                     -83.33315                     -37.13028
                      -3.40316                     -87.43793                     -38.93306
                      -3.83969                     -91.61988                     -40.69645
                      -4.10284                     -93.71509                     -41.65749
        </DataArray>
        <DataArray type="Float32" Name="OrientationX" NumberOfComponents="3" format="ascii">
                       0.90932                      -0.16498                       0.38199
                       0.90932                      -0.16515                       0.38191
                       0.90932                      -0.16569                       0.38169
                       0.90931                      -0.16651                       0.38135
                       0.90929                      -0.16786                       0.38080
                       0.92206                      -0.15797                       0.35333
                       0.93063                      -0.15178                       0.33301
                       0.93760                      -0.14702                       0.31510
                       0.94445                      -0.14211                       0.29635
                       0.95092                      -0.13716                       0.27737
                       0.95646                      -0.13277                       0.25990
                       0.96144                      -0.12845                       0.24319
                       0.96544                      -0.12468                       0.22888
                       0.96797                      -0.12226                       0.21927
                       0.97029                      -0.11923                       0.21055
                       0.97216                      -0.11592                       0.20363
                       0.97352                      -0.11280                       0.19883
                       0.97404                      -0.11042                       0.19761
                       0.97383                      -0.10978                       0.19902
        </DataArray>
        <DataArray type="Float32" Name="OrientationY" NumberOfComponents="3" format="ascii">
                       0.41605                       0.37486                      -0.82848
                       0.41604                       0.37468                      -0.82857
                       0.41606                       0.37417                      -0.82879
                       0.41610                       0.37349                      -0.82908
                       0.41615                       0.37248                      -0.82950
                       0.38704                       0.37633                      -0.84177
                       0.36596                       0.37850                      -0.85018
                       0.34766                       0.38012                      -0.85711
                       0.32852                       0.38187                      -0.86386
                       0.30916                       0.38367                      -0.87018
                       0.29140                       0.38530                      -0.87557
                       0.27437                       0.38691                      -0.88035
                       0.25976                       0.38829                      -0.88417
                       0.24999                       0.38914                      -0.88661
                       0.24079                       0.39002                      -0.88877
                       0.23312                       0.39081                      -0.89046
                       0.22747                       0.39141                      -0.89166
                       0.22538                       0.39162                      -0.89210
                       0.22641                       0.39150                      -0.89189
        </DataArray>
        <DataArray type="Float32" Name="OrientationZ" NumberOfComponents="3" format="ascii">
                      -0.00651                       0.91228                       0.40951
                      -0.00626                       0.91233                       0.40941
                      -0.00549                       0.91244                       0.40918
                      -0.00438                       0.91257                       0.40891
                      -0.00260                       0.91273                       0.40855
                       0.00001                       0.91292                       0.40814
                       0.00300                       0.91307                       0.40779
                       0.00624                       0.91318                       0.40752
                       0.00959                       0.91323                       0.40734
                       0.01293                       0.91323                       0.40725
                       0.01611                       0.91319                       0.40722
                       0.01899                       0.91313                       0.40724
                       0.02137                       0.91306                       0.40726
                       0.02307                       0.91303                       0.40725
                       0.02385                       0.91305                       0.40714
                       0.02364                       0.91314                       0.40695
                       0.02275                       0.91328                       0.40670
                       0.02112                       0.91348                       0.40634
                       0.01999                       0.91360                       0.40611
        </DataArray>
        <DataArray type="Float32" Name="Force" NumberOfComponents="3" format="ascii">
                      -0.00456                       0.02234                      -0.04984
                     429.79104                      34.62953                     -70.58757
                     477.79066                      73.15587                    -156.63048
                     378.19508                      85.87283                    -187.38557
                    2619.12579                    -674.68605                    1520.63941
                    3297.79456                    -941.11305                    2098.96453
                    3289.33470                    -825.64309                    1818.43115
                    3432.04434                    -735.09399                    1589.17378
                    3108.85074                    -578.24109                    1219.20618
                    2891.00659                    -475.32586                     971.47186
                    3010.88068                    -442.55425                     871.63406
                    2804.77655                    -372.02999                     702.76757
                    2447.96381                    -296.30725                     535.84714
                    1961.80486                    -215.51089                     372.25888
                    1447.18647                    -140.49233                     230.41746
                    1018.29356                     -84.49177                     130.39015
                     671.60747                     -44.63106                      62.52013
                     225.47684                      -4.99231                      -0.53589
                   -5473.51281                     190.09258                    -156.15173
        </DataArray>
        <DataArray type="Float32" Name="Moment" NumberOfComponents="3" format="ascii">
                       0.00000                       0.00000                       0.00000
                       0.00000                       0.00000                       0.00000
                       0.00000                       0.00000                       0.00000
                       0.00000                       0.00000                       0.00000
                       2.79213                   -1002.23528                    -449.48664
                      -0.12054                   -1265.22059                    -567.09776
                      -4.06087                   -1199.87817                    -537.44877
                     -11.43636                   -1649.99750                    -738.53039
                     -21.60921                   -2039.48889                    -912.18079
                     -30.74919                   -2160.33112                    -965.50933
                     -39.81568                   -2250.26364                   -1004.98995
                     -47.94866                   -2304.11305                   -1028.38251
                     -41.00493                   -1752.65639                    -781.83902
                     -42.45627                   -1682.18763                    -750.12004
                     -41.37268                   -1585.52995                    -706.89442
                     -38.19718                   -1475.79284                    -657.99766
                     -32.25767                   -1293.37052                    -576.77423
                     -14.77058                    -636.62476                    -284.00201
                       3.15226                     143.28707                      63.93696
        </DataArray>
      </PointData>
      <Lines>
        <DataArray type="Int32" Name="connectivity" format="ascii">
      0      1
      1      2
      2      3
      3      4
      4      5
      5      6
      6      7
      7      8
      8      9
      9     10
     10     11
     11     12
     12     13
     13     14
     14     15
     15     16
     16     17
     17     18
        </DataArray>
        <DataArray type="Int32" Name="offsets" format="ascii">
      2
      4
      6
      8
     10
     12
     14
     16
     18
     20
     22
     24
     26
     28
     30
     32
     34
     36
        </DataArray>
      </Lines>
    </Piece>
  </PolyData>
</VTKFile>
