<?xml version="1.0"?>
<VTKFile type="PolyData" version="0.1" byte_order="LittleEndian">
  <PolyData>
    <Piece NumberOfPoints="    550" NumberOfVerts="  0" NumberOfLines="     21"
           NumberOfStrips="  0" NumberOfPolys="    567">
      <Points>
        <DataArray type="Float32" NumberOfComponents="3" format="ascii">
                       2.97344                      -0.00004                       2.18981
                       2.88003                       0.73940                       2.18984
                       2.60566                       1.43239                       2.18989
                       2.16757                       2.03537                       2.18994
                       1.59328                       2.51046                       2.19000
                       0.91889                       2.82780                       2.19005
                       0.18677                       2.96746                       2.19011
                      -0.55709                       2.92066                       2.19015
                      -1.26593                       2.69035                       2.19019
                      -1.89523                       2.29098                       2.19021
                      -2.40544                       1.74766                       2.19022
                      -2.76451                       1.09453                       2.19022
                      -2.94986                       0.37262                       2.19020
                      -2.94986                      -0.37271                       2.19017
                      -2.76451                      -1.09462                       2.19013
                      -2.40544                      -1.74775                       2.19008
                      -1.89523                      -2.29107                       2.19003
                      -1.26593                      -2.69043                       2.18997
                      -0.55709                      -2.92075                       2.18992
                       0.18677                      -2.96755                       2.18987
                       0.91889                      -2.82789                       2.18983
                       1.59328                      -2.51055                       2.18980
                       2.16756                      -2.03546                       2.18978
                       2.60566                      -1.43248                       2.18978
                       2.88003                      -0.73949                       2.18979
                       2.92081                      -0.00038                       6.56935
                       2.82907                       0.72582                       6.56945
                       2.55961                       1.40640                       6.56959
                       2.12937                       1.99858                       6.56975
                       1.56537                       2.46516                       6.56993
                       0.90305                       2.77682                       6.57011
                       0.18404                       2.91398                       6.57029
                      -0.54649                       2.86802                       6.57044
                      -1.24264                       2.64183                       6.57057
                      -1.86067                       2.24961                       6.57067
                      -2.36174                       1.71602                       6.57072
                      -2.71438                       1.07459                       6.57073
                      -2.89641                       0.36561                       6.57069
                      -2.89641                      -0.36637                       6.57061
                      -2.71438                      -1.07535                       6.57049
                      -2.36174                      -1.71679                       6.57034
                      -1.86067                      -2.25038                       6.57016
                      -1.24264                      -2.64259                       6.56998
                      -0.54649                      -2.86878                       6.56980
                       0.18404                      -2.91474                       6.56963
                       0.90305                      -2.77759                       6.56949
                       1.56537                      -2.46592                       6.56937
                       2.12937                      -1.99934                       6.56930
                       2.55961                      -1.40716                       6.56927
                       2.82907                      -0.72659                       6.56929
                       2.86894                      -0.00102                      10.94883
                       2.77887                       0.71194                      10.94900
                       2.51432                       1.38011                      10.94922
                       2.09192                       1.96149                      10.94950
                       1.53821                       2.41956                      10.94981
                       0.88797                       2.72554                      10.95013
                       0.18207                       2.86020                      10.95044
                      -0.53514                       2.81508                      10.95072
                      -1.21860                       2.59301                      10.95096
                      -1.82535                       2.20795                      10.95114
                      -2.31729                       1.68409                      10.95124
                      -2.66349                       1.05435                      10.95127
                      -2.84221                       0.35830                      10.95122
                      -2.84221                      -0.36033                      10.95109
                      -2.66349                      -1.05639                      10.95090
                      -2.31729                      -1.68613                      10.95064
                      -1.82535                      -2.20998                      10.95035
                      -1.21860                      -2.59504                      10.95003
                      -0.53514                      -2.81711                      10.94972
                       0.18207                      -2.86224                      10.94942
                       0.88797                      -2.72758                      10.94915
                       1.53821                      -2.42160                      10.94894
                       2.09192                      -1.96353                      10.94880
                       2.51432                      -1.38215                      10.94873
                       2.77887                      -0.71398                      10.94874
                       2.81788                      -0.00194                      15.32832
                       2.72949                       0.69778                      15.32854
                       2.46986                       1.35353                      15.32885
                       2.05530                       1.92412                      15.32924
                       1.51188                       2.37368                      15.32967
                       0.87372                       2.67398                      15.33013
                       0.18093                       2.80613                      15.33057
                      -0.52296                       2.76185                      15.33098
                      -1.19372                       2.54390                      15.33133
                      -1.78921                       2.16600                      15.33160
                      -2.27201                       1.65187                      15.33176
                      -2.61178                       1.03382                      15.33182
                      -2.78718                       0.35070                      15.33175
                      -2.78718                      -0.35458                      15.33158
                      -2.61178                      -1.03770                      15.33131
                      -2.27201                      -1.65575                      15.33096
                      -1.78921                      -2.16988                      15.33055
                      -1.19372                      -2.54778                      15.33010
                      -0.52296                      -2.76573                      15.32964
                       0.18093                      -2.81001                      15.32921
                       0.87372                      -2.67786                      15.32883
                       1.51188                      -2.37756                      15.32852
                       2.05530                      -1.92800                      15.32830
                       2.46986                      -1.35741                      15.32819
                       2.72949                      -0.70166                      15.32820
                       2.76768                      -0.00314                      19.70782
                       2.68095                       0.68333                      19.70810
                       2.42624                       1.32668                      19.70850
                       2.01953                       1.88646                      19.70899
                       1.48638                       2.32752                      19.70955
                       0.86031                       2.62213                      19.71013
                       0.18063                       2.75178                      19.71071
                      -0.50994                       2.70834                      19.71124
                      -1.16801                       2.49452                      19.71170
                      -1.75223                       2.12376                      19.71204
                      -2.22589                       1.61936                      19.71226
                      -2.55923                       1.01302                      19.71234
                      -2.73131                       0.34282                      19.71227
                      -2.73131                      -0.34911                      19.71205
                      -2.55923                      -1.01931                      19.71171
                      -2.22589                      -1.62565                      19.71126
                      -1.75223                      -2.13005                      19.71073
                      -1.16801                      -2.50081                      19.71016
                      -0.50994                      -2.71463                      19.70957
                       0.18063                      -2.75807                      19.70901
                       0.86030                      -2.62842                      19.70851
                       1.48638                      -2.33381                      19.70811
                       2.01953                      -1.89275                      19.70782
                       2.42624                      -1.33297                      19.70768
                       2.68095                      -0.68962                      19.70767
                       2.71830                      -0.00465                      24.08735
                       2.63325                       0.66858                      24.08769
                       2.38345                       1.29952                      24.08817
                       1.98458                       1.84850                      24.08877
                       1.46173                       2.28105                      24.08945
                       0.84772                       2.56998                      24.09016
                       0.18116                       2.69713                      24.09086
                      -0.49609                       2.65452                      24.09150
                      -1.14146                       2.44483                      24.09205
                      -1.71441                       2.08122                      24.09248
                      -2.17893                       1.58656                      24.09274
                      -2.50584                       0.99191                      24.09283
                      -2.67460                       0.33464                      24.09275
                      -2.67460                      -0.34394                      24.09249
                      -2.50584                      -1.00121                      24.09208
                      -2.17893                      -1.59586                      24.09153
                      -1.71441                      -2.09053                      24.09089
                      -1.14146                      -2.45413                      24.09019
                      -0.49609                      -2.66383                      24.08948
                       0.18116                      -2.70643                      24.08880
                       0.84772                      -2.57928                      24.08820
                       1.46172                      -2.29035                      24.08771
                       1.98458                      -1.85781                      24.08736
                       2.38345                      -1.30882                      24.08718
                       2.63325                      -0.67789                      24.08718
                       2.66973                      -0.00649                      28.46692
                       2.58635                       0.65351                      28.46732
                       2.34146                       1.27203                      28.46788
                       1.95045                       1.81022                      28.46858
                       1.43787                       2.23425                      28.46937
                       0.83595                       2.51750                      28.47020
                       0.18250                       2.64215                      28.47102
                      -0.48143                       2.60038                      28.47177
                      -1.11411                       2.39481                      28.47241
                      -1.67578                       2.03836                      28.47289
                      -2.13117                       1.55342                      28.47320
                      -2.45165                       0.97047                      28.47330
                      -2.61709                       0.32613                      28.47320
                      -2.61709                      -0.33911                      28.47289
                      -2.45165                      -0.98344                      28.47241
                      -2.13117                      -1.56640                      28.47177
                      -1.67578                      -2.05133                      28.47102
                      -1.11411                      -2.40778                      28.47020
                      -0.48143                      -2.61335                      28.46937
                       0.18249                      -2.65512                      28.46858
                       0.83595                      -2.53047                      28.46788
                       1.43787                      -2.24723                      28.46731
                       1.95045                      -1.82319                      28.46691
                       2.34146                      -1.28500                      28.46671
                       2.58635                      -0.66648                      28.46671
                       2.62195                      -0.00869                      32.84651
                       2.54025                       0.63806                      32.84697
                       2.30027                       1.24417                      32.84762
                       1.91710                       1.77156                      32.84843
                       1.41481                       2.18709                      32.84933
                       0.82497                       2.46465                      32.85027
                       0.18462                       2.58680                      32.85119
                      -0.46598                       2.54587                      32.85204
                      -1.08596                       2.34443                      32.85276
                      -1.63637                       1.99513                      32.85331
                      -2.08262                       1.51992                      32.85364
                      -2.39667                       0.94866                      32.85375
                      -2.55879                       0.31725                      32.85362
                      -2.55879                      -0.33463                      32.85326
                      -2.39667                      -0.96604                      32.85270
                      -2.08262                      -1.53730                      32.85197
                      -1.63637                      -2.01251                      32.85111
                      -1.08596                      -2.36180                      32.85018
                      -0.46598                      -2.56325                      32.84924
                       0.18462                      -2.60418                      32.84835
                       0.82496                      -2.48203                      32.84756
                       1.41481                      -2.20447                      32.84692
                       1.91710                      -1.78894                      32.84648
                       2.30027                      -1.26155                      32.84625
                       2.54025                      -0.65544                      32.84626
                       2.57496                      -0.01130                      37.22612
                       2.49493                       0.62221                      37.22665
                       2.25986                       1.21591                      37.22739
                       1.88454                       1.73250                      37.22829
                       1.39253                       2.13952                      37.22930
                       0.81477                       2.41140                      37.23035
                       0.18754                       2.53105                      37.23138
                      -0.44974                       2.49095                      37.23233
                      -1.05703                       2.29363                      37.23312
                      -1.59617                       1.95148                      37.23372
                      -2.03328                       1.48601                      37.23408
                      -2.34090                       0.92645                      37.23418
                      -2.49970                       0.30797                      37.23403
                      -2.49970                      -0.33057                      37.23361
                      -2.34090                      -0.94905                      37.23297
                      -2.03328                      -1.50861                      37.23214
                      -1.59617                      -1.97409                      37.23118
                      -1.05704                      -2.31623                      37.23014
                      -0.44975                      -2.51355                      37.22909
                       0.18753                      -2.55365                      37.22810
                       0.81476                      -2.43400                      37.22722
                       1.39253                      -2.16212                      37.22652
                       1.88454                      -1.75510                      37.22604
                       2.25986                      -1.23851                      37.22580
                       2.49493                      -0.64481                      37.22583
                       2.52875                      -0.01436                      41.60573
                       2.45040                       0.60590                      41.60633
                       2.22025                       1.18719                      41.60716
                       1.85277                       1.69298                      41.60817
                       1.37105                       2.09149                      41.60929
                       0.80536                       2.35769                      41.61046
                       0.19124                       2.47484                      41.61159
                      -0.43272                       2.43558                      41.61262
                      -1.02731                       2.24238                      41.61349
                      -1.55518                       1.90739                      41.61413
                      -1.98315                       1.45164                      41.61452
                      -2.28434                       0.90378                      41.61462
                      -2.43982                       0.29823                      41.61442
                      -2.43982                      -0.32696                      41.61395
                      -2.28434                      -0.93252                      41.61323
                      -1.98315                      -1.48038                      41.61230
                      -1.55518                      -1.93612                      41.61123
                      -1.02731                      -2.27112                      41.61008
                      -0.43272                      -2.46431                      41.60892
                       0.19124                      -2.50357                      41.60783
                       0.80536                      -2.38642                      41.60687
                       1.37105                      -2.12022                      41.60611
                       1.85277                      -1.72171                      41.60559
                       2.22025                      -1.21592                      41.60535
                       2.45040                      -0.63463                      41.60540
                       2.48338                      -0.01793                      45.98534
                       2.40669                       0.58909                      45.98602
                       2.18146                       1.15797                      45.98694
                       1.82183                       1.65297                      45.98806
                       1.35039                       2.04297                      45.98929
                       0.79678                       2.30348                      45.99057
                       0.19577                       2.41813                      45.99181
                      -0.41486                       2.37971                      45.99293
                      -0.99676                       2.19064                      45.99387
                      -1.51336                       1.86280                      45.99456
                      -1.93220                       1.41678                      45.99496
                      -2.22696                       0.88062                      45.99505
                      -2.37912                       0.28799                      45.99482
                      -2.37912                      -0.32385                      45.99429
                      -2.22696                      -0.91648                      45.99348
                      -1.93220                      -1.45264                      45.99246
                      -1.51336                      -1.89866                      45.99127
                      -0.99677                      -2.22650                      45.99001
                      -0.41487                      -2.41557                      45.98874
                       0.19577                      -2.45399                      45.98755
                       0.79678                      -2.33934                      45.98651
                       1.35039                      -2.07883                      45.98569
                       1.82182                      -1.68882                      45.98514
                       2.18146                      -1.19383                      45.98489
                       2.40669                      -0.62495                      45.98496
                       2.43887                      -0.02203                      50.36494
                       2.36386                       0.57175                      50.36570
                       2.14354                       1.12822                      50.36672
                       1.79175                       1.61241                      50.36794
                       1.33060                       1.99391                      50.36929
                       0.78907                       2.24873                      50.37068
                       0.20117                       2.36088                      50.37203
                      -0.39614                       2.32330                      50.37324
                      -0.96535                       2.13835                      50.37425
                      -1.47067                       1.81766                      50.37499
                      -1.88037                       1.38138                      50.37542
                      -2.16870                       0.85691                      50.37550
                      -2.31754                       0.27721                      50.37523
                      -2.31754                      -0.32128                      50.37463
                      -2.16870                      -0.90098                      50.37374
                      -1.88037                      -1.42544                      50.37261
                      -1.47068                      -1.86173                      50.37131
                      -0.96535                      -2.18242                      50.36993
                      -0.39615                      -2.36736                      50.36855
                       0.20117                      -2.40494                      50.36726
                       0.78906                      -2.29280                      50.36614
                       1.33060                      -2.03797                      50.36525
                       1.79175                      -1.65647                      50.36467
                       2.14354                      -1.17228                      50.36441
                       2.36386                      -0.61581                      50.36451
                       2.39528                      -0.02670                      54.74454
                       2.32195                       0.55383                      54.74537
                       2.10654                       1.09789                      54.74648
                       1.76260                       1.57128                      54.74782
                       1.31174                       1.94427                      54.74928
                       0.78228                       2.19342                      54.75079
                       0.20750                       2.30306                      54.75225
                      -0.37650                       2.26632                      54.75356
                      -0.93301                       2.08550                      54.75464
                      -1.42706                       1.77196                      54.75543
                      -1.82763                       1.34540                      54.75587
                      -2.10952                       0.83263                      54.75594
                      -2.25505                       0.26587                      54.75564
                      -2.25505                      -0.31928                      54.75497
                      -2.10953                      -0.88605                      54.75399
                      -1.82763                      -1.39882                      54.75276
                      -1.42707                      -1.82537                      54.75135
                      -0.93301                      -2.13891                      54.74985
                      -0.37650                      -2.31973                      54.74836
                       0.20749                      -2.35647                      54.74696
                       0.78227                      -2.24683                      54.74576
                       1.31173                      -1.99768                      54.74481
                       1.76260                      -1.62469                      54.74419
                       2.10654                      -1.15130                      54.74393
                       2.32195                      -0.60724                      54.74405
                       2.35266                      -0.03197                      59.12414
                       2.28100                       0.53532                      59.12504
                       2.07051                       1.06697                      59.12625
                       1.73441                       1.52956                      59.12769
                       1.29383                       1.89404                      59.12928
                       0.77645                       2.13750                      59.13090
                       0.21478                       2.24465                      59.13246
                      -0.35589                       2.20874                      59.13386
                      -0.89970                       2.03204                      59.13502
                      -1.38249                       1.72566                      59.13586
                      -1.77392                       1.30883                      59.13632
                      -2.04938                       0.80776                      59.13638
                      -2.19158                       0.25392                      59.13604
                      -2.19159                      -0.31788                      59.13531
                      -2.04939                      -0.87172                      59.13425
                      -1.77392                      -1.37279                      59.13291
                      -1.38250                      -1.78962                      59.13138
                      -0.89971                      -2.09600                      59.12977
                      -0.35590                      -2.27270                      59.12816
                       0.21477                      -2.30860                      59.12667
                       0.77645                      -2.20145                      59.12538
                       1.29383                      -1.95799                      59.12437
                       1.73441                      -1.59351                      59.12372
                       2.07050                      -1.13091                      59.12345
                       2.28100                      -0.59927                      59.12360
                       2.31103                      -0.03785                      63.50375
                       2.24104                       0.51620                      63.50473
                       2.03546                       1.03544                      63.50603
                       1.70721                       1.48723                      63.50757
                       1.27692                       1.84320                      63.50926
                       0.77161                       2.08098                      63.51100
                       0.22305                       2.18562                      63.51266
                      -0.33429                       2.15056                      63.51415
                      -0.86541                       1.97798                      63.51537
                      -1.33693                       1.67875                      63.51626
                      -1.71922                       1.27165                      63.51674
                      -1.98825                       0.78228                      63.51679
                      -2.12714                       0.24137                      63.51641
                      -2.12714                      -0.31708                      63.51562
                      -1.98826                      -0.85799                      63.51448
                      -1.71922                      -1.34737                      63.51304
                      -1.33694                      -1.75446                      63.51141
                      -0.86542                      -2.05369                      63.50969
                      -0.33430                      -2.22627                      63.50798
                       0.22305                      -2.26133                      63.50639
                       0.77161                      -2.15668                      63.50502
                       1.27691                      -1.91891                      63.50396
                       1.70720                      -1.56293                      63.50327
                       2.03545                      -1.11114                      63.50300
                       2.24103                      -0.59190                      63.50316
                       2.27036                      -0.04432                      67.88341
                       2.20204                       0.49648                      67.88445
                       2.00137                       1.00331                      67.88583
                       1.68097                       1.44431                      67.88747
                       1.26096                       1.79177                      67.88926
                       0.76774                       2.02386                      67.89108
                       0.23229                       2.12600                      67.89283
                      -0.31174                       2.09177                      67.89440
                      -0.83016                       1.92333                      67.89568
                      -1.29041                       1.63124                      67.89660
                      -1.66356                       1.23388                      67.89710
                      -1.92616                       0.75620                      67.89714
                      -2.06173                       0.22822                      67.89673
                      -2.06173                      -0.31689                      67.89589
                      -1.92617                      -0.84487                      67.89467
                      -1.66356                      -1.32254                      67.89315
                      -1.29042                      -1.71991                      67.89142
                      -0.83017                      -2.01199                      67.88960
                      -0.31175                      -2.18043                      67.88780
                       0.23228                      -2.21466                      67.88613
                       0.76773                      -2.11252                      67.88469
                       1.26095                      -1.88042                      67.88358
                       1.68096                      -1.53296                      67.88287
                       2.00137                      -1.09196                      67.88260
                       2.20203                      -0.58513                      67.88278
                       2.23055                      -0.05137                      72.26316
                       2.16391                       0.47619                      72.26426
                       1.96816                       0.97060                      72.26570
                       1.65560                       1.40080                      72.26741
                       1.24588                       1.73976                      72.26927
                       0.76473                       1.96617                      72.27116
                       0.24239                       2.06581                      72.27298
                      -0.28831                       2.03242                      72.27460
                      -0.79404                       1.86809                      72.27592
                      -1.24302                       1.58316                      72.27686
                      -1.60703                       1.19553                      72.27736
                      -1.86321                       0.72954                      72.27739
                      -1.99545                       0.21449                      72.27695
                      -1.99545                      -0.31726                      72.27606
                      -1.86321                      -0.83231                      72.27478
                      -1.60704                      -1.29830                      72.27319
                      -1.24303                      -1.68593                      72.27139
                      -0.79405                      -1.97086                      72.26950
                      -0.28832                      -2.13518                      72.26763
                       0.24238                      -2.16857                      72.26590
                       0.76472                      -2.06892                      72.26442
                       1.24587                      -1.84251                      72.26328
                       1.65559                      -1.50356                      72.26255
                       1.96815                      -1.07335                      72.26228
                       2.16390                      -0.57894                      72.26249
                       2.19142                      -0.05895                      76.64305
                       2.12645                       0.45537                      76.64418
                       1.93561                       0.93737                      76.64567
                       1.63090                       1.35677                      76.64742
                       1.23146                       1.68722                      76.64932
                       0.76239                       1.90794                      76.65125
                       0.25317                       2.00508                      76.65309
                      -0.26421                       1.97253                      76.65473
                      -0.75725                       1.81233                      76.65606
                      -1.19496                       1.53455                      76.65700
                      -1.54983                       1.15665                      76.65748
                      -1.79958                       0.70236                      76.65749
                      -1.92850                       0.20024                      76.65702
                      -1.92850                      -0.31817                      76.65609
                      -1.79958                      -0.82029                      76.65477
                      -1.54984                      -1.27457                      76.65314
                      -1.19496                      -1.65248                      76.65131
                      -0.75726                      -1.93025                      76.64938
                      -0.26423                      -2.09045                      76.64747
                       0.25316                      -2.12300                      76.64572
                       0.76238                      -2.02586                      76.64422
                       1.23145                      -1.80513                      76.64308
                       1.63089                      -1.47468                      76.64236
                       1.93560                      -1.05528                      76.64211
                       2.12644                      -0.57327                      76.64235
                       2.15263                      -0.06698                      81.02314
                       2.08933                       0.43410                      81.02429
                       1.90341                       0.90369                      81.02579
                       1.60654                       1.31229                      81.02754
                       1.21739                       1.63423                      81.02943
                       0.76040                       1.84927                      81.03134
                       0.26428                       1.94391                      81.03316
                      -0.23978                       1.91219                      81.03476
                      -0.72012                       1.75612                      81.03606
                      -1.14655                       1.48549                      81.03696
                      -1.49229                       1.11732                      81.03741
                      -1.73561                       0.67473                      81.03738
                      -1.86121                       0.18554                      81.03688
                      -1.86121                      -0.31952                      81.03593
                      -1.73561                      -0.80872                      81.03460
                      -1.49230                      -1.25131                      81.03296
                      -1.14656                      -1.61948                      81.03113
                      -0.72013                      -1.89010                      81.02921
                      -0.23979                      -2.04617                      81.02733
                       0.26427                      -2.07788                      81.02560
                       0.76038                      -1.98324                      81.02414
                       1.21738                      -1.76820                      81.02304
                       1.60653                      -1.44626                      81.02235
                       1.90340                      -1.03765                      81.02214
                       2.08933                      -0.56806                      81.02241
                       2.11367                      -0.07537                      85.40351
                       2.05204                       0.41247                      85.40465
                       1.87103                       0.86965                      85.40612
                       1.58201                       1.26746                      85.40781
                       1.20314                       1.58088                      85.40963
                       0.75823                       1.79024                      85.41146
                       0.27523                       1.88238                      85.41318
                      -0.21551                       1.85150                      85.41469
                      -0.68316                       1.69955                      85.41589
                      -1.09832                       1.43608                      85.41670
                      -1.43492                       1.07764                      85.41708
                      -1.67181                       0.64674                      85.41700
                      -1.79409                       0.17048                      85.41646
                      -1.79409                      -0.32123                      85.41550
                      -1.67181                      -0.79750                      85.41419
                      -1.43493                      -1.22839                      85.41259
                      -1.09833                      -1.58683                      85.41082
                      -0.68317                      -1.85030                      85.40898
                      -0.21552                      -2.00225                      85.40719
                       0.27522                      -2.03312                      85.40557
                       0.75822                      -1.94098                      85.40421
                       1.20313                      -1.73162                      85.40319
                       1.58200                      -1.41819                      85.40259
                       1.87103                      -1.02038                      85.40244
                       2.05204                      -0.56320                      85.40275
                       2.09391                      -0.07966                      87.59382
                       2.03312                       0.40156                      87.59495
                       1.85457                       0.85253                      87.59638
                       1.56947                       1.24494                      87.59803
                       1.19574                       1.55411                      87.59978
                       0.75687                       1.76063                      87.60154
                       0.28042                       1.85152                      87.60318
                      -0.20366                       1.82106                      87.60460
                      -0.66496                       1.67117                      87.60572
                      -1.07449                       1.41127                      87.60647
                      -1.40652                       1.05769                      87.60679
                      -1.64019                       0.63265                      87.60667
                      -1.76081                       0.16285                      87.60612
                      -1.76082                      -0.32219                      87.60516
                      -1.64019                      -0.79199                      87.60387
                      -1.40653                      -1.21703                      87.60232
                      -1.07450                      -1.57061                      87.60061
                      -0.66497                      -1.83050                      87.59884
                      -0.20367                      -1.98039                      87.59713
                       0.28041                      -2.01084                      87.59558
                       0.75686                      -1.91995                      87.59430
                       1.19573                      -1.71343                      87.59336
                       1.56946                      -1.40425                      87.59282
                       1.85456                      -1.01185                      87.59272
                       2.03312                      -0.56087                      87.59306
                       3.00000                       0.00000                       0.00000
                       2.90575                       0.74607                       0.00000
                       2.62892                       1.44526                       0.00000
                       2.18691                       2.05364                       0.00000
                       1.60748                       2.53298                       0.00000
                       0.92705                       2.85317                       0.00000
                       0.18837                       2.99408                       0.00000
                      -0.56214                       2.94686                       0.00000
                      -1.27734                       2.71448                       0.00000
                      -1.91227                       2.31154                       0.00000
                      -2.42705                       1.76336                       0.00000
                      -2.78933                       1.10437                       0.00000
                      -2.97634                       0.37600                       0.00000
                      -2.97634                      -0.37600                       0.00000
                      -2.78933                      -1.10437                       0.00000
                      -2.42705                      -1.76336                       0.00000
                      -1.91227                      -2.31154                       0.00000
                      -1.27734                      -2.71448                       0.00000
                      -0.56214                      -2.94686                       0.00000
                       0.18837                      -2.99408                       0.00000
                       0.92705                      -2.85317                       0.00000
                       1.60748                      -2.53298                       0.00000
                       2.18691                      -2.05364                       0.00000
                       2.62892                      -1.44526                       0.00000
                       2.90575                      -0.74607                       0.00000
        </DataArray>
      </Points>
      <Polys>
        <DataArray type="Int32" Name="connectivity" format="ascii">
      0      1     26     25
      1      2     27     26
      2      3     28     27
      3      4     29     28
      4      5     30     29
      5      6     31     30
      6      7     32     31
      7      8     33     32
      8      9     34     33
      9     10     35     34
     10     11     36     35
     11     12     37     36
     12     13     38     37
     13     14     39     38
     14     15     40     39
     15     16     41     40
     16     17     42     41
     17     18     43     42
     18     19     44     43
     19     20     45     44
     20     21     46     45
     21     22     47     46
     22     23     48     47
     23     24     49     48
     24      0     25     49
     24     23     22     21     20     19     18     17     16     15     14     13     12     11     10      9      8      7      6      5      4      3      2      1      0
     25     26     27     28     29     30     31     32     33     34     35     36     37     38     39     40     41     42     43     44     45     46     47     48     49
     25     26     51     50
     26     27     52     51
     27     28     53     52
     28     29     54     53
     29     30     55     54
     30     31     56     55
     31     32     57     56
     32     33     58     57
     33     34     59     58
     34     35     60     59
     35     36     61     60
     36     37     62     61
     37     38     63     62
     38     39     64     63
     39     40     65     64
     40     41     66     65
     41     42     67     66
     42     43     68     67
     43     44     69     68
     44     45     70     69
     45     46     71     70
     46     47     72     71
     47     48     73     72
     48     49     74     73
     49     25     50     74
     49     48     47     46     45     44     43     42     41     40     39     38     37     36     35     34     33     32     31     30     29     28     27     26     25
     50     51     52     53     54     55     56     57     58     59     60     61     62     63     64     65     66     67     68     69     70     71     72     73     74
     50     51     76     75
     51     52     77     76
     52     53     78     77
     53     54     79     78
     54     55     80     79
     55     56     81     80
     56     57     82     81
     57     58     83     82
     58     59     84     83
     59     60     85     84
     60     61     86     85
     61     62     87     86
     62     63     88     87
     63     64     89     88
     64     65     90     89
     65     66     91     90
     66     67     92     91
     67     68     93     92
     68     69     94     93
     69     70     95     94
     70     71     96     95
     71     72     97     96
     72     73     98     97
     73     74     99     98
     74     50     75     99
     74     73     72     71     70     69     68     67     66     65     64     63     62     61     60     59     58     57     56     55     54     53     52     51     50
     75     76     77     78     79     80     81     82     83     84     85     86     87     88     89     90     91     92     93     94     95     96     97     98     99
     75     76    101    100
     76     77    102    101
     77     78    103    102
     78     79    104    103
     79     80    105    104
     80     81    106    105
     81     82    107    106
     82     83    108    107
     83     84    109    108
     84     85    110    109
     85     86    111    110
     86     87    112    111
     87     88    113    112
     88     89    114    113
     89     90    115    114
     90     91    116    115
     91     92    117    116
     92     93    118    117
     93     94    119    118
     94     95    120    119
     95     96    121    120
     96     97    122    121
     97     98    123    122
     98     99    124    123
     99     75    100    124
     99     98     97     96     95     94     93     92     91     90     89     88     87     86     85     84     83     82     81     80     79     78     77     76     75
    100    101    102    103    104    105    106    107    108    109    110    111    112    113    114    115    116    117    118    119    120    121    122    123    124
    100    101    126    125
    101    102    127    126
    102    103    128    127
    103    104    129    128
    104    105    130    129
    105    106    131    130
    106    107    132    131
    107    108    133    132
    108    109    134    133
    109    110    135    134
    110    111    136    135
    111    112    137    136
    112    113    138    137
    113    114    139    138
    114    115    140    139
    115    116    141    140
    116    117    142    141
    117    118    143    142
    118    119    144    143
    119    120    145    144
    120    121    146    145
    121    122    147    146
    122    123    148    147
    123    124    149    148
    124    100    125    149
    124    123    122    121    120    119    118    117    116    115    114    113    112    111    110    109    108    107    106    105    104    103    102    101    100
    125    126    127    128    129    130    131    132    133    134    135    136    137    138    139    140    141    142    143    144    145    146    147    148    149
    125    126    151    150
    126    127    152    151
    127    128    153    152
    128    129    154    153
    129    130    155    154
    130    131    156    155
    131    132    157    156
    132    133    158    157
    133    134    159    158
    134    135    160    159
    135    136    161    160
    136    137    162    161
    137    138    163    162
    138    139    164    163
    139    140    165    164
    140    141    166    165
    141    142    167    166
    142    143    168    167
    143    144    169    168
    144    145    170    169
    145    146    171    170
    146    147    172    171
    147    148    173    172
    148    149    174    173
    149    125    150    174
    149    148    147    146    145    144    143    142    141    140    139    138    137    136    135    134    133    132    131    130    129    128    127    126    125
    150    151    152    153    154    155    156    157    158    159    160    161    162    163    164    165    166    167    168    169    170    171    172    173    174
    150    151    176    175
    151    152    177    176
    152    153    178    177
    153    154    179    178
    154    155    180    179
    155    156    181    180
    156    157    182    181
    157    158    183    182
    158    159    184    183
    159    160    185    184
    160    161    186    185
    161    162    187    186
    162    163    188    187
    163    164    189    188
    164    165    190    189
    165    166    191    190
    166    167    192    191
    167    168    193    192
    168    169    194    193
    169    170    195    194
    170    171    196    195
    171    172    197    196
    172    173    198    197
    173    174    199    198
    174    150    175    199
    174    173    172    171    170    169    168    167    166    165    164    163    162    161    160    159    158    157    156    155    154    153    152    151    150
    175    176    177    178    179    180    181    182    183    184    185    186    187    188    189    190    191    192    193    194    195    196    197    198    199
    175    176    201    200
    176    177    202    201
    177    178    203    202
    178    179    204    203
    179    180    205    204
    180    181    206    205
    181    182    207    206
    182    183    208    207
    183    184    209    208
    184    185    210    209
    185    186    211    210
    186    187    212    211
    187    188    213    212
    188    189    214    213
    189    190    215    214
    190    191    216    215
    191    192    217    216
    192    193    218    217
    193    194    219    218
    194    195    220    219
    195    196    221    220
    196    197    222    221
    197    198    223    222
    198    199    224    223
    199    175    200    224
    199    198    197    196    195    194    193    192    191    190    189    188    187    186    185    184    183    182    181    180    179    178    177    176    175
    200    201    202    203    204    205    206    207    208    209    210    211    212    213    214    215    216    217    218    219    220    221    222    223    224
    200    201    226    225
    201    202    227    226
    202    203    228    227
    203    204    229    228
    204    205    230    229
    205    206    231    230
    206    207    232    231
    207    208    233    232
    208    209    234    233
    209    210    235    234
    210    211    236    235
    211    212    237    236
    212    213    238    237
    213    214    239    238
    214    215    240    239
    215    216    241    240
    216    217    242    241
    217    218    243    242
    218    219    244    243
    219    220    245    244
    220    221    246    245
    221    222    247    246
    222    223    248    247
    223    224    249    248
    224    200    225    249
    224    223    222    221    220    219    218    217    216    215    214    213    212    211    210    209    208    207    206    205    204    203    202    201    200
    225    226    227    228    229    230    231    232    233    234    235    236    237    238    239    240    241    242    243    244    245    246    247    248    249
    225    226    251    250
    226    227    252    251
    227    228    253    252
    228    229    254    253
    229    230    255    254
    230    231    256    255
    231    232    257    256
    232    233    258    257
    233    234    259    258
    234    235    260    259
    235    236    261    260
    236    237    262    261
    237    238    263    262
    238    239    264    263
    239    240    265    264
    240    241    266    265
    241    242    267    266
    242    243    268    267
    243    244    269    268
    244    245    270    269
    245    246    271    270
    246    247    272    271
    247    248    273    272
    248    249    274    273
    249    225    250    274
    249    248    247    246    245    244    243    242    241    240    239    238    237    236    235    234    233    232    231    230    229    228    227    226    225
    250    251    252    253    254    255    256    257    258    259    260    261    262    263    264    265    266    267    268    269    270    271    272    273    274
    250    251    276    275
    251    252    277    276
    252    253    278    277
    253    254    279    278
    254    255    280    279
    255    256    281    280
    256    257    282    281
    257    258    283    282
    258    259    284    283
    259    260    285    284
    260    261    286    285
    261    262    287    286
    262    263    288    287
    263    264    289    288
    264    265    290    289
    265    266    291    290
    266    267    292    291
    267    268    293    292
    268    269    294    293
    269    270    295    294
    270    271    296    295
    271    272    297    296
    272    273    298    297
    273    274    299    298
    274    250    275    299
    274    273    272    271    270    269    268    267    266    265    264    263    262    261    260    259    258    257    256    255    254    253    252    251    250
    275    276    277    278    279    280    281    282    283    284    285    286    287    288    289    290    291    292    293    294    295    296    297    298    299
    275    276    301    300
    276    277    302    301
    277    278    303    302
    278    279    304    303
    279    280    305    304
    280    281    306    305
    281    282    307    306
    282    283    308    307
    283    284    309    308
    284    285    310    309
    285    286    311    310
    286    287    312    311
    287    288    313    312
    288    289    314    313
    289    290    315    314
    290    291    316    315
    291    292    317    316
    292    293    318    317
    293    294    319    318
    294    295    320    319
    295    296    321    320
    296    297    322    321
    297    298    323    322
    298    299    324    323
    299    275    300    324
    299    298    297    296    295    294    293    292    291    290    289    288    287    286    285    284    283    282    281    280    279    278    277    276    275
    300    301    302    303    304    305    306    307    308    309    310    311    312    313    314    315    316    317    318    319    320    321    322    323    324
    300    301    326    325
    301    302    327    326
    302    303    328    327
    303    304    329    328
    304    305    330    329
    305    306    331    330
    306    307    332    331
    307    308    333    332
    308    309    334    333
    309    310    335    334
    310    311    336    335
    311    312    337    336
    312    313    338    337
    313    314    339    338
    314    315    340    339
    315    316    341    340
    316    317    342    341
    317    318    343    342
    318    319    344    343
    319    320    345    344
    320    321    346    345
    321    322    347    346
    322    323    348    347
    323    324    349    348
    324    300    325    349
    324    323    322    321    320    319    318    317    316    315    314    313    312    311    310    309    308    307    306    305    304    303    302    301    300
    325    326    327    328    329    330    331    332    333    334    335    336    337    338    339    340    341    342    343    344    345    346    347    348    349
    325    326    351    350
    326    327    352    351
    327    328    353    352
    328    329    354    353
    329    330    355    354
    330    331    356    355
    331    332    357    356
    332    333    358    357
    333    334    359    358
    334    335    360    359
    335    336    361    360
    336    337    362    361
    337    338    363    362
    338    339    364    363
    339    340    365    364
    340    341    366    365
    341    342    367    366
    342    343    368    367
    343    344    369    368
    344    345    370    369
    345    346    371    370
    346    347    372    371
    347    348    373    372
    348    349    374    373
    349    325    350    374
    349    348    347    346    345    344    343    342    341    340    339    338    337    336    335    334    333    332    331    330    329    328    327    326    325
    350    351    352    353    354    355    356    357    358    359    360    361    362    363    364    365    366    367    368    369    370    371    372    373    374
    350    351    376    375
    351    352    377    376
    352    353    378    377
    353    354    379    378
    354    355    380    379
    355    356    381    380
    356    357    382    381
    357    358    383    382
    358    359    384    383
    359    360    385    384
    360    361    386    385
    361    362    387    386
    362    363    388    387
    363    364    389    388
    364    365    390    389
    365    366    391    390
    366    367    392    391
    367    368    393    392
    368    369    394    393
    369    370    395    394
    370    371    396    395
    371    372    397    396
    372    373    398    397
    373    374    399    398
    374    350    375    399
    374    373    372    371    370    369    368    367    366    365    364    363    362    361    360    359    358    357    356    355    354    353    352    351    350
    375    376    377    378    379    380    381    382    383    384    385    386    387    388    389    390    391    392    393    394    395    396    397    398    399
    375    376    401    400
    376    377    402    401
    377    378    403    402
    378    379    404    403
    379    380    405    404
    380    381    406    405
    381    382    407    406
    382    383    408    407
    383    384    409    408
    384    385    410    409
    385    386    411    410
    386    387    412    411
    387    388    413    412
    388    389    414    413
    389    390    415    414
    390    391    416    415
    391    392    417    416
    392    393    418    417
    393    394    419    418
    394    395    420    419
    395    396    421    420
    396    397    422    421
    397    398    423    422
    398    399    424    423
    399    375    400    424
    399    398    397    396    395    394    393    392    391    390    389    388    387    386    385    384    383    382    381    380    379    378    377    376    375
    400    401    402    403    404    405    406    407    408    409    410    411    412    413    414    415    416    417    418    419    420    421    422    423    424
    400    401    426    425
    401    402    427    426
    402    403    428    427
    403    404    429    428
    404    405    430    429
    405    406    431    430
    406    407    432    431
    407    408    433    432
    408    409    434    433
    409    410    435    434
    410    411    436    435
    411    412    437    436
    412    413    438    437
    413    414    439    438
    414    415    440    439
    415    416    441    440
    416    417    442    441
    417    418    443    442
    418    419    444    443
    419    420    445    444
    420    421    446    445
    421    422    447    446
    422    423    448    447
    423    424    449    448
    424    400    425    449
    424    423    422    421    420    419    418    417    416    415    414    413    412    411    410    409    408    407    406    405    404    403    402    401    400
    425    426    427    428    429    430    431    432    433    434    435    436    437    438    439    440    441    442    443    444    445    446    447    448    449
    425    426    451    450
    426    427    452    451
    427    428    453    452
    428    429    454    453
    429    430    455    454
    430    431    456    455
    431    432    457    456
    432    433    458    457
    433    434    459    458
    434    435    460    459
    435    436    461    460
    436    437    462    461
    437    438    463    462
    438    439    464    463
    439    440    465    464
    440    441    466    465
    441    442    467    466
    442    443    468    467
    443    444    469    468
    444    445    470    469
    445    446    471    470
    446    447    472    471
    447    448    473    472
    448    449    474    473
    449    425    450    474
    449    448    447    446    445    444    443    442    441    440    439    438    437    436    435    434    433    432    431    430    429    428    427    426    425
    450    451    452    453    454    455    456    457    458    459    460    461    462    463    464    465    466    467    468    469    470    471    472    473    474
    450    451    476    475
    451    452    477    476
    452    453    478    477
    453    454    479    478
    454    455    480    479
    455    456    481    480
    456    457    482    481
    457    458    483    482
    458    459    484    483
    459    460    485    484
    460    461    486    485
    461    462    487    486
    462    463    488    487
    463    464    489    488
    464    465    490    489
    465    466    491    490
    466    467    492    491
    467    468    493    492
    468    469    494    493
    469    470    495    494
    470    471    496    495
    471    472    497    496
    472    473    498    497
    473    474    499    498
    474    450    475    499
    474    473    472    471    470    469    468    467    466    465    464    463    462    461    460    459    458    457    456    455    454    453    452    451    450
    475    476    477    478    479    480    481    482    483    484    485    486    487    488    489    490    491    492    493    494    495    496    497    498    499
    475    476    501    500
    476    477    502    501
    477    478    503    502
    478    479    504    503
    479    480    505    504
    480    481    506    505
    481    482    507    506
    482    483    508    507
    483    484    509    508
    484    485    510    509
    485    486    511    510
    486    487    512    511
    487    488    513    512
    488    489    514    513
    489    490    515    514
    490    491    516    515
    491    492    517    516
    492    493    518    517
    493    494    519    518
    494    495    520    519
    495    496    521    520
    496    497    522    521
    497    498    523    522
    498    499    524    523
    499    475    500    524
    499    498    497    496    495    494    493    492    491    490    489    488    487    486    485    484    483    482    481    480    479    478    477    476    475
    500    501    502    503    504    505    506    507    508    509    510    511    512    513    514    515    516    517    518    519    520    521    522    523    524
    525    526      1      0
    526    527      2      1
    527    528      3      2
    528    529      4      3
    529    530      5      4
    530    531      6      5
    531    532      7      6
    532    533      8      7
    533    534      9      8
    534    535     10      9
    535    536     11     10
    536    537     12     11
    537    538     13     12
    538    539     14     13
    539    540     15     14
    540    541     16     15
    541    542     17     16
    542    543     18     17
    543    544     19     18
    544    545     20     19
    545    546     21     20
    546    547     22     21
    547    548     23     22
    548    549     24     23
    549    525      0     24
    549    548    547    546    545    544    543    542    541    540    539    538    537    536    535    534    533    532    531    530    529    528    527    526    525
      0      1      2      3      4      5      6      7      8      9     10     11     12     13     14     15     16     17     18     19     20     21     22     23     24
        </DataArray>
        <DataArray type="Int32" Name="offsets" format="ascii">
      4
      8
     12
     16
     20
     24
     28
     32
     36
     40
     44
     48
     52
     56
     60
     64
     68
     72
     76
     80
     84
     88
     92
     96
    100
    125
    150
    154
    158
    162
    166
    170
    174
    178
    182
    186
    190
    194
    198
    202
    206
    210
    214
    218
    222
    226
    230
    234
    238
    242
    246
    250
    275
    300
    304
    308
    312
    316
    320
    324
    328
    332
    336
    340
    344
    348
    352
    356
    360
    364
    368
    372
    376
    380
    384
    388
    392
    396
    400
    425
    450
    454
    458
    462
    466
    470
    474
    478
    482
    486
    490
    494
    498
    502
    506
    510
    514
    518
    522
    526
    530
    534
    538
    542
    546
    550
    575
    600
    604
    608
    612
    616
    620
    624
    628
    632
    636
    640
    644
    648
    652
    656
    660
    664
    668
    672
    676
    680
    684
    688
    692
    696
    700
    725
    750
    754
    758
    762
    766
    770
    774
    778
    782
    786
    790
    794
    798
    802
    806
    810
    814
    818
    822
    826
    830
    834
    838
    842
    846
    850
    875
    900
    904
    908
    912
    916
    920
    924
    928
    932
    936
    940
    944
    948
    952
    956
    960
    964
    968
    972
    976
    980
    984
    988
    992
    996
   1000
   1025
   1050
   1054
   1058
   1062
   1066
   1070
   1074
   1078
   1082
   1086
   1090
   1094
   1098
   1102
   1106
   1110
   1114
   1118
   1122
   1126
   1130
   1134
   1138
   1142
   1146
   1150
   1175
   1200
   1204
   1208
   1212
   1216
   1220
   1224
   1228
   1232
   1236
   1240
   1244
   1248
   1252
   1256
   1260
   1264
   1268
   1272
   1276
   1280
   1284
   1288
   1292
   1296
   1300
   1325
   1350
   1354
   1358
   1362
   1366
   1370
   1374
   1378
   1382
   1386
   1390
   1394
   1398
   1402
   1406
   1410
   1414
   1418
   1422
   1426
   1430
   1434
   1438
   1442
   1446
   1450
   1475
   1500
   1504
   1508
   1512
   1516
   1520
   1524
   1528
   1532
   1536
   1540
   1544
   1548
   1552
   1556
   1560
   1564
   1568
   1572
   1576
   1580
   1584
   1588
   1592
   1596
   1600
   1625
   1650
   1654
   1658
   1662
   1666
   1670
   1674
   1678
   1682
   1686
   1690
   1694
   1698
   1702
   1706
   1710
   1714
   1718
   1722
   1726
   1730
   1734
   1738
   1742
   1746
   1750
   1775
   1800
   1804
   1808
   1812
   1816
   1820
   1824
   1828
   1832
   1836
   1840
   1844
   1848
   1852
   1856
   1860
   1864
   1868
   1872
   1876
   1880
   1884
   1888
   1892
   1896
   1900
   1925
   1950
   1954
   1958
   1962
   1966
   1970
   1974
   1978
   1982
   1986
   1990
   1994
   1998
   2002
   2006
   2010
   2014
   2018
   2022
   2026
   2030
   2034
   2038
   2042
   2046
   2050
   2075
   2100
   2104
   2108
   2112
   2116
   2120
   2124
   2128
   2132
   2136
   2140
   2144
   2148
   2152
   2156
   2160
   2164
   2168
   2172
   2176
   2180
   2184
   2188
   2192
   2196
   2200
   2225
   2250
   2254
   2258
   2262
   2266
   2270
   2274
   2278
   2282
   2286
   2290
   2294
   2298
   2302
   2306
   2310
   2314
   2318
   2322
   2326
   2330
   2334
   2338
   2342
   2346
   2350
   2375
   2400
   2404
   2408
   2412
   2416
   2420
   2424
   2428
   2432
   2436
   2440
   2444
   2448
   2452
   2456
   2460
   2464
   2468
   2472
   2476
   2480
   2484
   2488
   2492
   2496
   2500
   2525
   2550
   2554
   2558
   2562
   2566
   2570
   2574
   2578
   2582
   2586
   2590
   2594
   2598
   2602
   2606
   2610
   2614
   2618
   2622
   2626
   2630
   2634
   2638
   2642
   2646
   2650
   2675
   2700
   2704
   2708
   2712
   2716
   2720
   2724
   2728
   2732
   2736
   2740
   2744
   2748
   2752
   2756
   2760
   2764
   2768
   2772
   2776
   2780
   2784
   2788
   2792
   2796
   2800
   2825
   2850
   2854
   2858
   2862
   2866
   2870
   2874
   2878
   2882
   2886
   2890
   2894
   2898
   2902
   2906
   2910
   2914
   2918
   2922
   2926
   2930
   2934
   2938
   2942
   2946
   2950
   2975
   3000
   3004
   3008
   3012
   3016
   3020
   3024
   3028
   3032
   3036
   3040
   3044
   3048
   3052
   3056
   3060
   3064
   3068
   3072
   3076
   3080
   3084
   3088
   3092
   3096
   3100
   3125
   3150
        </DataArray>
      </Polys>
    </Piece>
  </PolyData>
</VTKFile>
