<?xml version="1.0"?>
<VTKFile type="PolyData" version="0.1" byte_order="LittleEndian">
  <PolyData>
    <Piece NumberOfPoints="    550" NumberOfVerts="  0" NumberOfLines="     21"
           NumberOfStrips="  0" NumberOfPolys="    567">
      <Points>
        <DataArray type="Float32" NumberOfComponents="3" format="ascii">
                       2.97347                      -0.00002                       2.18974
                       2.88005                       0.73943                       2.18977
                       2.60568                       1.43241                       2.18980
                       2.16759                       2.03540                       2.18985
                       1.59331                       2.51048                       2.18991
                       0.91891                       2.82783                       2.18997
                       0.18679                       2.96749                       2.19004
                      -0.55706                       2.92069                       2.19010
                      -1.26591                       2.69037                       2.19016
                      -1.89521                       2.29100                       2.19021
                      -2.40542                       1.74769                       2.19024
                      -2.76448                       1.09455                       2.19026
                      -2.94984                       0.37264                       2.19026
                      -2.94984                      -0.37268                       2.19025
                      -2.76448                      -1.09459                       2.19022
                      -2.40542                      -1.74773                       2.19018
                      -1.89521                      -2.29105                       2.19012
                      -1.26591                      -2.69041                       2.19006
                      -0.55706                      -2.92073                       2.18999
                       0.18679                      -2.96753                       2.18993
                       0.91892                      -2.82787                       2.18987
                       1.59330                      -2.51052                       2.18982
                       2.16759                      -2.03544                       2.18978
                       2.60568                      -1.43245                       2.18975
                       2.88005                      -0.73947                       2.18974
                       2.92104                      -0.00017                       6.56913
                       2.82930                       0.72603                       6.56919
                       2.55984                       1.40661                       6.56931
                       2.12960                       1.99879                       6.56947
                       1.56560                       2.46537                       6.56966
                       0.90329                       2.77703                       6.56987
                       0.18427                       2.91419                       6.57010
                      -0.54626                       2.86823                       6.57031
                      -1.24241                       2.64203                       6.57051
                      -1.86044                       2.24982                       6.57067
                      -2.36151                       1.71623                       6.57079
                      -2.71415                       1.07480                       6.57086
                      -2.89618                       0.36581                       6.57088
                      -2.89618                      -0.36616                       6.57084
                      -2.71415                      -1.07514                       6.57075
                      -2.36151                      -1.71658                       6.57062
                      -1.86044                      -2.25017                       6.57044
                      -1.24241                      -2.64238                       6.57023
                      -0.54626                      -2.86858                       6.57001
                       0.18427                      -2.91454                       6.56979
                       0.90329                      -2.77738                       6.56959
                       1.56560                      -2.46572                       6.56941
                       2.12960                      -1.99914                       6.56926
                       2.55984                      -1.40696                       6.56916
                       2.82930                      -0.72638                       6.56912
                       2.86962                      -0.00047                      10.94845
                       2.77955                       0.71249                      10.94856
                       2.51501                       1.38066                      10.94876
                       2.09261                       1.96204                      10.94904
                       1.53889                       2.42011                      10.94937
                       0.88866                       2.72609                      10.94975
                       0.18276                       2.86075                      10.95014
                      -0.53445                       2.81562                      10.95053
                      -1.21791                       2.59355                      10.95088
                      -1.82467                       2.20849                      10.95117
                      -2.31660                       1.68463                      10.95139
                      -2.66281                       1.05490                      10.95153
                      -2.84152                       0.35884                      10.95157
                      -2.84152                      -0.35979                      10.95151
                      -2.66281                      -1.05584                      10.95135
                      -2.31660                      -1.68558                      10.95111
                      -1.82467                      -2.20944                      10.95080
                      -1.21791                      -2.59450                      10.95044
                      -0.53445                      -2.81657                      10.95005
                       0.18276                      -2.86169                      10.94966
                       0.88866                      -2.72703                      10.94929
                       1.53889                      -2.42105                      10.94897
                       2.09261                      -1.96298                      10.94871
                       2.51501                      -1.38160                      10.94853
                       2.77955                      -0.71343                      10.94844
                       2.81929                      -0.00091                      15.32777
                       2.73089                       0.69881                      15.32792
                       2.47126                       1.35456                      15.32820
                       2.05671                       1.92515                      15.32860
                       1.51328                       2.37471                      15.32908
                       0.87512                       2.67500                      15.32962
                       0.18233                       2.80716                      15.33019
                      -0.52156                       2.76288                      15.33074
                      -1.19232                       2.54493                      15.33125
                      -1.78781                       2.16702                      15.33167
                      -2.27061                       1.65289                      15.33200
                      -2.61038                       1.03485                      15.33219
                      -2.78577                       0.35173                      15.33225
                      -2.78577                      -0.35355                      15.33217
                      -2.61038                      -1.03668                      15.33195
                      -2.27061                      -1.65472                      15.33161
                      -1.78781                      -2.16885                      15.33117
                      -1.19232                      -2.54676                      15.33065
                      -0.52156                      -2.76470                      15.33009
                       0.18233                      -2.80899                      15.32953
                       0.87512                      -2.67683                      15.32900
                       1.51328                      -2.37653                      15.32852
                       2.05671                      -1.92697                      15.32815
                       2.47126                      -1.35639                      15.32789
                       2.73089                      -0.70063                      15.32776
                       2.77006                      -0.00151                      19.70712
                       2.68334                       0.68497                      19.70731
                       2.42862                       1.32832                      19.70768
                       2.02191                       1.88810                      19.70819
                       1.48877                       2.32916                      19.70881
                       0.86269                       2.62377                      19.70951
                       0.18301                       2.75342                      19.71024
                      -0.50756                       2.70998                      19.71095
                      -1.16562                       2.49616                      19.71161
                      -1.74984                       2.12540                      19.71216
                      -2.22350                       1.62100                      19.71258
                      -2.55684                       1.01466                      19.71283
                      -2.72892                       0.34446                      19.71291
                      -2.72892                      -0.34747                      19.71280
                      -2.55684                      -1.01767                      19.71252
                      -2.22350                      -1.62401                      19.71208
                      -1.74984                      -2.12841                      19.71150
                      -1.16562                      -2.49917                      19.71084
                      -0.50756                      -2.71299                      19.71012
                       0.18301                      -2.75643                      19.70939
                       0.86269                      -2.62678                      19.70870
                       1.48877                      -2.33217                      19.70809
                       2.02191                      -1.89111                      19.70761
                       2.42862                      -1.33133                      19.70727
                       2.68334                      -0.68798                      19.70710
                       2.72191                      -0.00227                      24.08651
                       2.63686                       0.67096                      24.08675
                       2.38706                       1.30190                      24.08720
                       1.98820                       1.85088                      24.08782
                       1.46534                       2.28343                      24.08858
                       0.85134                       2.57236                      24.08942
                       0.18477                       2.69951                      24.09031
                      -0.49247                       2.65690                      24.09117
                      -1.13785                       2.44721                      24.09196
                      -1.71079                       2.08360                      24.09262
                      -2.17532                       1.58894                      24.09312
                      -2.50223                       0.99429                      24.09343
                      -2.67099                       0.33702                      24.09351
                      -2.67099                      -0.34157                      24.09338
                      -2.50223                      -0.99883                      24.09304
                      -2.17532                      -1.59348                      24.09250
                      -1.71079                      -2.08815                      24.09180
                      -1.13785                      -2.45175                      24.09099
                      -0.49247                      -2.66145                      24.09012
                       0.18477                      -2.70406                      24.08924
                       0.85134                      -2.57690                      24.08841
                       1.46534                      -2.28797                      24.08768
                       1.98820                      -1.85543                      24.08709
                       2.38706                      -1.30644                      24.08669
                       2.63686                      -0.67551                      24.08649
                       2.67481                      -0.00324                      28.46595
                       2.59144                       0.65675                      28.46624
                       2.34655                       1.27528                      28.46677
                       1.95553                       1.81346                      28.46749
                       1.44296                       2.23750                      28.46838
                       0.84103                       2.52075                      28.46936
                       0.18758                       2.64540                      28.47039
                      -0.47634                       2.60363                      28.47139
                      -1.10902                       2.39806                      28.47230
                      -1.67070                       2.04161                      28.47306
                      -2.12609                       1.55667                      28.47364
                      -2.44657                       0.97372                      28.47398
                      -2.61200                       0.32938                      28.47407
                      -2.61200                      -0.33586                      28.47391
                      -2.44657                      -0.98020                      28.47350
                      -2.12609                      -1.56315                      28.47287
                      -1.67070                      -2.04809                      28.47206
                      -1.10902                      -2.40454                      28.47112
                      -0.47635                      -2.61011                      28.47010
                       0.18758                      -2.65188                      28.46908
                       0.84103                      -2.52722                      28.46812
                       1.44296                      -2.24398                      28.46728
                       1.95553                      -1.81994                      28.46660
                       2.34655                      -1.28175                      28.46614
                       2.59144                      -0.66323                      28.46592
                       2.62872                      -0.00444                      32.84544
                       2.54702                       0.64231                      32.84578
                       2.30704                       1.24842                      32.84638
                       1.92387                       1.77581                      32.84721
                       1.42158                       2.19134                      32.84821
                       0.83174                       2.46890                      32.84933
                       0.19140                       2.59105                      32.85049
                      -0.45921                       2.55012                      32.85161
                      -1.07919                       2.34868                      32.85263
                      -1.62960                       1.99938                      32.85349
                      -2.07585                       1.52417                      32.85413
                      -2.38989                       0.95291                      32.85450
                      -2.55201                       0.32150                      32.85459
                      -2.55201                      -0.33039                      32.85439
                      -2.38990                      -0.96179                      32.85392
                      -2.07585                      -1.53305                      32.85320
                      -1.62960                      -2.00826                      32.85227
                      -1.07919                      -2.35756                      32.85120
                      -0.45921                      -2.55900                      32.85006
                       0.19140                      -2.59993                      32.84891
                       0.83174                      -2.47778                      32.84783
                       1.42158                      -2.20022                      32.84688
                       1.92387                      -1.78469                      32.84613
                       2.30704                      -1.25730                      32.84562
                       2.54702                      -0.65119                      32.84538
                       2.58362                      -0.00591                      37.22495
                       2.50359                       0.62759                      37.22534
                       2.26853                       1.22130                      37.22602
                       1.89321                       1.73789                      37.22695
                       1.40120                       2.14491                      37.22808
                       0.82343                       2.41679                      37.22932
                       0.19620                       2.53644                      37.23060
                      -0.44108                       2.49634                      37.23184
                      -1.04836                       2.29902                      37.23297
                      -1.58750                       1.95687                      37.23391
                      -2.02461                       1.49140                      37.23460
                      -2.33223                       0.93184                      37.23500
                      -2.49103                       0.31336                      37.23508
                      -2.49103                      -0.32518                      37.23485
                      -2.33223                      -0.94366                      37.23430
                      -2.02461                      -1.50322                      37.23349
                      -1.58750                      -1.96870                      37.23245
                      -1.04837                      -2.31085                      37.23126
                      -0.44108                      -2.50817                      37.22999
                       0.19620                      -2.54826                      37.22872
                       0.82343                      -2.42861                      37.22752
                       1.40120                      -2.15673                      37.22648
                       1.89321                      -1.74971                      37.22566
                       2.26853                      -1.23312                      37.22511
                       2.50359                      -0.63942                      37.22487
                       2.53952                      -0.00770                      41.60447
                       2.46116                       0.61257                      41.60492
                       2.23101                       1.19386                      41.60568
                       1.86354                       1.69965                      41.60672
                       1.38182                       2.09816                      41.60796
                       0.81613                       2.36436                      41.60933
                       0.20201                       2.48151                      41.61073
                      -0.42195                       2.44225                      41.61209
                      -1.01654                       2.24905                      41.61331
                      -1.54441                       1.91406                      41.61433
                      -1.97238                       1.45831                      41.61507
                      -2.27357                       0.91045                      41.61549
                      -2.42905                       0.30490                      41.61556
                      -2.42905                      -0.32029                      41.61528
                      -2.27357                      -0.92585                      41.61467
                      -1.97238                      -1.47371                      41.61376
                      -1.54441                      -1.92945                      41.61261
                      -1.01654                      -2.26445                      41.61130
                      -0.42195                      -2.45764                      41.60990
                       0.20201                      -2.49690                      41.60851
                       0.81612                      -2.37975                      41.60721
                       1.38181                      -2.11356                      41.60608
                       1.86353                      -1.71504                      41.60520
                       2.23101                      -1.20925                      41.60461
                       2.46116                      -0.62796                      41.60436
                       2.49644                      -0.00983                      45.98399
                       2.41975                       0.59719                      45.98450
                       2.19452                       1.16607                      45.98535
                       1.83489                       1.66106                      45.98650
                       1.36345                       2.05106                      45.98785
                       0.80984                       2.31158                      45.98934
                       0.20884                       2.42622                      45.99087
                      -0.40180                       2.38781                      45.99234
                      -0.98370                       2.19873                      45.99366
                      -1.50030                       1.87089                      45.99475
                      -1.91913                       1.42487                      45.99554
                      -2.21389                       0.88871                      45.99597
                      -2.36605                       0.29609                      45.99603
                      -2.36605                      -0.31576                      45.99570
                      -2.21389                      -0.90838                      45.99502
                      -1.91913                      -1.44455                      45.99401
                      -1.50030                      -1.89056                      45.99275
                      -0.98370                      -2.21840                      45.99132
                      -0.40180                      -2.40748                      45.98980
                       0.20883                      -2.44589                      45.98828
                       0.80984                      -2.33124                      45.98688
                       1.36345                      -2.07073                      45.98566
                       1.83489                      -1.68073                      45.98472
                       2.19452                      -1.18573                      45.98410
                       2.41975                      -0.61685                      45.98386
                       2.45443                      -0.01236                      50.36351
                       2.37942                       0.58142                      50.36408
                       2.15910                       1.13789                      50.36502
                       1.80731                       1.62208                      50.36627
                       1.34616                       2.00358                      50.36775
                       0.80463                       2.25840                      50.36937
                       0.21673                       2.37055                      50.37102
                      -0.38058                       2.33297                      50.37261
                      -0.94978                       2.14802                      50.37402
                      -1.45511                       1.82733                      50.37518
                      -1.86481                       1.39105                      50.37602
                      -2.15314                       0.86658                      50.37646
                      -2.30198                       0.28688                      50.37650
                      -2.30198                      -0.31161                      50.37613
                      -2.15314                      -0.89131                      50.37537
                      -1.86481                      -1.41578                      50.37426
                      -1.45511                      -1.85206                      50.37289
                      -0.94979                      -2.17275                      50.37133
                      -0.38059                      -2.35770                      50.36968
                       0.21673                      -2.39528                      50.36805
                       0.80462                      -2.28313                      50.36653
                       1.34616                      -2.02830                      50.36523
                       1.80731                      -1.64680                      50.36423
                       2.15909                      -1.16261                      50.36358
                       2.37942                      -0.60614                      50.36334
                       2.41354                      -0.01531                      54.74302
                       2.34021                       0.56522                      54.74366
                       2.12480                       1.10928                      54.74469
                       1.78086                       1.58267                      54.74605
                       1.33000                       1.95566                      54.74765
                       0.80054                       2.20481                      54.74940
                       0.22576                       2.31445                      54.75117
                      -0.35824                       2.27771                      54.75287
                      -0.91474                       2.09689                      54.75439
                      -1.40880                       1.78335                      54.75562
                      -1.80936                       1.35679                      54.75650
                      -2.09126                       0.84402                      54.75696
                      -2.23678                       0.27726                      54.75698
                      -2.23678                      -0.30789                      54.75655
                      -2.09126                      -0.87466                      54.75571
                      -1.80936                      -1.38743                      54.75451
                      -1.40880                      -1.81399                      54.75301
                      -0.91475                      -2.12752                      54.75133
                      -0.35824                      -2.30834                      54.74955
                       0.22575                      -2.34509                      54.74780
                       0.80053                      -2.23544                      54.74618
                       1.32999                      -1.98629                      54.74479
                       1.78086                      -1.61330                      54.74373
                       2.12480                      -1.13991                      54.74306
                       2.34020                      -0.59585                      54.74281
                       2.37384                      -0.01872                      59.12253
                       2.30217                       0.54857                      59.12323
                       2.09168                       1.08022                      59.12435
                       1.75558                       1.54282                      59.12582
                       1.31501                       1.90730                      59.12755
                       0.79763                       2.15076                      59.12942
                       0.23596                       2.25790                      59.13132
                      -0.33471                       2.22200                      59.13314
                      -0.87853                       2.04530                      59.13475
                      -1.36131                       1.73891                      59.13605
                      -1.75274                       1.32209                      59.13697
                      -2.02820                       0.82101                      59.13744
                      -2.17040                       0.26718                      59.13744
                      -2.17040                      -0.30463                      59.13697
                      -2.02820                      -0.85846                      59.13605
                      -1.75274                      -1.35954                      59.13474
                      -1.36132                      -1.77636                      59.13313
                      -0.87853                      -2.08275                      59.13132
                      -0.33472                      -2.25944                      59.12942
                       0.23595                      -2.29535                      59.12754
                       0.79762                      -2.18820                      59.12582
                       1.31500                      -1.94474                      59.12435
                       1.75558                      -1.58026                      59.12323
                       2.09168                      -1.11766                      59.12253
                       2.30217                      -0.58601                      59.12229
                       2.33533                      -0.02259                      63.50207
                       2.26534                       0.53146                      63.50283
                       2.05976                       1.05069                      63.50404
                       1.73151                       1.50249                      63.50561
                       1.30122                       1.85846                      63.50745
                       0.79592                       2.09624                      63.50945
                       0.24736                       2.20088                      63.51147
                      -0.30999                       2.16582                      63.51339
                      -0.84111                       1.99324                      63.51508
                      -1.31262                       1.69401                      63.51645
                      -1.69491                       1.28691                      63.51741
                      -1.96395                       0.79754                      63.51789
                      -2.10283                       0.25663                      63.51787
                      -2.10283                      -0.30183                      63.51735
                      -1.96395                      -0.84273                      63.51635
                      -1.69491                      -1.33211                      63.51495
                      -1.31263                      -1.73921                      63.51323
                      -0.84112                      -2.03844                      63.51130
                      -0.31000                      -2.21101                      63.50928
                       0.24735                      -2.24607                      63.50729
                       0.79591                      -2.14143                      63.50547
                       1.30121                      -1.90365                      63.50392
                       1.73150                      -1.54768                      63.50275
                       2.05975                      -1.09588                      63.50203
                       2.26533                      -0.57664                      63.50179
                       2.29798                      -0.02694                      67.88167
                       2.22967                       0.51387                      67.88249
                       2.02900                       1.02070                      67.88377
                       1.70860                       1.46169                      67.88544
                       1.28859                       1.80916                      67.88738
                       0.79537                       2.04125                      67.88948
                       0.25992                       2.14339                      67.89159
                      -0.28410                       2.10916                      67.89360
                      -0.80252                       1.94072                      67.89538
                      -1.26277                       1.64863                      67.89680
                      -1.63592                       1.25127                      67.89779
                      -1.89852                       0.77359                      67.89827
                      -2.03409                       0.24561                      67.89823
                      -2.03409                      -0.29950                      67.89766
                      -1.89853                      -0.82748                      67.89660
                      -1.63592                      -1.30516                      67.89512
                      -1.26278                      -1.70252                      67.89330
                      -0.80253                      -1.99460                      67.89126
                      -0.28411                      -2.16305                      67.88914
                       0.25992                      -2.19727                      67.88706
                       0.79536                      -2.09513                      67.88515
                       1.28859                      -1.86303                      67.88354
                       1.70859                      -1.51557                      67.88233
                       2.02900                      -1.07457                      67.88158
                       2.22966                      -0.56774                      67.88136
                       2.26169                      -0.03174                      72.26137
                       2.19504                       0.49582                      72.26224
                       1.99929                       0.99024                      72.26359
                       1.68674                       1.42044                      72.26532
                       1.27701                       1.75939                      72.26734
                       0.79587                       1.98580                      72.26951
                       0.27354                       2.08544                      72.27170
                      -0.25717                       2.05205                      72.27377
                      -0.76290                       1.88773                      72.27560
                      -1.21187                       1.60280                      72.27705
                      -1.57588                       1.21516                      72.27806
                      -1.83206                       0.74918                      72.27854
                      -1.96430                       0.23413                      72.27847
                      -1.96430                      -0.29763                      72.27786
                      -1.83206                      -0.81268                      72.27675
                      -1.57589                      -1.27866                      72.27519
                      -1.21188                      -1.66630                      72.27330
                      -0.76290                      -1.95122                      72.27119
                      -0.25718                      -2.11554                      72.26899
                       0.27353                      -2.14893                      72.26685
                       0.79586                      -2.04929                      72.26488
                       1.27701                      -1.82288                      72.26323
                       1.68673                      -1.48392                      72.26199
                       1.99929                      -1.05372                      72.26124
                       2.19504                      -0.55930                      72.26103
                       2.22619                      -0.03697                      76.64125
                       2.16122                       0.47735                      76.64216
                       1.97038                       0.95935                      76.64354
                       1.66567                       1.37876                      76.64531
                       1.26624                       1.70920                      76.64737
                       0.79717                       1.92993                      76.64957
                       0.28795                       2.02707                      76.65179
                      -0.22944                       1.99451                      76.65388
                      -0.72247                       1.83432                      76.65571
                      -1.16017                       1.55654                      76.65717
                      -1.51505                       1.17863                      76.65816
                      -1.76479                       0.72435                      76.65862
                      -1.89371                       0.22222                      76.65853
                      -1.89372                      -0.29619                      76.65789
                      -1.76480                      -0.79831                      76.65674
                      -1.51505                      -1.25259                      76.65515
                      -1.16018                      -1.63050                      76.65322
                      -0.72248                      -1.90827                      76.65107
                      -0.22945                      -2.06847                      76.64884
                       0.28794                      -2.10102                      76.64667
                       0.79716                      -2.00388                      76.64470
                       1.26623                      -1.78315                      76.64304
                       1.66567                      -1.45270                      76.64180
                       1.97038                      -1.03330                      76.64107
                       2.16122                      -0.55129                      76.64088
                       2.19108                      -0.04257                      81.02138
                       2.12778                       0.45851                      81.02230
                       1.94185                       0.92810                      81.02369
                       1.64499                       1.33670                      81.02546
                       1.25584                       1.65864                      81.02749
                       0.79885                       1.87368                      81.02967
                       0.30274                       1.96832                      81.03185
                      -0.20132                       1.93661                      81.03389
                      -0.68166                       1.78053                      81.03567
                      -1.10810                       1.50991                      81.03708
                      -1.45383                       1.14173                      81.03803
                      -1.69715                       0.69914                      81.03846
                      -1.82275                       0.20995                      81.03833
                      -1.82275                      -0.29511                      81.03767
                      -1.69715                      -0.78431                      81.03650
                      -1.45384                      -1.22689                      81.03491
                      -1.10810                      -1.59507                      81.03300
                      -0.68167                      -1.86569                      81.03088
                      -0.20133                      -2.02176                      81.02868
                       0.30273                      -2.05347                      81.02655
                       0.79884                      -1.95883                      81.02463
                       1.25583                      -1.74379                      81.02302
                       1.64498                      -1.42185                      81.02183
                       1.94185                      -1.01325                      81.02114
                       2.12777                      -0.54365                      81.02099
                       2.15570                      -0.04846                      85.40186
                       2.09408                       0.43937                      85.40277
                       1.91307                       0.89656                      85.40412
                       1.62405                       1.29436                      85.40582
                       1.24518                       1.60779                      85.40776
                       0.80027                       1.81715                      85.40982
                       0.31727                       1.90928                      85.41187
                      -0.17347                       1.87841                      85.41379
                      -0.64111                       1.72646                      85.41545
                      -1.05628                       1.46299                      85.41674
                      -1.39288                       1.10454                      85.41759
                      -1.62976                       0.67365                      85.41795
                      -1.75205                       0.19738                      85.41778
                      -1.75205                      -0.29433                      85.41711
                      -1.62977                      -0.77059                      85.41597
                      -1.39288                      -1.20149                      85.41443
                      -1.05629                      -1.55993                      85.41260
                      -0.64112                      -1.82340                      85.41058
                      -0.17348                      -1.97535                      85.40851
                       0.31726                      -2.00622                      85.40651
                       0.80026                      -1.91408                      85.40471
                       1.24517                      -1.70472                      85.40322
                       1.62404                      -1.39129                      85.40214
                       1.91306                      -0.99348                      85.40153
                       2.09408                      -0.53630                      85.40144
                       2.13765                      -0.05149                      87.59226
                       2.07686                       0.42973                      87.59316
                       1.89831                       0.88070                      87.59447
                       1.61321                       1.27311                      87.59610
                       1.23948                       1.58228                      87.59796
                       0.80061                       1.78880                      87.59993
                       0.32417                       1.87969                      87.60188
                      -0.15991                       1.84923                      87.60369
                      -0.62121                       1.69934                      87.60524
                      -1.03074                       1.43945                      87.60645
                      -1.36277                       1.08587                      87.60723
                      -1.59644                       0.66082                      87.60753
                      -1.71706                       0.19102                      87.60734
                      -1.71707                      -0.29402                      87.60667
                      -1.59644                      -0.76382                      87.60556
                      -1.36278                      -1.18886                      87.60408
                      -1.03075                      -1.54244                      87.60232
                      -0.62122                      -1.80233                      87.60039
                      -0.15992                      -1.95222                      87.59842
                       0.32416                      -1.98267                      87.59652
                       0.80060                      -1.89178                      87.59483
                       1.23948                      -1.68526                      87.59343
                       1.61320                      -1.37609                      87.59243
                       1.89830                      -0.98368                      87.59188
                       2.07686                      -0.53270                      87.59183
                       3.00000                       0.00000                       0.00000
                       2.90575                       0.74607                       0.00000
                       2.62892                       1.44526                       0.00000
                       2.18691                       2.05364                       0.00000
                       1.60748                       2.53298                       0.00000
                       0.92705                       2.85317                       0.00000
                       0.18837                       2.99408                       0.00000
                      -0.56214                       2.94686                       0.00000
                      -1.27734                       2.71448                       0.00000
                      -1.91227                       2.31154                       0.00000
                      -2.42705                       1.76336                       0.00000
                      -2.78933                       1.10437                       0.00000
                      -2.97634                       0.37600                       0.00000
                      -2.97634                      -0.37600                       0.00000
                      -2.78933                      -1.10437                       0.00000
                      -2.42705                      -1.76336                       0.00000
                      -1.91227                      -2.31154                       0.00000
                      -1.27734                      -2.71448                       0.00000
                      -0.56214                      -2.94686                       0.00000
                       0.18837                      -2.99408                       0.00000
                       0.92705                      -2.85317                       0.00000
                       1.60748                      -2.53298                       0.00000
                       2.18691                      -2.05364                       0.00000
                       2.62892                      -1.44526                       0.00000
                       2.90575                      -0.74607                       0.00000
        </DataArray>
      </Points>
      <Polys>
        <DataArray type="Int32" Name="connectivity" format="ascii">
      0      1     26     25
      1      2     27     26
      2      3     28     27
      3      4     29     28
      4      5     30     29
      5      6     31     30
      6      7     32     31
      7      8     33     32
      8      9     34     33
      9     10     35     34
     10     11     36     35
     11     12     37     36
     12     13     38     37
     13     14     39     38
     14     15     40     39
     15     16     41     40
     16     17     42     41
     17     18     43     42
     18     19     44     43
     19     20     45     44
     20     21     46     45
     21     22     47     46
     22     23     48     47
     23     24     49     48
     24      0     25     49
     24     23     22     21     20     19     18     17     16     15     14     13     12     11     10      9      8      7      6      5      4      3      2      1      0
     25     26     27     28     29     30     31     32     33     34     35     36     37     38     39     40     41     42     43     44     45     46     47     48     49
     25     26     51     50
     26     27     52     51
     27     28     53     52
     28     29     54     53
     29     30     55     54
     30     31     56     55
     31     32     57     56
     32     33     58     57
     33     34     59     58
     34     35     60     59
     35     36     61     60
     36     37     62     61
     37     38     63     62
     38     39     64     63
     39     40     65     64
     40     41     66     65
     41     42     67     66
     42     43     68     67
     43     44     69     68
     44     45     70     69
     45     46     71     70
     46     47     72     71
     47     48     73     72
     48     49     74     73
     49     25     50     74
     49     48     47     46     45     44     43     42     41     40     39     38     37     36     35     34     33     32     31     30     29     28     27     26     25
     50     51     52     53     54     55     56     57     58     59     60     61     62     63     64     65     66     67     68     69     70     71     72     73     74
     50     51     76     75
     51     52     77     76
     52     53     78     77
     53     54     79     78
     54     55     80     79
     55     56     81     80
     56     57     82     81
     57     58     83     82
     58     59     84     83
     59     60     85     84
     60     61     86     85
     61     62     87     86
     62     63     88     87
     63     64     89     88
     64     65     90     89
     65     66     91     90
     66     67     92     91
     67     68     93     92
     68     69     94     93
     69     70     95     94
     70     71     96     95
     71     72     97     96
     72     73     98     97
     73     74     99     98
     74     50     75     99
     74     73     72     71     70     69     68     67     66     65     64     63     62     61     60     59     58     57     56     55     54     53     52     51     50
     75     76     77     78     79     80     81     82     83     84     85     86     87     88     89     90     91     92     93     94     95     96     97     98     99
     75     76    101    100
     76     77    102    101
     77     78    103    102
     78     79    104    103
     79     80    105    104
     80     81    106    105
     81     82    107    106
     82     83    108    107
     83     84    109    108
     84     85    110    109
     85     86    111    110
     86     87    112    111
     87     88    113    112
     88     89    114    113
     89     90    115    114
     90     91    116    115
     91     92    117    116
     92     93    118    117
     93     94    119    118
     94     95    120    119
     95     96    121    120
     96     97    122    121
     97     98    123    122
     98     99    124    123
     99     75    100    124
     99     98     97     96     95     94     93     92     91     90     89     88     87     86     85     84     83     82     81     80     79     78     77     76     75
    100    101    102    103    104    105    106    107    108    109    110    111    112    113    114    115    116    117    118    119    120    121    122    123    124
    100    101    126    125
    101    102    127    126
    102    103    128    127
    103    104    129    128
    104    105    130    129
    105    106    131    130
    106    107    132    131
    107    108    133    132
    108    109    134    133
    109    110    135    134
    110    111    136    135
    111    112    137    136
    112    113    138    137
    113    114    139    138
    114    115    140    139
    115    116    141    140
    116    117    142    141
    117    118    143    142
    118    119    144    143
    119    120    145    144
    120    121    146    145
    121    122    147    146
    122    123    148    147
    123    124    149    148
    124    100    125    149
    124    123    122    121    120    119    118    117    116    115    114    113    112    111    110    109    108    107    106    105    104    103    102    101    100
    125    126    127    128    129    130    131    132    133    134    135    136    137    138    139    140    141    142    143    144    145    146    147    148    149
    125    126    151    150
    126    127    152    151
    127    128    153    152
    128    129    154    153
    129    130    155    154
    130    131    156    155
    131    132    157    156
    132    133    158    157
    133    134    159    158
    134    135    160    159
    135    136    161    160
    136    137    162    161
    137    138    163    162
    138    139    164    163
    139    140    165    164
    140    141    166    165
    141    142    167    166
    142    143    168    167
    143    144    169    168
    144    145    170    169
    145    146    171    170
    146    147    172    171
    147    148    173    172
    148    149    174    173
    149    125    150    174
    149    148    147    146    145    144    143    142    141    140    139    138    137    136    135    134    133    132    131    130    129    128    127    126    125
    150    151    152    153    154    155    156    157    158    159    160    161    162    163    164    165    166    167    168    169    170    171    172    173    174
    150    151    176    175
    151    152    177    176
    152    153    178    177
    153    154    179    178
    154    155    180    179
    155    156    181    180
    156    157    182    181
    157    158    183    182
    158    159    184    183
    159    160    185    184
    160    161    186    185
    161    162    187    186
    162    163    188    187
    163    164    189    188
    164    165    190    189
    165    166    191    190
    166    167    192    191
    167    168    193    192
    168    169    194    193
    169    170    195    194
    170    171    196    195
    171    172    197    196
    172    173    198    197
    173    174    199    198
    174    150    175    199
    174    173    172    171    170    169    168    167    166    165    164    163    162    161    160    159    158    157    156    155    154    153    152    151    150
    175    176    177    178    179    180    181    182    183    184    185    186    187    188    189    190    191    192    193    194    195    196    197    198    199
    175    176    201    200
    176    177    202    201
    177    178    203    202
    178    179    204    203
    179    180    205    204
    180    181    206    205
    181    182    207    206
    182    183    208    207
    183    184    209    208
    184    185    210    209
    185    186    211    210
    186    187    212    211
    187    188    213    212
    188    189    214    213
    189    190    215    214
    190    191    216    215
    191    192    217    216
    192    193    218    217
    193    194    219    218
    194    195    220    219
    195    196    221    220
    196    197    222    221
    197    198    223    222
    198    199    224    223
    199    175    200    224
    199    198    197    196    195    194    193    192    191    190    189    188    187    186    185    184    183    182    181    180    179    178    177    176    175
    200    201    202    203    204    205    206    207    208    209    210    211    212    213    214    215    216    217    218    219    220    221    222    223    224
    200    201    226    225
    201    202    227    226
    202    203    228    227
    203    204    229    228
    204    205    230    229
    205    206    231    230
    206    207    232    231
    207    208    233    232
    208    209    234    233
    209    210    235    234
    210    211    236    235
    211    212    237    236
    212    213    238    237
    213    214    239    238
    214    215    240    239
    215    216    241    240
    216    217    242    241
    217    218    243    242
    218    219    244    243
    219    220    245    244
    220    221    246    245
    221    222    247    246
    222    223    248    247
    223    224    249    248
    224    200    225    249
    224    223    222    221    220    219    218    217    216    215    214    213    212    211    210    209    208    207    206    205    204    203    202    201    200
    225    226    227    228    229    230    231    232    233    234    235    236    237    238    239    240    241    242    243    244    245    246    247    248    249
    225    226    251    250
    226    227    252    251
    227    228    253    252
    228    229    254    253
    229    230    255    254
    230    231    256    255
    231    232    257    256
    232    233    258    257
    233    234    259    258
    234    235    260    259
    235    236    261    260
    236    237    262    261
    237    238    263    262
    238    239    264    263
    239    240    265    264
    240    241    266    265
    241    242    267    266
    242    243    268    267
    243    244    269    268
    244    245    270    269
    245    246    271    270
    246    247    272    271
    247    248    273    272
    248    249    274    273
    249    225    250    274
    249    248    247    246    245    244    243    242    241    240    239    238    237    236    235    234    233    232    231    230    229    228    227    226    225
    250    251    252    253    254    255    256    257    258    259    260    261    262    263    264    265    266    267    268    269    270    271    272    273    274
    250    251    276    275
    251    252    277    276
    252    253    278    277
    253    254    279    278
    254    255    280    279
    255    256    281    280
    256    257    282    281
    257    258    283    282
    258    259    284    283
    259    260    285    284
    260    261    286    285
    261    262    287    286
    262    263    288    287
    263    264    289    288
    264    265    290    289
    265    266    291    290
    266    267    292    291
    267    268    293    292
    268    269    294    293
    269    270    295    294
    270    271    296    295
    271    272    297    296
    272    273    298    297
    273    274    299    298
    274    250    275    299
    274    273    272    271    270    269    268    267    266    265    264    263    262    261    260    259    258    257    256    255    254    253    252    251    250
    275    276    277    278    279    280    281    282    283    284    285    286    287    288    289    290    291    292    293    294    295    296    297    298    299
    275    276    301    300
    276    277    302    301
    277    278    303    302
    278    279    304    303
    279    280    305    304
    280    281    306    305
    281    282    307    306
    282    283    308    307
    283    284    309    308
    284    285    310    309
    285    286    311    310
    286    287    312    311
    287    288    313    312
    288    289    314    313
    289    290    315    314
    290    291    316    315
    291    292    317    316
    292    293    318    317
    293    294    319    318
    294    295    320    319
    295    296    321    320
    296    297    322    321
    297    298    323    322
    298    299    324    323
    299    275    300    324
    299    298    297    296    295    294    293    292    291    290    289    288    287    286    285    284    283    282    281    280    279    278    277    276    275
    300    301    302    303    304    305    306    307    308    309    310    311    312    313    314    315    316    317    318    319    320    321    322    323    324
    300    301    326    325
    301    302    327    326
    302    303    328    327
    303    304    329    328
    304    305    330    329
    305    306    331    330
    306    307    332    331
    307    308    333    332
    308    309    334    333
    309    310    335    334
    310    311    336    335
    311    312    337    336
    312    313    338    337
    313    314    339    338
    314    315    340    339
    315    316    341    340
    316    317    342    341
    317    318    343    342
    318    319    344    343
    319    320    345    344
    320    321    346    345
    321    322    347    346
    322    323    348    347
    323    324    349    348
    324    300    325    349
    324    323    322    321    320    319    318    317    316    315    314    313    312    311    310    309    308    307    306    305    304    303    302    301    300
    325    326    327    328    329    330    331    332    333    334    335    336    337    338    339    340    341    342    343    344    345    346    347    348    349
    325    326    351    350
    326    327    352    351
    327    328    353    352
    328    329    354    353
    329    330    355    354
    330    331    356    355
    331    332    357    356
    332    333    358    357
    333    334    359    358
    334    335    360    359
    335    336    361    360
    336    337    362    361
    337    338    363    362
    338    339    364    363
    339    340    365    364
    340    341    366    365
    341    342    367    366
    342    343    368    367
    343    344    369    368
    344    345    370    369
    345    346    371    370
    346    347    372    371
    347    348    373    372
    348    349    374    373
    349    325    350    374
    349    348    347    346    345    344    343    342    341    340    339    338    337    336    335    334    333    332    331    330    329    328    327    326    325
    350    351    352    353    354    355    356    357    358    359    360    361    362    363    364    365    366    367    368    369    370    371    372    373    374
    350    351    376    375
    351    352    377    376
    352    353    378    377
    353    354    379    378
    354    355    380    379
    355    356    381    380
    356    357    382    381
    357    358    383    382
    358    359    384    383
    359    360    385    384
    360    361    386    385
    361    362    387    386
    362    363    388    387
    363    364    389    388
    364    365    390    389
    365    366    391    390
    366    367    392    391
    367    368    393    392
    368    369    394    393
    369    370    395    394
    370    371    396    395
    371    372    397    396
    372    373    398    397
    373    374    399    398
    374    350    375    399
    374    373    372    371    370    369    368    367    366    365    364    363    362    361    360    359    358    357    356    355    354    353    352    351    350
    375    376    377    378    379    380    381    382    383    384    385    386    387    388    389    390    391    392    393    394    395    396    397    398    399
    375    376    401    400
    376    377    402    401
    377    378    403    402
    378    379    404    403
    379    380    405    404
    380    381    406    405
    381    382    407    406
    382    383    408    407
    383    384    409    408
    384    385    410    409
    385    386    411    410
    386    387    412    411
    387    388    413    412
    388    389    414    413
    389    390    415    414
    390    391    416    415
    391    392    417    416
    392    393    418    417
    393    394    419    418
    394    395    420    419
    395    396    421    420
    396    397    422    421
    397    398    423    422
    398    399    424    423
    399    375    400    424
    399    398    397    396    395    394    393    392    391    390    389    388    387    386    385    384    383    382    381    380    379    378    377    376    375
    400    401    402    403    404    405    406    407    408    409    410    411    412    413    414    415    416    417    418    419    420    421    422    423    424
    400    401    426    425
    401    402    427    426
    402    403    428    427
    403    404    429    428
    404    405    430    429
    405    406    431    430
    406    407    432    431
    407    408    433    432
    408    409    434    433
    409    410    435    434
    410    411    436    435
    411    412    437    436
    412    413    438    437
    413    414    439    438
    414    415    440    439
    415    416    441    440
    416    417    442    441
    417    418    443    442
    418    419    444    443
    419    420    445    444
    420    421    446    445
    421    422    447    446
    422    423    448    447
    423    424    449    448
    424    400    425    449
    424    423    422    421    420    419    418    417    416    415    414    413    412    411    410    409    408    407    406    405    404    403    402    401    400
    425    426    427    428    429    430    431    432    433    434    435    436    437    438    439    440    441    442    443    444    445    446    447    448    449
    425    426    451    450
    426    427    452    451
    427    428    453    452
    428    429    454    453
    429    430    455    454
    430    431    456    455
    431    432    457    456
    432    433    458    457
    433    434    459    458
    434    435    460    459
    435    436    461    460
    436    437    462    461
    437    438    463    462
    438    439    464    463
    439    440    465    464
    440    441    466    465
    441    442    467    466
    442    443    468    467
    443    444    469    468
    444    445    470    469
    445    446    471    470
    446    447    472    471
    447    448    473    472
    448    449    474    473
    449    425    450    474
    449    448    447    446    445    444    443    442    441    440    439    438    437    436    435    434    433    432    431    430    429    428    427    426    425
    450    451    452    453    454    455    456    457    458    459    460    461    462    463    464    465    466    467    468    469    470    471    472    473    474
    450    451    476    475
    451    452    477    476
    452    453    478    477
    453    454    479    478
    454    455    480    479
    455    456    481    480
    456    457    482    481
    457    458    483    482
    458    459    484    483
    459    460    485    484
    460    461    486    485
    461    462    487    486
    462    463    488    487
    463    464    489    488
    464    465    490    489
    465    466    491    490
    466    467    492    491
    467    468    493    492
    468    469    494    493
    469    470    495    494
    470    471    496    495
    471    472    497    496
    472    473    498    497
    473    474    499    498
    474    450    475    499
    474    473    472    471    470    469    468    467    466    465    464    463    462    461    460    459    458    457    456    455    454    453    452    451    450
    475    476    477    478    479    480    481    482    483    484    485    486    487    488    489    490    491    492    493    494    495    496    497    498    499
    475    476    501    500
    476    477    502    501
    477    478    503    502
    478    479    504    503
    479    480    505    504
    480    481    506    505
    481    482    507    506
    482    483    508    507
    483    484    509    508
    484    485    510    509
    485    486    511    510
    486    487    512    511
    487    488    513    512
    488    489    514    513
    489    490    515    514
    490    491    516    515
    491    492    517    516
    492    493    518    517
    493    494    519    518
    494    495    520    519
    495    496    521    520
    496    497    522    521
    497    498    523    522
    498    499    524    523
    499    475    500    524
    499    498    497    496    495    494    493    492    491    490    489    488    487    486    485    484    483    482    481    480    479    478    477    476    475
    500    501    502    503    504    505    506    507    508    509    510    511    512    513    514    515    516    517    518    519    520    521    522    523    524
    525    526      1      0
    526    527      2      1
    527    528      3      2
    528    529      4      3
    529    530      5      4
    530    531      6      5
    531    532      7      6
    532    533      8      7
    533    534      9      8
    534    535     10      9
    535    536     11     10
    536    537     12     11
    537    538     13     12
    538    539     14     13
    539    540     15     14
    540    541     16     15
    541    542     17     16
    542    543     18     17
    543    544     19     18
    544    545     20     19
    545    546     21     20
    546    547     22     21
    547    548     23     22
    548    549     24     23
    549    525      0     24
    549    548    547    546    545    544    543    542    541    540    539    538    537    536    535    534    533    532    531    530    529    528    527    526    525
      0      1      2      3      4      5      6      7      8      9     10     11     12     13     14     15     16     17     18     19     20     21     22     23     24
        </DataArray>
        <DataArray type="Int32" Name="offsets" format="ascii">
      4
      8
     12
     16
     20
     24
     28
     32
     36
     40
     44
     48
     52
     56
     60
     64
     68
     72
     76
     80
     84
     88
     92
     96
    100
    125
    150
    154
    158
    162
    166
    170
    174
    178
    182
    186
    190
    194
    198
    202
    206
    210
    214
    218
    222
    226
    230
    234
    238
    242
    246
    250
    275
    300
    304
    308
    312
    316
    320
    324
    328
    332
    336
    340
    344
    348
    352
    356
    360
    364
    368
    372
    376
    380
    384
    388
    392
    396
    400
    425
    450
    454
    458
    462
    466
    470
    474
    478
    482
    486
    490
    494
    498
    502
    506
    510
    514
    518
    522
    526
    530
    534
    538
    542
    546
    550
    575
    600
    604
    608
    612
    616
    620
    624
    628
    632
    636
    640
    644
    648
    652
    656
    660
    664
    668
    672
    676
    680
    684
    688
    692
    696
    700
    725
    750
    754
    758
    762
    766
    770
    774
    778
    782
    786
    790
    794
    798
    802
    806
    810
    814
    818
    822
    826
    830
    834
    838
    842
    846
    850
    875
    900
    904
    908
    912
    916
    920
    924
    928
    932
    936
    940
    944
    948
    952
    956
    960
    964
    968
    972
    976
    980
    984
    988
    992
    996
   1000
   1025
   1050
   1054
   1058
   1062
   1066
   1070
   1074
   1078
   1082
   1086
   1090
   1094
   1098
   1102
   1106
   1110
   1114
   1118
   1122
   1126
   1130
   1134
   1138
   1142
   1146
   1150
   1175
   1200
   1204
   1208
   1212
   1216
   1220
   1224
   1228
   1232
   1236
   1240
   1244
   1248
   1252
   1256
   1260
   1264
   1268
   1272
   1276
   1280
   1284
   1288
   1292
   1296
   1300
   1325
   1350
   1354
   1358
   1362
   1366
   1370
   1374
   1378
   1382
   1386
   1390
   1394
   1398
   1402
   1406
   1410
   1414
   1418
   1422
   1426
   1430
   1434
   1438
   1442
   1446
   1450
   1475
   1500
   1504
   1508
   1512
   1516
   1520
   1524
   1528
   1532
   1536
   1540
   1544
   1548
   1552
   1556
   1560
   1564
   1568
   1572
   1576
   1580
   1584
   1588
   1592
   1596
   1600
   1625
   1650
   1654
   1658
   1662
   1666
   1670
   1674
   1678
   1682
   1686
   1690
   1694
   1698
   1702
   1706
   1710
   1714
   1718
   1722
   1726
   1730
   1734
   1738
   1742
   1746
   1750
   1775
   1800
   1804
   1808
   1812
   1816
   1820
   1824
   1828
   1832
   1836
   1840
   1844
   1848
   1852
   1856
   1860
   1864
   1868
   1872
   1876
   1880
   1884
   1888
   1892
   1896
   1900
   1925
   1950
   1954
   1958
   1962
   1966
   1970
   1974
   1978
   1982
   1986
   1990
   1994
   1998
   2002
   2006
   2010
   2014
   2018
   2022
   2026
   2030
   2034
   2038
   2042
   2046
   2050
   2075
   2100
   2104
   2108
   2112
   2116
   2120
   2124
   2128
   2132
   2136
   2140
   2144
   2148
   2152
   2156
   2160
   2164
   2168
   2172
   2176
   2180
   2184
   2188
   2192
   2196
   2200
   2225
   2250
   2254
   2258
   2262
   2266
   2270
   2274
   2278
   2282
   2286
   2290
   2294
   2298
   2302
   2306
   2310
   2314
   2318
   2322
   2326
   2330
   2334
   2338
   2342
   2346
   2350
   2375
   2400
   2404
   2408
   2412
   2416
   2420
   2424
   2428
   2432
   2436
   2440
   2444
   2448
   2452
   2456
   2460
   2464
   2468
   2472
   2476
   2480
   2484
   2488
   2492
   2496
   2500
   2525
   2550
   2554
   2558
   2562
   2566
   2570
   2574
   2578
   2582
   2586
   2590
   2594
   2598
   2602
   2606
   2610
   2614
   2618
   2622
   2626
   2630
   2634
   2638
   2642
   2646
   2650
   2675
   2700
   2704
   2708
   2712
   2716
   2720
   2724
   2728
   2732
   2736
   2740
   2744
   2748
   2752
   2756
   2760
   2764
   2768
   2772
   2776
   2780
   2784
   2788
   2792
   2796
   2800
   2825
   2850
   2854
   2858
   2862
   2866
   2870
   2874
   2878
   2882
   2886
   2890
   2894
   2898
   2902
   2906
   2910
   2914
   2918
   2922
   2926
   2930
   2934
   2938
   2942
   2946
   2950
   2975
   3000
   3004
   3008
   3012
   3016
   3020
   3024
   3028
   3032
   3036
   3040
   3044
   3048
   3052
   3056
   3060
   3064
   3068
   3072
   3076
   3080
   3084
   3088
   3092
   3096
   3100
   3125
   3150
        </DataArray>
      </Polys>
    </Piece>
  </PolyData>
</VTKFile>
