<?xml version="1.0"?>
<VTKFile type="PolyData" version="0.1" byte_order="LittleEndian">
  <PolyData>
    <Piece NumberOfPoints="     19" NumberOfVerts="  0" NumberOfLines="     18"
           NumberOfStrips="  0" NumberOfPolys="      0">
      <Points>
        <DataArray type="Float32" NumberOfComponents="3" format="ascii">
                      -4.46687                       1.21352                      89.25259
                      -4.60008                       2.36139                      88.52259
                      -4.87503                       4.70751                      87.14318
                      -5.14790                       7.07765                      85.80044
                      -5.47691                      10.05511                      84.14137
                      -5.80133                      13.55194                      82.01899
                      -6.07058                      16.97809                      79.77854
                      -6.28813                      20.40186                      77.52874
                      -6.43976                      23.82149                      75.26756
                      -6.51386                      27.23685                      72.99667
                      -6.49962                      30.64837                      70.71948
                      -6.38559                      34.05319                      68.43529
                      -6.16320                      37.44881                      66.14505
                      -5.82604                      40.83227                      63.85008
                      -5.36796                      44.19976                      61.55211
                      -4.89064                      46.99033                      59.63629
                      -4.45136                      49.20668                      58.09762
                      -3.96767                      51.38093                      56.51449
                      -3.70351                      52.48563                      55.75841
        </DataArray>
      </Points>
      <PointData>
        <DataArray type="Float32" Name="TranslationalVelocity" NumberOfComponents="3" format="ascii">
                       0.07864                       0.95290                       1.45433
                       0.21233                       1.81538                       2.78609
                       0.48680                       3.44732                       5.50704
                       0.76650                       5.03593                       8.25422
                       1.12284                       6.99712                      11.70261
                       1.55110                       9.49339                      15.74849
                       1.98380                      12.11802                      19.70842
                       2.43112                      14.74528                      23.66184
                       2.89469                      17.37559                      27.60748
                       3.37602                      20.00531                      31.54606
                       3.87628                      22.62880                      35.47912
                       4.39585                      25.24493                      39.40437
                       4.93469                      27.85082                      43.31991
                       5.49226                      30.44324                      47.22316
                       6.06741                      33.01823                      51.11039
                       6.55921                      35.14746                      54.33379
                       6.95888                      36.84642                      56.89525
                       7.35990                      38.58687                      59.40915
                       7.56520                      39.41141                      60.68676
        </DataArray>
        <DataArray type="Float32" Name="RotationalVelocity" NumberOfComponents="3" format="ascii">
                       1.16053                      -0.00106                      -0.11563
                       1.16034                      -0.00117                      -0.11579
                       1.15984                      -0.00152                      -0.11638
                       1.15922                      -0.00205                      -0.11730
                       1.15833                      -0.00289                      -0.11887
                       1.15719                      -0.00410                      -0.12133
                       1.15608                      -0.00546                      -0.12435
                       1.15505                      -0.00691                      -0.12787
                       1.15417                      -0.00843                      -0.13186
                       1.15345                      -0.00999                      -0.13625
                       1.15289                      -0.01156                      -0.14098
                       1.15249                      -0.01317                      -0.14594
                       1.15221                      -0.01482                      -0.15100
                       1.15200                      -0.01654                      -0.15597
                       1.15180                      -0.01835                      -0.16062
                       1.15158                      -0.01996                      -0.16406
                       1.15134                      -0.02133                      -0.16635
                       1.15100                      -0.02279                      -0.16809
                       1.15079                      -0.02356                      -0.16872
        </DataArray>
        <DataArray type="Float32" Name="TranslationalAcceleration" NumberOfComponents="3" format="ascii">
                      -0.32748                      -1.57967                       1.29139
                       0.01586                      -1.91904                       1.55887
                       0.08672                      -5.56492                       4.36633
                       0.19993                      -8.96895                       6.89377
                       0.37455                     -12.97531                       9.81012
                       0.62721                     -17.40390                      13.25873
                       0.90422                     -21.58853                      16.74870
                       1.18414                     -25.74704                      20.23192
                       1.47445                     -29.93253                      23.75546
                       1.79109                     -34.16350                      27.33198
                       2.15485                     -38.43282                      30.95067
                       2.58770                     -42.71278                      34.59292
                       3.10772                     -46.97190                      38.23445
                       3.72456                     -51.18438                      41.85534
                       4.43458                     -55.34015                      45.44877
                       5.08331                     -58.76992                      48.43252
                       5.62612                     -61.50341                      50.83604
                       6.21193                     -64.21761                      53.32532
                       6.46543                     -65.62689                      54.54754
        </DataArray>
        <DataArray type="Float32" Name="OrientationX" NumberOfComponents="3" format="ascii">
                       0.98428                       0.16086                       0.07292
                       0.98435                       0.16027                       0.07329
                       0.98457                       0.15833                       0.07448
                       0.98490                       0.15541                       0.07626
                       0.98543                       0.15054                       0.07919
                       0.99039                       0.12603                       0.05700
                       0.99363                       0.10393                       0.04345
                       0.99615                       0.08098                       0.03359
                       0.99821                       0.05478                       0.02412
                       0.99956                       0.02543                       0.01555
                       0.99994                      -0.00611                       0.00941
                       0.99918                      -0.04021                       0.00478
                       0.99715                      -0.07543                       0.00288
                       0.99397                      -0.10950                       0.00547
                       0.98961                      -0.14353                       0.00838
                       0.98525                      -0.17082                       0.01031
                       0.98159                      -0.19063                       0.01163
                       0.97844                      -0.20597                       0.01517
                       0.97726                      -0.21125                       0.01830
        </DataArray>
        <DataArray type="Float32" Name="OrientationY" NumberOfComponents="3" format="ascii">
                       0.14738                      -0.52058                      -0.84100
                       0.14740                      -0.52082                      -0.84084
                       0.14745                      -0.52155                      -0.84039
                       0.14748                      -0.52255                      -0.83975
                       0.14748                      -0.52414                      -0.83877
                       0.11586                      -0.53077                      -0.83956
                       0.09274                      -0.53578                      -0.83925
                       0.07218                      -0.54009                      -0.83851
                       0.05009                      -0.54400                      -0.83759
                       0.02694                      -0.54725                      -0.83654
                       0.00450                      -0.54959                      -0.83542
                      -0.01818                      -0.55091                      -0.83436
                      -0.03928                      -0.55119                      -0.83345
                      -0.05609                      -0.55077                      -0.83277
                      -0.07264                      -0.54946                      -0.83236
                      -0.08624                      -0.54769                      -0.83222
                      -0.09618                      -0.54602                      -0.83223
                      -0.10182                      -0.54495                      -0.83226
                      -0.10221                      -0.54490                      -0.83225
        </DataArray>
        <DataArray type="Float32" Name="OrientationZ" NumberOfComponents="3" format="ascii">
                      -0.09733                       0.83852                      -0.53610
                      -0.09660                       0.83848                      -0.53630
                      -0.09421                       0.83840                      -0.53685
                      -0.09066                       0.83832                      -0.53758
                      -0.08476                       0.83822                      -0.53870
                      -0.07556                       0.83809                      -0.54027
                      -0.06395                       0.83794                      -0.54201
                      -0.04976                       0.83770                      -0.54386
                      -0.03276                       0.83729                      -0.54577
                      -0.01276                       0.83659                      -0.54769
                       0.01028                       0.83541                      -0.54953
                       0.03618                       0.83359                      -0.55119
                       0.06445                       0.83096                      -0.55258
                       0.09420                       0.82744                      -0.55359
                       0.12407                       0.82310                      -0.55418
                       0.14780                       0.81906                      -0.55435
                       0.16500                       0.81579                      -0.55431
                       0.17969                       0.81277                      -0.55418
                       0.18579                       0.81145                      -0.55410
        </DataArray>
        <DataArray type="Float32" Name="Force" NumberOfComponents="3" format="ascii">
                      -0.00015                      -0.00101                      -0.00155
                     387.80169                       0.74326                     -68.69335
                     452.32350                     -37.16958                    -137.50290
                     364.71496                     -66.51625                    -165.44573
                    3731.22873                     777.20185                     625.22482
                    3534.78619                     616.82029                     466.07432
                    3910.36514                     623.34122                     507.25654
                    3961.59622                     619.61088                     598.20017
                    4383.59891                     668.14395                     770.27625
                    4972.27767                     614.03684                     831.68155
                    5511.84214                     554.90726                     957.78305
                    6097.15626                     390.56121                    1002.53725
                    7542.16566                     150.17338                    1118.40914
                    8168.46422                    -122.84575                    1219.86156
                    8612.40442                    -427.41262                    1307.39280
                    8829.16529                    -690.70681                    1347.65066
                    8632.81083                    -859.37095                    1318.52221
                    6255.66665                    -729.00781                     968.95542
                    2451.43716                    -518.77398                      61.78713
        </DataArray>
        <DataArray type="Float32" Name="Moment" NumberOfComponents="3" format="ascii">
                       0.00000                       0.00000                       0.00000
                       0.00000                       0.00000                       0.00000
                       0.00000                       0.00000                       0.00000
                       0.00000                       0.00000                       0.00000
                     184.32822                   -1826.62554                    1170.59653
                     166.20368                   -1849.66141                    1187.39479
                     134.75961                   -1774.24648                    1141.43760
                     106.26009                   -1800.83765                    1161.58281
                      59.18212                   -1528.38044                     988.92761
                      20.37811                   -1370.59261                     890.08677
                     -13.99946                   -1106.79416                     721.80324
                     -48.64549                   -1113.57945                     729.66872
                    -113.89996                   -1464.82606                     964.79026
                    -166.53107                   -1461.61242                     967.93785
                    -217.96634                   -1446.22858                     963.04484
                    -246.76565                   -1368.48278                     915.30721
                    -245.20325                   -1213.67967                     814.39071
                    -131.29790                    -594.75770                     400.19682
                    -126.42773                    -553.05355                     372.56688
        </DataArray>
      </PointData>
      <Lines>
        <DataArray type="Int32" Name="connectivity" format="ascii">
      0      1
      1      2
      2      3
      3      4
      4      5
      5      6
      6      7
      7      8
      8      9
      9     10
     10     11
     11     12
     12     13
     13     14
     14     15
     15     16
     16     17
     17     18
        </DataArray>
        <DataArray type="Int32" Name="offsets" format="ascii">
      2
      4
      6
      8
     10
     12
     14
     16
     18
     20
     22
     24
     26
     28
     30
     32
     34
     36
        </DataArray>
      </Lines>
    </Piece>
  </PolyData>
</VTKFile>
