<?xml version="1.0"?>
<VTKFile type="PolyData" version="0.1" byte_order="LittleEndian">
  <PolyData>
    <Piece NumberOfPoints="      8" NumberOfVerts="  0" NumberOfLines="      0"
           NumberOfStrips="  0" NumberOfPolys="      6">
      <Points>
        <DataArray type="Float32" NumberOfComponents="3" format="ascii">
                      -3.27305                       2.35616                      87.61765
                       3.72688                       2.35618                      87.58739
                       3.72687                      -2.44382                      87.58153
                      -3.27306                      -2.44384                      87.61178
                      -3.25232                      -2.44971                      92.41174
                       3.74762                      -2.44969                      92.38149
                       3.74763                       2.35031                      92.38735
                      -3.25230                       2.35029                      92.41761
        </DataArray>
      </Points>
      <Polys>
        <DataArray type="Int32" Name="connectivity" format="ascii">
      0      1      2      3
      4      5      6      7
      7      6      1      0
      6      5      2      1
      5      4      3      2
      4      7      0      3
        </DataArray>
        <DataArray type="Int32" Name="offsets" format="ascii">
      4
      8
     12
     16
     20
     24
        </DataArray>
      </Polys>
    </Piece>
  </PolyData>
</VTKFile>
