<?xml version="1.0"?>
<VTKFile type="PolyData" version="0.1" byte_order="LittleEndian">
  <PolyData>
    <Piece NumberOfPoints="     19" NumberOfVerts="  0" NumberOfLines="     18"
           NumberOfStrips="  0" NumberOfPolys="      0">
      <Points>
        <DataArray type="Float32" NumberOfComponents="3" format="ascii">
                      -4.78504                      -1.54963                      89.93149
                      -4.85446                      -2.91174                      89.84265
                      -5.04691                      -5.62809                      89.58331
                      -5.26285                      -8.34068                      89.28330
                      -5.54333                     -11.72915                      88.88076
                      -5.76974                     -15.80731                      88.50326
                      -5.91461                     -19.89607                      88.22805
                      -6.04666                     -23.98493                      87.94577
                      -6.16168                     -28.07403                      87.65712
                      -6.26033                     -32.16316                      87.36084
                      -6.34502                     -36.25199                      87.05459
                      -6.41506                     -40.34059                      86.74030
                      -6.47240                     -44.42894                      86.41929
                      -6.51993                     -48.51702                      86.09311
                      -6.55928                     -52.60475                      85.76249
                      -6.58880                     -56.01095                      85.48474
                      -6.60968                     -58.73633                      85.26921
                      -6.61184                     -61.46625                      85.10441
                      -6.63120                     -62.82753                      84.98423
        </DataArray>
      </Points>
      <PointData>
        <DataArray type="Float32" Name="TranslationalVelocity" NumberOfComponents="3" format="ascii">
                      -0.17058                       0.14493                      -1.87536
                      -0.32911                       0.26442                      -3.58379
                      -0.64581                       0.61199                      -6.99011
                      -0.96299                       1.01324                     -10.39067
                      -1.36103                       1.55042                     -14.63659
                      -1.84377                       2.04968                     -19.74320
                      -2.33306                       2.41107                     -24.85854
                      -2.82915                       2.77964                     -29.96877
                      -3.33359                       3.15392                     -35.07345
                      -3.84786                       3.53546                     -40.17182
                      -4.37332                       3.92741                     -45.26304
                      -4.91112                       4.32717                     -50.34697
                      -5.46208                       4.73327                     -55.42348
                      -6.02658                       5.14412                     -60.49264
                      -6.60447                       5.55897                     -65.55465
                      -7.09597                       5.90669                     -69.76782
                      -7.49480                       6.17601                     -73.13618
                      -7.89854                       6.37970                     -76.50809
                      -8.10148                       6.53084                     -78.18870
        </DataArray>
        <DataArray type="Float32" Name="RotationalVelocity" NumberOfComponents="3" format="ascii">
                       1.25431                       0.00017                      -0.11636
                       1.25420                      -0.00011                      -0.11645
                       1.25387                      -0.00050                      -0.11673
                       1.25342                      -0.00070                      -0.11715
                       1.25273                      -0.00077                      -0.11785
                       1.25172                      -0.00070                      -0.11896
                       1.25056                      -0.00052                      -0.12040
                       1.24927                      -0.00031                      -0.12219
                       1.24785                      -0.00006                      -0.12433
                       1.24631                       0.00024                      -0.12682
                       1.24468                       0.00060                      -0.12965
                       1.24297                       0.00104                      -0.13276
                       1.24122                       0.00158                      -0.13606
                       1.23950                       0.00222                      -0.13939
                       1.23790                       0.00291                      -0.14256
                       1.23673                       0.00347                      -0.14491
                       1.23597                       0.00386                      -0.14645
                       1.23544                       0.00414                      -0.14757
                       1.23527                       0.00422                      -0.14792
        </DataArray>
        <DataArray type="Float32" Name="TranslationalAcceleration" NumberOfComponents="3" format="ascii">
                      -0.27585                       2.33424                       0.13587
                      -0.06855                       2.85774                       0.18428
                      -0.14686                       8.16837                       0.66717
                      -0.16870                      13.04660                       1.19508
                      -0.14390                      18.73545                       1.88059
                      -0.08724                      25.21151                       2.50757
                      -0.02809                      31.52415                       2.96392
                       0.02922                      37.80488                       3.44356
                       0.07266                      44.13103                       3.95095
                       0.09695                      50.52618                       4.49065
                       0.10168                      56.97553                       5.06648
                       0.08875                      63.44231                       5.67313
                       0.06147                      69.88240                       6.30583
                       0.02273                      76.26000                       6.95959
                      -0.02649                      82.56295                       7.63118
                      -0.07751                      87.77587                       8.20280
                      -0.12820                      91.94981                       8.65527
                      -0.19791                      96.17510                       9.03272
                      -0.23280                      98.31244                       9.28600
        </DataArray>
        <DataArray type="Float32" Name="OrientationX" NumberOfComponents="3" format="ascii">
                       0.82245                      -0.00511                      -0.56881
                       0.82246                      -0.00476                      -0.56880
                       0.82249                      -0.00369                      -0.56876
                       0.82252                      -0.00216                      -0.56874
                       0.82253                       0.00028                      -0.56872
                       0.84016                       0.00124                      -0.54233
                       0.85223                       0.00342                      -0.52315
                       0.86223                       0.00620                      -0.50648
                       0.87223                       0.00912                      -0.48902
                       0.88189                       0.01208                      -0.47131
                       0.89035                       0.01511                      -0.45503
                       0.89813                       0.01794                      -0.43937
                       0.90454                       0.02051                      -0.42590
                       0.90865                       0.02280                      -0.41693
                       0.91245                       0.02412                      -0.40847
                       0.91556                       0.02424                      -0.40144
                       0.91782                       0.02352                      -0.39631
                       0.91859                       0.02222                      -0.39458
                       0.91814                       0.02136                      -0.39568
        </DataArray>
        <DataArray type="Float32" Name="OrientationY" NumberOfComponents="3" format="ascii">
                       0.56668                      -0.07963                       0.82008
                       0.56668                      -0.07975                       0.82007
                       0.56670                      -0.08004                       0.82003
                       0.56676                      -0.08034                       0.81996
                       0.56688                      -0.08069                       0.81984
                       0.54063                      -0.08111                       0.83734
                       0.52165                      -0.08153                       0.84925
                       0.50523                      -0.08192                       0.85909
                       0.48803                      -0.08231                       0.86894
                       0.47061                      -0.08271                       0.87846
                       0.45462                      -0.08311                       0.88680
                       0.43925                      -0.08355                       0.89447
                       0.42605                      -0.08401                       0.90079
                       0.41730                      -0.08441                       0.90484
                       0.40898                      -0.08485                       0.90859
                       0.40199                      -0.08522                       0.91167
                       0.39681                      -0.08549                       0.91391
                       0.39498                      -0.08565                       0.91469
                       0.39600                      -0.08567                       0.91425
        </DataArray>
        <DataArray type="Float32" Name="OrientationZ" NumberOfComponents="3" format="ascii">
                      -0.04949                      -0.99681                      -0.06259
                      -0.04927                      -0.99680                      -0.06289
                      -0.04855                      -0.99679                      -0.06374
                      -0.04746                      -0.99677                      -0.06486
                      -0.04567                      -0.99674                      -0.06653
                      -0.04295                      -0.99670                      -0.06882
                      -0.03975                      -0.99666                      -0.07127
                      -0.03617                      -0.99662                      -0.07377
                      -0.03233                      -0.99656                      -0.07624
                      -0.02837                      -0.99650                      -0.07863
                      -0.02442                      -0.99643                      -0.08087
                      -0.02067                      -0.99634                      -0.08292
                      -0.01730                      -0.99625                      -0.08473
                      -0.01457                      -0.99617                      -0.08622
                      -0.01274                      -0.99610                      -0.08728
                      -0.01211                      -0.99607                      -0.08777
                      -0.01238                      -0.99606                      -0.08780
                      -0.01348                      -0.99608                      -0.08746
                      -0.01437                      -0.99609                      -0.08712
        </DataArray>
        <DataArray type="Float32" Name="Force" NumberOfComponents="3" format="ascii">
                       1.39134                      -1.01114                      15.00218
                     453.37347                     -27.34708                      78.79305
                     529.03355                     -36.92626                     178.29678
                     437.10850                     -34.35772                     216.36650
                    2157.17297                      24.41295                   -1938.96546
                    2638.62524                      41.65118                   -2426.26428
                    2615.06440                      28.71495                   -2055.41065
                    2753.53680                      24.51772                   -1900.28327
                    2496.83650                      20.13742                   -1524.03724
                    2283.76843                      19.34812                   -1253.52374
                    2452.08223                      23.35444                   -1222.44721
                    2279.72072                      24.89591                   -1042.51479
                    1982.73525                      24.92465                    -846.32326
                    1582.96110                      21.02011                    -621.61915
                    1179.76687                      15.17583                    -420.61063
                     870.43390                       9.72472                    -279.10515
                     614.47810                       5.11055                    -173.15822
                     220.08154                      -0.05121                     -37.45538
                   -5580.42572                     -14.36175                    1264.75569
        </DataArray>
        <DataArray type="Float32" Name="Moment" NumberOfComponents="3" format="ascii">
                       0.00000                       0.00000                       0.00000
                       0.00000                       0.00000                       0.00000
                       0.00000                       0.00000                       0.00000
                       0.00000                       0.00000                       0.00000
                      36.78422                     808.91141                      51.10862
                      47.17093                    1108.33275                      70.32613
                      56.72690                    1449.28435                      92.41979
                      67.48681                    1909.24033                     122.42261
                      74.92458                    2393.56424                     154.37592
                      68.20271                    2512.92261                     163.04399
                      60.26428                    2618.75650                     170.91336
                      50.95941                    2669.23620                     175.17861
                      30.94541                    1986.03625                     130.98755
                      24.39302                    1916.95319                     126.93908
                      19.50032                    1804.17769                     119.79185
                      17.04800                    1681.61187                     111.75843
                      15.35486                    1475.84189                      98.04670
                       8.39366                     728.52485                      48.32363
                      -2.32426                    -186.83149                     -12.37676
        </DataArray>
      </PointData>
      <Lines>
        <DataArray type="Int32" Name="connectivity" format="ascii">
      0      1
      1      2
      2      3
      3      4
      4      5
      5      6
      6      7
      7      8
      8      9
      9     10
     10     11
     11     12
     12     13
     13     14
     14     15
     15     16
     16     17
     17     18
        </DataArray>
        <DataArray type="Int32" Name="offsets" format="ascii">
      2
      4
      6
      8
     10
     12
     14
     16
     18
     20
     22
     24
     26
     28
     30
     32
     34
     36
        </DataArray>
      </Lines>
    </Piece>
  </PolyData>
</VTKFile>
