<?xml version="1.0"?>
<VTKFile type="PolyData" version="0.1" byte_order="LittleEndian">
  <PolyData>
    <Piece NumberOfPoints="    625" NumberOfVerts="  0" NumberOfLines="      0"
           NumberOfStrips="  0" NumberOfPolys="    600">
      <Points>
        <DataArray type="Float32" NumberOfComponents="3" format="ascii">
                      -4.66566                      -1.12593                      91.02598
                      -4.66566                      -1.12593                      91.02598
                      -4.66566                      -1.12593                      91.02598
                      -4.66566                      -1.12593                      91.02598
                      -4.66566                      -1.12593                      91.02598
                      -4.66566                      -1.12593                      91.02598
                      -4.66566                      -1.12593                      91.02598
                      -4.66566                      -1.12593                      91.02598
                      -4.66566                      -1.12593                      91.02598
                      -4.66566                      -1.12593                      91.02598
                      -4.66566                      -1.12593                      91.02598
                      -4.66566                      -1.12593                      91.02598
                      -4.66566                      -1.12593                      91.02598
                      -4.66566                      -1.12593                      91.02598
                      -4.66566                      -1.12593                      91.02598
                      -4.66566                      -1.12593                      91.02598
                      -4.66566                      -1.12593                      91.02598
                      -4.66566                      -1.12593                      91.02598
                      -4.66566                      -1.12593                      91.02598
                      -4.66566                      -1.12593                      91.02598
                      -4.66566                      -1.12593                      91.02598
                      -4.66566                      -1.12593                      91.02598
                      -4.66566                      -1.12593                      91.02598
                      -4.66566                      -1.12593                      91.02598
                      -4.66566                      -1.12593                      91.02598
                      -4.07637                      -1.03345                      90.88744
                      -4.10520                      -1.13378                      90.77935
                      -4.16973                      -1.22781                      90.68149
                      -4.26589                      -1.30963                      90.60002
                      -4.38767                      -1.37410                      90.54005
                      -4.52739                      -1.41716                      90.50535
                      -4.67628                      -1.43612                      90.49809
                      -4.82499                      -1.42977                      90.51874
                      -4.96417                      -1.39853                      90.56600
                      -5.08507                      -1.34435                      90.63690
                      -5.18011                      -1.27063                      90.72699
                      -5.24330                      -1.18201                      90.83059
                      -5.27069                      -1.08406                      90.94121
                      -5.26053                      -0.98293                      91.05189
                      -5.21349                      -0.88497                      91.15568
                      -5.13250                      -0.79635                      91.24606
                      -5.02267                      -0.72263                      91.31734
                      -4.89088                      -0.66843                      91.36506
                      -4.74543                      -0.63718                      91.38620
                      -4.59544                      -0.63082                      91.37945
                      -4.45036                      -0.64976                      91.34522
                      -4.31928                      -0.69282                      91.28568
                      -4.21045                      -0.75728                      91.20455
                      -4.13071                      -0.83909                      91.10693
                      -4.08506                      -0.93312                      90.99897
                      -3.85535                      -0.94098                      90.78268
                      -3.89522                      -1.07976                      90.63318
                      -3.98446                      -1.20981                      90.49783
                      -4.11748                      -1.32298                      90.38515
                      -4.28590                      -1.41215                      90.30220
                      -4.47916                      -1.47171                      90.25420
                      -4.68509                      -1.49793                      90.24417
                      -4.89077                      -1.48915                      90.27273
                      -5.08328                      -1.44594                      90.33810
                      -5.25051                      -1.37099                      90.43616
                      -5.38195                      -1.26903                      90.56076
                      -5.46936                      -1.14646                      90.70405
                      -5.50723                      -1.01098                      90.85706
                      -5.49319                      -0.87111                      91.01014
                      -5.42812                      -0.73563                      91.15370
                      -5.31611                      -0.61305                      91.27870
                      -5.16419                      -0.51108                      91.37730
                      -4.98191                      -0.43612                      91.44329
                      -4.78073                      -0.39289                      91.47254
                      -4.57329                      -0.38410                      91.46320
                      -4.37261                      -0.41030                      91.41586
                      -4.19132                      -0.46985                      91.33349
                      -4.04079                      -0.55900                      91.22128
                      -3.93050                      -0.67216                      91.08627
                      -3.86736                      -0.80221                      90.93694
                      -3.70072                      -0.84852                      90.68402
                      -3.74843                      -1.01458                      90.50513
                      -3.85522                      -1.17020                      90.34317
                      -4.01438                      -1.30561                      90.20833
                      -4.21591                      -1.41231                      90.10908
                      -4.44716                      -1.48358                      90.05164
                      -4.69358                      -1.51495                      90.03964
                      -4.93970                      -1.50445                      90.07382
                      -5.17004                      -1.45274                      90.15203
                      -5.37015                      -1.36307                      90.26937
                      -5.52744                      -1.24106                      90.41846
                      -5.63202                      -1.09440                      90.58993
                      -5.67734                      -0.93228                      90.77301
                      -5.66054                      -0.76491                      90.95619
                      -5.58268                      -0.60279                      91.12797
                      -5.44864                      -0.45612                      91.27755
                      -5.26686                      -0.33410                      91.39553
                      -5.04875                      -0.24441                      91.47449
                      -4.80802                      -0.19268                      91.50949
                      -4.55980                      -0.18216                      91.49831
                      -4.31967                      -0.21351                      91.44167
                      -4.10273                      -0.28477                      91.34311
                      -3.92262                      -0.39145                      91.20884
                      -3.79064                      -0.52685                      91.04729
                      -3.71509                      -0.68247                      90.86860
                      -3.58306                      -0.75606                      90.58874
                      -3.63682                      -0.94318                      90.38716
                      -3.75716                      -1.11855                      90.20466
                      -3.93651                      -1.27114                      90.05271
                      -4.16362                      -1.39138                      89.94086
                      -4.42420                      -1.47169                      89.87614
                      -4.70189                      -1.50704                      89.86261
                      -4.97923                      -1.49521                      89.90113
                      -5.23880                      -1.43694                      89.98927
                      -5.46429                      -1.33589                      90.12149
                      -5.64153                      -1.19840                      90.28950
                      -5.75939                      -1.03313                      90.48272
                      -5.81046                      -0.85045                      90.68903
                      -5.79153                      -0.66184                      90.89545
                      -5.70379                      -0.47916                      91.08902
                      -5.55275                      -0.31387                      91.25758
                      -5.34790                      -0.17637                      91.39052
                      -5.10212                      -0.07530                      91.47951
                      -4.83085                      -0.01701                      91.51895
                      -4.55113                      -0.00516                      91.50635
                      -4.28054                      -0.04049                      91.44252
                      -4.03608                      -0.12078                      91.33146
                      -3.83311                      -0.24100                      91.18015
                      -3.68439                      -0.39358                      90.99810
                      -3.59925                      -0.56894                      90.79675
                      -3.49085                      -0.66360                      90.49581
                      -3.54944                      -0.86751                      90.27613
                      -3.68057                      -1.05862                      90.07726
                      -3.87602                      -1.22490                      89.91167
                      -4.12350                      -1.35592                      89.78979
                      -4.40746                      -1.44344                      89.71926
                      -4.71007                      -1.48197                      89.70452
                      -5.01229                      -1.46907                      89.74649
                      -5.29515                      -1.40557                      89.84254
                      -5.54088                      -1.29545                      89.98663
                      -5.73402                      -1.14563                      90.16971
                      -5.86246                      -0.96553                      90.38027
                      -5.91811                      -0.76646                      90.60509
                      -5.89748                      -0.56093                      90.83003
                      -5.80186                      -0.36185                      91.04097
                      -5.63727                      -0.18174                      91.22465
                      -5.41404                      -0.03190                      91.36953
                      -5.14621                       0.07824                      91.46650
                      -4.85060                       0.14176                      91.50947
                      -4.54578                       0.15468                      91.49575
                      -4.25091                       0.11618                      91.42619
                      -3.98452                       0.02868                      91.30516
                      -3.76334                      -0.10232                      91.14028
                      -3.60127                      -0.26860                      90.94189
                      -3.50850                      -0.45969                      90.72247
                      -3.41819                      -0.57114                      90.40466
                      -3.48065                      -0.78856                      90.17044
                      -3.62048                      -0.99232                      89.95839
                      -3.82887                      -1.16962                      89.78184
                      -4.09274                      -1.30931                      89.65189
                      -4.39551                      -1.40263                      89.57669
                      -4.71815                      -1.44371                      89.56097
                      -5.04039                      -1.42996                      89.60572
                      -5.34199                      -1.36225                      89.70813
                      -5.60399                      -1.24484                      89.86177
                      -5.80992                      -1.08510                      90.05697
                      -5.94686                      -0.89307                      90.28148
                      -6.00620                      -0.68081                      90.52118
                      -5.98420                      -0.46167                      90.76103
                      -5.88225                      -0.24941                      90.98593
                      -5.70676                      -0.05736                      91.18178
                      -5.46875                       0.10239                      91.33625
                      -5.18318                       0.21983                      91.43964
                      -4.86799                       0.28756                      91.48546
                      -4.54299                       0.30133                      91.47083
                      -4.22859                       0.26028                      91.39666
                      -3.94455                       0.16698                      91.26762
                      -3.70872                       0.02731                      91.09182
                      -3.53592                      -0.14998                      90.88029
                      -3.43701                      -0.35373                      90.64634
                      -3.36160                      -0.47868                      90.31499
                      -3.42717                      -0.70690                      90.06913
                      -3.57394                      -0.92079                      89.84655
                      -3.79269                      -1.10690                      89.66123
                      -4.06967                      -1.25353                      89.52481
                      -4.38748                      -1.35149                      89.44587
                      -4.72616                      -1.39461                      89.42938
                      -5.06441                      -1.38018                      89.47635
                      -5.38099                      -1.30910                      89.58385
                      -5.65601                      -1.18586                      89.74512
                      -5.87218                      -1.01818                      89.95002
                      -6.01592                      -0.81661                      90.18569
                      -6.07821                      -0.59380                      90.43730
                      -6.05512                      -0.36377                      90.68906
                      -5.94810                      -0.14096                      90.92515
                      -5.76389                       0.06063                      91.13072
                      -5.51406                       0.22832                      91.29287
                      -5.21429                       0.35159                      91.40140
                      -4.88344                       0.42269                      91.44950
                      -4.54229                       0.43714                      91.43414
                      -4.21227                       0.39405                      91.35628
                      -3.91412                       0.29612                      91.22083
                      -3.66657                       0.14950                      91.03629
                      -3.48518                      -0.03659                      90.81426
                      -3.38135                      -0.25046                      90.56868
                      -3.31888                      -0.38622                      90.22659
                      -3.38688                      -0.62292                      89.97161
                      -3.53910                      -0.84474                      89.74076
                      -3.76597                      -1.03776                      89.54856
                      -4.05323                      -1.18984                      89.40708
                      -4.38285                      -1.29144                      89.32521
                      -4.73409                      -1.33615                      89.30810
                      -5.08491                      -1.32119                      89.35682
                      -5.41324                      -1.24748                      89.46831
                      -5.69847                      -1.11965                      89.63557
                      -5.92267                      -0.94575                      89.84808
                      -6.07175                      -0.73669                      90.09249
                      -6.13634                      -0.50562                      90.35345
                      -6.11239                      -0.26705                      90.61455
                      -6.00141                      -0.03596                      90.85940
                      -5.81036                       0.17311                      91.07261
                      -5.55125                       0.34703                      91.24078
                      -5.24036                       0.47487                      91.35334
                      -4.89722                       0.54861                      91.40322
                      -4.54340                       0.56360                      91.38729
                      -4.20113                       0.51891                      91.30655
                      -3.89191                       0.41734                      91.16607
                      -3.63517                       0.26528                      90.97467
                      -3.44705                       0.07228                      90.74440
                      -3.33936                      -0.14953                      90.48970
                      -3.28857                      -0.29377                      90.13934
                      -3.35841                      -0.53685                      89.87747
                      -3.51473                      -0.76466                      89.64039
                      -3.74772                      -0.96288                      89.44301
                      -4.04274                      -1.11907                      89.29771
                      -4.38125                      -1.22340                      89.21363
                      -4.74197                      -1.26932                      89.19606
                      -5.10225                      -1.25395                      89.24610
                      -5.43944                      -1.17825                      89.36059
                      -5.73236                      -1.04698                      89.53236
                      -5.96261                      -0.86839                      89.75061
                      -6.11571                      -0.65369                      90.00161
                      -6.18205                      -0.41638                      90.26961
                      -6.15746                      -0.17137                      90.53776
                      -6.04348                       0.06594                      90.78922
                      -5.84727                       0.28065                      91.00818
                      -5.58117                       0.45927                      91.18088
                      -5.26189                       0.59056                      91.29648
                      -4.90950                       0.66629                      91.34771
                      -4.54613                       0.68169                      91.33135
                      -4.19462                       0.63579                      91.24842
                      -3.87706                       0.53148                      91.10415
                      -3.61340                       0.37532                      90.90760
                      -3.42020                       0.17711                      90.67111
                      -3.30961                      -0.05069                      90.40954
                      -3.26972                      -0.20131                      90.05313
                      -3.34084                      -0.44885                      89.78646
                      -3.50003                      -0.68084                      89.54503
                      -3.73730                      -0.88270                      89.34402
                      -4.03773                      -1.04175                      89.19606
                      -4.38245                      -1.14800                      89.11044
                      -4.74979                      -1.19477                      89.09254
                      -5.11668                      -1.17912                      89.14350
                      -5.46006                      -1.10203                      89.26010
                      -5.75836                      -0.96835                      89.43502
                      -5.99283                      -0.78648                      89.65727
                      -6.14874                      -0.56784                      89.91288
                      -6.21630                      -0.32618                      90.18580
                      -6.19125                      -0.07667                      90.45887
                      -6.07518                       0.16500                      90.71494
                      -5.87537                       0.38365                      90.93791
                      -5.60439                       0.56554                      91.11379
                      -5.27925                       0.69925                      91.23150
                      -4.92039                       0.77636                      91.28367
                      -4.55036                       0.79204                      91.26701
                      -4.19240                       0.74530                      91.18257
                      -3.86901                       0.63908                      91.03565
                      -3.60051                       0.48005                      90.83549
                      -3.40377                       0.27821                      90.59466
                      -3.29114                       0.04623                      90.32829
                      -3.26171                      -0.10885                      89.96792
                      -3.33359                      -0.35903                      89.69840
                      -3.49448                      -0.59349                      89.45440
                      -3.73428                      -0.79751                      89.25125
                      -4.03791                      -0.95825                      89.10171
                      -4.38630                      -1.06563                      89.01518
                      -4.75756                      -1.11290                      88.99709
                      -5.12836                      -1.09708                      89.04859
                      -5.47540                      -1.01917                      89.16643
                      -5.77687                      -0.88407                      89.34322
                      -6.01384                      -0.70026                      89.56783
                      -6.17142                      -0.47929                      89.82617
                      -6.23969                      -0.23505                      90.10200
                      -6.21438                       0.01712                      90.37798
                      -6.09707                       0.26136                      90.63678
                      -5.89514                       0.48234                      90.86213
                      -5.62126                       0.66617                      91.03988
                      -5.29266                       0.80130                      91.15885
                      -4.92998                       0.87924                      91.21157
                      -4.55600                       0.89509                      91.19474
                      -4.19423                       0.84785                      91.10939
                      -3.86739                       0.74050                      90.96091
                      -3.59603                       0.57977                      90.75862
                      -3.39719                       0.37577                      90.51522
                      -3.28337                       0.14132                      90.24601
                      -3.26421                      -0.01640                      89.88367
                      -3.33633                      -0.26745                      89.61321
                      -3.49779                      -0.50273                      89.36836
                      -3.73842                      -0.70746                      89.16450
                      -4.04311                      -0.86876                      89.01444
                      -4.39272                      -0.97652                      88.92761
                      -4.76527                      -1.02395                      88.90946
                      -5.13736                      -1.00807                      88.96113
                      -5.48562                      -0.92989                      89.07939
                      -5.78815                      -0.79432                      89.25679
                      -6.02594                      -0.60986                      89.48219
                      -6.18407                      -0.38813                      89.74143
                      -6.25258                      -0.14303                      90.01822
                      -6.22718                       0.11001                      90.29516
                      -6.10946                       0.35511                      90.55486
                      -5.90682                       0.57686                      90.78100
                      -5.63199                       0.76133                      90.95937
                      -5.30224                       0.89693                      91.07876
                      -4.93829                       0.97514                      91.13167
                      -4.56301                       0.99105                      91.11477
                      -4.19997                       0.94365                      91.02913
                      -3.87200                       0.83592                      90.88013
                      -3.59969                       0.67463                      90.67713
                      -3.40015                       0.46992                      90.43288
                      -3.28593                       0.23465                      90.16274
                      -3.27709                       0.07606                      89.80037
                      -3.34897                      -0.17412                      89.53086
                      -3.50986                      -0.40858                      89.28686
                      -3.74965                      -0.61260                      89.08371
                      -4.05329                      -0.77334                      88.93417
                      -4.40168                      -0.88072                      88.84764
                      -4.77294                      -0.92799                      88.82955
                      -5.14373                      -0.91217                      88.88105
                      -5.49078                      -0.83426                      88.99889
                      -5.79225                      -0.69915                      89.17567
                      -6.02922                      -0.51534                      89.40029
                      -6.18680                      -0.29438                      89.65863
                      -6.25507                      -0.05014                      89.93445
                      -6.22976                       0.20203                      90.21044
                      -6.11245                       0.44627                      90.46923
                      -5.91052                       0.66726                      90.69459
                      -5.63664                       0.85109                      90.87233
                      -5.30804                       0.98621                      90.99131
                      -4.94536                       1.06415                      91.04403
                      -4.57138                       1.08000                      91.02719
                      -4.20960                       1.03276                      90.94185
                      -3.88277                       0.92541                      90.79337
                      -3.61141                       0.76468                      90.59107
                      -3.41257                       0.56069                      90.34767
                      -3.29874                       0.32623                      90.07847
                      -3.30048                       0.16852                      89.71804
                      -3.37160                      -0.07903                      89.45137
                      -3.53079                      -0.31102                      89.20994
                      -3.76806                      -0.51288                      89.00893
                      -4.06849                      -0.67193                      88.86097
                      -4.41320                      -0.77818                      88.77535
                      -4.78055                      -0.82494                      88.75746
                      -5.14744                      -0.80929                      88.80841
                      -5.49082                      -0.73220                      88.92501
                      -5.78912                      -0.59852                      89.09993
                      -6.02359                      -0.41665                      89.32218
                      -6.17950                      -0.19801                      89.57779
                      -6.24705                       0.04365                      89.85071
                      -6.22201                       0.29315                      90.12378
                      -6.10594                       0.53483                      90.37985
                      -5.90613                       0.75348                      90.60282
                      -5.63515                       0.93537                      90.77870
                      -5.31001                       1.06907                      90.89642
                      -4.95115                       1.14619                      90.94858
                      -4.58112                       1.16187                      90.93192
                      -4.22316                       1.11513                      90.84748
                      -3.89977                       1.00891                      90.70056
                      -3.63127                       0.84988                      90.50040
                      -3.43452                       0.64803                      90.25957
                      -3.32190                       0.41605                      89.99321
                      -3.33471                       0.26097                      89.63670
                      -3.40455                       0.01789                      89.37484
                      -3.56087                      -0.20992                      89.13776
                      -3.79386                      -0.40814                      88.94037
                      -4.08888                      -0.56433                      88.79508
                      -4.42738                      -0.66866                      88.71100
                      -4.78811                      -0.71459                      88.69343
                      -5.14839                      -0.69922                      88.74346
                      -5.48558                      -0.62352                      88.85796
                      -5.77850                      -0.49225                      89.02973
                      -6.00875                      -0.31365                      89.24797
                      -6.16185                      -0.09895                      89.49898
                      -6.22819                       0.13835                      89.76698
                      -6.20359                       0.38336                      90.03513
                      -6.08961                       0.62068                      90.28659
                      -5.89341                       0.83539                      90.50554
                      -5.62731                       1.01400                      90.67825
                      -5.30803                       1.14530                      90.79385
                      -4.95564                       1.22102                      90.84507
                      -4.59227                       1.23642                      90.82871
                      -4.24076                       1.19053                      90.74579
                      -3.92320                       1.08622                      90.60152
                      -3.65954                       0.93005                      90.40497
                      -3.46634                       0.73185                      90.16848
                      -3.35575                       0.50405                      89.90691
                      -3.38039                       0.35342                      89.55642
                      -3.44840                       0.11673                      89.30143
                      -3.60062                      -0.10509                      89.07058
                      -3.82748                      -0.29811                      88.87838
                      -4.11475                      -0.45019                      88.73690
                      -4.44436                      -0.55179                      88.65504
                      -4.79561                      -0.59650                      88.63792
                      -5.14642                      -0.58154                      88.68664
                      -5.47476                      -0.50783                      88.79814
                      -5.75999                      -0.38000                      88.96539
                      -5.98418                      -0.20610                      89.17790
                      -6.13326                       0.00296                      89.42231
                      -6.19786                       0.23403                      89.68327
                      -6.17391                       0.47260                      89.94438
                      -6.06293                       0.70368                      90.18923
                      -5.87187                       0.91275                      90.40243
                      -5.61276                       1.08668                      90.57060
                      -5.30187                       1.21452                      90.68316
                      -4.95874                       1.28826                      90.73304
                      -4.60492                       1.30325                      90.71711
                      -4.26264                       1.25856                      90.63637
                      -3.95342                       1.15699                      90.49589
                      -3.69669                       1.00493                      90.30450
                      -3.50857                       0.81193                      90.07422
                      -3.40088                       0.59012                      89.81953
                      -3.43850                       0.44588                      89.47727
                      -3.50406                       0.21766                      89.23141
                      -3.65083                       0.00377                      89.00883
                      -3.86958                      -0.18233                      88.82351
                      -4.14657                      -0.32897                      88.68709
                      -4.46438                      -0.42693                      88.60816
                      -4.80305                      -0.47005                      88.59166
                      -5.14131                      -0.45561                      88.63863
                      -5.45789                      -0.38454                      88.74613
                      -5.73291                      -0.26130                      88.90740
                      -5.94908                      -0.09362                      89.11230
                      -6.09282                       0.10796                      89.34797
                      -6.15510                       0.33076                      89.59958
                      -6.13201                       0.56079                      89.85134
                      -6.02500                       0.78360                      90.08743
                      -5.84079                       0.98519                      90.29300
                      -5.59095                       1.15288                      90.45515
                      -5.29119                       1.27615                      90.56368
                      -4.96034                       1.34725                      90.61178
                      -4.61918                       1.36170                      90.59642
                      -4.28916                       1.31861                      90.51856
                      -3.99101                       1.22068                      90.38311
                      -3.74347                       1.07406                      90.19857
                      -3.56208                       0.88797                      89.97654
                      -3.45825                       0.67410                      89.73096
                      -3.51047                       0.53833                      89.39940
                      -3.57293                       0.32092                      89.16518
                      -3.71275                       0.11716                      88.95313
                      -3.92115                      -0.06014                      88.77658
                      -4.18502                      -0.19984                      88.64662
                      -4.48779                      -0.29316                      88.57142
                      -4.81043                      -0.33423                      88.55571
                      -5.13267                      -0.32048                      88.60046
                      -5.43426                      -0.25278                      88.70287
                      -5.69626                      -0.13537                      88.85650
                      -5.90220                       0.02437                      89.05171
                      -6.03914                       0.21641                      89.27621
                      -6.09847                       0.42866                      89.51592
                      -6.07648                       0.64780                      89.75576
                      -5.97453                       0.86007                      89.98067
                      -5.79904                       1.05211                      90.17651
                      -5.56103                       1.21187                      90.33098
                      -5.27546                       1.32930                      90.43438
                      -4.96027                       1.39703                      90.48020
                      -4.63526                       1.41080                      90.46556
                      -4.32086                       1.36975                      90.39140
                      -4.03683                       1.27646                      90.26236
                      -3.80100                       1.13678                      90.08655
                      -3.62820                       0.95950                      89.87503
                      -3.52928                       0.75575                      89.64108
                      -3.59851                       0.63079                      89.32300
                      -3.65709                       0.42687                      89.10333
                      -3.78823                       0.23577                      88.90445
                      -3.98368                       0.06949                      88.73887
                      -4.23116                      -0.06153                      88.61698
                      -4.51512                      -0.14906                      88.54645
                      -4.81772                      -0.18758                      88.53171
                      -5.11995                      -0.17469                      88.57369
                      -5.40281                      -0.11119                      88.66973
                      -5.64853                      -0.00107                      88.81383
                      -5.84168                       0.14875                      88.99690
                      -5.97011                       0.32886                      89.20747
                      -6.02576                       0.52793                      89.43228
                      -6.00513                       0.73346                      89.65723
                      -5.90952                       0.93254                      89.86816
                      -5.74493                       1.11265                      90.05184
                      -5.52170                       1.26248                      90.19672
                      -5.25387                       1.37262                      90.29369
                      -4.95826                       1.43615                      90.33666
                      -4.65344                       1.44906                      90.32294
                      -4.35857                       1.41056                      90.25338
                      -4.09218                       1.32306                      90.13236
                      -3.87100                       1.19206                      89.96747
                      -3.70893                       1.02579                      89.76909
                      -3.61616                       0.83470                      89.54967
                      -3.70609                       0.72324                      89.24839
                      -3.75985                       0.53611                      89.04681
                      -3.88019                       0.36075                      88.86431
                      -4.05955                       0.20815                      88.71236
                      -4.28665                       0.08792                      88.60051
                      -4.54723                       0.00761                      88.53579
                      -4.82492                      -0.02775                      88.52226
                      -5.10226                      -0.01591                      88.56078
                      -5.36183                       0.04236                      88.64892
                      -5.58733                       0.14341                      88.78114
                      -5.76457                       0.28089                      88.94915
                      -5.88243                       0.44617                      89.14237
                      -5.93349                       0.62885                      89.34868
                      -5.91456                       0.81746                      89.55510
                      -5.82682                       1.00014                      89.74867
                      -5.67578                       1.16543                      89.91723
                      -5.47094                       1.30292                      90.05017
                      -5.22516                       1.40399                      90.13916
                      -4.95388                       1.46229                      90.17860
                      -4.67416                       1.47414                      90.16600
                      -4.40357                       1.43881                      90.10217
                      -4.15911                       1.35851                      89.99111
                      -3.95615                       1.23830                      89.83980
                      -3.80742                       1.08572                      89.65775
                      -3.72229                       0.91036                      89.45640
                      -3.83913                       0.81569                      89.17612
                      -3.88684                       0.64963                      88.99723
                      -3.99363                       0.49401                      88.83528
                      -4.15280                       0.35860                      88.70044
                      -4.35433                       0.25190                      88.60118
                      -4.58557                       0.18063                      88.54375
                      -4.83199                       0.14926                      88.53174
                      -5.07811                       0.15976                      88.56592
                      -5.30846                       0.21147                      88.64414
                      -5.50856                       0.30114                      88.76148
                      -5.66585                       0.42315                      88.91057
                      -5.77044                       0.56981                      89.08204
                      -5.81576                       0.73193                      89.26512
                      -5.79896                       0.89930                      89.44830
                      -5.72109                       1.06142                      89.62007
                      -5.58706                       1.20809                      89.76965
                      -5.40528                       1.33011                      89.88763
                      -5.18717                       1.41980                      89.96660
                      -4.94644                       1.47153                      90.00159
                      -4.69821                       1.48205                      89.99042
                      -4.45809                       1.45070                      89.93377
                      -4.24115                       1.37944                      89.83522
                      -4.06103                       1.27276                      89.70094
                      -3.92905                       1.13736                      89.53939
                      -3.85351                       0.98174                      89.36071
                      -4.00914                       0.90814                      89.10724
                      -4.04901                       0.76936                      88.95774
                      -4.13826                       0.63931                      88.82240
                      -4.27127                       0.52614                      88.70971
                      -4.43970                       0.43698                      88.62676
                      -4.63295                       0.37741                      88.57876
                      -4.83889                       0.35119                      88.56873
                      -5.04457                       0.35997                      88.59729
                      -5.23707                       0.40319                      88.66266
                      -5.40430                       0.47813                      88.76072
                      -5.53575                       0.58009                      88.88532
                      -5.62315                       0.70266                      89.02862
                      -5.66103                       0.83814                      89.18162
                      -5.64699                       0.97801                      89.33470
                      -5.58192                       1.11350                      89.47826
                      -5.46990                       1.23608                      89.60326
                      -5.31798                       1.33805                      89.70186
                      -5.13571                       1.41300                      89.76785
                      -4.93453                       1.45623                      89.79710
                      -4.72708                       1.46502                      89.78776
                      -4.52641                       1.43882                      89.74042
                      -4.34511                       1.37927                      89.65806
                      -4.19459                       1.29012                      89.54584
                      -4.08429                       1.17696                      89.41083
                      -4.02115                       1.04691                      89.26150
                      -4.24555                       1.00059                      89.04446
                      -4.27437                       0.90025                      88.93637
                      -4.33890                       0.80622                      88.83851
                      -4.43507                       0.72440                      88.75704
                      -4.55684                       0.65994                      88.69707
                      -4.69656                       0.61687                      88.66236
                      -4.84545                       0.59792                      88.65511
                      -4.99416                       0.60426                      88.67576
                      -5.13334                       0.63551                      88.72302
                      -5.25425                       0.68969                      88.79392
                      -5.34928                       0.76341                      88.88400
                      -5.41248                       0.85202                      88.98761
                      -5.43986                       0.94998                      89.09823
                      -5.42971                       1.05111                      89.20891
                      -5.38266                       1.14906                      89.31270
                      -5.30168                       1.23768                      89.40308
                      -5.19184                       1.31141                      89.47436
                      -5.06005                       1.36560                      89.52208
                      -4.91460                       1.39686                      89.54322
                      -4.76462                       1.40321                      89.53647
                      -4.61953                       1.38427                      89.50224
                      -4.48845                       1.34122                      89.44269
                      -4.37962                       1.27676                      89.36156
                      -4.29988                       1.19494                      89.26395
                      -4.25423                       1.10092                      89.15599
                      -4.85021                       1.09302                      89.01546
                      -4.85021                       1.09302                      89.01546
                      -4.85021                       1.09302                      89.01546
                      -4.85021                       1.09302                      89.01546
                      -4.85021                       1.09302                      89.01546
                      -4.85021                       1.09302                      89.01546
                      -4.85021                       1.09302                      89.01546
                      -4.85021                       1.09302                      89.01546
                      -4.85021                       1.09302                      89.01546
                      -4.85021                       1.09302                      89.01546
                      -4.85021                       1.09302                      89.01546
                      -4.85021                       1.09302                      89.01546
                      -4.85021                       1.09302                      89.01546
                      -4.85021                       1.09302                      89.01546
                      -4.85021                       1.09302                      89.01546
                      -4.85021                       1.09302                      89.01546
                      -4.85021                       1.09302                      89.01546
                      -4.85021                       1.09302                      89.01546
                      -4.85021                       1.09302                      89.01546
                      -4.85021                       1.09302                      89.01546
                      -4.85021                       1.09302                      89.01546
                      -4.85021                       1.09302                      89.01546
                      -4.85021                       1.09302                      89.01546
                      -4.85021                       1.09302                      89.01546
                      -4.85021                       1.09302                      89.01546
        </DataArray>
      </Points>
      <Polys>
        <DataArray type="Int32" Name="connectivity" format="ascii">
      0      1     26     25
      1      2     27     26
      2      3     28     27
      3      4     29     28
      4      5     30     29
      5      6     31     30
      6      7     32     31
      7      8     33     32
      8      9     34     33
      9     10     35     34
     10     11     36     35
     11     12     37     36
     12     13     38     37
     13     14     39     38
     14     15     40     39
     15     16     41     40
     16     17     42     41
     17     18     43     42
     18     19     44     43
     19     20     45     44
     20     21     46     45
     21     22     47     46
     22     23     48     47
     23     24     49     48
     24      0     25     49
     25     26     51     50
     26     27     52     51
     27     28     53     52
     28     29     54     53
     29     30     55     54
     30     31     56     55
     31     32     57     56
     32     33     58     57
     33     34     59     58
     34     35     60     59
     35     36     61     60
     36     37     62     61
     37     38     63     62
     38     39     64     63
     39     40     65     64
     40     41     66     65
     41     42     67     66
     42     43     68     67
     43     44     69     68
     44     45     70     69
     45     46     71     70
     46     47     72     71
     47     48     73     72
     48     49     74     73
     49     25     50     74
     50     51     76     75
     51     52     77     76
     52     53     78     77
     53     54     79     78
     54     55     80     79
     55     56     81     80
     56     57     82     81
     57     58     83     82
     58     59     84     83
     59     60     85     84
     60     61     86     85
     61     62     87     86
     62     63     88     87
     63     64     89     88
     64     65     90     89
     65     66     91     90
     66     67     92     91
     67     68     93     92
     68     69     94     93
     69     70     95     94
     70     71     96     95
     71     72     97     96
     72     73     98     97
     73     74     99     98
     74     50     75     99
     75     76    101    100
     76     77    102    101
     77     78    103    102
     78     79    104    103
     79     80    105    104
     80     81    106    105
     81     82    107    106
     82     83    108    107
     83     84    109    108
     84     85    110    109
     85     86    111    110
     86     87    112    111
     87     88    113    112
     88     89    114    113
     89     90    115    114
     90     91    116    115
     91     92    117    116
     92     93    118    117
     93     94    119    118
     94     95    120    119
     95     96    121    120
     96     97    122    121
     97     98    123    122
     98     99    124    123
     99     75    100    124
    100    101    126    125
    101    102    127    126
    102    103    128    127
    103    104    129    128
    104    105    130    129
    105    106    131    130
    106    107    132    131
    107    108    133    132
    108    109    134    133
    109    110    135    134
    110    111    136    135
    111    112    137    136
    112    113    138    137
    113    114    139    138
    114    115    140    139
    115    116    141    140
    116    117    142    141
    117    118    143    142
    118    119    144    143
    119    120    145    144
    120    121    146    145
    121    122    147    146
    122    123    148    147
    123    124    149    148
    124    100    125    149
    125    126    151    150
    126    127    152    151
    127    128    153    152
    128    129    154    153
    129    130    155    154
    130    131    156    155
    131    132    157    156
    132    133    158    157
    133    134    159    158
    134    135    160    159
    135    136    161    160
    136    137    162    161
    137    138    163    162
    138    139    164    163
    139    140    165    164
    140    141    166    165
    141    142    167    166
    142    143    168    167
    143    144    169    168
    144    145    170    169
    145    146    171    170
    146    147    172    171
    147    148    173    172
    148    149    174    173
    149    125    150    174
    150    151    176    175
    151    152    177    176
    152    153    178    177
    153    154    179    178
    154    155    180    179
    155    156    181    180
    156    157    182    181
    157    158    183    182
    158    159    184    183
    159    160    185    184
    160    161    186    185
    161    162    187    186
    162    163    188    187
    163    164    189    188
    164    165    190    189
    165    166    191    190
    166    167    192    191
    167    168    193    192
    168    169    194    193
    169    170    195    194
    170    171    196    195
    171    172    197    196
    172    173    198    197
    173    174    199    198
    174    150    175    199
    175    176    201    200
    176    177    202    201
    177    178    203    202
    178    179    204    203
    179    180    205    204
    180    181    206    205
    181    182    207    206
    182    183    208    207
    183    184    209    208
    184    185    210    209
    185    186    211    210
    186    187    212    211
    187    188    213    212
    188    189    214    213
    189    190    215    214
    190    191    216    215
    191    192    217    216
    192    193    218    217
    193    194    219    218
    194    195    220    219
    195    196    221    220
    196    197    222    221
    197    198    223    222
    198    199    224    223
    199    175    200    224
    200    201    226    225
    201    202    227    226
    202    203    228    227
    203    204    229    228
    204    205    230    229
    205    206    231    230
    206    207    232    231
    207    208    233    232
    208    209    234    233
    209    210    235    234
    210    211    236    235
    211    212    237    236
    212    213    238    237
    213    214    239    238
    214    215    240    239
    215    216    241    240
    216    217    242    241
    217    218    243    242
    218    219    244    243
    219    220    245    244
    220    221    246    245
    221    222    247    246
    222    223    248    247
    223    224    249    248
    224    200    225    249
    225    226    251    250
    226    227    252    251
    227    228    253    252
    228    229    254    253
    229    230    255    254
    230    231    256    255
    231    232    257    256
    232    233    258    257
    233    234    259    258
    234    235    260    259
    235    236    261    260
    236    237    262    261
    237    238    263    262
    238    239    264    263
    239    240    265    264
    240    241    266    265
    241    242    267    266
    242    243    268    267
    243    244    269    268
    244    245    270    269
    245    246    271    270
    246    247    272    271
    247    248    273    272
    248    249    274    273
    249    225    250    274
    250    251    276    275
    251    252    277    276
    252    253    278    277
    253    254    279    278
    254    255    280    279
    255    256    281    280
    256    257    282    281
    257    258    283    282
    258    259    284    283
    259    260    285    284
    260    261    286    285
    261    262    287    286
    262    263    288    287
    263    264    289    288
    264    265    290    289
    265    266    291    290
    266    267    292    291
    267    268    293    292
    268    269    294    293
    269    270    295    294
    270    271    296    295
    271    272    297    296
    272    273    298    297
    273    274    299    298
    274    250    275    299
    275    276    301    300
    276    277    302    301
    277    278    303    302
    278    279    304    303
    279    280    305    304
    280    281    306    305
    281    282    307    306
    282    283    308    307
    283    284    309    308
    284    285    310    309
    285    286    311    310
    286    287    312    311
    287    288    313    312
    288    289    314    313
    289    290    315    314
    290    291    316    315
    291    292    317    316
    292    293    318    317
    293    294    319    318
    294    295    320    319
    295    296    321    320
    296    297    322    321
    297    298    323    322
    298    299    324    323
    299    275    300    324
    300    301    326    325
    301    302    327    326
    302    303    328    327
    303    304    329    328
    304    305    330    329
    305    306    331    330
    306    307    332    331
    307    308    333    332
    308    309    334    333
    309    310    335    334
    310    311    336    335
    311    312    337    336
    312    313    338    337
    313    314    339    338
    314    315    340    339
    315    316    341    340
    316    317    342    341
    317    318    343    342
    318    319    344    343
    319    320    345    344
    320    321    346    345
    321    322    347    346
    322    323    348    347
    323    324    349    348
    324    300    325    349
    325    326    351    350
    326    327    352    351
    327    328    353    352
    328    329    354    353
    329    330    355    354
    330    331    356    355
    331    332    357    356
    332    333    358    357
    333    334    359    358
    334    335    360    359
    335    336    361    360
    336    337    362    361
    337    338    363    362
    338    339    364    363
    339    340    365    364
    340    341    366    365
    341    342    367    366
    342    343    368    367
    343    344    369    368
    344    345    370    369
    345    346    371    370
    346    347    372    371
    347    348    373    372
    348    349    374    373
    349    325    350    374
    350    351    376    375
    351    352    377    376
    352    353    378    377
    353    354    379    378
    354    355    380    379
    355    356    381    380
    356    357    382    381
    357    358    383    382
    358    359    384    383
    359    360    385    384
    360    361    386    385
    361    362    387    386
    362    363    388    387
    363    364    389    388
    364    365    390    389
    365    366    391    390
    366    367    392    391
    367    368    393    392
    368    369    394    393
    369    370    395    394
    370    371    396    395
    371    372    397    396
    372    373    398    397
    373    374    399    398
    374    350    375    399
    375    376    401    400
    376    377    402    401
    377    378    403    402
    378    379    404    403
    379    380    405    404
    380    381    406    405
    381    382    407    406
    382    383    408    407
    383    384    409    408
    384    385    410    409
    385    386    411    410
    386    387    412    411
    387    388    413    412
    388    389    414    413
    389    390    415    414
    390    391    416    415
    391    392    417    416
    392    393    418    417
    393    394    419    418
    394    395    420    419
    395    396    421    420
    396    397    422    421
    397    398    423    422
    398    399    424    423
    399    375    400    424
    400    401    426    425
    401    402    427    426
    402    403    428    427
    403    404    429    428
    404    405    430    429
    405    406    431    430
    406    407    432    431
    407    408    433    432
    408    409    434    433
    409    410    435    434
    410    411    436    435
    411    412    437    436
    412    413    438    437
    413    414    439    438
    414    415    440    439
    415    416    441    440
    416    417    442    441
    417    418    443    442
    418    419    444    443
    419    420    445    444
    420    421    446    445
    421    422    447    446
    422    423    448    447
    423    424    449    448
    424    400    425    449
    425    426    451    450
    426    427    452    451
    427    428    453    452
    428    429    454    453
    429    430    455    454
    430    431    456    455
    431    432    457    456
    432    433    458    457
    433    434    459    458
    434    435    460    459
    435    436    461    460
    436    437    462    461
    437    438    463    462
    438    439    464    463
    439    440    465    464
    440    441    466    465
    441    442    467    466
    442    443    468    467
    443    444    469    468
    444    445    470    469
    445    446    471    470
    446    447    472    471
    447    448    473    472
    448    449    474    473
    449    425    450    474
    450    451    476    475
    451    452    477    476
    452    453    478    477
    453    454    479    478
    454    455    480    479
    455    456    481    480
    456    457    482    481
    457    458    483    482
    458    459    484    483
    459    460    485    484
    460    461    486    485
    461    462    487    486
    462    463    488    487
    463    464    489    488
    464    465    490    489
    465    466    491    490
    466    467    492    491
    467    468    493    492
    468    469    494    493
    469    470    495    494
    470    471    496    495
    471    472    497    496
    472    473    498    497
    473    474    499    498
    474    450    475    499
    475    476    501    500
    476    477    502    501
    477    478    503    502
    478    479    504    503
    479    480    505    504
    480    481    506    505
    481    482    507    506
    482    483    508    507
    483    484    509    508
    484    485    510    509
    485    486    511    510
    486    487    512    511
    487    488    513    512
    488    489    514    513
    489    490    515    514
    490    491    516    515
    491    492    517    516
    492    493    518    517
    493    494    519    518
    494    495    520    519
    495    496    521    520
    496    497    522    521
    497    498    523    522
    498    499    524    523
    499    475    500    524
    500    501    526    525
    501    502    527    526
    502    503    528    527
    503    504    529    528
    504    505    530    529
    505    506    531    530
    506    507    532    531
    507    508    533    532
    508    509    534    533
    509    510    535    534
    510    511    536    535
    511    512    537    536
    512    513    538    537
    513    514    539    538
    514    515    540    539
    515    516    541    540
    516    517    542    541
    517    518    543    542
    518    519    544    543
    519    520    545    544
    520    521    546    545
    521    522    547    546
    522    523    548    547
    523    524    549    548
    524    500    525    549
    525    526    551    550
    526    527    552    551
    527    528    553    552
    528    529    554    553
    529    530    555    554
    530    531    556    555
    531    532    557    556
    532    533    558    557
    533    534    559    558
    534    535    560    559
    535    536    561    560
    536    537    562    561
    537    538    563    562
    538    539    564    563
    539    540    565    564
    540    541    566    565
    541    542    567    566
    542    543    568    567
    543    544    569    568
    544    545    570    569
    545    546    571    570
    546    547    572    571
    547    548    573    572
    548    549    574    573
    549    525    550    574
    550    551    576    575
    551    552    577    576
    552    553    578    577
    553    554    579    578
    554    555    580    579
    555    556    581    580
    556    557    582    581
    557    558    583    582
    558    559    584    583
    559    560    585    584
    560    561    586    585
    561    562    587    586
    562    563    588    587
    563    564    589    588
    564    565    590    589
    565    566    591    590
    566    567    592    591
    567    568    593    592
    568    569    594    593
    569    570    595    594
    570    571    596    595
    571    572    597    596
    572    573    598    597
    573    574    599    598
    574    550    575    599
    575    576    601    600
    576    577    602    601
    577    578    603    602
    578    579    604    603
    579    580    605    604
    580    581    606    605
    581    582    607    606
    582    583    608    607
    583    584    609    608
    584    585    610    609
    585    586    611    610
    586    587    612    611
    587    588    613    612
    588    589    614    613
    589    590    615    614
    590    591    616    615
    591    592    617    616
    592    593    618    617
    593    594    619    618
    594    595    620    619
    595    596    621    620
    596    597    622    621
    597    598    623    622
    598    599    624    623
    599    575    600    624
        </DataArray>
        <DataArray type="Int32" Name="offsets" format="ascii">
      4
      8
     12
     16
     20
     24
     28
     32
     36
     40
     44
     48
     52
     56
     60
     64
     68
     72
     76
     80
     84
     88
     92
     96
    100
    104
    108
    112
    116
    120
    124
    128
    132
    136
    140
    144
    148
    152
    156
    160
    164
    168
    172
    176
    180
    184
    188
    192
    196
    200
    204
    208
    212
    216
    220
    224
    228
    232
    236
    240
    244
    248
    252
    256
    260
    264
    268
    272
    276
    280
    284
    288
    292
    296
    300
    304
    308
    312
    316
    320
    324
    328
    332
    336
    340
    344
    348
    352
    356
    360
    364
    368
    372
    376
    380
    384
    388
    392
    396
    400
    404
    408
    412
    416
    420
    424
    428
    432
    436
    440
    444
    448
    452
    456
    460
    464
    468
    472
    476
    480
    484
    488
    492
    496
    500
    504
    508
    512
    516
    520
    524
    528
    532
    536
    540
    544
    548
    552
    556
    560
    564
    568
    572
    576
    580
    584
    588
    592
    596
    600
    604
    608
    612
    616
    620
    624
    628
    632
    636
    640
    644
    648
    652
    656
    660
    664
    668
    672
    676
    680
    684
    688
    692
    696
    700
    704
    708
    712
    716
    720
    724
    728
    732
    736
    740
    744
    748
    752
    756
    760
    764
    768
    772
    776
    780
    784
    788
    792
    796
    800
    804
    808
    812
    816
    820
    824
    828
    832
    836
    840
    844
    848
    852
    856
    860
    864
    868
    872
    876
    880
    884
    888
    892
    896
    900
    904
    908
    912
    916
    920
    924
    928
    932
    936
    940
    944
    948
    952
    956
    960
    964
    968
    972
    976
    980
    984
    988
    992
    996
   1000
   1004
   1008
   1012
   1016
   1020
   1024
   1028
   1032
   1036
   1040
   1044
   1048
   1052
   1056
   1060
   1064
   1068
   1072
   1076
   1080
   1084
   1088
   1092
   1096
   1100
   1104
   1108
   1112
   1116
   1120
   1124
   1128
   1132
   1136
   1140
   1144
   1148
   1152
   1156
   1160
   1164
   1168
   1172
   1176
   1180
   1184
   1188
   1192
   1196
   1200
   1204
   1208
   1212
   1216
   1220
   1224
   1228
   1232
   1236
   1240
   1244
   1248
   1252
   1256
   1260
   1264
   1268
   1272
   1276
   1280
   1284
   1288
   1292
   1296
   1300
   1304
   1308
   1312
   1316
   1320
   1324
   1328
   1332
   1336
   1340
   1344
   1348
   1352
   1356
   1360
   1364
   1368
   1372
   1376
   1380
   1384
   1388
   1392
   1396
   1400
   1404
   1408
   1412
   1416
   1420
   1424
   1428
   1432
   1436
   1440
   1444
   1448
   1452
   1456
   1460
   1464
   1468
   1472
   1476
   1480
   1484
   1488
   1492
   1496
   1500
   1504
   1508
   1512
   1516
   1520
   1524
   1528
   1532
   1536
   1540
   1544
   1548
   1552
   1556
   1560
   1564
   1568
   1572
   1576
   1580
   1584
   1588
   1592
   1596
   1600
   1604
   1608
   1612
   1616
   1620
   1624
   1628
   1632
   1636
   1640
   1644
   1648
   1652
   1656
   1660
   1664
   1668
   1672
   1676
   1680
   1684
   1688
   1692
   1696
   1700
   1704
   1708
   1712
   1716
   1720
   1724
   1728
   1732
   1736
   1740
   1744
   1748
   1752
   1756
   1760
   1764
   1768
   1772
   1776
   1780
   1784
   1788
   1792
   1796
   1800
   1804
   1808
   1812
   1816
   1820
   1824
   1828
   1832
   1836
   1840
   1844
   1848
   1852
   1856
   1860
   1864
   1868
   1872
   1876
   1880
   1884
   1888
   1892
   1896
   1900
   1904
   1908
   1912
   1916
   1920
   1924
   1928
   1932
   1936
   1940
   1944
   1948
   1952
   1956
   1960
   1964
   1968
   1972
   1976
   1980
   1984
   1988
   1992
   1996
   2000
   2004
   2008
   2012
   2016
   2020
   2024
   2028
   2032
   2036
   2040
   2044
   2048
   2052
   2056
   2060
   2064
   2068
   2072
   2076
   2080
   2084
   2088
   2092
   2096
   2100
   2104
   2108
   2112
   2116
   2120
   2124
   2128
   2132
   2136
   2140
   2144
   2148
   2152
   2156
   2160
   2164
   2168
   2172
   2176
   2180
   2184
   2188
   2192
   2196
   2200
   2204
   2208
   2212
   2216
   2220
   2224
   2228
   2232
   2236
   2240
   2244
   2248
   2252
   2256
   2260
   2264
   2268
   2272
   2276
   2280
   2284
   2288
   2292
   2296
   2300
   2304
   2308
   2312
   2316
   2320
   2324
   2328
   2332
   2336
   2340
   2344
   2348
   2352
   2356
   2360
   2364
   2368
   2372
   2376
   2380
   2384
   2388
   2392
   2396
   2400
        </DataArray>
      </Polys>
    </Piece>
  </PolyData>
</VTKFile>
