<?xml version="1.0"?>
<VTKFile type="PolyData" version="0.1" byte_order="LittleEndian">
  <PolyData>
    <Piece NumberOfPoints="     19" NumberOfVerts="  0" NumberOfLines="     18"
           NumberOfStrips="  0" NumberOfPolys="      0">
      <Points>
        <DataArray type="Float32" NumberOfComponents="3" format="ascii">
                      -4.80064                      -1.46544                      90.55431
                      -4.81751                      -2.74339                      91.03867
                      -4.90427                      -5.32804                      91.93020
                      -5.01403                      -7.92707                      92.78325
                      -5.16114                     -11.18568                      93.82349
                      -5.22701                     -15.05914                      95.17151
                      -5.21042                     -18.89692                      96.61578
                      -5.17907                     -22.73747                      98.05283
                      -5.12831                     -26.58051                      99.48314
                      -5.05831                     -30.42641                     100.90531
                      -4.97103                     -34.27598                     102.31690
                      -4.86540                     -38.12847                     103.71953
                      -4.74309                     -41.98340                     105.11431
                      -4.60682                     -45.84023                     106.50257
                      -4.45823                     -49.69865                     107.88495
                      -4.32800                     -52.91486                     109.03351
                      -4.21932                     -55.48551                     109.95786
                      -4.09079                     -58.03869                     110.92951
                      -4.04410                     -59.32835                     111.37938
        </DataArray>
      </Points>
      <PointData>
        <DataArray type="Float32" Name="TranslationalVelocity" NumberOfComponents="3" format="ascii">
                      -0.16275                      -0.70225                      -1.76738
                      -0.31004                      -1.31152                      -3.37999
                      -0.60865                      -2.42658                      -6.64157
                      -0.90994                      -3.49043                      -9.92148
                      -1.28955                      -4.78611                     -14.03403
                      -1.74425                      -6.47950                     -18.92264
                      -2.19969                      -8.30390                     -23.76593
                      -2.66171                     -10.12070                     -28.61191
                      -3.13171                     -11.93095                     -33.45957
                      -3.61116                     -13.73272                     -38.30871
                      -4.10152                     -15.52255                     -43.15962
                      -4.60385                     -17.30253                     -48.01073
                      -5.11901                     -19.07373                     -52.86087
                      -5.64745                     -20.83742                     -57.70895
                      -6.18922                     -22.59423                     -62.55435
                      -6.65074                     -24.05397                     -66.58962
                      -7.02540                     -25.22884                     -69.81274
                      -7.40249                     -26.46558                     -73.01208
                      -7.59434                     -27.03623                     -74.62760
        </DataArray>
        <DataArray type="Float32" Name="RotationalVelocity" NumberOfComponents="3" format="ascii">
                       1.26181                       0.00033                      -0.11536
                       1.26184                       0.00019                      -0.11540
                       1.26191                      -0.00005                      -0.11561
                       1.26196                      -0.00026                      -0.11597
                       1.26200                      -0.00050                      -0.11659
                       1.26198                      -0.00079                      -0.11761
                       1.26186                      -0.00110                      -0.11892
                       1.26159                      -0.00147                      -0.12053
                       1.26117                      -0.00188                      -0.12247
                       1.26056                      -0.00235                      -0.12476
                       1.25978                      -0.00285                      -0.12740
                       1.25883                      -0.00338                      -0.13035
                       1.25774                      -0.00390                      -0.13353
                       1.25656                      -0.00439                      -0.13683
                       1.25538                      -0.00482                      -0.14006
                       1.25446                      -0.00511                      -0.14251
                       1.25382                      -0.00529                      -0.14417
                       1.25333                      -0.00541                      -0.14542
                       1.25315                      -0.00544                      -0.14586
        </DataArray>
        <DataArray type="Float32" Name="TranslationalAcceleration" NumberOfComponents="3" format="ascii">
                      -0.11251                       2.21242                      -0.85221
                      -0.10471                       2.71302                      -1.01850
                      -0.28332                       7.81575                      -2.77993
                      -0.43516                      12.54112                      -4.31913
                      -0.60095                      18.08651                      -6.04913
                      -0.79914                      24.34516                      -8.16048
                      -1.00703                      30.39173                     -10.36496
                      -1.21675                      36.42793                     -12.54033
                      -1.43380                      42.52651                     -14.71503
                      -1.66077                      48.71062                     -16.89444
                      -1.89813                      54.96752                     -19.06824
                      -2.14572                      61.26025                     -21.22513
                      -2.40247                      67.54510                     -23.35029
                      -2.66717                      73.78578                     -25.43269
                      -2.93884                      79.96842                     -27.46975
                      -3.17051                      85.09073                     -29.14155
                      -3.36067                      89.19023                     -30.48624
                      -3.56299                      93.30538                     -31.92372
                      -3.65943                      95.41279                     -32.59337
        </DataArray>
        <DataArray type="Float32" Name="OrientationX" NumberOfComponents="3" format="ascii">
                       0.82658                      -0.20925                      -0.52247
                       0.82658                      -0.20890                      -0.52261
                       0.82657                      -0.20784                      -0.52305
                       0.82654                      -0.20632                      -0.52370
                       0.82646                      -0.20391                      -0.52476
                       0.84384                      -0.19113                      -0.50141
                       0.85566                      -0.18033                      -0.48510
                       0.86542                      -0.17001                      -0.47133
                       0.87516                      -0.15912                      -0.45692
                       0.88456                      -0.14797                      -0.44234
                       0.89277                      -0.13729                      -0.42909
                       0.90031                      -0.12695                      -0.41632
                       0.90651                      -0.11773                      -0.40544
                       0.91047                      -0.11068                      -0.39850
                       0.91415                      -0.10475                      -0.39161
                       0.91721                      -0.10080                      -0.38545
                       0.91946                      -0.09870                      -0.38060
                       0.92029                      -0.09873                      -0.37857
                       0.91989                      -0.09985                      -0.37924
        </DataArray>
        <DataArray type="Float32" Name="OrientationY" NumberOfComponents="3" format="ascii">
                       0.56271                       0.28903                       0.77448
                       0.56271                       0.28892                       0.77452
                       0.56274                       0.28866                       0.77459
                       0.56281                       0.28838                       0.77465
                       0.56295                       0.28806                       0.77467
                       0.53659                       0.29398                       0.79098
                       0.51753                       0.29787                       0.80214
                       0.50104                       0.30102                       0.81138
                       0.48377                       0.30415                       0.82065
                       0.46625                       0.30712                       0.82963
                       0.45016                       0.30963                       0.83755
                       0.43466                       0.31184                       0.84488
                       0.42133                       0.31355                       0.85098
                       0.41244                       0.31453                       0.85496
                       0.40399                       0.31536                       0.85869
                       0.39688                       0.31599                       0.86176
                       0.39162                       0.31644                       0.86400
                       0.38972                       0.31654                       0.86483
                       0.39072                       0.31639                       0.86443
        </DataArray>
        <DataArray type="Float32" Name="OrientationZ" NumberOfComponents="3" format="ascii">
                      -0.01105                      -0.93417                       0.35665
                      -0.01081                      -0.93428                       0.35636
                      -0.01001                      -0.93460                       0.35556
                      -0.00880                      -0.93502                       0.35448
                      -0.00680                      -0.93565                       0.35286
                      -0.00377                      -0.93651                       0.35063
                      -0.00015                      -0.93742                       0.34821
                       0.00394                      -0.93834                       0.34569
                       0.00839                      -0.93924                       0.34316
                       0.01309                      -0.94010                       0.34066
                       0.01787                      -0.94089                       0.33823
                       0.02257                      -0.94161                       0.33594
                       0.02694                      -0.94225                       0.33384
                       0.03071                      -0.94277                       0.33202
                       0.03355                      -0.94317                       0.33060
                       0.03493                      -0.94339                       0.32984
                       0.03516                      -0.94346                       0.32960
                       0.03444                      -0.94343                       0.32978
                       0.03367                      -0.94336                       0.33005
        </DataArray>
        <DataArray type="Float32" Name="Force" NumberOfComponents="3" format="ascii">
                       1.20524                       5.01958                      13.18515
                     456.46208                      24.39900                      77.71682
                     534.09144                      60.12525                     172.38282
                     441.81927                      75.17418                     207.70919
                    2200.71143                    -696.08616                   -1785.31009
                    2726.21733                    -890.64004                   -2312.43014
                    2780.19958                    -773.30441                   -2035.73932
                    2956.32991                    -709.21580                   -1905.37537
                    2706.96676                    -561.38481                   -1550.47706
                    2519.54077                    -456.54600                   -1305.73031
                    2715.76660                    -431.15514                   -1286.42386
                    2568.18245                    -360.41479                   -1128.29880
                    2308.98416                    -289.68428                    -954.28583
                    1929.29782                    -212.61370                    -741.55606
                    1555.05132                    -150.48903                    -555.75906
                    1256.38045                    -107.97663                    -418.23492
                     984.25051                     -75.90194                    -305.33061
                     452.19560                     -27.60018                    -120.03483
                   -5701.70394                     251.40105                    1244.36155
        </DataArray>
        <DataArray type="Float32" Name="Moment" NumberOfComponents="3" format="ascii">
                       0.00000                       0.00000                       0.00000
                       0.00000                       0.00000                       0.00000
                       0.00000                       0.00000                       0.00000
                       0.00000                       0.00000                       0.00000
                       5.40949                     778.79528                    -296.98139
                       3.37737                     963.31374                    -367.04172
                      -0.76626                    1336.72529                    -508.82052
                      -9.31355                    1804.26407                    -686.03097
                     -23.09499                    2277.99333                    -865.11969
                     -36.94205                    2404.40821                    -911.98002
                     -51.88254                    2509.17502                    -950.49899
                     -66.32595                    2563.04162                    -969.68573
                     -59.23136                    1928.10167                    -728.61296
                     -64.62601                    1851.79882                    -699.07139
                     -66.60344                    1750.83588                    -660.45410
                     -64.70786                    1634.71981                    -616.42205
                     -57.25481                    1436.66342                    -541.70336
                     -27.83591                     712.42171                    -268.67410
                       6.95180                    -181.83971                      68.59082
        </DataArray>
      </PointData>
      <Lines>
        <DataArray type="Int32" Name="connectivity" format="ascii">
      0      1
      1      2
      2      3
      3      4
      4      5
      5      6
      6      7
      7      8
      8      9
      9     10
     10     11
     11     12
     12     13
     13     14
     14     15
     15     16
     16     17
     17     18
        </DataArray>
        <DataArray type="Int32" Name="offsets" format="ascii">
      2
      4
      6
      8
     10
     12
     14
     16
     18
     20
     22
     24
     26
     28
     30
     32
     34
     36
        </DataArray>
      </Lines>
    </Piece>
  </PolyData>
</VTKFile>
