<?xml version="1.0"?>
<VTKFile type="PolyData" version="0.1" byte_order="LittleEndian">
  <PolyData>
    <Piece NumberOfPoints="     19" NumberOfVerts="  0" NumberOfLines="     18"
           NumberOfStrips="  0" NumberOfPolys="      0">
      <Points>
        <DataArray type="Float32" NumberOfComponents="3" format="ascii">
                      -4.75745                      -1.22343                      90.98818
                      -4.73808                      -2.26885                      91.86841
                      -4.75090                      -4.41384                      93.56592
                      -4.78576                      -6.58571                      95.23217
                      -4.83829                      -9.31860                      97.29400
                      -4.79143                     -12.52659                      99.84988
                      -4.66246                     -15.66620                     102.48465
                      -4.51702                     -18.81008                     105.11367
                      -4.35013                     -21.95774                     107.73711
                      -4.16165                     -25.11011                     110.35361
                      -3.95319                     -28.26892                     112.96095
                      -3.72346                     -31.43299                     115.56025
                      -3.47397                     -34.60167                     118.15222
                      -3.20735                     -37.77416                     120.73784
                      -2.92524                     -40.95007                     123.31752
                      -2.68136                     -43.59868                     125.46358
                      -2.48051                     -45.71357                     127.18442
                      -2.25956                     -47.79576                     128.94363
                      -2.16562                     -48.86174                     129.79364
        </DataArray>
      </Points>
      <PointData>
        <DataArray type="Float32" Name="TranslationalVelocity" NumberOfComponents="3" format="ascii">
                      -0.12600                      -1.18520                      -1.44485
                      -0.24656                      -2.29877                      -2.76473
                      -0.49457                      -4.44095                      -5.47342
                      -0.74658                      -6.54173                      -8.21695
                      -1.06513                      -9.14108                     -11.67065
                      -1.44149                     -12.37785                     -15.72700
                      -1.81321                     -15.72577                     -19.69896
                      -2.18980                     -19.07002                     -23.67800
                      -2.57218                     -22.41111                     -27.66294
                      -2.96146                     -25.74693                     -31.65433
                      -3.35885                     -29.07405                     -35.65367
                      -3.76513                     -32.39360                     -39.65877
                      -4.18100                     -35.70587                     -43.66814
                      -4.60698                     -39.01145                     -47.68022
                      -5.04337                     -42.31040                     -51.69404
                      -5.41516                     -45.05510                     -55.03927
                      -5.71688                     -47.25611                     -57.70901
                      -6.01858                     -49.50791                     -60.33612
                      -6.17412                     -50.59406                     -61.68081
        </DataArray>
        <DataArray type="Float32" Name="RotationalVelocity" NumberOfComponents="3" format="ascii">
                       1.26239                       0.00031                      -0.11556
                       1.26252                       0.00041                      -0.11574
                       1.26286                       0.00048                      -0.11609
                       1.26327                       0.00043                      -0.11645
                       1.26384                       0.00025                      -0.11695
                       1.26453                      -0.00007                      -0.11765
                       1.26514                      -0.00047                      -0.11852
                       1.26563                      -0.00092                      -0.11960
                       1.26594                      -0.00143                      -0.12094
                       1.26604                      -0.00201                      -0.12254
                       1.26594                      -0.00267                      -0.12441
                       1.26564                      -0.00344                      -0.12651
                       1.26515                      -0.00432                      -0.12879
                       1.26453                      -0.00529                      -0.13117
                       1.26383                      -0.00630                      -0.13352
                       1.26323                      -0.00713                      -0.13536
                       1.26278                      -0.00773                      -0.13665
                       1.26237                      -0.00823                      -0.13773
                       1.26220                      -0.00841                      -0.13816
        </DataArray>
        <DataArray type="Float32" Name="TranslationalAcceleration" NumberOfComponents="3" format="ascii">
                      -0.16188                       1.87207                      -1.54353
                      -0.17716                       2.23783                      -1.86643
                      -0.49726                       6.48980                      -5.23287
                      -0.78588                      10.44889                      -8.26612
                      -1.11760                      15.11121                     -11.75944
                      -1.50686                      20.31005                     -15.86194
                      -1.90739                      25.27406                     -19.98930
                      -2.31960                      30.24010                     -24.09347
                      -2.74886                      35.26831                     -28.22704
                      -3.19549                      40.37767                     -32.40464
                      -3.65686                      45.55738                     -36.61393
                      -4.12971                      50.77343                     -40.83312
                      -4.61110                      55.98681                     -45.03415
                      -5.09991                      61.16498                     -49.19427
                      -5.59794                      66.29504                     -53.30535
                      -6.02417                      70.54476                     -56.70572
                      -6.37697                      73.94084                     -59.43790
                      -6.74748                      77.31735                     -62.26640
                      -6.93568                      79.07142                     -63.65164
        </DataArray>
        <DataArray type="Float32" Name="OrientationX" NumberOfComponents="3" format="ascii">
                       0.83527                      -0.34523                      -0.42795
                       0.83526                      -0.34494                      -0.42819
                       0.83522                      -0.34406                      -0.42898
                       0.83516                      -0.34280                      -0.43012
                       0.83502                      -0.34080                      -0.43196
                       0.85189                      -0.32031                      -0.41434
                       0.86332                      -0.30414                      -0.40271
                       0.87271                      -0.28923                      -0.39335
                       0.88206                      -0.27349                      -0.38363
                       0.89107                      -0.25736                      -0.37385
                       0.89890                      -0.24206                      -0.36522
                       0.90607                      -0.22719                      -0.35697
                       0.91193                      -0.21397                      -0.35014
                       0.91564                      -0.20415                      -0.34631
                       0.91910                      -0.19543                      -0.34214
                       0.92200                      -0.18900                      -0.33793
                       0.92416                      -0.18495                      -0.33424
                       0.92500                      -0.18399                      -0.33245
                       0.92465                      -0.18518                      -0.33276
        </DataArray>
        <DataArray type="Float32" Name="OrientationY" NumberOfComponents="3" format="ascii">
                       0.54962                       0.54605                       0.63225
                       0.54963                       0.54599                       0.63230
                       0.54966                       0.54585                       0.63239
                       0.54972                       0.54571                       0.63246
                       0.54985                       0.54557                       0.63247
                       0.52319                       0.55596                       0.64590
                       0.50391                       0.56295                       0.65510
                       0.48719                       0.56870                       0.66274
                       0.46968                       0.57439                       0.67043
                       0.45190                       0.57981                       0.67794
                       0.43555                       0.58448                       0.68460
                       0.41978                       0.58866                       0.69085
                       0.40618                       0.59199                       0.69611
                       0.39705                       0.59406                       0.69960
                       0.38837                       0.59589                       0.70291
                       0.38109                       0.59732                       0.70568
                       0.37570                       0.59833                       0.70770
                       0.37371                       0.59866                       0.70848
                       0.37469                       0.59843                       0.70816
        </DataArray>
        <DataArray type="Float32" Name="OrientationZ" NumberOfComponents="3" format="ascii">
                       0.01541                      -0.76331                       0.64585
                       0.01568                      -0.76349                       0.64563
                       0.01658                      -0.76398                       0.64502
                       0.01791                      -0.76465                       0.64420
                       0.02012                      -0.76564                       0.64295
                       0.02347                      -0.76701                       0.64120
                       0.02747                      -0.76849                       0.63927
                       0.03201                      -0.77002                       0.63722
                       0.03699                      -0.77154                       0.63510
                       0.04229                      -0.77303                       0.63295
                       0.04775                      -0.77446                       0.63082
                       0.05318                      -0.77580                       0.62873
                       0.05834                      -0.77702                       0.62676
                       0.06291                      -0.77808                       0.62501
                       0.06651                      -0.77892                       0.62358
                       0.06847                      -0.77941                       0.62276
                       0.06910                      -0.77961                       0.62245
                       0.06867                      -0.77959                       0.62252
                       0.06800                      -0.77948                       0.62272
        </DataArray>
        <DataArray type="Float32" Name="Force" NumberOfComponents="3" format="ascii">
                       0.80405                       7.46419                       8.80257
                     455.05125                      57.45269                      56.84318
                     531.49623                     123.94336                     132.81178
                     439.03147                     148.05289                     162.77290
                    2269.50207                   -1193.68730                   -1483.34089
                    2823.89972                   -1570.02325                   -1962.12155
                    2946.82645                   -1407.54227                   -1794.39722
                    3150.20747                   -1297.40421                   -1696.88273
                    2900.32229                   -1036.17540                   -1398.83171
                    2732.30611                    -858.44397                   -1202.27451
                    2941.45093                    -816.93615                   -1193.65405
                    2811.32160                    -695.61565                   -1064.89395
                    2571.33201                    -581.08648                    -930.31037
                    2200.25351                    -443.27134                    -748.45651
                    1825.64044                    -328.78017                    -585.42330
                    1535.44604                    -251.41586                    -467.45160
                    1245.15365                    -186.72563                    -359.92451
                     634.73923                     -82.31646                    -167.71174
                   -5727.59248                     433.22388                    1138.42939
        </DataArray>
        <DataArray type="Float32" Name="Moment" NumberOfComponents="3" format="ascii">
                       0.00000                       0.00000                       0.00000
                       0.00000                       0.00000                       0.00000
                       0.00000                       0.00000                       0.00000
                       0.00000                       0.00000                       0.00000
                     -17.82164                     668.44805                    -565.18647
                     -23.02207                     737.32490                    -623.11596
                     -39.07236                    1065.91863                    -900.28282
                     -63.15367                    1475.40281                   -1245.30761
                     -92.27978                    1863.22829                   -1571.50599
                    -111.76618                    1972.61614                   -1662.48211
                    -131.67962                    2057.50726                   -1732.64707
                    -150.05347                    2104.69250                   -1770.97975
                    -125.08857                    1599.19669                   -1344.62204
                    -128.94122                    1528.41692                   -1284.25203
                    -128.94533                    1445.43885                   -1213.88992
                    -124.31274                    1353.34024                   -1136.21753
                    -110.25356                    1189.34850                    -998.44400
                     -54.37995                     590.19537                    -495.49233
                      12.68990                    -139.07204                     116.76780
        </DataArray>
      </PointData>
      <Lines>
        <DataArray type="Int32" Name="connectivity" format="ascii">
      0      1
      1      2
      2      3
      3      4
      4      5
      5      6
      6      7
      7      8
      8      9
      9     10
     10     11
     11     12
     12     13
     13     14
     14     15
     15     16
     16     17
     17     18
        </DataArray>
        <DataArray type="Int32" Name="offsets" format="ascii">
      2
      4
      6
      8
     10
     12
     14
     16
     18
     20
     22
     24
     26
     28
     30
     32
     34
     36
        </DataArray>
      </Lines>
    </Piece>
  </PolyData>
</VTKFile>
