<?xml version="1.0"?>
<VTKFile type="PolyData" version="0.1" byte_order="LittleEndian">
  <PolyData>
    <Piece NumberOfPoints="     19" NumberOfVerts="  0" NumberOfLines="     18"
           NumberOfStrips="  0" NumberOfPolys="      0">
      <Points>
        <DataArray type="Float32" NumberOfComponents="3" format="ascii">
                      -4.71703                      -0.30939                      91.49688
                      -4.65531                      -0.53709                      92.84313
                      -4.57858                      -1.07680                      95.52370
                      -4.52134                      -1.65757                      98.19844
                      -4.45679                      -2.40994                     101.53806
                      -4.27498                      -3.19695                     105.55998
                      -4.01613                      -3.87365                     109.59650
                      -3.73938                      -4.55402                     113.63131
                      -3.43959                      -5.23753                     117.66405
                      -3.11630                      -5.92609                     121.69418
                      -2.77074                      -6.62294                     125.72107
                      -2.40154                      -7.32679                     129.74469
                      -2.01007                      -8.03716                     133.76511
                      -1.59892                      -8.75329                     137.78255
                      -1.16968                      -9.47493                     141.79702
                      -0.80123                     -10.07977                     145.14049
                      -0.50003                     -10.55772                     147.81541
                      -0.18081                     -10.98468                     150.49773
                      -0.03512                     -11.23724                     151.83284
        </DataArray>
      </Points>
      <PointData>
        <DataArray type="Float32" Name="TranslationalVelocity" NumberOfComponents="3" format="ascii">
                      -0.02795                      -1.87441                      -0.31046
                      -0.05386                      -3.58064                      -0.59785
                      -0.11551                      -6.97400                      -1.27931
                      -0.18202                     -10.35970                      -2.01312
                      -0.26840                     -14.58939                      -2.96462
                      -0.35884                     -19.70019                      -3.96122
                      -0.43645                     -24.84411                      -4.81928
                      -0.51415                     -29.99374                      -5.68292
                      -0.59151                     -35.14898                      -6.55146
                      -0.66836                     -40.30880                      -7.42731
                      -0.74468                     -45.47179                      -8.31457
                      -0.81992                     -50.63753                      -9.21160
                      -0.89366                     -55.80538                     -10.11775
                      -0.96550                     -60.97486                     -11.03205
                      -1.03519                     -66.14541                     -11.95417
                      -1.09139                     -70.45499                     -12.72766
                      -1.13420                     -73.90480                     -13.33930
                      -1.16959                     -77.36735                     -13.88635
                      -1.19154                     -79.08971                     -14.20980
        </DataArray>
        <DataArray type="Float32" Name="RotationalVelocity" NumberOfComponents="3" format="ascii">
                       1.26188                       0.00027                      -0.11530
                       1.26211                       0.00026                      -0.11536
                       1.26271                       0.00025                      -0.11549
                       1.26346                       0.00024                      -0.11561
                       1.26454                       0.00024                      -0.11580
                       1.26594                       0.00030                      -0.11609
                       1.26733                       0.00042                      -0.11645
                       1.26867                       0.00064                      -0.11689
                       1.26991                       0.00095                      -0.11738
                       1.27103                       0.00137                      -0.11791
                       1.27203                       0.00188                      -0.11843
                       1.27293                       0.00249                      -0.11892
                       1.27374                       0.00317                      -0.11934
                       1.27448                       0.00390                      -0.11966
                       1.27513                       0.00464                      -0.11987
                       1.27560                       0.00523                      -0.11996
                       1.27591                       0.00567                      -0.11998
                       1.27615                       0.00605                      -0.11996
                       1.27624                       0.00622                      -0.11995
        </DataArray>
        <DataArray type="Float32" Name="TranslationalAcceleration" NumberOfComponents="3" format="ascii">
                      -0.20167                       0.37946                      -2.36529
                      -0.25700                       0.47417                      -2.85938
                      -0.73727                       1.49669                      -8.15933
                      -1.18111                       2.51943                     -13.02237
                      -1.69984                       3.77891                     -18.69654
                      -2.29154                       5.04917                     -25.19128
                      -2.87236                       6.11953                     -31.56335
                      -3.45805                       7.20025                     -37.92891
                      -4.06157                       8.30489                     -44.36592
                      -4.69234                       9.44271                     -50.89671
                      -5.35735                      10.61926                     -57.50376
                      -6.06232                      11.82934                     -64.14721
                      -6.81254                      13.06805                     -70.77913
                      -7.61377                      14.33151                     -77.35968
                      -8.47303                      15.62038                     -83.87252
                      -9.24110                      16.71797                     -89.26313
                      -9.89237                      17.60279                     -93.58072
                     -10.58112                      18.42574                     -97.95693
                     -10.94055                      18.91233                    -100.16425
        </DataArray>
        <DataArray type="Float32" Name="OrientationX" NumberOfComponents="3" format="ascii">
                       0.86332                      -0.48965                      -0.12215
                       0.86330                      -0.48959                      -0.12250
                       0.86324                      -0.48943                      -0.12358
                       0.86314                      -0.48921                      -0.12516
                       0.86297                      -0.48885                      -0.12773
                       0.87826                      -0.46080                      -0.12774
                       0.88853                      -0.44016                      -0.12949
                       0.89690                      -0.42202                      -0.13218
                       0.90518                      -0.40294                      -0.13523
                       0.91308                      -0.38350                      -0.13859
                       0.91988                      -0.36545                      -0.14236
                       0.92603                      -0.34797                      -0.14622
                       0.93099                      -0.33274                      -0.15014
                       0.93405                      -0.32215                      -0.15414
                       0.93691                      -0.31222                      -0.15719
                       0.93933                      -0.30413                      -0.15860
                       0.94117                      -0.29834                      -0.15874
                       0.94192                      -0.29623                      -0.15824
                       0.94166                      -0.29729                      -0.15778
        </DataArray>
        <DataArray type="Float32" Name="OrientationY" NumberOfComponents="3" format="ascii">
                       0.50253                       0.85631                       0.11916
                       0.50253                       0.85631                       0.11914
                       0.50255                       0.85632                       0.11903
                       0.50258                       0.85633                       0.11884
                       0.50263                       0.85634                       0.11848
                       0.47499                       0.87150                       0.12199
                       0.45494                       0.88180                       0.12433
                       0.43752                       0.89030                       0.12625
                       0.41925                       0.89876                       0.12833
                       0.40070                       0.90687                       0.13052
                       0.38361                       0.91393                       0.13260
                       0.36712                       0.92037                       0.13473
                       0.35287                       0.92564                       0.13668
                       0.34321                       0.92906                       0.13805
                       0.33404                       0.93218                       0.13948
                       0.32640                       0.93469                       0.14076
                       0.32076                       0.93649                       0.14175
                       0.31862                       0.93716                       0.14216
                       0.31957                       0.93686                       0.14203
        </DataArray>
        <DataArray type="Float32" Name="OrientationZ" NumberOfComponents="3" format="ascii">
                       0.04625                      -0.16426                       0.98533
                       0.04656                      -0.16441                       0.98529
                       0.04757                      -0.16486                       0.98517
                       0.04904                      -0.16548                       0.98499
                       0.05146                      -0.16644                       0.98471
                       0.05511                      -0.16782                       0.98428
                       0.05946                      -0.16938                       0.98376
                       0.06440                      -0.17107                       0.98315
                       0.06983                      -0.17286                       0.98247
                       0.07563                      -0.17471                       0.98171
                       0.08165                      -0.17658                       0.98089
                       0.08769                      -0.17844                       0.98003
                       0.09350                      -0.18023                       0.97917
                       0.09874                      -0.18185                       0.97836
                       0.10298                      -0.18319                       0.97767
                       0.10543                      -0.18399                       0.97726
                       0.10637                      -0.18433                       0.97709
                       0.10618                      -0.18432                       0.97711
                       0.10559                      -0.18416                       0.97721
        </DataArray>
        <DataArray type="Float32" Name="Force" NumberOfComponents="3" format="ascii">
                       0.07766                       5.16744                       0.85781
                     447.32328                      82.98127                      -7.30598
                     515.88158                     181.72181                       5.38836
                     421.51359                     217.68427                      15.30814
                    2423.81086                   -1775.76709                    -422.87961
                    2897.86552                   -2307.11930                    -547.24576
                    3268.14523                   -2298.97650                    -581.35013
                    3492.43003                   -2117.17102                    -582.41900
                    3226.39163                   -1708.79326                    -514.90974
                    3077.78359                   -1445.51877                    -478.82244
                    3286.93949                   -1379.42602                    -504.36921
                    3165.10563                   -1199.33105                    -483.91190
                    2937.61376                   -1013.85438                    -450.20424
                    2547.95368                    -810.21506                    -392.76301
                    2148.25464                    -622.63340                    -330.49962
                    1826.56722                    -488.81094                    -278.86004
                    1506.67750                    -375.69555                    -226.89195
                     809.38964                    -181.55817                    -118.32993
                   -5728.41998                     678.23765                     732.25063
        </DataArray>
        <DataArray type="Float32" Name="Moment" NumberOfComponents="3" format="ascii">
                       0.00000                       0.00000                       0.00000
                       0.00000                       0.00000                       0.00000
                       0.00000                       0.00000                       0.00000
                       0.00000                       0.00000                       0.00000
                     -49.70705                     158.59745                    -950.89147
                     -46.32678                     137.99418                    -827.08328
                     -79.40816                     219.18497                   -1313.18195
                    -122.70997                     312.67093                   -1872.42139
                    -166.82164                     391.95899                   -2346.05937
                    -192.87917                     418.37356                   -2502.82168
                    -216.93308                     435.80290                   -2605.63841
                    -238.91976                     446.84296                   -2670.15321
                    -197.05679                     345.61084                   -2064.12054
                    -197.97331                     328.75016                   -1962.46879
                    -194.03719                     308.88544                   -1843.16000
                    -186.05124                     289.26935                   -1725.71557
                    -165.19336                     254.55135                   -1518.46257
                     -81.75197                     126.19956                    -752.82526
                      17.27627                     -26.81897                     159.99350
        </DataArray>
      </PointData>
      <Lines>
        <DataArray type="Int32" Name="connectivity" format="ascii">
      0      1
      1      2
      2      3
      3      4
      4      5
      5      6
      6      7
      7      8
      8      9
      9     10
     10     11
     11     12
     12     13
     13     14
     14     15
     15     16
     16     17
     17     18
        </DataArray>
        <DataArray type="Int32" Name="offsets" format="ascii">
      2
      4
      6
      8
     10
     12
     14
     16
     18
     20
     22
     24
     26
     28
     30
     32
     34
     36
        </DataArray>
      </Lines>
    </Piece>
  </PolyData>
</VTKFile>
