<?xml version="1.0"?>
<VTKFile type="PolyData" version="0.1" byte_order="LittleEndian">
  <PolyData>
    <Piece NumberOfPoints="     19" NumberOfVerts="  0" NumberOfLines="     18"
           NumberOfStrips="  0" NumberOfPolys="      0">
      <Points>
        <DataArray type="Float32" NumberOfComponents="3" format="ascii">
                      -4.82310                       1.38484                      90.32520
                      -4.85888                       2.72173                      90.60716
                      -4.96888                       5.37663                      91.25704
                      -5.09523                       8.02304                      91.94702
                      -5.25969                      11.32671                      92.83258
                      -5.36967                      15.32045                      93.76572
                      -5.42089                      19.34090                      94.57612
                      -5.46230                      23.36253                      95.38138
                      -5.49087                      27.38551                      96.18057
                      -5.50800                      31.40937                      96.97571
                      -5.51650                      35.43332                      97.77045
                      -5.51683                      39.45753                      98.56378
                      -5.51168                      43.48198                      99.35578
                      -5.50453                      47.50663                     100.14634
                      -5.49713                      51.53137                     100.93570
                      -5.49384                      54.88546                     101.59223
                      -5.49349                      57.57028                     102.10875
                      -5.48711                      60.26595                     102.57112
                      -5.49604                      61.60569                     102.84141
        </DataArray>
      </Points>
      <PointData>
        <DataArray type="Float32" Name="TranslationalVelocity" NumberOfComponents="3" format="ascii">
                       0.17822                      -0.39172                       1.85402
                       0.33257                      -0.74360                       3.54197
                       0.63995                      -1.55159                       6.89455
                       0.94753                      -2.40850                      10.23715
                       1.33366                      -3.50826                      14.41115
                       1.80447                      -4.67487                      19.45903
                       2.28441                      -5.69367                      24.54314
                       2.77268                      -6.70762                      29.63157
                       3.27145                      -7.71595                      34.72479
                       3.78275                      -8.72119                      39.82239
                       4.30840                      -9.72767                      44.92354
                       4.84992                     -10.73413                      50.02857
                       5.40822                     -11.74034                      55.13747
                       5.98348                     -12.74572                      60.25018
                       6.57495                     -13.75033                      65.36644
                       7.07922                     -14.58598                      69.63268
                       7.48854                     -15.24339                      73.04908
                       7.90252                     -15.83306                      76.48027
                       8.11016                     -16.17593                      78.18617
        </DataArray>
        <DataArray type="Float32" Name="RotationalVelocity" NumberOfComponents="3" format="ascii">
                       1.26253                       0.00037                      -0.11538
                       1.26261                       0.00032                      -0.11549
                       1.26282                       0.00032                      -0.11581
                       1.26311                       0.00041                      -0.11626
                       1.26354                       0.00064                      -0.11702
                       1.26412                       0.00107                      -0.11826
                       1.26477                       0.00172                      -0.11987
                       1.26547                       0.00262                      -0.12190
                       1.26623                       0.00381                      -0.12437
                       1.26704                       0.00533                      -0.12727
                       1.26790                       0.00720                      -0.13057
                       1.26881                       0.00937                      -0.13419
                       1.26975                       0.01176                      -0.13799
                       1.27068                       0.01422                      -0.14177
                       1.27154                       0.01651                      -0.14524
                       1.27215                       0.01807                      -0.14767
                       1.27252                       0.01889                      -0.14909
                       1.27273                       0.01917                      -0.14988
                       1.27276                       0.01905                      -0.14999
        </DataArray>
        <DataArray type="Float32" Name="TranslationalAcceleration" NumberOfComponents="3" format="ascii">
                      -0.03961                      -2.30059                      -0.48673
                      -0.05284                      -2.83519                      -0.58907
                      -0.17258                      -8.09168                      -1.81799
                      -0.30048                     -12.91971                      -3.01977
                      -0.46520                     -18.55885                      -4.47086
                      -0.64455                     -25.02570                      -5.93549
                      -0.81158                     -31.37674                      -7.17278
                      -0.97735                     -37.72003                      -8.39483
                      -1.12845                     -44.13433                      -9.61588
                      -1.25048                     -50.64476                     -10.84361
                      -1.33132                     -57.23779                     -12.08111
                      -1.36329                     -63.87823                     -13.32101
                      -1.34655                     -70.52246                     -14.55716
                      -1.29119                     -77.13401                     -15.78603
                      -1.21913                     -83.69853                     -17.01147
                      -1.17118                     -89.14815                     -18.03790
                      -1.15970                     -93.52176                     -18.85893
                      -1.18070                     -97.96066                     -19.61740
                      -1.21717                    -100.20039                     -20.07010
        </DataArray>
        <DataArray type="Float32" Name="OrientationX" NumberOfComponents="3" format="ascii">
                       0.91159                      -0.06122                       0.40653
                       0.91159                      -0.06137                       0.40649
                       0.91160                      -0.06189                       0.40640
                       0.91160                      -0.06266                       0.40627
                       0.91160                      -0.06394                       0.40607
                       0.92422                      -0.05970                       0.37715
                       0.93269                      -0.05755                       0.35606
                       0.93959                      -0.05623                       0.33766
                       0.94635                      -0.05486                       0.31844
                       0.95274                      -0.05342                       0.29905
                       0.95820                      -0.05215                       0.28130
                       0.96309                      -0.05068                       0.26435
                       0.96702                      -0.04921                       0.24990
                       0.96950                      -0.04803                       0.24036
                       0.97174                      -0.04608                       0.23153
                       0.97354                      -0.04367                       0.22432
                       0.97483                      -0.04120                       0.21911
                       0.97529                      -0.03880                       0.21750
                       0.97505                      -0.03775                       0.21875
        </DataArray>
        <DataArray type="Float32" Name="OrientationY" NumberOfComponents="3" format="ascii">
                       0.41033                       0.19637                      -0.89054
                       0.41033                       0.19616                      -0.89059
                       0.41036                       0.19559                      -0.89070
                       0.41042                       0.19483                      -0.89084
                       0.41050                       0.19371                      -0.89105
                       0.38136                       0.19419                      -0.90380
                       0.36030                       0.19402                      -0.91244
                       0.34203                       0.19371                      -0.91951
                       0.32295                       0.19354                      -0.92641
                       0.30368                       0.19351                      -0.93292
                       0.28603                       0.19355                      -0.93847
                       0.26914                       0.19371                      -0.94342
                       0.25469                       0.19390                      -0.94738
                       0.24511                       0.19397                      -0.94989
                       0.23607                       0.19413                      -0.95215
                       0.22852                       0.19432                      -0.95395
                       0.22293                       0.19449                      -0.95524
                       0.22087                       0.19454                      -0.95570
                       0.22189                       0.19450                      -0.95548
        </DataArray>
        <DataArray type="Float32" Name="OrientationZ" NumberOfComponents="3" format="ascii">
                      -0.02531                       0.97862                       0.20413
                      -0.02508                       0.97865                       0.20400
                      -0.02437                       0.97873                       0.20369
                      -0.02333                       0.97883                       0.20333
                      -0.02168                       0.97897                       0.20283
                      -0.01928                       0.97915                       0.20224
                      -0.01658                       0.97931                       0.20170
                      -0.01370                       0.97945                       0.20124
                      -0.01081                       0.97956                       0.20087
                      -0.00803                       0.97964                       0.20059
                      -0.00551                       0.97970                       0.20038
                      -0.00339                       0.97975                       0.20021
                      -0.00184                       0.97979                       0.20004
                      -0.00100                       0.97983                       0.19982
                      -0.00107                       0.97989                       0.19952
                      -0.00193                       0.97997                       0.19916
                      -0.00326                       0.98004                       0.19878
                      -0.00523                       0.98013                       0.19830
                      -0.00647                       0.98018                       0.19802
        </DataArray>
        <DataArray type="Float32" Name="Force" NumberOfComponents="3" format="ascii">
                      -0.00135                       0.00304                      -0.01476
                     427.37771                      26.53903                     -74.74382
                     473.18295                      46.44090                    -166.31460
                     373.22846                      50.34468                    -198.99225
                    2661.73055                    -286.22608                    1656.49799
                    3295.48165                    -404.89625                    2256.61029
                    3209.11651                    -337.51529                    1883.72678
                    3324.39457                    -293.24200                    1634.80045
                    2984.39765                    -224.95886                    1241.98359
                    2742.20641                    -180.47701                     978.25225
                    2837.26537                    -164.97195                     872.73146
                    2606.13559                    -134.68759                     693.59976
                    2210.29418                    -102.67242                     515.62496
                    1701.04954                     -69.13300                     341.97157
                    1150.24095                     -37.77034                     187.97264
                     728.41735                     -16.75238                      87.23131
                     438.60876                      -4.41526                      27.81544
                     107.02266                       4.15263                     -17.51397
                   -5415.09011                       7.88309                    -200.82590
        </DataArray>
        <DataArray type="Float32" Name="Moment" NumberOfComponents="3" format="ascii">
                       0.00000                       0.00000                       0.00000
                       0.00000                       0.00000                       0.00000
                       0.00000                       0.00000                       0.00000
                       0.00000                       0.00000                       0.00000
                      26.13599                   -1184.73734                    -246.70703
                      25.42630                   -1299.06171                    -270.21818
                      21.60879                   -1288.04335                    -267.59691
                      24.20575                   -1751.09320                    -363.32479
                      23.47611                   -2162.64266                    -448.12806
                      18.34293                   -2288.90817                    -473.69725
                      12.99274                   -2387.95064                    -493.63265
                       8.02907                   -2445.87293                    -505.12356
                       3.12646                   -1847.77483                    -381.33513
                       1.48318                   -1783.53650                    -367.93760
                       1.46786                   -1674.05710                    -345.35929
                       2.67012                   -1555.71622                    -321.06489
                       4.11465                   -1358.40109                    -280.50653
                       3.33255                    -669.25932                    -138.31978
                      -0.97814                     157.42755                      32.55424
        </DataArray>
      </PointData>
      <Lines>
        <DataArray type="Int32" Name="connectivity" format="ascii">
      0      1
      1      2
      2      3
      3      4
      4      5
      5      6
      6      7
      7      8
      8      9
      9     10
     10     11
     11     12
     12     13
     13     14
     14     15
     15     16
     16     17
     17     18
        </DataArray>
        <DataArray type="Int32" Name="offsets" format="ascii">
      2
      4
      6
      8
     10
     12
     14
     16
     18
     20
     22
     24
     26
     28
     30
     32
     34
     36
        </DataArray>
      </Lines>
    </Piece>
  </PolyData>
</VTKFile>
