<?xml version="1.0"?>
<VTKFile type="PolyData" version="0.1" byte_order="LittleEndian">
  <PolyData>
    <Piece NumberOfPoints="    550" NumberOfVerts="  0" NumberOfLines="     21"
           NumberOfStrips="  0" NumberOfPolys="    567">
      <Points>
        <DataArray type="Float32" NumberOfComponents="3" format="ascii">
                       2.97347                      -0.00003                       2.18974
                       2.88005                       0.73942                       2.18977
                       2.60568                       1.43241                       2.18981
                       2.16759                       2.03539                       2.18986
                       1.59331                       2.51048                       2.18992
                       0.91892                       2.82782                       2.18999
                       0.18679                       2.96748                       2.19005
                      -0.55706                       2.92068                       2.19012
                      -1.26591                       2.69036                       2.19017
                      -1.89521                       2.29100                       2.19022
                      -2.40542                       1.74768                       2.19025
                      -2.76448                       1.09455                       2.19027
                      -2.94984                       0.37264                       2.19026
                      -2.94984                      -0.37269                       2.19025
                      -2.76448                      -1.09460                       2.19021
                      -2.40542                      -1.74773                       2.19017
                      -1.89521                      -2.29105                       2.19011
                      -1.26591                      -2.69042                       2.19005
                      -0.55706                      -2.92073                       2.18998
                       0.18679                      -2.96753                       2.18991
                       0.91892                      -2.82787                       2.18985
                       1.59331                      -2.51053                       2.18980
                       2.16759                      -2.03544                       2.18976
                       2.60568                      -1.43246                       2.18974
                       2.88005                      -0.73947                       2.18973
                       2.92105                      -0.00023                       6.56912
                       2.82931                       0.72598                       6.56920
                       2.55985                       1.40656                       6.56933
                       2.12960                       1.99874                       6.56950
                       1.56560                       2.46532                       6.56970
                       0.90329                       2.77698                       6.56991
                       0.18428                       2.91414                       6.57014
                      -0.54625                       2.86818                       6.57036
                      -1.24241                       2.64198                       6.57055
                      -1.86044                       2.24977                       6.57071
                      -2.36151                       1.71618                       6.57082
                      -2.71414                       1.07474                       6.57089
                      -2.89618                       0.36576                       6.57089
                      -2.89618                      -0.36621                       6.57084
                      -2.71414                      -1.07520                       6.57074
                      -2.36151                      -1.71663                       6.57059
                      -1.86043                      -2.25022                       6.57041
                      -1.24241                      -2.64243                       6.57020
                      -0.54625                      -2.86863                       6.56997
                       0.18428                      -2.91459                       6.56975
                       0.90329                      -2.77743                       6.56954
                       1.56560                      -2.46577                       6.56937
                       2.12960                      -1.99919                       6.56923
                       2.55985                      -1.40701                       6.56914
                       2.82931                      -0.72643                       6.56910
                       2.86964                      -0.00061                      10.94844
                       2.77957                       0.71236                      10.94857
                       2.51502                       1.38052                      10.94878
                       2.09262                       1.96190                      10.94907
                       1.53891                       2.41998                      10.94942
                       0.88867                       2.72595                      10.94981
                       0.18277                       2.86061                      10.95021
                      -0.53444                       2.81549                      10.95059
                      -1.21789                       2.59342                      10.95094
                      -1.82465                       2.20836                      10.95123
                      -2.31659                       1.68450                      10.95144
                      -2.66279                       1.05476                      10.95156
                      -2.84151                       0.35871                      10.95158
                      -2.84151                      -0.35992                      10.95151
                      -2.66279                      -1.05597                      10.95133
                      -2.31659                      -1.68571                      10.95108
                      -1.82465                      -2.20957                      10.95076
                      -1.21789                      -2.59463                      10.95038
                      -0.53444                      -2.81670                      10.94999
                       0.18277                      -2.86182                      10.94959
                       0.88867                      -2.72717                      10.94923
                       1.53891                      -2.42119                      10.94891
                       2.09262                      -1.96312                      10.94865
                       2.51502                      -1.38173                      10.94849
                       2.77957                      -0.71357                      10.94841
                       2.81932                      -0.00116                      15.32775
                       2.73093                       0.69856                      15.32793
                       2.47129                       1.35431                      15.32823
                       2.05674                       1.92489                      15.32865
                       1.51331                       2.37446                      15.32915
                       0.87515                       2.67475                      15.32970
                       0.18237                       2.80691                      15.33027
                      -0.52152                       2.76262                      15.33083
                      -1.19229                       2.54468                      15.33133
                      -1.78778                       2.16677                      15.33175
                      -2.27057                       1.65264                      15.33206
                      -2.61035                       1.03460                      15.33224
                      -2.78574                       0.35148                      15.33228
                      -2.78574                      -0.35381                      15.33217
                      -2.61035                      -1.03693                      15.33193
                      -2.27057                      -1.65497                      15.33157
                      -1.78778                      -2.16910                      15.33111
                      -1.19229                      -2.54701                      15.33058
                      -0.52152                      -2.76495                      15.33001
                       0.18237                      -2.80924                      15.32944
                       0.87515                      -2.67708                      15.32891
                       1.51331                      -2.37679                      15.32844
                       2.05674                      -1.92722                      15.32808
                       2.47129                      -1.35664                      15.32783
                       2.73093                      -0.70088                      15.32772
                       2.77012                      -0.00191                      19.70710
                       2.68340                       0.68457                      19.70732
                       2.42868                       1.32791                      19.70771
                       2.02197                       1.88770                      19.70825
                       1.48883                       2.32875                      19.70889
                       0.86275                       2.62336                      19.70961
                       0.18307                       2.75302                      19.71034
                      -0.50750                       2.70957                      19.71106
                      -1.16557                       2.49575                      19.71171
                      -1.74978                       2.12500                      19.71225
                      -2.22345                       1.62060                      19.71265
                      -2.55679                       1.01425                      19.71289
                      -2.72886                       0.34406                      19.71294
                      -2.72886                      -0.34788                      19.71281
                      -2.55679                      -1.01807                      19.71250
                      -2.22345                      -1.62442                      19.71203
                      -1.74978                      -2.12881                      19.71143
                      -1.16557                      -2.49957                      19.71075
                      -0.50750                      -2.71339                      19.71002
                       0.18307                      -2.75684                      19.70928
                       0.86275                      -2.62718                      19.70860
                       1.48883                      -2.33257                      19.70800
                       2.02197                      -1.89152                      19.70752
                       2.42868                      -1.33173                      19.70720
                       2.68340                      -0.68839                      19.70706
                       2.72200                      -0.00286                      24.08649
                       2.63696                       0.67038                      24.08676
                       2.38715                       1.30131                      24.08724
                       1.98829                       1.85030                      24.08789
                       1.46543                       2.28284                      24.08867
                       0.85143                       2.57177                      24.08953
                       0.18486                       2.69893                      24.09043
                      -0.49238                       2.65632                      24.09129
                      -1.13775                       2.44662                      24.09208
                      -1.71070                       2.08302                      24.09273
                      -2.17523                       1.58835                      24.09321
                      -2.50214                       0.99370                      24.09349
                      -2.67089                       0.33644                      24.09355
                      -2.67089                      -0.34215                      24.09339
                      -2.50214                      -0.99942                      24.09301
                      -2.17523                      -1.59407                      24.09244
                      -1.71070                      -2.08873                      24.09172
                      -1.13776                      -2.45234                      24.09089
                      -0.49238                      -2.66203                      24.09001
                       0.18486                      -2.70464                      24.08912
                       0.85143                      -2.57749                      24.08829
                       1.46543                      -2.28856                      24.08756
                       1.98829                      -1.85601                      24.08699
                       2.38715                      -1.30702                      24.08661
                       2.63696                      -0.67609                      24.08644
                       2.67495                      -0.00403                      28.46592
                       2.59157                       0.65596                      28.46625
                       2.34668                       1.27448                      28.46681
                       1.95566                       1.81267                      28.46757
                       1.44309                       2.23671                      28.46848
                       0.84117                       2.51995                      28.46949
                       0.18771                       2.64460                      28.47052
                      -0.47621                       2.60283                      28.47153
                      -1.10889                       2.39726                      28.47243
                      -1.67057                       2.04081                      28.47319
                      -2.12595                       1.55587                      28.47374
                      -2.44643                       0.97292                      28.47406
                      -2.61187                       0.32858                      28.47412
                      -2.61187                      -0.33665                      28.47392
                      -2.44643                      -0.98099                      28.47348
                      -2.12595                      -1.56394                      28.47281
                      -1.67057                      -2.04888                      28.47197
                      -1.10889                      -2.40533                      28.47100
                      -0.47621                      -2.61090                      28.46997
                       0.18771                      -2.65267                      28.46894
                       0.84117                      -2.52802                      28.46798
                       1.44309                      -2.24478                      28.46714
                       1.95566                      -1.82074                      28.46648
                       2.34668                      -1.28255                      28.46605
                       2.59157                      -0.66403                      28.46586
                       2.62891                      -0.00548                      32.84540
                       2.54720                       0.64127                      32.84578
                       2.30723                       1.24738                      32.84642
                       1.92406                       1.77477                      32.84729
                       1.42177                       2.19030                      32.84833
                       0.83192                       2.46786                      32.84946
                       0.19158                       2.59001                      32.85064
                      -0.45902                       2.54908                      32.85177
                      -1.07900                       2.34764                      32.85279
                      -1.62941                       1.99834                      32.85363
                      -2.07566                       1.52313                      32.85424
                      -2.38971                       0.95187                      32.85459
                      -2.55183                       0.32046                      32.85465
                      -2.55183                      -0.33143                      32.85441
                      -2.38971                      -0.96283                      32.85389
                      -2.07566                      -1.53409                      32.85313
                      -1.62941                      -2.00930                      32.85217
                      -1.07900                      -2.35860                      32.85108
                      -0.45902                      -2.56004                      32.84991
                       0.19158                      -2.60097                      32.84875
                       0.83192                      -2.47882                      32.84767
                       1.42177                      -2.20126                      32.84673
                       1.92406                      -1.78573                      32.84600
                       2.30723                      -1.25834                      32.84551
                       2.54720                      -0.65223                      32.84531
                       2.58387                      -0.00723                      37.22491
                       2.50384                       0.62628                      37.22534
                       2.26878                       1.21998                      37.22607
                       1.89345                       1.73657                      37.22704
                       1.40145                       2.14359                      37.22820
                       0.82368                       2.41547                      37.22947
                       0.19645                       2.53512                      37.23077
                      -0.44083                       2.49503                      37.23202
                      -1.04812                       2.29770                      37.23314
                      -1.58725                       1.95556                      37.23406
                      -2.02436                       1.49008                      37.23473
                      -2.33198                       0.93052                      37.23510
                      -2.49078                       0.31204                      37.23514
                      -2.49078                      -0.32650                      37.23486
                      -2.33198                      -0.94498                      37.23428
                      -2.02437                      -1.50454                      37.23342
                      -1.58725                      -1.97002                      37.23235
                      -1.04812                      -2.31216                      37.23113
                      -0.44083                      -2.50948                      37.22983
                       0.19645                      -2.54958                      37.22855
                       0.82368                      -2.42993                      37.22735
                       1.40145                      -2.15805                      37.22632
                       1.89345                      -1.75103                      37.22552
                       2.26878                      -1.23443                      37.22500
                       2.50384                      -0.64073                      37.22479
                       2.53984                      -0.00932                      41.60442
                       2.46148                       0.61094                      41.60492
                       2.23133                       1.19223                      41.60573
                       1.86386                       1.69802                      41.60681
                       1.38214                       2.09654                      41.60809
                       0.81645                       2.36273                      41.60949
                       0.20233                       2.47988                      41.61091
                      -0.42163                       2.44062                      41.61228
                      -1.01622                       2.24743                      41.61350
                      -1.54409                       1.91243                      41.61450
                      -1.97206                       1.45669                      41.61521
                      -2.27325                       0.90883                      41.61559
                      -2.42873                       0.30327                      41.61562
                      -2.42873                      -0.32192                      41.61530
                      -2.27325                      -0.92747                      41.61464
                      -1.97206                      -1.47533                      41.61368
                      -1.54409                      -1.93108                      41.61250
                      -1.01622                      -2.26607                      41.61115
                      -0.42163                      -2.45927                      41.60973
                       0.20233                      -2.49852                      41.60832
                       0.81645                      -2.38138                      41.60702
                       1.38214                      -2.11518                      41.60590
                       1.86385                      -1.71667                      41.60504
                       2.23133                      -1.21087                      41.60448
                       2.46148                      -0.62958                      41.60427
                       2.49685                      -0.01180                      45.98394
                       2.42016                       0.59522                      45.98450
                       2.19493                       1.16410                      45.98540
                       1.83529                       1.65909                      45.98659
                       1.36386                       2.04910                      45.98799
                       0.81025                       2.30961                      45.98952
                       0.20924                       2.42426                      45.99107
                      -0.40139                       2.38584                      45.99255
                      -0.98329                       2.19677                      45.99387
                      -1.49989                       1.86892                      45.99494
                      -1.91873                       1.42291                      45.99570
                      -2.21348                       0.88674                      45.99609
                      -2.36564                       0.29412                      45.99610
                      -2.36564                      -0.31773                      45.99573
                      -2.21348                      -0.91035                      45.99499
                      -1.91873                      -1.44651                      45.99394
                      -1.49989                      -1.89253                      45.99263
                      -0.98330                      -2.22037                      45.99116
                      -0.40140                      -2.40944                      45.98961
                       0.20924                      -2.44786                      45.98808
                       0.81025                      -2.33321                      45.98667
                       1.36386                      -2.07270                      45.98547
                       1.83529                      -1.68270                      45.98454
                       2.19493                      -1.18770                      45.98396
                       2.42016                      -0.61882                      45.98376
                       2.45493                      -0.01471                      50.36345
                       2.37992                       0.57907                      50.36408
                       2.15960                       1.13554                      50.36507
                       1.80782                       1.61974                      50.36637
                       1.34667                       2.00123                      50.36790
                       0.80513                       2.25606                      50.36955
                       0.21724                       2.36821                      50.37123
                      -0.38007                       2.33062                      50.37283
                      -0.94928                       2.14568                      50.37424
                      -1.45460                       1.82499                      50.37539
                      -1.86430                       1.38870                      50.37619
                      -2.15263                       0.86423                      50.37660
                      -2.30147                       0.28454                      50.37659
                      -2.30147                      -0.31396                      50.37616
                      -2.15263                      -0.89365                      50.37534
                      -1.86431                      -1.41812                      50.37418
                      -1.45461                      -1.85441                      50.37276
                      -0.94928                      -2.17510                      50.37115
                      -0.38008                      -2.36004                      50.36948
                       0.21724                      -2.39762                      50.36783
                       0.80513                      -2.28547                      50.36631
                       1.34666                      -2.03065                      50.36502
                       1.80781                      -1.64915                      50.36404
                       2.15960                      -1.16495                      50.36343
                       2.37992                      -0.60848                      50.36323
                       2.41416                      -0.01807                      54.74295
                       2.34083                       0.56247                      54.74365
                       2.12542                       1.10652                      54.74474
                       1.78148                       1.57992                      54.74615
                       1.33062                       1.95291                      54.74780
                       0.80116                       2.20205                      54.74959
                       0.22638                       2.31170                      54.75140
                      -0.35761                       2.27495                      54.75311
                      -0.91412                       2.09413                      54.75462
                      -1.40818                       1.78059                      54.75584
                      -1.80874                       1.35404                      54.75668
                      -2.09064                       0.84127                      54.75710
                      -2.23616                       0.27450                      54.75707
                      -2.23616                      -0.31065                      54.75659
                      -2.09064                      -0.87742                      54.75569
                      -1.80874                      -1.39019                      54.75442
                      -1.40818                      -1.81674                      54.75288
                      -0.91413                      -2.13028                      54.75115
                      -0.35762                      -2.31110                      54.74934
                       0.22637                      -2.34784                      54.74756
                       0.80116                      -2.23819                      54.74594
                       1.33061                      -1.98905                      54.74456
                       1.78148                      -1.61606                      54.74352
                       2.12542                      -1.14266                      54.74289
                       2.34083                      -0.59860                      54.74269
                       2.37459                      -0.02192                      59.12245
                       2.30292                       0.54538                      59.12322
                       2.09243                       1.07702                      59.12440
                       1.75634                       1.53962                      59.12593
                       1.31576                       1.90410                      59.12771
                       0.79838                       2.14756                      59.12962
                       0.23671                       2.25470                      59.13156
                      -0.33396                       2.21880                      59.13338
                      -0.87777                       2.04210                      59.13499
                      -1.36056                       1.73571                      59.13628
                      -1.75198                       1.31889                      59.13717
                      -2.02745                       0.81781                      59.13760
                      -2.16965                       0.26398                      59.13754
                      -2.16965                      -0.30782                      59.13701
                      -2.02745                      -0.86166                      59.13602
                      -1.75199                      -1.36273                      59.13466
                      -1.36056                      -1.77956                      59.13299
                      -0.87778                      -2.08594                      59.13113
                      -0.33397                      -2.26264                      59.12919
                       0.23670                      -2.29854                      59.12730
                       0.79838                      -2.19140                      59.12557
                       1.31575                      -1.94794                      59.12411
                       1.75633                      -1.58345                      59.12301
                       2.09243                      -1.12086                      59.12235
                       2.30292                      -0.58921                      59.12216
                       2.33623                      -0.02626                      63.50198
                       2.26624                       0.52779                      63.50281
                       2.06066                       1.04702                      63.50409
                       1.73241                       1.49882                      63.50572
                       1.30212                       1.85479                      63.50762
                       0.79682                       2.09257                      63.50965
                       0.24826                       2.19721                      63.51171
                      -0.30909                       2.16214                      63.51364
                      -0.84021                       1.98957                      63.51534
                      -1.31172                       1.69034                      63.51669
                      -1.69401                       1.28324                      63.51762
                      -1.96304                       0.79386                      63.51805
                      -2.10193                       0.25295                      63.51798
                      -2.10193                      -0.30550                      63.51739
                      -1.96305                      -0.84641                      63.51633
                      -1.69401                      -1.33578                      63.51487
                      -1.31173                      -1.74288                      63.51309
                      -0.84021                      -2.04211                      63.51111
                      -0.30910                      -2.21468                      63.50905
                       0.24825                      -2.24974                      63.50704
                       0.79681                      -2.14510                      63.50521
                       1.30211                      -1.90732                      63.50367
                       1.73240                      -1.55135                      63.50252
                       2.06065                      -1.09955                      63.50183
                       2.26623                      -0.58031                      63.50165
                       2.29905                      -0.03111                      67.88157
                       2.23073                       0.50970                      67.88246
                       2.03007                       1.01652                      67.88381
                       1.70967                       1.45752                      67.88554
                       1.28966                       1.80498                      67.88754
                       0.79644                       2.03708                      67.88969
                       0.26099                       2.13922                      67.89184
                      -0.28303                       2.10499                      67.89387
                      -0.80146                       1.93654                      67.89564
                      -1.26170                       1.64446                      67.89705
                      -1.63485                       1.24709                      67.89800
                      -1.89746                       0.76941                      67.89844
                      -2.03302                       0.24143                      67.89834
                      -2.03302                      -0.30367                      67.89771
                      -1.89746                      -0.83165                      67.89658
                      -1.63486                      -1.30933                      67.89503
                      -1.26171                      -1.70669                      67.89315
                      -0.80147                      -1.99877                      67.89106
                      -0.28304                      -2.16722                      67.88890
                       0.26098                      -2.20145                      67.88679
                       0.79643                      -2.09930                      67.88488
                       1.28965                      -1.86721                      67.88327
                       1.70966                      -1.51974                      67.88208
                       2.03006                      -1.07874                      67.88138
                       2.23073                      -0.57192                      67.88121
                       2.26294                      -0.03644                      72.26127
                       2.19629                       0.49112                      72.26221
                       2.00054                       0.98554                      72.26363
                       1.68799                       1.41574                      72.26543
                       1.27826                       1.75469                      72.26751
                       0.79712                       1.98110                      72.26973
                       0.27479                       2.08074                      72.27195
                      -0.25592                       2.04735                      72.27404
                      -0.76165                       1.88303                      72.27586
                      -1.21062                       1.59810                      72.27731
                      -1.57463                       1.21046                      72.27828
                      -1.83081                       0.74448                      72.27871
                      -1.96305                       0.22943                      72.27859
                      -1.96305                      -0.30233                      72.27791
                      -1.83081                      -0.81738                      72.27673
                      -1.57464                      -1.28336                      72.27511
                      -1.21063                      -1.67100                      72.27315
                      -0.76166                      -1.95592                      72.27099
                      -0.25593                      -2.12024                      72.26875
                       0.27477                      -2.15363                      72.26657
                       0.79711                      -2.05399                      72.26460
                       1.27825                      -1.82758                      72.26296
                       1.68798                      -1.48862                      72.26174
                       2.00054                      -1.05842                      72.26103
                       2.19629                      -0.56400                      72.26087
                       2.22763                      -0.04222                      76.64115
                       2.16266                       0.47210                      76.64212
                       1.97183                       0.95411                      76.64358
                       1.66712                       1.37351                      76.64542
                       1.26768                       1.70395                      76.64753
                       0.79861                       1.92468                      76.64978
                       0.28939                       2.02182                      76.65204
                      -0.22799                       1.98926                      76.65415
                      -0.72102                       1.82907                      76.65598
                      -1.15873                       1.55129                      76.65742
                      -1.51360                       1.17338                      76.65838
                      -1.76335                       0.71910                      76.65880
                      -1.89227                       0.21697                      76.65865
                      -1.89227                      -0.30143                      76.65794
                      -1.76335                      -0.80356                      76.65672
                      -1.51361                      -1.25784                      76.65506
                      -1.15874                      -1.63574                      76.65307
                      -0.72104                      -1.91352                      76.65086
                      -0.22800                      -2.07372                      76.64859
                       0.28938                      -2.10627                      76.64640
                       0.79860                      -2.00912                      76.64441
                       1.26767                      -1.78840                      76.64276
                       1.66711                      -1.45795                      76.64155
                       1.97182                      -1.03855                      76.64085
                       2.16266                      -0.55654                      76.64072
                       2.19272                      -0.04839                      81.02128
                       2.12942                       0.45269                      81.02227
                       1.94350                       0.92229                      81.02373
                       1.64664                       1.33089                      81.02556
                       1.25748                       1.65282                      81.02765
                       0.80050                       1.86787                      81.02988
                       0.30438                       1.96251                      81.03209
                      -0.19968                       1.93079                      81.03416
                      -0.68001                       1.77472                      81.03594
                      -1.10645                       1.50409                      81.03734
                      -1.45219                       1.13592                      81.03825
                      -1.69550                       0.69333                      81.03863
                      -1.82110                       0.20413                      81.03845
                      -1.82111                      -0.30093                      81.03772
                      -1.69550                      -0.79012                      81.03648
                      -1.45219                      -1.23271                      81.03483
                      -1.10646                      -1.60088                      81.03285
                      -0.68003                      -1.87151                      81.03067
                      -0.19969                      -2.02758                      81.02843
                       0.30437                      -2.05929                      81.02628
                       0.80048                      -1.96465                      81.02434
                       1.25747                      -1.74960                      81.02273
                       1.64663                      -1.42766                      81.02157
                       1.94349                      -1.01906                      81.02092
                       2.12942                      -0.54946                      81.02082
                       2.15756                      -0.05486                      85.40176
                       2.09593                       0.43298                      85.40274
                       1.91492                       0.89016                      85.40416
                       1.62590                       1.28797                      85.40592
                       1.24703                       1.60139                      85.40792
                       0.80212                       1.81075                      85.41003
                       0.31912                       1.90289                      85.41212
                      -0.17162                       1.87201                      85.41405
                      -0.63926                       1.72007                      85.41571
                      -1.05443                       1.45659                      85.41699
                      -1.39103                       1.09815                      85.41781
                      -1.62791                       0.66725                      85.41812
                      -1.75019                       0.19099                      85.41789
                      -1.75020                      -0.30072                      85.41715
                      -1.62791                      -0.77699                      85.41595
                      -1.39103                      -1.20788                      85.41434
                      -1.05443                      -1.56632                      85.41244
                      -0.63927                      -1.82979                      85.41037
                      -0.17163                      -1.98174                      85.40826
                       0.31911                      -2.01261                      85.40623
                       0.80211                      -1.92047                      85.40442
                       1.24702                      -1.71111                      85.40294
                       1.62589                      -1.39768                      85.40188
                       1.91491                      -0.99988                      85.40132
                       2.09593                      -0.54269                      85.40127
                       2.13960                      -0.05817                      87.59216
                       2.07881                       0.42304                      87.59313
                       1.90026                       0.87402                      87.59451
                       1.61516                       1.26642                      87.59621
                       1.24144                       1.57560                      87.59812
                       0.80256                       1.78211                      87.60014
                       0.32612                       1.87300                      87.60212
                      -0.15796                       1.84254                      87.60395
                      -0.61926                       1.69266                      87.60550
                      -1.02879                       1.43276                      87.60669
                      -1.36082                       1.07918                      87.60744
                      -1.59449                       0.65413                      87.60770
                      -1.71511                       0.18433                      87.60745
                      -1.71511                      -0.30071                      87.60671
                      -1.59449                      -0.77051                      87.60553
                      -1.36082                      -1.19555                      87.60398
                      -1.02880                      -1.54913                      87.60216
                      -0.61927                      -1.80902                      87.60018
                      -0.15797                      -1.95890                      87.59816
                       0.32611                      -1.98936                      87.59624
                       0.80255                      -1.89847                      87.59454
                       1.24143                      -1.69195                      87.59315
                       1.61515                      -1.38277                      87.59218
                       1.90025                      -0.99037                      87.59167
                       2.07881                      -0.53939                      87.59167
                       3.00000                       0.00000                       0.00000
                       2.90575                       0.74607                       0.00000
                       2.62892                       1.44526                       0.00000
                       2.18691                       2.05364                       0.00000
                       1.60748                       2.53298                       0.00000
                       0.92705                       2.85317                       0.00000
                       0.18837                       2.99408                       0.00000
                      -0.56214                       2.94686                       0.00000
                      -1.27734                       2.71448                       0.00000
                      -1.91227                       2.31154                       0.00000
                      -2.42705                       1.76336                       0.00000
                      -2.78933                       1.10437                       0.00000
                      -2.97634                       0.37600                       0.00000
                      -2.97634                      -0.37600                       0.00000
                      -2.78933                      -1.10437                       0.00000
                      -2.42705                      -1.76336                       0.00000
                      -1.91227                      -2.31154                       0.00000
                      -1.27734                      -2.71448                       0.00000
                      -0.56214                      -2.94686                       0.00000
                       0.18837                      -2.99408                       0.00000
                       0.92705                      -2.85317                       0.00000
                       1.60748                      -2.53298                       0.00000
                       2.18691                      -2.05364                       0.00000
                       2.62892                      -1.44526                       0.00000
                       2.90575                      -0.74607                       0.00000
        </DataArray>
      </Points>
      <Polys>
        <DataArray type="Int32" Name="connectivity" format="ascii">
      0      1     26     25
      1      2     27     26
      2      3     28     27
      3      4     29     28
      4      5     30     29
      5      6     31     30
      6      7     32     31
      7      8     33     32
      8      9     34     33
      9     10     35     34
     10     11     36     35
     11     12     37     36
     12     13     38     37
     13     14     39     38
     14     15     40     39
     15     16     41     40
     16     17     42     41
     17     18     43     42
     18     19     44     43
     19     20     45     44
     20     21     46     45
     21     22     47     46
     22     23     48     47
     23     24     49     48
     24      0     25     49
     24     23     22     21     20     19     18     17     16     15     14     13     12     11     10      9      8      7      6      5      4      3      2      1      0
     25     26     27     28     29     30     31     32     33     34     35     36     37     38     39     40     41     42     43     44     45     46     47     48     49
     25     26     51     50
     26     27     52     51
     27     28     53     52
     28     29     54     53
     29     30     55     54
     30     31     56     55
     31     32     57     56
     32     33     58     57
     33     34     59     58
     34     35     60     59
     35     36     61     60
     36     37     62     61
     37     38     63     62
     38     39     64     63
     39     40     65     64
     40     41     66     65
     41     42     67     66
     42     43     68     67
     43     44     69     68
     44     45     70     69
     45     46     71     70
     46     47     72     71
     47     48     73     72
     48     49     74     73
     49     25     50     74
     49     48     47     46     45     44     43     42     41     40     39     38     37     36     35     34     33     32     31     30     29     28     27     26     25
     50     51     52     53     54     55     56     57     58     59     60     61     62     63     64     65     66     67     68     69     70     71     72     73     74
     50     51     76     75
     51     52     77     76
     52     53     78     77
     53     54     79     78
     54     55     80     79
     55     56     81     80
     56     57     82     81
     57     58     83     82
     58     59     84     83
     59     60     85     84
     60     61     86     85
     61     62     87     86
     62     63     88     87
     63     64     89     88
     64     65     90     89
     65     66     91     90
     66     67     92     91
     67     68     93     92
     68     69     94     93
     69     70     95     94
     70     71     96     95
     71     72     97     96
     72     73     98     97
     73     74     99     98
     74     50     75     99
     74     73     72     71     70     69     68     67     66     65     64     63     62     61     60     59     58     57     56     55     54     53     52     51     50
     75     76     77     78     79     80     81     82     83     84     85     86     87     88     89     90     91     92     93     94     95     96     97     98     99
     75     76    101    100
     76     77    102    101
     77     78    103    102
     78     79    104    103
     79     80    105    104
     80     81    106    105
     81     82    107    106
     82     83    108    107
     83     84    109    108
     84     85    110    109
     85     86    111    110
     86     87    112    111
     87     88    113    112
     88     89    114    113
     89     90    115    114
     90     91    116    115
     91     92    117    116
     92     93    118    117
     93     94    119    118
     94     95    120    119
     95     96    121    120
     96     97    122    121
     97     98    123    122
     98     99    124    123
     99     75    100    124
     99     98     97     96     95     94     93     92     91     90     89     88     87     86     85     84     83     82     81     80     79     78     77     76     75
    100    101    102    103    104    105    106    107    108    109    110    111    112    113    114    115    116    117    118    119    120    121    122    123    124
    100    101    126    125
    101    102    127    126
    102    103    128    127
    103    104    129    128
    104    105    130    129
    105    106    131    130
    106    107    132    131
    107    108    133    132
    108    109    134    133
    109    110    135    134
    110    111    136    135
    111    112    137    136
    112    113    138    137
    113    114    139    138
    114    115    140    139
    115    116    141    140
    116    117    142    141
    117    118    143    142
    118    119    144    143
    119    120    145    144
    120    121    146    145
    121    122    147    146
    122    123    148    147
    123    124    149    148
    124    100    125    149
    124    123    122    121    120    119    118    117    116    115    114    113    112    111    110    109    108    107    106    105    104    103    102    101    100
    125    126    127    128    129    130    131    132    133    134    135    136    137    138    139    140    141    142    143    144    145    146    147    148    149
    125    126    151    150
    126    127    152    151
    127    128    153    152
    128    129    154    153
    129    130    155    154
    130    131    156    155
    131    132    157    156
    132    133    158    157
    133    134    159    158
    134    135    160    159
    135    136    161    160
    136    137    162    161
    137    138    163    162
    138    139    164    163
    139    140    165    164
    140    141    166    165
    141    142    167    166
    142    143    168    167
    143    144    169    168
    144    145    170    169
    145    146    171    170
    146    147    172    171
    147    148    173    172
    148    149    174    173
    149    125    150    174
    149    148    147    146    145    144    143    142    141    140    139    138    137    136    135    134    133    132    131    130    129    128    127    126    125
    150    151    152    153    154    155    156    157    158    159    160    161    162    163    164    165    166    167    168    169    170    171    172    173    174
    150    151    176    175
    151    152    177    176
    152    153    178    177
    153    154    179    178
    154    155    180    179
    155    156    181    180
    156    157    182    181
    157    158    183    182
    158    159    184    183
    159    160    185    184
    160    161    186    185
    161    162    187    186
    162    163    188    187
    163    164    189    188
    164    165    190    189
    165    166    191    190
    166    167    192    191
    167    168    193    192
    168    169    194    193
    169    170    195    194
    170    171    196    195
    171    172    197    196
    172    173    198    197
    173    174    199    198
    174    150    175    199
    174    173    172    171    170    169    168    167    166    165    164    163    162    161    160    159    158    157    156    155    154    153    152    151    150
    175    176    177    178    179    180    181    182    183    184    185    186    187    188    189    190    191    192    193    194    195    196    197    198    199
    175    176    201    200
    176    177    202    201
    177    178    203    202
    178    179    204    203
    179    180    205    204
    180    181    206    205
    181    182    207    206
    182    183    208    207
    183    184    209    208
    184    185    210    209
    185    186    211    210
    186    187    212    211
    187    188    213    212
    188    189    214    213
    189    190    215    214
    190    191    216    215
    191    192    217    216
    192    193    218    217
    193    194    219    218
    194    195    220    219
    195    196    221    220
    196    197    222    221
    197    198    223    222
    198    199    224    223
    199    175    200    224
    199    198    197    196    195    194    193    192    191    190    189    188    187    186    185    184    183    182    181    180    179    178    177    176    175
    200    201    202    203    204    205    206    207    208    209    210    211    212    213    214    215    216    217    218    219    220    221    222    223    224
    200    201    226    225
    201    202    227    226
    202    203    228    227
    203    204    229    228
    204    205    230    229
    205    206    231    230
    206    207    232    231
    207    208    233    232
    208    209    234    233
    209    210    235    234
    210    211    236    235
    211    212    237    236
    212    213    238    237
    213    214    239    238
    214    215    240    239
    215    216    241    240
    216    217    242    241
    217    218    243    242
    218    219    244    243
    219    220    245    244
    220    221    246    245
    221    222    247    246
    222    223    248    247
    223    224    249    248
    224    200    225    249
    224    223    222    221    220    219    218    217    216    215    214    213    212    211    210    209    208    207    206    205    204    203    202    201    200
    225    226    227    228    229    230    231    232    233    234    235    236    237    238    239    240    241    242    243    244    245    246    247    248    249
    225    226    251    250
    226    227    252    251
    227    228    253    252
    228    229    254    253
    229    230    255    254
    230    231    256    255
    231    232    257    256
    232    233    258    257
    233    234    259    258
    234    235    260    259
    235    236    261    260
    236    237    262    261
    237    238    263    262
    238    239    264    263
    239    240    265    264
    240    241    266    265
    241    242    267    266
    242    243    268    267
    243    244    269    268
    244    245    270    269
    245    246    271    270
    246    247    272    271
    247    248    273    272
    248    249    274    273
    249    225    250    274
    249    248    247    246    245    244    243    242    241    240    239    238    237    236    235    234    233    232    231    230    229    228    227    226    225
    250    251    252    253    254    255    256    257    258    259    260    261    262    263    264    265    266    267    268    269    270    271    272    273    274
    250    251    276    275
    251    252    277    276
    252    253    278    277
    253    254    279    278
    254    255    280    279
    255    256    281    280
    256    257    282    281
    257    258    283    282
    258    259    284    283
    259    260    285    284
    260    261    286    285
    261    262    287    286
    262    263    288    287
    263    264    289    288
    264    265    290    289
    265    266    291    290
    266    267    292    291
    267    268    293    292
    268    269    294    293
    269    270    295    294
    270    271    296    295
    271    272    297    296
    272    273    298    297
    273    274    299    298
    274    250    275    299
    274    273    272    271    270    269    268    267    266    265    264    263    262    261    260    259    258    257    256    255    254    253    252    251    250
    275    276    277    278    279    280    281    282    283    284    285    286    287    288    289    290    291    292    293    294    295    296    297    298    299
    275    276    301    300
    276    277    302    301
    277    278    303    302
    278    279    304    303
    279    280    305    304
    280    281    306    305
    281    282    307    306
    282    283    308    307
    283    284    309    308
    284    285    310    309
    285    286    311    310
    286    287    312    311
    287    288    313    312
    288    289    314    313
    289    290    315    314
    290    291    316    315
    291    292    317    316
    292    293    318    317
    293    294    319    318
    294    295    320    319
    295    296    321    320
    296    297    322    321
    297    298    323    322
    298    299    324    323
    299    275    300    324
    299    298    297    296    295    294    293    292    291    290    289    288    287    286    285    284    283    282    281    280    279    278    277    276    275
    300    301    302    303    304    305    306    307    308    309    310    311    312    313    314    315    316    317    318    319    320    321    322    323    324
    300    301    326    325
    301    302    327    326
    302    303    328    327
    303    304    329    328
    304    305    330    329
    305    306    331    330
    306    307    332    331
    307    308    333    332
    308    309    334    333
    309    310    335    334
    310    311    336    335
    311    312    337    336
    312    313    338    337
    313    314    339    338
    314    315    340    339
    315    316    341    340
    316    317    342    341
    317    318    343    342
    318    319    344    343
    319    320    345    344
    320    321    346    345
    321    322    347    346
    322    323    348    347
    323    324    349    348
    324    300    325    349
    324    323    322    321    320    319    318    317    316    315    314    313    312    311    310    309    308    307    306    305    304    303    302    301    300
    325    326    327    328    329    330    331    332    333    334    335    336    337    338    339    340    341    342    343    344    345    346    347    348    349
    325    326    351    350
    326    327    352    351
    327    328    353    352
    328    329    354    353
    329    330    355    354
    330    331    356    355
    331    332    357    356
    332    333    358    357
    333    334    359    358
    334    335    360    359
    335    336    361    360
    336    337    362    361
    337    338    363    362
    338    339    364    363
    339    340    365    364
    340    341    366    365
    341    342    367    366
    342    343    368    367
    343    344    369    368
    344    345    370    369
    345    346    371    370
    346    347    372    371
    347    348    373    372
    348    349    374    373
    349    325    350    374
    349    348    347    346    345    344    343    342    341    340    339    338    337    336    335    334    333    332    331    330    329    328    327    326    325
    350    351    352    353    354    355    356    357    358    359    360    361    362    363    364    365    366    367    368    369    370    371    372    373    374
    350    351    376    375
    351    352    377    376
    352    353    378    377
    353    354    379    378
    354    355    380    379
    355    356    381    380
    356    357    382    381
    357    358    383    382
    358    359    384    383
    359    360    385    384
    360    361    386    385
    361    362    387    386
    362    363    388    387
    363    364    389    388
    364    365    390    389
    365    366    391    390
    366    367    392    391
    367    368    393    392
    368    369    394    393
    369    370    395    394
    370    371    396    395
    371    372    397    396
    372    373    398    397
    373    374    399    398
    374    350    375    399
    374    373    372    371    370    369    368    367    366    365    364    363    362    361    360    359    358    357    356    355    354    353    352    351    350
    375    376    377    378    379    380    381    382    383    384    385    386    387    388    389    390    391    392    393    394    395    396    397    398    399
    375    376    401    400
    376    377    402    401
    377    378    403    402
    378    379    404    403
    379    380    405    404
    380    381    406    405
    381    382    407    406
    382    383    408    407
    383    384    409    408
    384    385    410    409
    385    386    411    410
    386    387    412    411
    387    388    413    412
    388    389    414    413
    389    390    415    414
    390    391    416    415
    391    392    417    416
    392    393    418    417
    393    394    419    418
    394    395    420    419
    395    396    421    420
    396    397    422    421
    397    398    423    422
    398    399    424    423
    399    375    400    424
    399    398    397    396    395    394    393    392    391    390    389    388    387    386    385    384    383    382    381    380    379    378    377    376    375
    400    401    402    403    404    405    406    407    408    409    410    411    412    413    414    415    416    417    418    419    420    421    422    423    424
    400    401    426    425
    401    402    427    426
    402    403    428    427
    403    404    429    428
    404    405    430    429
    405    406    431    430
    406    407    432    431
    407    408    433    432
    408    409    434    433
    409    410    435    434
    410    411    436    435
    411    412    437    436
    412    413    438    437
    413    414    439    438
    414    415    440    439
    415    416    441    440
    416    417    442    441
    417    418    443    442
    418    419    444    443
    419    420    445    444
    420    421    446    445
    421    422    447    446
    422    423    448    447
    423    424    449    448
    424    400    425    449
    424    423    422    421    420    419    418    417    416    415    414    413    412    411    410    409    408    407    406    405    404    403    402    401    400
    425    426    427    428    429    430    431    432    433    434    435    436    437    438    439    440    441    442    443    444    445    446    447    448    449
    425    426    451    450
    426    427    452    451
    427    428    453    452
    428    429    454    453
    429    430    455    454
    430    431    456    455
    431    432    457    456
    432    433    458    457
    433    434    459    458
    434    435    460    459
    435    436    461    460
    436    437    462    461
    437    438    463    462
    438    439    464    463
    439    440    465    464
    440    441    466    465
    441    442    467    466
    442    443    468    467
    443    444    469    468
    444    445    470    469
    445    446    471    470
    446    447    472    471
    447    448    473    472
    448    449    474    473
    449    425    450    474
    449    448    447    446    445    444    443    442    441    440    439    438    437    436    435    434    433    432    431    430    429    428    427    426    425
    450    451    452    453    454    455    456    457    458    459    460    461    462    463    464    465    466    467    468    469    470    471    472    473    474
    450    451    476    475
    451    452    477    476
    452    453    478    477
    453    454    479    478
    454    455    480    479
    455    456    481    480
    456    457    482    481
    457    458    483    482
    458    459    484    483
    459    460    485    484
    460    461    486    485
    461    462    487    486
    462    463    488    487
    463    464    489    488
    464    465    490    489
    465    466    491    490
    466    467    492    491
    467    468    493    492
    468    469    494    493
    469    470    495    494
    470    471    496    495
    471    472    497    496
    472    473    498    497
    473    474    499    498
    474    450    475    499
    474    473    472    471    470    469    468    467    466    465    464    463    462    461    460    459    458    457    456    455    454    453    452    451    450
    475    476    477    478    479    480    481    482    483    484    485    486    487    488    489    490    491    492    493    494    495    496    497    498    499
    475    476    501    500
    476    477    502    501
    477    478    503    502
    478    479    504    503
    479    480    505    504
    480    481    506    505
    481    482    507    506
    482    483    508    507
    483    484    509    508
    484    485    510    509
    485    486    511    510
    486    487    512    511
    487    488    513    512
    488    489    514    513
    489    490    515    514
    490    491    516    515
    491    492    517    516
    492    493    518    517
    493    494    519    518
    494    495    520    519
    495    496    521    520
    496    497    522    521
    497    498    523    522
    498    499    524    523
    499    475    500    524
    499    498    497    496    495    494    493    492    491    490    489    488    487    486    485    484    483    482    481    480    479    478    477    476    475
    500    501    502    503    504    505    506    507    508    509    510    511    512    513    514    515    516    517    518    519    520    521    522    523    524
    525    526      1      0
    526    527      2      1
    527    528      3      2
    528    529      4      3
    529    530      5      4
    530    531      6      5
    531    532      7      6
    532    533      8      7
    533    534      9      8
    534    535     10      9
    535    536     11     10
    536    537     12     11
    537    538     13     12
    538    539     14     13
    539    540     15     14
    540    541     16     15
    541    542     17     16
    542    543     18     17
    543    544     19     18
    544    545     20     19
    545    546     21     20
    546    547     22     21
    547    548     23     22
    548    549     24     23
    549    525      0     24
    549    548    547    546    545    544    543    542    541    540    539    538    537    536    535    534    533    532    531    530    529    528    527    526    525
      0      1      2      3      4      5      6      7      8      9     10     11     12     13     14     15     16     17     18     19     20     21     22     23     24
        </DataArray>
        <DataArray type="Int32" Name="offsets" format="ascii">
      4
      8
     12
     16
     20
     24
     28
     32
     36
     40
     44
     48
     52
     56
     60
     64
     68
     72
     76
     80
     84
     88
     92
     96
    100
    125
    150
    154
    158
    162
    166
    170
    174
    178
    182
    186
    190
    194
    198
    202
    206
    210
    214
    218
    222
    226
    230
    234
    238
    242
    246
    250
    275
    300
    304
    308
    312
    316
    320
    324
    328
    332
    336
    340
    344
    348
    352
    356
    360
    364
    368
    372
    376
    380
    384
    388
    392
    396
    400
    425
    450
    454
    458
    462
    466
    470
    474
    478
    482
    486
    490
    494
    498
    502
    506
    510
    514
    518
    522
    526
    530
    534
    538
    542
    546
    550
    575
    600
    604
    608
    612
    616
    620
    624
    628
    632
    636
    640
    644
    648
    652
    656
    660
    664
    668
    672
    676
    680
    684
    688
    692
    696
    700
    725
    750
    754
    758
    762
    766
    770
    774
    778
    782
    786
    790
    794
    798
    802
    806
    810
    814
    818
    822
    826
    830
    834
    838
    842
    846
    850
    875
    900
    904
    908
    912
    916
    920
    924
    928
    932
    936
    940
    944
    948
    952
    956
    960
    964
    968
    972
    976
    980
    984
    988
    992
    996
   1000
   1025
   1050
   1054
   1058
   1062
   1066
   1070
   1074
   1078
   1082
   1086
   1090
   1094
   1098
   1102
   1106
   1110
   1114
   1118
   1122
   1126
   1130
   1134
   1138
   1142
   1146
   1150
   1175
   1200
   1204
   1208
   1212
   1216
   1220
   1224
   1228
   1232
   1236
   1240
   1244
   1248
   1252
   1256
   1260
   1264
   1268
   1272
   1276
   1280
   1284
   1288
   1292
   1296
   1300
   1325
   1350
   1354
   1358
   1362
   1366
   1370
   1374
   1378
   1382
   1386
   1390
   1394
   1398
   1402
   1406
   1410
   1414
   1418
   1422
   1426
   1430
   1434
   1438
   1442
   1446
   1450
   1475
   1500
   1504
   1508
   1512
   1516
   1520
   1524
   1528
   1532
   1536
   1540
   1544
   1548
   1552
   1556
   1560
   1564
   1568
   1572
   1576
   1580
   1584
   1588
   1592
   1596
   1600
   1625
   1650
   1654
   1658
   1662
   1666
   1670
   1674
   1678
   1682
   1686
   1690
   1694
   1698
   1702
   1706
   1710
   1714
   1718
   1722
   1726
   1730
   1734
   1738
   1742
   1746
   1750
   1775
   1800
   1804
   1808
   1812
   1816
   1820
   1824
   1828
   1832
   1836
   1840
   1844
   1848
   1852
   1856
   1860
   1864
   1868
   1872
   1876
   1880
   1884
   1888
   1892
   1896
   1900
   1925
   1950
   1954
   1958
   1962
   1966
   1970
   1974
   1978
   1982
   1986
   1990
   1994
   1998
   2002
   2006
   2010
   2014
   2018
   2022
   2026
   2030
   2034
   2038
   2042
   2046
   2050
   2075
   2100
   2104
   2108
   2112
   2116
   2120
   2124
   2128
   2132
   2136
   2140
   2144
   2148
   2152
   2156
   2160
   2164
   2168
   2172
   2176
   2180
   2184
   2188
   2192
   2196
   2200
   2225
   2250
   2254
   2258
   2262
   2266
   2270
   2274
   2278
   2282
   2286
   2290
   2294
   2298
   2302
   2306
   2310
   2314
   2318
   2322
   2326
   2330
   2334
   2338
   2342
   2346
   2350
   2375
   2400
   2404
   2408
   2412
   2416
   2420
   2424
   2428
   2432
   2436
   2440
   2444
   2448
   2452
   2456
   2460
   2464
   2468
   2472
   2476
   2480
   2484
   2488
   2492
   2496
   2500
   2525
   2550
   2554
   2558
   2562
   2566
   2570
   2574
   2578
   2582
   2586
   2590
   2594
   2598
   2602
   2606
   2610
   2614
   2618
   2622
   2626
   2630
   2634
   2638
   2642
   2646
   2650
   2675
   2700
   2704
   2708
   2712
   2716
   2720
   2724
   2728
   2732
   2736
   2740
   2744
   2748
   2752
   2756
   2760
   2764
   2768
   2772
   2776
   2780
   2784
   2788
   2792
   2796
   2800
   2825
   2850
   2854
   2858
   2862
   2866
   2870
   2874
   2878
   2882
   2886
   2890
   2894
   2898
   2902
   2906
   2910
   2914
   2918
   2922
   2926
   2930
   2934
   2938
   2942
   2946
   2950
   2975
   3000
   3004
   3008
   3012
   3016
   3020
   3024
   3028
   3032
   3036
   3040
   3044
   3048
   3052
   3056
   3060
   3064
   3068
   3072
   3076
   3080
   3084
   3088
   3092
   3096
   3100
   3125
   3150
        </DataArray>
      </Polys>
    </Piece>
  </PolyData>
</VTKFile>
