<?xml version="1.0"?>
<VTKFile type="PolyData" version="0.1" byte_order="LittleEndian">
  <PolyData>
    <Piece NumberOfPoints="     19" NumberOfVerts="  0" NumberOfLines="     18"
           NumberOfStrips="  0" NumberOfPolys="      0">
      <Points>
        <DataArray type="Float32" NumberOfComponents="3" format="ascii">
                      -4.98365                       0.16433                      88.54818
                      -5.16764                       0.36152                      87.20827
                      -5.58128                       0.83954                      84.54677
                      -6.01573                       1.35726                      81.89372
                      -6.56981                       2.02829                      78.58207
                      -7.14321                       2.71281                      74.57811
                      -7.65569                       3.28093                      70.54901
                      -8.16634                       3.84610                      66.51920
                      -8.67351                       4.40700                      62.48824
                      -9.18005                       4.96483                      58.45669
                      -9.69017                       5.52223                      54.42547
                     -10.20507                       6.07742                      50.39449
                     -10.72792                       6.62958                      46.36408
                     -11.26220                       7.17778                      42.33464
                     -11.80921                       7.72186                      38.30645
                     -12.27722                       8.17140                      34.95087
                     -12.65828                       8.52079                      32.26612
                     -13.03274                       8.81544                      29.57292
                     -13.23651                       9.00056                      28.23418
        </DataArray>
      </Points>
      <PointData>
        <DataArray type="Float32" Name="TranslationalVelocity" NumberOfComponents="3" format="ascii">
                       0.02308                       1.90370                       0.26957
                       0.04542                       3.61564                       0.51844
                       0.09934                       7.01992                       1.12149
                       0.15670                      10.41324                       1.77421
                       0.22830                      14.64554                       2.61956
                       0.29415                      19.74364                       3.48116
                       0.33736                      24.85662                       4.19601
                       0.36840                      29.95976                       4.90724
                       0.38518                      35.05319                       5.61343
                       0.38651                      40.13675                       6.31633
                       0.37238                      45.21042                       7.01941
                       0.34339                      50.27554                       7.72053
                       0.30171                      55.33359                       8.41867
                       0.25112                      60.38647                       9.11258
                       0.19741                      65.43644                       9.80169
                       0.15601                      69.64455                      10.37103
                       0.12815                      73.01351                      10.81338
                       0.10279                      76.39437                      11.18697
                       0.09985                      78.07836                      11.42054
        </DataArray>
        <DataArray type="Float32" Name="RotationalVelocity" NumberOfComponents="3" format="ascii">
                       1.26207                       0.00027                      -0.11549
                       1.26178                       0.00034                      -0.11542
                       1.26097                       0.00064                      -0.11527
                       1.25990                       0.00118                      -0.11510
                       1.25827                       0.00225                      -0.11486
                       1.25602                       0.00413                      -0.11458
                       1.25356                       0.00667                      -0.11434
                       1.25102                       0.00978                      -0.11421
                       1.24846                       0.01333                      -0.11423
                       1.24597                       0.01713                      -0.11448
                       1.24363                       0.02094                      -0.11500
                       1.24152                       0.02446                      -0.11583
                       1.23972                       0.02731                      -0.11700
                       1.23837                       0.02910                      -0.11852
                       1.23760                       0.02935                      -0.12035
                       1.23751                       0.02807                      -0.12208
                       1.23791                       0.02578                      -0.12356
                       1.23882                       0.02218                      -0.12510
                       1.23949                       0.01984                      -0.12587
        </DataArray>
        <DataArray type="Float32" Name="TranslationalAcceleration" NumberOfComponents="3" format="ascii">
                       0.18346                      -0.45105                       2.36388
                       0.25548                      -0.45436                       2.86204
                       0.73542                      -1.41885                       8.16447
                       1.18012                      -2.36194                      13.02187
                       1.70569                      -3.49600                      18.67188
                       2.31945                      -4.58697                      25.10233
                       2.93532                      -5.45737                      31.36671
                       3.58919                      -6.31034                      37.58071
                       4.31678                      -7.15041                      43.82083
                       5.14277                      -7.97780                      50.11058
                       6.07232                      -8.79309                      56.43676
                       7.08174                      -9.59528                      62.76752
                       8.11132                     -10.39532                      69.06700
                       9.05789                     -11.22040                      75.31221
                       9.76850                     -12.12244                      81.50911
                      10.02042                     -12.99157                      86.67243
                       9.89294                     -13.79538                      90.84456
                       9.33628                     -14.68047                      95.12105
                       8.91200                     -15.24306                      97.29780
        </DataArray>
        <DataArray type="Float32" Name="OrientationX" NumberOfComponents="3" format="ascii">
                       0.86988                       0.49098                      -0.04733
                       0.86989                       0.49097                      -0.04724
                       0.86991                       0.49097                      -0.04695
                       0.86993                       0.49098                      -0.04652
                       0.86993                       0.49104                      -0.04585
                       0.88461                       0.46355                      -0.05091
                       0.89452                       0.44372                      -0.05423
                       0.90261                       0.42665                      -0.05706
                       0.91058                       0.40892                      -0.06027
                       0.91811                       0.39114                      -0.06387
                       0.92453                       0.37506                      -0.06763
                       0.93025                       0.35983                      -0.07184
                       0.93474                       0.34707                      -0.07624
                       0.93732                       0.33906                      -0.08045
                       0.93956                       0.33162                      -0.08523
                       0.94132                       0.32538                      -0.08968
                       0.94254                       0.32077                      -0.09342
                       0.94265                       0.31948                      -0.09669
                       0.94207                       0.32077                      -0.09801
        </DataArray>
        <DataArray type="Float32" Name="OrientationY" NumberOfComponents="3" format="ascii">
                       0.47484                      -0.85951                      -0.18911
                       0.47485                      -0.85952                      -0.18907
                       0.47490                      -0.85952                      -0.18893
                       0.47500                      -0.85950                      -0.18875
                       0.47519                      -0.85946                      -0.18847
                       0.44756                      -0.87458                      -0.18657
                       0.42768                      -0.88479                      -0.18504
                       0.41056                      -0.89314                      -0.18368
                       0.39274                      -0.90140                      -0.18229
                       0.37479                      -0.90928                      -0.18093
                       0.35848                      -0.91608                      -0.17970
                       0.34295                      -0.92223                      -0.17853
                       0.32979                      -0.92721                      -0.17754
                       0.32133                      -0.93029                      -0.17692
                       0.31335                      -0.93313                      -0.17631
                       0.30661                      -0.93547                      -0.17576
                       0.30157                      -0.93719                      -0.17531
                       0.29986                      -0.93776                      -0.17518
                       0.30094                      -0.93739                      -0.17530
        </DataArray>
        <DataArray type="Float32" Name="OrientationZ" NumberOfComponents="3" format="ascii">
                      -0.13354                       0.14203                      -0.98081
                      -0.13343                       0.14204                      -0.98083
                      -0.13311                       0.14206                      -0.98087
                      -0.13265                       0.14210                      -0.98092
                      -0.13195                       0.14217                      -0.98101
                      -0.13101                       0.14225                      -0.98112
                      -0.13009                       0.14233                      -0.98123
                      -0.12933                       0.14236                      -0.98133
                      -0.12887                       0.14232                      -0.98140
                      -0.12884                       0.14217                      -0.98142
                      -0.12935                       0.14189                      -0.98139
                      -0.13049                       0.14144                      -0.98131
                      -0.13231                       0.14081                      -0.98116
                      -0.13483                       0.13998                      -0.98093
                      -0.13800                       0.13895                      -0.98064
                      -0.14108                       0.13795                      -0.98034
                      -0.14379                       0.13707                      -0.98007
                      -0.14664                       0.13613                      -0.97978
                      -0.14810                       0.13566                      -0.97962
        </DataArray>
        <DataArray type="Float32" Name="Force" NumberOfComponents="3" format="ascii">
                      -0.03429                      -2.64371                      -0.37817
                     321.71598                     -55.13923                     -51.75088
                     379.09883                    -133.12376                     -70.72274
                     314.90342                    -167.86242                     -66.89169
                    1771.49234                    1363.37597                     -40.87671
                    2093.99764                    1536.37233                     -57.17974
                    1960.37305                    1209.18410                     -84.84655
                    1972.55531                    1048.15199                    -108.22722
                    1687.15321                     774.32626                    -109.45051
                    1360.29170                     544.18555                     -99.79717
                    1390.06570                     490.07052                    -112.26427
                    1070.91455                     330.09934                     -94.60946
                     480.22155                     111.75160                     -48.57532
                     328.10794                      71.28672                     -34.77276
                     -87.81156                     -65.05346                       2.93374
                    -440.90178                    -153.58780                      41.20083
                    -681.50979                    -206.47317                      70.07489
                    -750.44959                    -205.99648                      82.48191
                   -5260.21729                    -776.89275                     682.85566
        </DataArray>
        <DataArray type="Float32" Name="Moment" NumberOfComponents="3" format="ascii">
                       0.00000                       0.00000                       0.00000
                       0.00000                       0.00000                       0.00000
                       0.00000                       0.00000                       0.00000
                       0.00000                       0.00000                       0.00000
                      91.18886                     -98.15930                     677.94939
                     142.44583                    -154.44376                    1066.77849
                     169.30619                    -184.87458                    1277.08053
                     212.07371                    -232.94502                    1609.25630
                     271.60715                    -299.41185                    2068.51847
                     285.72618                    -315.05847                    2176.62155
                     301.45852                    -331.09871                    2287.33008
                     310.72360                    -338.29928                    2336.82813
                     230.12706                    -247.10164                    1706.58626
                     222.68710                    -234.64586                    1620.18423
                     213.89227                    -220.17874                    1519.84404
                     204.19562                    -205.59230                    1418.75147
                     183.68654                    -181.44622                    1251.80921
                      93.41441                     -90.46770                     623.97659
                     -31.10977                      29.82907                    -205.70992
        </DataArray>
      </PointData>
      <Lines>
        <DataArray type="Int32" Name="connectivity" format="ascii">
      0      1
      1      2
      2      3
      3      4
      4      5
      5      6
      6      7
      7      8
      8      9
      9     10
     10     11
     11     12
     12     13
     13     14
     14     15
     15     16
     16     17
     17     18
        </DataArray>
        <DataArray type="Int32" Name="offsets" format="ascii">
      2
      4
      6
      8
     10
     12
     14
     16
     18
     20
     22
     24
     26
     28
     30
     32
     34
     36
        </DataArray>
      </Lines>
    </Piece>
  </PolyData>
</VTKFile>
