<?xml version="1.0"?>
<VTKFile type="PolyData" version="0.1" byte_order="LittleEndian">
  <PolyData>
    <Piece NumberOfPoints="    625" NumberOfVerts="  0" NumberOfLines="      0"
           NumberOfStrips="  0" NumberOfPolys="    600">
      <Points>
        <DataArray type="Float32" NumberOfComponents="3" format="ascii">
                      -4.94969                      -0.48128                      88.57279
                      -4.94969                      -0.48128                      88.57279
                      -4.94969                      -0.48128                      88.57279
                      -4.94969                      -0.48128                      88.57279
                      -4.94969                      -0.48128                      88.57279
                      -4.94969                      -0.48128                      88.57279
                      -4.94969                      -0.48128                      88.57279
                      -4.94969                      -0.48128                      88.57279
                      -4.94969                      -0.48128                      88.57279
                      -4.94969                      -0.48128                      88.57279
                      -4.94969                      -0.48128                      88.57279
                      -4.94969                      -0.48128                      88.57279
                      -4.94969                      -0.48128                      88.57279
                      -4.94969                      -0.48128                      88.57279
                      -4.94969                      -0.48128                      88.57279
                      -4.94969                      -0.48128                      88.57279
                      -4.94969                      -0.48128                      88.57279
                      -4.94969                      -0.48128                      88.57279
                      -4.94969                      -0.48128                      88.57279
                      -4.94969                      -0.48128                      88.57279
                      -4.94969                      -0.48128                      88.57279
                      -4.94969                      -0.48128                      88.57279
                      -4.94969                      -0.48128                      88.57279
                      -4.94969                      -0.48128                      88.57279
                      -4.94969                      -0.48128                      88.57279
                      -4.34175                      -0.44893                      88.63886
                      -4.36401                      -0.30489                      88.60228
                      -4.42239                      -0.16991                      88.57141
                      -4.51321                      -0.05247                      88.54817
                      -4.63077                       0.04006                      88.53405
                      -4.76769                       0.10185                      88.52992
                      -4.91535                       0.12903                      88.53603
                      -5.06449                       0.11988                      88.55202
                      -5.20572                       0.07499                      88.57687
                      -5.33019                      -0.00283                      88.60902
                      -5.43006                      -0.10869                      88.64645
                      -5.49906                      -0.23593                      88.68681
                      -5.53286                      -0.37656                      88.72756
                      -5.52932                      -0.52175                      88.76615
                      -5.48869                      -0.66237                      88.80015
                      -5.41349                      -0.78959                      88.82741
                      -5.30847                      -0.89540                      88.84624
                      -5.18023                      -0.97317                      88.85544
                      -5.03681                      -1.01801                      88.85444
                      -4.88723                      -1.02710                      88.84330
                      -4.74088                      -0.99987                      88.82272
                      -4.60698                      -0.93802                      88.79400
                      -4.49392                      -0.84545                      88.75893
                      -4.40881                      -0.72798                      88.71973
                      -4.35700                      -0.59297                      88.67885
                      -4.10210                      -0.41665                      88.73837
                      -4.13289                      -0.21743                      88.68777
                      -4.21363                      -0.03073                      88.64507
                      -4.33925                       0.13171                      88.61294
                      -4.50185                       0.25968                      88.59340
                      -4.69122                       0.34514                      88.58768
                      -4.89546                       0.38273                      88.59615
                      -5.10173                       0.37008                      88.61826
                      -5.29708                       0.30799                      88.65262
                      -5.46923                       0.20036                      88.69709
                      -5.60737                       0.05394                      88.74886
                      -5.70280                      -0.12205                      88.80469
                      -5.74955                      -0.31656                      88.86106
                      -5.74466                      -0.51738                      88.91443
                      -5.68846                      -0.71187                      88.96145
                      -5.58446                      -0.88782                      88.99916
                      -5.43920                      -1.03418                      89.02520
                      -5.26182                      -1.14175                      89.03793
                      -5.06345                      -1.20377                      89.03655
                      -4.85656                      -1.21634                      89.02114
                      -4.65415                      -1.17867                      88.99268
                      -4.46894                      -1.09313                      88.95294
                      -4.31257                      -0.96510                      88.90444
                      -4.19485                      -0.80261                      88.85022
                      -4.12320                      -0.61589                      88.79367
                      -3.92885                      -0.38439                      88.84391
                      -3.96569                      -0.14600                      88.78337
                      -4.06231                       0.07740                      88.73227
                      -4.21262                       0.27177                      88.69382
                      -4.40719                       0.42490                      88.67044
                      -4.63378                       0.52717                      88.66360
                      -4.87817                       0.57215                      88.67372
                      -5.12500                       0.55701                      88.70018
                      -5.35875                       0.48271                      88.74131
                      -5.56475                       0.35392                      88.79451
                      -5.73003                       0.17872                      88.85646
                      -5.84423                      -0.03187                      88.92326
                      -5.90017                      -0.26462                      88.99071
                      -5.89432                      -0.50491                      89.05458
                      -5.82706                      -0.73764                      89.11084
                      -5.70262                      -0.94819                      89.15597
                      -5.52881                      -1.12332                      89.18713
                      -5.31655                      -1.25203                      89.20236
                      -5.07919                      -1.32624                      89.20070
                      -4.83163                      -1.34128                      89.18227
                      -4.58943                      -1.29621                      89.14821
                      -4.36781                      -1.19385                      89.10067
                      -4.18069                      -1.04065                      89.04263
                      -4.03984                      -0.84622                      88.97774
                      -3.95410                      -0.62279                      88.91008
                      -3.79258                      -0.35213                      88.95280
                      -3.83409                      -0.08350                      88.88458
                      -3.94296                       0.16824                      88.82700
                      -4.11234                       0.38728                      88.78367
                      -4.33160                       0.55983                      88.75733
                      -4.58694                       0.67508                      88.74962
                      -4.86234                       0.72576                      88.76103
                      -5.14048                       0.70870                      88.79084
                      -5.40389                       0.62498                      88.83718
                      -5.63602                       0.47984                      88.89714
                      -5.82228                       0.28242                      88.96695
                      -5.95096                       0.04511                      89.04223
                      -6.01400                      -0.21717                      89.11823
                      -6.00741                      -0.48795                      89.19020
                      -5.93162                      -0.75020                      89.25360
                      -5.79139                      -0.98746                      89.30445
                      -5.59552                      -1.18481                      89.33957
                      -5.35634                      -1.32985                      89.35673
                      -5.08886                      -1.41348                      89.35486
                      -4.80989                      -1.43043                      89.33409
                      -4.53696                      -1.37963                      89.29571
                      -4.28722                      -1.26429                      89.24214
                      -4.07637                      -1.09165                      89.17674
                      -3.91764                      -0.87256                      89.10362
                      -3.82102                      -0.62078                      89.02738
                      -3.68176                      -0.31988                      89.06401
                      -3.72700                      -0.02714                      88.98967
                      -3.84564                       0.24719                      88.92692
                      -4.03022                       0.48587                      88.87971
                      -4.26914                       0.67391                      88.85100
                      -4.54740                       0.79949                      88.84259
                      -4.84750                       0.85473                      88.85503
                      -5.15060                       0.83614                      88.88752
                      -5.43765                       0.74490                      88.93802
                      -5.69060                       0.58674                      89.00336
                      -5.89357                       0.37161                      89.07943
                      -6.03381                       0.11301                      89.16146
                      -6.10249                      -0.17281                      89.24428
                      -6.09531                      -0.46788                      89.32271
                      -6.01272                      -0.75367                      89.39180
                      -5.85991                      -1.01221                      89.44721
                      -5.64647                      -1.22727                      89.48548
                      -5.38583                      -1.38533                      89.50418
                      -5.09435                      -1.47645                      89.50215
                      -4.79035                      -1.49492                      89.47951
                      -4.49293                      -1.43957                      89.43768
                      -4.22079                      -1.31389                      89.37930
                      -3.99101                      -1.12576                      89.30803
                      -3.81804                      -0.88700                      89.22836
                      -3.71275                      -0.61263                      89.14527
                      -3.59048                      -0.28763                      89.17699
                      -3.63872                       0.02449                      89.09772
                      -3.76521                       0.31699                      89.03082
                      -3.96202                       0.57148                      88.98048
                      -4.21677                       0.77198                      88.94987
                      -4.51346                       0.90587                      88.94091
                      -4.83344                       0.96477                      88.95417
                      -5.15661                       0.94495                      88.98881
                      -5.46266                       0.84767                      89.04265
                      -5.73237                       0.67904                      89.11232
                      -5.94878                       0.44965                      89.19343
                      -6.09830                       0.17392                      89.28089
                      -6.17154                      -0.13082                      89.36920
                      -6.16388                      -0.44544                      89.45282
                      -6.07582                      -0.75015                      89.52649
                      -5.91289                      -1.02582                      89.58557
                      -5.68532                      -1.25512                      89.62637
                      -5.40741                      -1.42364                      89.64631
                      -5.09662                      -1.52080                      89.64414
                      -4.77249                      -1.54050                      89.62001
                      -4.45538                      -1.48148                      89.57541
                      -4.16521                      -1.34747                      89.51317
                      -3.92022                      -1.14688                      89.43718
                      -3.73580                      -0.89231                      89.35222
                      -3.62353                      -0.59977                      89.26364
                      -3.51528                      -0.25539                      89.29143
                      -3.56591                       0.07225                      89.20823
                      -3.69870                       0.37928                      89.13800
                      -3.90528                       0.64642                      89.08516
                      -4.17269                       0.85687                      89.05303
                      -4.48412                       0.99743                      89.04362
                      -4.82000                       1.05924                      89.05754
                      -5.15923                       1.03844                      89.09390
                      -5.48049                       0.93633                      89.15042
                      -5.76360                       0.75932                      89.22355
                      -5.99077                       0.51853                      89.30869
                      -6.14772                       0.22910                      89.40050
                      -6.22459                      -0.09078                      89.49320
                      -6.21656                      -0.42103                      89.58097
                      -6.12412                      -0.74089                      89.65829
                      -5.95309                      -1.03025                      89.72032
                      -5.71421                      -1.27095                      89.76314
                      -5.42249                      -1.44785                      89.78407
                      -5.09626                      -1.54984                      89.78180
                      -4.75603                      -1.57051                      89.75646
                      -4.42316                      -1.50856                      89.70965
                      -4.11857                      -1.36789                      89.64431
                      -3.86140                      -1.15733                      89.56455
                      -3.66782                      -0.89012                      89.47537
                      -3.54997                      -0.58304                      89.38238
                      -3.45395                      -0.22314                      89.40713
                      -3.50646                       0.11665                      89.32084
                      -3.64417                       0.43508                      89.24800
                      -3.85843                       0.71214                      89.19320
                      -4.13576                       0.93041                      89.15988
                      -4.45875                       1.07618                      89.15012
                      -4.80710                       1.14029                      89.16456
                      -5.15893                       1.11872                      89.20227
                      -5.49212                       1.01281                      89.26088
                      -5.78574                       0.82923                      89.33673
                      -6.02134                       0.57951                      89.42503
                      -6.18412                       0.27933                      89.52024
                      -6.26385                      -0.05243                      89.61639
                      -6.25551                      -0.39494                      89.70742
                      -6.15965                      -0.72667                      89.78761
                      -5.98226                      -1.02678                      89.85194
                      -5.73452                      -1.27641                      89.89635
                      -5.43197                      -1.45988                      89.91806
                      -5.09363                      -1.56565                      89.91570
                      -4.74076                      -1.58709                      89.88943
                      -4.39553                      -1.52284                      89.84088
                      -4.07963                      -1.37695                      89.77311
                      -3.81292                      -1.15857                      89.69039
                      -3.61215                      -0.88144                      89.59790
                      -3.48993                      -0.56296                      89.50146
                      -3.40503                      -0.19090                      89.52396
                      -3.45896                       0.15806                      89.43534
                      -3.60039                       0.48508                      89.36054
                      -3.82043                       0.76961                      89.30426
                      -4.10524                       0.99377                      89.27003
                      -4.43695                       1.14348                      89.26002
                      -4.79470                       1.20932                      89.27484
                      -5.15601                       1.18716                      89.31357
                      -5.49819                       1.07840                      89.37377
                      -5.79973                       0.88986                      89.45166
                      -6.04169                       0.63340                      89.54234
                      -6.20886                       0.32513                      89.64012
                      -6.29074                      -0.01559                      89.73886
                      -6.28219                      -0.36733                      89.83235
                      -6.18373                      -0.70801                      89.91471
                      -6.00156                      -1.01622                      89.98077
                      -5.74713                      -1.27259                      90.02638
                      -5.43642                      -1.46100                      90.04868
                      -5.08895                      -1.56963                      90.04625
                      -4.72656                      -1.59165                      90.01927
                      -4.37202                      -1.52567                      89.96941
                      -4.04760                      -1.37584                      89.89982
                      -3.77369                      -1.15157                      89.81486
                      -3.56750                      -0.86696                      89.71988
                      -3.44199                      -0.53989                      89.62083
                      -3.36758                      -0.15867                      89.64183
                      -3.42250                       0.19670                      89.55158
                      -3.56652                       0.52973                      89.47541
                      -3.79059                       0.81948                      89.41809
                      -4.08064                       1.04775                      89.38324
                      -4.41843                       1.20020                      89.37304
                      -4.78274                       1.26725                      89.38814
                      -5.15069                       1.24469                      89.42757
                      -5.49915                       1.13393                      89.48888
                      -5.80622                       0.94193                      89.56820
                      -6.05262                       0.68077                      89.66055
                      -6.22286                       0.36684                      89.76012
                      -6.30624                       0.01987                      89.86067
                      -6.29752                      -0.33833                      89.95587
                      -6.19726                      -0.68527                      90.03975
                      -6.01175                      -0.99913                      90.10702
                      -5.75265                      -1.26020                      90.15347
                      -5.43624                      -1.45207                      90.17617
                      -5.08239                      -1.56269                      90.17371
                      -4.71335                      -1.58512                      90.14622
                      -4.35230                      -1.51793                      90.09545
                      -4.02193                      -1.36535                      90.02458
                      -3.74300                      -1.13696                      89.93806
                      -3.53302                      -0.84713                      89.84134
                      -3.40521                      -0.51405                      89.74048
                      -3.34096                      -0.12643                      89.76068
                      -3.39647                       0.23273                      89.66947
                      -3.54202                       0.56930                      89.59248
                      -3.76849                       0.86214                      89.53456
                      -4.06162                       1.09284                      89.49934
                      -4.40301                       1.24692                      89.48903
                      -4.77121                       1.31468                      89.50429
                      -5.14308                       1.29188                      89.54414
                      -5.49525                       1.17994                      89.60610
                      -5.80560                       0.98590                      89.68627
                      -6.05462                       0.72195                      89.77960
                      -6.22667                       0.40467                      89.88024
                      -6.31094                       0.05401                      89.98186
                      -6.30214                      -0.30801                      90.07807
                      -6.20081                      -0.65864                      90.16284
                      -6.01332                      -0.97585                      90.23083
                      -5.75146                      -1.23970                      90.27778
                      -5.43167                      -1.43362                      90.30072
                      -5.07406                      -1.54542                      90.29823
                      -4.70108                      -1.56808                      90.27045
                      -4.33619                      -1.50018                      90.21914
                      -4.00229                      -1.34597                      90.14751
                      -3.72038                      -1.11515                      90.06008
                      -3.50817                      -0.82223                      89.96232
                      -3.37899                      -0.48561                      89.86039
                      -3.32485                      -0.09420                      89.88049
                      -3.38055                       0.26621                      89.78896
                      -3.52661                       0.60396                      89.71170
                      -3.75387                       0.89782                      89.65358
                      -4.04802                       1.12933                      89.61823
                      -4.39061                       1.28394                      89.60789
                      -4.76009                       1.35195                      89.62320
                      -5.13326                       1.32906                      89.66319
                      -5.48666                       1.21673                      89.72537
                      -5.79809                       1.02201                      89.80581
                      -6.04798                       0.75714                      89.89947
                      -6.22063                       0.43876                      90.00046
                      -6.30520                       0.08687                      90.10244
                      -6.29636                      -0.27641                      90.19899
                      -6.19468                      -0.62827                      90.28405
                      -6.00654                      -0.94658                      90.35228
                      -5.74376                      -1.21135                      90.39939
                      -5.42286                      -1.40595                      90.42241
                      -5.06399                      -1.51814                      90.41991
                      -4.68972                      -1.54088                      90.39204
                      -4.32355                      -1.47274                      90.34055
                      -3.98849                      -1.31799                      90.26867
                      -3.70560                      -1.08637                      90.18093
                      -3.49265                      -0.79243                      90.08283
                      -3.36301                      -0.45463                      89.98054
                      -3.31913                      -0.06197                      90.00124
                      -3.37464                       0.29719                      89.91003
                      -3.52019                       0.63376                      89.83304
                      -3.74665                       0.92660                      89.77512
                      -4.03979                       1.15731                      89.73990
                      -4.38118                       1.31138                      89.72959
                      -4.74938                       1.37915                      89.74484
                      -5.12125                       1.35634                      89.78470
                      -5.47342                       1.24440                      89.84666
                      -5.78377                       1.05036                      89.92682
                      -6.03279                       0.78641                      90.02016
                      -6.20484                       0.46914                      90.12080
                      -6.28911                       0.11847                      90.22242
                      -6.28031                      -0.24355                      90.31863
                      -6.17897                      -0.59418                      90.40340
                      -5.99149                      -0.91138                      90.47139
                      -5.72962                      -1.17524                      90.51833
                      -5.40984                      -1.36916                      90.54128
                      -5.05223                      -1.48096                      90.53879
                      -4.67925                      -1.50362                      90.51101
                      -4.31435                      -1.43571                      90.45970
                      -3.98046                      -1.28150                      90.38807
                      -3.69855                      -1.05069                      90.30063
                      -3.48634                      -0.75777                      90.20288
                      -3.35716                      -0.42114                      90.10094
                      -3.32391                      -0.02974                      90.12294
                      -3.37883                       0.32563                      90.03269
                      -3.52286                       0.65866                      89.95652
                      -3.74693                       0.94841                      89.89921
                      -4.03697                       1.17668                      89.86436
                      -4.37476                       1.32913                      89.85416
                      -4.73908                       1.39618                      89.86925
                      -5.10703                       1.37362                      89.90869
                      -5.45548                       1.26286                      89.96999
                      -5.76256                       1.07086                      90.04931
                      -6.00896                       0.80970                      90.14166
                      -6.17919                       0.49577                      90.24124
                      -6.26258                       0.14880                      90.34179
                      -6.25386                      -0.20940                      90.43699
                      -6.15360                      -0.55634                      90.52086
                      -5.96809                      -0.87020                      90.58813
                      -5.70899                      -1.13127                      90.63458
                      -5.39258                      -1.32314                      90.65729
                      -5.03873                      -1.43376                      90.65482
                      -4.66969                      -1.45619                      90.62734
                      -4.30864                      -1.38899                      90.57657
                      -3.97827                      -1.23642                      90.50570
                      -3.69934                      -1.00803                      90.41918
                      -3.48936                      -0.71820                      90.32245
                      -3.36154                      -0.38512                      90.22159
                      -3.33954                       0.00249                      90.24563
                      -3.39347                       0.35146                      90.15701
                      -3.53490                       0.67848                      90.08221
                      -3.75493                       0.96301                      90.02593
                      -4.03975                       1.18717                      89.99170
                      -4.37146                       1.33687                      89.98169
                      -4.72921                       1.40271                      89.99651
                      -5.09052                       1.38056                      90.03524
                      -5.43270                       1.27179                      90.09544
                      -5.73424                       1.08326                      90.17333
                      -5.97620                       0.82680                      90.26401
                      -6.14337                       0.51852                      90.36180
                      -6.22525                       0.17781                      90.46053
                      -6.21669                      -0.17394                      90.55402
                      -6.11824                      -0.51462                      90.63638
                      -5.93607                      -0.82283                      90.70244
                      -5.68164                      -1.07919                      90.74805
                      -5.37093                      -1.26761                      90.77035
                      -5.02346                      -1.37624                      90.76792
                      -4.66107                      -1.39825                      90.74094
                      -4.30652                      -1.33227                      90.69108
                      -3.98211                      -1.18244                      90.62149
                      -3.70820                      -0.95818                      90.53653
                      -3.50201                      -0.67357                      90.44155
                      -3.37649                      -0.34649                      90.34251
                      -3.36662                       0.03472                      90.36936
                      -3.41914                       0.37451                      90.28307
                      -3.55685                       0.69295                      90.21023
                      -3.77110                       0.97000                      90.15543
                      -4.04844                       1.18827                      90.12210
                      -4.37143                       1.33404                      90.11235
                      -4.71978                       1.39815                      90.12678
                      -5.07160                       1.37658                      90.16449
                      -5.40479                       1.27067                      90.22311
                      -5.69841                       1.08709                      90.29896
                      -5.93401                       0.83737                      90.38726
                      -6.09679                       0.53719                      90.48247
                      -6.17652                       0.20543                      90.57862
                      -6.16819                      -0.13708                      90.66965
                      -6.07232                      -0.46881                      90.74984
                      -5.89494                      -0.76892                      90.81417
                      -5.64719                      -1.01855                      90.85858
                      -5.34464                      -1.20202                      90.88029
                      -5.00630                      -1.30779                      90.87793
                      -4.65343                      -1.32923                      90.85165
                      -4.30820                      -1.26498                      90.80311
                      -3.99231                      -1.11909                      90.73534
                      -3.72560                      -0.90071                      90.65262
                      -3.52482                      -0.62358                      90.56013
                      -3.40261                      -0.30510                      90.46369
                      -3.40613                       0.06694                      90.49422
                      -3.45676                       0.39457                      90.41101
                      -3.58954                       0.70161                      90.34078
                      -3.79613                       0.96874                      90.28794
                      -4.06353                       1.17920                      90.25581
                      -4.37496                       1.31975                      90.24641
                      -4.71084                       1.38157                      90.26032
                      -5.05007                       1.36077                      90.29668
                      -5.37134                       1.25865                      90.35320
                      -5.65444                       1.08164                      90.42633
                      -5.88161                       0.84086                      90.51147
                      -6.03856                       0.55143                      90.60328
                      -6.11544                       0.23154                      90.69598
                      -6.10740                      -0.09871                      90.78375
                      -6.01497                      -0.41856                      90.86108
                      -5.84394                      -0.70793                      90.92310
                      -5.60506                      -0.94862                      90.96593
                      -5.31334                      -1.12552                      90.98686
                      -4.98711                      -1.22751                      90.98458
                      -4.64687                      -1.24818                      90.95925
                      -4.31400                      -1.18624                      90.91244
                      -4.00941                      -1.04556                      90.84710
                      -3.75225                      -0.83501                      90.76733
                      -3.55866                      -0.56779                      90.67816
                      -3.44082                      -0.26071                      90.58517
                      -3.45950                       0.09916                      90.62033
                      -3.50773                       0.41128                      90.54107
                      -3.63423                       0.70378                      90.47416
                      -3.83103                       0.95827                      90.42382
                      -4.08578                       1.15877                      90.39321
                      -4.38247                       1.29266                      90.38425
                      -4.70245                       1.35156                      90.39751
                      -5.02562                       1.33174                      90.43215
                      -5.33168                       1.23446                      90.48600
                      -5.60138                       1.06583                      90.55566
                      -5.81780                       0.83644                      90.63677
                      -5.96732                       0.56071                      90.72423
                      -6.04055                       0.25597                      90.81255
                      -6.03290                      -0.05864                      90.89616
                      -5.94484                      -0.36336                      90.96983
                      -5.78190                      -0.63903                      91.02892
                      -5.55433                      -0.86833                      91.06971
                      -5.27642                      -1.03685                      91.08965
                      -4.96564                      -1.13401                      91.08749
                      -4.64151                      -1.15371                      91.06335
                      -4.32439                      -1.09469                      91.01875
                      -4.03423                      -0.96068                      90.95651
                      -3.78923                      -0.76009                      90.88052
                      -3.60481                      -0.50552                      90.79556
                      -3.49255                      -0.21298                      90.70698
                      -3.52894                       0.13138                      90.74791
                      -3.57418                       0.42411                      90.67356
                      -3.69282                       0.69844                      90.61082
                      -3.87740                       0.93713                      90.56360
                      -4.11632                       1.12517                      90.53490
                      -4.39458                       1.25075                      90.52649
                      -4.69469                       1.30598                      90.53893
                      -4.99778                       1.28740                      90.57141
                      -5.28483                       1.19616                      90.62191
                      -5.53778                       1.03800                      90.68725
                      -5.74075                       0.82286                      90.76333
                      -5.88099                       0.56426                      90.84535
                      -5.94967                       0.27845                      90.92818
                      -5.94250                      -0.01663                      91.00660
                      -5.85991                      -0.30241                      91.07569
                      -5.70709                      -0.56096                      91.13111
                      -5.49365                      -0.77601                      91.16937
                      -5.23301                      -0.93407                      91.18808
                      -4.94153                      -1.02520                      91.18604
                      -4.63753                      -1.04367                      91.16341
                      -4.34011                      -0.98832                      91.12158
                      -4.06797                      -0.86263                      91.06320
                      -3.83819                      -0.67450                      90.99193
                      -3.66523                      -0.43575                      90.91226
                      -3.55994                      -0.16138                      90.82917
                      -3.61793                       0.16359                      90.87726
                      -3.65944                       0.43222                      90.80904
                      -3.76831                       0.68397                      90.75145
                      -3.93770                       0.90300                      90.70813
                      -4.15695                       1.07555                      90.68178
                      -4.41230                       1.19080                      90.67407
                      -4.68769                       1.24148                      90.68548
                      -4.96583                       1.22443                      90.71530
                      -5.22924                       1.14070                      90.76164
                      -5.46137                       0.99557                      90.82160
                      -5.64763                       0.79814                      90.89141
                      -5.77632                       0.56083                      90.96668
                      -5.83935                       0.29855                      91.04269
                      -5.83276                       0.02777                      91.11465
                      -5.75697                      -0.23448                      91.17806
                      -5.61674                      -0.47174                      91.22891
                      -5.42087                      -0.66909                      91.26402
                      -5.18169                      -0.81413                      91.28118
                      -4.91421                      -0.89776                      91.27932
                      -4.63524                      -0.91470                      91.25854
                      -4.36231                      -0.86391                      91.22016
                      -4.11258                      -0.74857                      91.16659
                      -3.90172                      -0.57593                      91.10119
                      -3.74299                      -0.35684                      91.02807
                      -3.64637                      -0.10506                      90.95183
                      -3.73237                       0.19580                      91.00892
                      -3.76922                       0.43419                      90.94838
                      -3.86583                       0.65759                      90.89728
                      -4.01614                       0.85196                      90.85883
                      -4.21071                       1.00509                      90.83545
                      -4.43731                       1.10735                      90.82861
                      -4.68170                       1.15233                      90.83874
                      -4.92852                       1.13720                      90.86519
                      -5.16227                       1.06290                      90.90632
                      -5.36827                       0.93410                      90.95953
                      -5.53355                       0.75891                      91.02148
                      -5.64775                       0.54832                      91.08827
                      -5.70369                       0.31556                      91.15572
                      -5.69784                       0.07527                      91.21959
                      -5.63058                      -0.15746                      91.27585
                      -5.50614                      -0.36800                      91.32098
                      -5.33233                      -0.54313                      91.35214
                      -5.12007                      -0.67184                      91.36737
                      -4.88271                      -0.74605                      91.36571
                      -4.63515                      -0.76109                      91.34728
                      -4.39295                      -0.71602                      91.31322
                      -4.17133                      -0.61367                      91.26568
                      -3.98421                      -0.46046                      91.20764
                      -3.84336                      -0.26604                      91.14276
                      -3.75762                      -0.04260                      91.07510
                      -3.88379                       0.22800                      91.14394
                      -3.91458                       0.42722                      91.09334
                      -3.99532                       0.61392                      91.05064
                      -4.12094                       0.77636                      91.01851
                      -4.28354                       0.90433                      90.99897
                      -4.47291                       0.98980                      90.99325
                      -4.67715                       1.02738                      91.00172
                      -4.88342                       1.01474                      91.02382
                      -5.07877                       0.95264                      91.05819
                      -5.25092                       0.84501                      91.10266
                      -5.38906                       0.69860                      91.15443
                      -5.48449                       0.52260                      91.21026
                      -5.53124                       0.32809                      91.26663
                      -5.52635                       0.12728                      91.32000
                      -5.47015                      -0.06722                      91.36702
                      -5.36615                      -0.24317                      91.40473
                      -5.22089                      -0.38953                      91.43077
                      -5.04351                      -0.49710                      91.44350
                      -4.84514                      -0.55912                      91.44212
                      -4.63825                      -0.57169                      91.42671
                      -4.43584                      -0.53402                      91.39825
                      -4.25063                      -0.44848                      91.35851
                      -4.09426                      -0.32045                      91.31001
                      -3.97654                      -0.15796                      91.25579
                      -3.90489                       0.02876                      91.19924
                      -4.10161                       0.26019                      91.28499
                      -4.12387                       0.40423                      91.24841
                      -4.18225                       0.53921                      91.21753
                      -4.27307                       0.65665                      91.19430
                      -4.39063                       0.74917                      91.18018
                      -4.52754                       0.81097                      91.17604
                      -4.67521                       0.83814                      91.18216
                      -4.82435                       0.82900                      91.19814
                      -4.96558                       0.78410                      91.22299
                      -5.09005                       0.70628                      91.25514
                      -5.18992                       0.60043                      91.29257
                      -5.25892                       0.47319                      91.33293
                      -5.29272                       0.33255                      91.37369
                      -5.28918                       0.18736                      91.41228
                      -5.24854                       0.04675                      91.44627
                      -5.17335                      -0.08047                      91.47354
                      -5.06833                      -0.18629                      91.49237
                      -4.94009                      -0.26406                      91.50157
                      -4.79666                      -0.30890                      91.50057
                      -4.64708                      -0.31798                      91.48943
                      -4.50074                      -0.29075                      91.46885
                      -4.36684                      -0.22891                      91.44012
                      -4.25378                      -0.13634                      91.40506
                      -4.16867                      -0.01886                      91.36585
                      -4.11686                       0.11614                      91.32497
                      -4.68772                       0.29231                      91.45948
                      -4.68772                       0.29231                      91.45948
                      -4.68772                       0.29231                      91.45948
                      -4.68772                       0.29231                      91.45948
                      -4.68772                       0.29231                      91.45948
                      -4.68772                       0.29231                      91.45948
                      -4.68772                       0.29231                      91.45948
                      -4.68772                       0.29231                      91.45948
                      -4.68772                       0.29231                      91.45948
                      -4.68772                       0.29231                      91.45948
                      -4.68772                       0.29231                      91.45948
                      -4.68772                       0.29231                      91.45948
                      -4.68772                       0.29231                      91.45948
                      -4.68772                       0.29231                      91.45948
                      -4.68772                       0.29231                      91.45948
                      -4.68772                       0.29231                      91.45948
                      -4.68772                       0.29231                      91.45948
                      -4.68772                       0.29231                      91.45948
                      -4.68772                       0.29231                      91.45948
                      -4.68772                       0.29231                      91.45948
                      -4.68772                       0.29231                      91.45948
                      -4.68772                       0.29231                      91.45948
                      -4.68772                       0.29231                      91.45948
                      -4.68772                       0.29231                      91.45948
                      -4.68772                       0.29231                      91.45948
        </DataArray>
      </Points>
      <Polys>
        <DataArray type="Int32" Name="connectivity" format="ascii">
      0      1     26     25
      1      2     27     26
      2      3     28     27
      3      4     29     28
      4      5     30     29
      5      6     31     30
      6      7     32     31
      7      8     33     32
      8      9     34     33
      9     10     35     34
     10     11     36     35
     11     12     37     36
     12     13     38     37
     13     14     39     38
     14     15     40     39
     15     16     41     40
     16     17     42     41
     17     18     43     42
     18     19     44     43
     19     20     45     44
     20     21     46     45
     21     22     47     46
     22     23     48     47
     23     24     49     48
     24      0     25     49
     25     26     51     50
     26     27     52     51
     27     28     53     52
     28     29     54     53
     29     30     55     54
     30     31     56     55
     31     32     57     56
     32     33     58     57
     33     34     59     58
     34     35     60     59
     35     36     61     60
     36     37     62     61
     37     38     63     62
     38     39     64     63
     39     40     65     64
     40     41     66     65
     41     42     67     66
     42     43     68     67
     43     44     69     68
     44     45     70     69
     45     46     71     70
     46     47     72     71
     47     48     73     72
     48     49     74     73
     49     25     50     74
     50     51     76     75
     51     52     77     76
     52     53     78     77
     53     54     79     78
     54     55     80     79
     55     56     81     80
     56     57     82     81
     57     58     83     82
     58     59     84     83
     59     60     85     84
     60     61     86     85
     61     62     87     86
     62     63     88     87
     63     64     89     88
     64     65     90     89
     65     66     91     90
     66     67     92     91
     67     68     93     92
     68     69     94     93
     69     70     95     94
     70     71     96     95
     71     72     97     96
     72     73     98     97
     73     74     99     98
     74     50     75     99
     75     76    101    100
     76     77    102    101
     77     78    103    102
     78     79    104    103
     79     80    105    104
     80     81    106    105
     81     82    107    106
     82     83    108    107
     83     84    109    108
     84     85    110    109
     85     86    111    110
     86     87    112    111
     87     88    113    112
     88     89    114    113
     89     90    115    114
     90     91    116    115
     91     92    117    116
     92     93    118    117
     93     94    119    118
     94     95    120    119
     95     96    121    120
     96     97    122    121
     97     98    123    122
     98     99    124    123
     99     75    100    124
    100    101    126    125
    101    102    127    126
    102    103    128    127
    103    104    129    128
    104    105    130    129
    105    106    131    130
    106    107    132    131
    107    108    133    132
    108    109    134    133
    109    110    135    134
    110    111    136    135
    111    112    137    136
    112    113    138    137
    113    114    139    138
    114    115    140    139
    115    116    141    140
    116    117    142    141
    117    118    143    142
    118    119    144    143
    119    120    145    144
    120    121    146    145
    121    122    147    146
    122    123    148    147
    123    124    149    148
    124    100    125    149
    125    126    151    150
    126    127    152    151
    127    128    153    152
    128    129    154    153
    129    130    155    154
    130    131    156    155
    131    132    157    156
    132    133    158    157
    133    134    159    158
    134    135    160    159
    135    136    161    160
    136    137    162    161
    137    138    163    162
    138    139    164    163
    139    140    165    164
    140    141    166    165
    141    142    167    166
    142    143    168    167
    143    144    169    168
    144    145    170    169
    145    146    171    170
    146    147    172    171
    147    148    173    172
    148    149    174    173
    149    125    150    174
    150    151    176    175
    151    152    177    176
    152    153    178    177
    153    154    179    178
    154    155    180    179
    155    156    181    180
    156    157    182    181
    157    158    183    182
    158    159    184    183
    159    160    185    184
    160    161    186    185
    161    162    187    186
    162    163    188    187
    163    164    189    188
    164    165    190    189
    165    166    191    190
    166    167    192    191
    167    168    193    192
    168    169    194    193
    169    170    195    194
    170    171    196    195
    171    172    197    196
    172    173    198    197
    173    174    199    198
    174    150    175    199
    175    176    201    200
    176    177    202    201
    177    178    203    202
    178    179    204    203
    179    180    205    204
    180    181    206    205
    181    182    207    206
    182    183    208    207
    183    184    209    208
    184    185    210    209
    185    186    211    210
    186    187    212    211
    187    188    213    212
    188    189    214    213
    189    190    215    214
    190    191    216    215
    191    192    217    216
    192    193    218    217
    193    194    219    218
    194    195    220    219
    195    196    221    220
    196    197    222    221
    197    198    223    222
    198    199    224    223
    199    175    200    224
    200    201    226    225
    201    202    227    226
    202    203    228    227
    203    204    229    228
    204    205    230    229
    205    206    231    230
    206    207    232    231
    207    208    233    232
    208    209    234    233
    209    210    235    234
    210    211    236    235
    211    212    237    236
    212    213    238    237
    213    214    239    238
    214    215    240    239
    215    216    241    240
    216    217    242    241
    217    218    243    242
    218    219    244    243
    219    220    245    244
    220    221    246    245
    221    222    247    246
    222    223    248    247
    223    224    249    248
    224    200    225    249
    225    226    251    250
    226    227    252    251
    227    228    253    252
    228    229    254    253
    229    230    255    254
    230    231    256    255
    231    232    257    256
    232    233    258    257
    233    234    259    258
    234    235    260    259
    235    236    261    260
    236    237    262    261
    237    238    263    262
    238    239    264    263
    239    240    265    264
    240    241    266    265
    241    242    267    266
    242    243    268    267
    243    244    269    268
    244    245    270    269
    245    246    271    270
    246    247    272    271
    247    248    273    272
    248    249    274    273
    249    225    250    274
    250    251    276    275
    251    252    277    276
    252    253    278    277
    253    254    279    278
    254    255    280    279
    255    256    281    280
    256    257    282    281
    257    258    283    282
    258    259    284    283
    259    260    285    284
    260    261    286    285
    261    262    287    286
    262    263    288    287
    263    264    289    288
    264    265    290    289
    265    266    291    290
    266    267    292    291
    267    268    293    292
    268    269    294    293
    269    270    295    294
    270    271    296    295
    271    272    297    296
    272    273    298    297
    273    274    299    298
    274    250    275    299
    275    276    301    300
    276    277    302    301
    277    278    303    302
    278    279    304    303
    279    280    305    304
    280    281    306    305
    281    282    307    306
    282    283    308    307
    283    284    309    308
    284    285    310    309
    285    286    311    310
    286    287    312    311
    287    288    313    312
    288    289    314    313
    289    290    315    314
    290    291    316    315
    291    292    317    316
    292    293    318    317
    293    294    319    318
    294    295    320    319
    295    296    321    320
    296    297    322    321
    297    298    323    322
    298    299    324    323
    299    275    300    324
    300    301    326    325
    301    302    327    326
    302    303    328    327
    303    304    329    328
    304    305    330    329
    305    306    331    330
    306    307    332    331
    307    308    333    332
    308    309    334    333
    309    310    335    334
    310    311    336    335
    311    312    337    336
    312    313    338    337
    313    314    339    338
    314    315    340    339
    315    316    341    340
    316    317    342    341
    317    318    343    342
    318    319    344    343
    319    320    345    344
    320    321    346    345
    321    322    347    346
    322    323    348    347
    323    324    349    348
    324    300    325    349
    325    326    351    350
    326    327    352    351
    327    328    353    352
    328    329    354    353
    329    330    355    354
    330    331    356    355
    331    332    357    356
    332    333    358    357
    333    334    359    358
    334    335    360    359
    335    336    361    360
    336    337    362    361
    337    338    363    362
    338    339    364    363
    339    340    365    364
    340    341    366    365
    341    342    367    366
    342    343    368    367
    343    344    369    368
    344    345    370    369
    345    346    371    370
    346    347    372    371
    347    348    373    372
    348    349    374    373
    349    325    350    374
    350    351    376    375
    351    352    377    376
    352    353    378    377
    353    354    379    378
    354    355    380    379
    355    356    381    380
    356    357    382    381
    357    358    383    382
    358    359    384    383
    359    360    385    384
    360    361    386    385
    361    362    387    386
    362    363    388    387
    363    364    389    388
    364    365    390    389
    365    366    391    390
    366    367    392    391
    367    368    393    392
    368    369    394    393
    369    370    395    394
    370    371    396    395
    371    372    397    396
    372    373    398    397
    373    374    399    398
    374    350    375    399
    375    376    401    400
    376    377    402    401
    377    378    403    402
    378    379    404    403
    379    380    405    404
    380    381    406    405
    381    382    407    406
    382    383    408    407
    383    384    409    408
    384    385    410    409
    385    386    411    410
    386    387    412    411
    387    388    413    412
    388    389    414    413
    389    390    415    414
    390    391    416    415
    391    392    417    416
    392    393    418    417
    393    394    419    418
    394    395    420    419
    395    396    421    420
    396    397    422    421
    397    398    423    422
    398    399    424    423
    399    375    400    424
    400    401    426    425
    401    402    427    426
    402    403    428    427
    403    404    429    428
    404    405    430    429
    405    406    431    430
    406    407    432    431
    407    408    433    432
    408    409    434    433
    409    410    435    434
    410    411    436    435
    411    412    437    436
    412    413    438    437
    413    414    439    438
    414    415    440    439
    415    416    441    440
    416    417    442    441
    417    418    443    442
    418    419    444    443
    419    420    445    444
    420    421    446    445
    421    422    447    446
    422    423    448    447
    423    424    449    448
    424    400    425    449
    425    426    451    450
    426    427    452    451
    427    428    453    452
    428    429    454    453
    429    430    455    454
    430    431    456    455
    431    432    457    456
    432    433    458    457
    433    434    459    458
    434    435    460    459
    435    436    461    460
    436    437    462    461
    437    438    463    462
    438    439    464    463
    439    440    465    464
    440    441    466    465
    441    442    467    466
    442    443    468    467
    443    444    469    468
    444    445    470    469
    445    446    471    470
    446    447    472    471
    447    448    473    472
    448    449    474    473
    449    425    450    474
    450    451    476    475
    451    452    477    476
    452    453    478    477
    453    454    479    478
    454    455    480    479
    455    456    481    480
    456    457    482    481
    457    458    483    482
    458    459    484    483
    459    460    485    484
    460    461    486    485
    461    462    487    486
    462    463    488    487
    463    464    489    488
    464    465    490    489
    465    466    491    490
    466    467    492    491
    467    468    493    492
    468    469    494    493
    469    470    495    494
    470    471    496    495
    471    472    497    496
    472    473    498    497
    473    474    499    498
    474    450    475    499
    475    476    501    500
    476    477    502    501
    477    478    503    502
    478    479    504    503
    479    480    505    504
    480    481    506    505
    481    482    507    506
    482    483    508    507
    483    484    509    508
    484    485    510    509
    485    486    511    510
    486    487    512    511
    487    488    513    512
    488    489    514    513
    489    490    515    514
    490    491    516    515
    491    492    517    516
    492    493    518    517
    493    494    519    518
    494    495    520    519
    495    496    521    520
    496    497    522    521
    497    498    523    522
    498    499    524    523
    499    475    500    524
    500    501    526    525
    501    502    527    526
    502    503    528    527
    503    504    529    528
    504    505    530    529
    505    506    531    530
    506    507    532    531
    507    508    533    532
    508    509    534    533
    509    510    535    534
    510    511    536    535
    511    512    537    536
    512    513    538    537
    513    514    539    538
    514    515    540    539
    515    516    541    540
    516    517    542    541
    517    518    543    542
    518    519    544    543
    519    520    545    544
    520    521    546    545
    521    522    547    546
    522    523    548    547
    523    524    549    548
    524    500    525    549
    525    526    551    550
    526    527    552    551
    527    528    553    552
    528    529    554    553
    529    530    555    554
    530    531    556    555
    531    532    557    556
    532    533    558    557
    533    534    559    558
    534    535    560    559
    535    536    561    560
    536    537    562    561
    537    538    563    562
    538    539    564    563
    539    540    565    564
    540    541    566    565
    541    542    567    566
    542    543    568    567
    543    544    569    568
    544    545    570    569
    545    546    571    570
    546    547    572    571
    547    548    573    572
    548    549    574    573
    549    525    550    574
    550    551    576    575
    551    552    577    576
    552    553    578    577
    553    554    579    578
    554    555    580    579
    555    556    581    580
    556    557    582    581
    557    558    583    582
    558    559    584    583
    559    560    585    584
    560    561    586    585
    561    562    587    586
    562    563    588    587
    563    564    589    588
    564    565    590    589
    565    566    591    590
    566    567    592    591
    567    568    593    592
    568    569    594    593
    569    570    595    594
    570    571    596    595
    571    572    597    596
    572    573    598    597
    573    574    599    598
    574    550    575    599
    575    576    601    600
    576    577    602    601
    577    578    603    602
    578    579    604    603
    579    580    605    604
    580    581    606    605
    581    582    607    606
    582    583    608    607
    583    584    609    608
    584    585    610    609
    585    586    611    610
    586    587    612    611
    587    588    613    612
    588    589    614    613
    589    590    615    614
    590    591    616    615
    591    592    617    616
    592    593    618    617
    593    594    619    618
    594    595    620    619
    595    596    621    620
    596    597    622    621
    597    598    623    622
    598    599    624    623
    599    575    600    624
        </DataArray>
        <DataArray type="Int32" Name="offsets" format="ascii">
      4
      8
     12
     16
     20
     24
     28
     32
     36
     40
     44
     48
     52
     56
     60
     64
     68
     72
     76
     80
     84
     88
     92
     96
    100
    104
    108
    112
    116
    120
    124
    128
    132
    136
    140
    144
    148
    152
    156
    160
    164
    168
    172
    176
    180
    184
    188
    192
    196
    200
    204
    208
    212
    216
    220
    224
    228
    232
    236
    240
    244
    248
    252
    256
    260
    264
    268
    272
    276
    280
    284
    288
    292
    296
    300
    304
    308
    312
    316
    320
    324
    328
    332
    336
    340
    344
    348
    352
    356
    360
    364
    368
    372
    376
    380
    384
    388
    392
    396
    400
    404
    408
    412
    416
    420
    424
    428
    432
    436
    440
    444
    448
    452
    456
    460
    464
    468
    472
    476
    480
    484
    488
    492
    496
    500
    504
    508
    512
    516
    520
    524
    528
    532
    536
    540
    544
    548
    552
    556
    560
    564
    568
    572
    576
    580
    584
    588
    592
    596
    600
    604
    608
    612
    616
    620
    624
    628
    632
    636
    640
    644
    648
    652
    656
    660
    664
    668
    672
    676
    680
    684
    688
    692
    696
    700
    704
    708
    712
    716
    720
    724
    728
    732
    736
    740
    744
    748
    752
    756
    760
    764
    768
    772
    776
    780
    784
    788
    792
    796
    800
    804
    808
    812
    816
    820
    824
    828
    832
    836
    840
    844
    848
    852
    856
    860
    864
    868
    872
    876
    880
    884
    888
    892
    896
    900
    904
    908
    912
    916
    920
    924
    928
    932
    936
    940
    944
    948
    952
    956
    960
    964
    968
    972
    976
    980
    984
    988
    992
    996
   1000
   1004
   1008
   1012
   1016
   1020
   1024
   1028
   1032
   1036
   1040
   1044
   1048
   1052
   1056
   1060
   1064
   1068
   1072
   1076
   1080
   1084
   1088
   1092
   1096
   1100
   1104
   1108
   1112
   1116
   1120
   1124
   1128
   1132
   1136
   1140
   1144
   1148
   1152
   1156
   1160
   1164
   1168
   1172
   1176
   1180
   1184
   1188
   1192
   1196
   1200
   1204
   1208
   1212
   1216
   1220
   1224
   1228
   1232
   1236
   1240
   1244
   1248
   1252
   1256
   1260
   1264
   1268
   1272
   1276
   1280
   1284
   1288
   1292
   1296
   1300
   1304
   1308
   1312
   1316
   1320
   1324
   1328
   1332
   1336
   1340
   1344
   1348
   1352
   1356
   1360
   1364
   1368
   1372
   1376
   1380
   1384
   1388
   1392
   1396
   1400
   1404
   1408
   1412
   1416
   1420
   1424
   1428
   1432
   1436
   1440
   1444
   1448
   1452
   1456
   1460
   1464
   1468
   1472
   1476
   1480
   1484
   1488
   1492
   1496
   1500
   1504
   1508
   1512
   1516
   1520
   1524
   1528
   1532
   1536
   1540
   1544
   1548
   1552
   1556
   1560
   1564
   1568
   1572
   1576
   1580
   1584
   1588
   1592
   1596
   1600
   1604
   1608
   1612
   1616
   1620
   1624
   1628
   1632
   1636
   1640
   1644
   1648
   1652
   1656
   1660
   1664
   1668
   1672
   1676
   1680
   1684
   1688
   1692
   1696
   1700
   1704
   1708
   1712
   1716
   1720
   1724
   1728
   1732
   1736
   1740
   1744
   1748
   1752
   1756
   1760
   1764
   1768
   1772
   1776
   1780
   1784
   1788
   1792
   1796
   1800
   1804
   1808
   1812
   1816
   1820
   1824
   1828
   1832
   1836
   1840
   1844
   1848
   1852
   1856
   1860
   1864
   1868
   1872
   1876
   1880
   1884
   1888
   1892
   1896
   1900
   1904
   1908
   1912
   1916
   1920
   1924
   1928
   1932
   1936
   1940
   1944
   1948
   1952
   1956
   1960
   1964
   1968
   1972
   1976
   1980
   1984
   1988
   1992
   1996
   2000
   2004
   2008
   2012
   2016
   2020
   2024
   2028
   2032
   2036
   2040
   2044
   2048
   2052
   2056
   2060
   2064
   2068
   2072
   2076
   2080
   2084
   2088
   2092
   2096
   2100
   2104
   2108
   2112
   2116
   2120
   2124
   2128
   2132
   2136
   2140
   2144
   2148
   2152
   2156
   2160
   2164
   2168
   2172
   2176
   2180
   2184
   2188
   2192
   2196
   2200
   2204
   2208
   2212
   2216
   2220
   2224
   2228
   2232
   2236
   2240
   2244
   2248
   2252
   2256
   2260
   2264
   2268
   2272
   2276
   2280
   2284
   2288
   2292
   2296
   2300
   2304
   2308
   2312
   2316
   2320
   2324
   2328
   2332
   2336
   2340
   2344
   2348
   2352
   2356
   2360
   2364
   2368
   2372
   2376
   2380
   2384
   2388
   2392
   2396
   2400
        </DataArray>
      </Polys>
    </Piece>
  </PolyData>
</VTKFile>
