<?xml version="1.0"?>
<VTKFile type="PolyData" version="0.1" byte_order="LittleEndian">
  <PolyData>
    <Piece NumberOfPoints="     19" NumberOfVerts="  0" NumberOfLines="     18"
           NumberOfStrips="  0" NumberOfPolys="      0">
      <Points>
        <DataArray type="Float32" NumberOfComponents="3" format="ascii">
                      -4.91844                      -1.36112                      89.28045
                      -5.04139                      -2.54281                      88.60473
                      -5.34017                      -4.86134                      87.18411
                      -5.66245                      -7.15793                      85.72920
                      -6.07650                     -10.01448                      83.88762
                      -6.46662                     -13.50427                      81.76754
                      -6.77940                     -17.05231                      79.73564
                      -7.08297                     -20.59867                      77.69913
                      -7.37403                     -24.14408                      75.65881
                      -7.65410                     -27.68791                      73.61388
                      -7.92634                     -31.22882                      71.56261
                      -8.19073                     -34.76784                      69.50683
                      -8.44966                     -38.30548                      67.44786
                      -8.70618                     -41.84227                      65.38713
                      -8.96176                     -45.37837                      63.32525
                      -9.17668                     -48.32493                      61.60711
                      -9.34879                     -50.68606                      60.23952
                      -9.50491                     -53.07452                      58.91628
                      -9.60146                     -54.24831                      58.22279
        </DataArray>
      </Points>
      <PointData>
        <DataArray type="Float32" Name="TranslationalVelocity" NumberOfComponents="3" format="ascii">
                      -0.15382                       0.97999                      -1.63887
                      -0.29018                       1.84621                      -3.12893
                      -0.55846                       3.67143                      -6.05148
                      -0.82596                       5.54169                      -8.94459
                      -1.16245                       7.90809                     -12.53987
                      -1.58013                      10.61960                     -16.92692
                      -2.01293                      13.20815                     -21.38103
                      -2.45464                      15.79841                     -25.82650
                      -2.90562                      18.38902                     -30.26440
                      -3.36608                      20.98123                     -34.69414
                      -3.83637                      23.57766                     -39.11420
                      -4.31757                      26.17600                     -43.52586
                      -4.81140                      28.77478                     -47.92938
                      -5.32056                      31.37233                     -52.32458
                      -5.84894                      33.96753                     -56.71021
                      -6.30834                      36.12690                     -60.35620
                      -6.69096                      37.84321                     -63.27136
                      -7.09182                      39.49957                     -66.21397
                      -7.29728                      40.36860                     -67.65636
        </DataArray>
        <DataArray type="Float32" Name="RotationalVelocity" NumberOfComponents="3" format="ascii">
                       1.26113                      -0.00002                      -0.11531
                       1.26094                      -0.00003                      -0.11543
                       1.26036                       0.00015                      -0.11586
                       1.25956                       0.00057                      -0.11652
                       1.25836                       0.00131                      -0.11758
                       1.25675                       0.00242                      -0.11909
                       1.25507                       0.00369                      -0.12077
                       1.25340                       0.00510                      -0.12252
                       1.25178                       0.00668                      -0.12429
                       1.25020                       0.00848                      -0.12608
                       1.24863                       0.01059                      -0.12791
                       1.24702                       0.01314                      -0.12985
                       1.24529                       0.01625                      -0.13203
                       1.24333                       0.02003                      -0.13463
                       1.24103                       0.02460                      -0.13787
                       1.23879                       0.02906                      -0.14125
                       1.23672                       0.03311                      -0.14456
                       1.23436                       0.03760                      -0.14854
                       1.23307                       0.04000                      -0.15082
        </DataArray>
        <DataArray type="Float32" Name="TranslationalAcceleration" NumberOfComponents="3" format="ascii">
                       0.12425                       2.07190                       1.19848
                       0.13463                       2.51374                       1.44735
                       0.38706                       7.11733                       4.26381
                       0.61647                      11.30144                       6.92599
                       0.88481                      16.14097                      10.09017
                       1.18132                      21.71001                      13.54556
                       1.46713                      27.20395                      16.76276
                       1.77272                      32.66253                      19.96795
                       2.10638                      38.16035                      23.19331
                       2.46942                      43.72159                      26.44915
                       2.85468                      49.33291                      29.73216
                       3.24408                      54.96075                      33.02785
                       3.60832                      60.55897                      36.32751
                       3.90534                      66.08211                      39.63698
                       4.07879                      71.49723                      42.98743
                       4.07178                      75.91961                      45.85772
                       3.93596                      79.41446                      48.23361
                       3.65051                      82.93160                      50.66433
                       3.44097                      84.65431                      51.99753
        </DataArray>
        <DataArray type="Float32" Name="OrientationX" NumberOfComponents="3" format="ascii">
                       0.82673                       0.21172                      -0.52124
                       0.82676                       0.21197                      -0.52110
                       0.82681                       0.21276                      -0.52069
                       0.82687                       0.21388                      -0.52014
                       0.82694                       0.21566                      -0.51928
                       0.84430                       0.20365                      -0.49566
                       0.85621                       0.19595                      -0.47803
                       0.86607                       0.18981                      -0.46249
                       0.87591                       0.18328                      -0.44631
                       0.88539                       0.17654                      -0.43001
                       0.89367                       0.17038                      -0.41511
                       0.90125                       0.16423                      -0.40097
                       0.90745                       0.15880                      -0.38900
                       0.91138                       0.15517                      -0.38120
                       0.91496                       0.15103                      -0.37423
                       0.91785                       0.14689                      -0.36874
                       0.91992                       0.14325                      -0.36500
                       0.92054                       0.14087                      -0.36436
                       0.92003                       0.14049                      -0.36580
        </DataArray>
        <DataArray type="Float32" Name="OrientationY" NumberOfComponents="3" format="ascii">
                       0.55556                      -0.45327                       0.69706
                       0.55556                      -0.45337                       0.69701
                       0.55557                      -0.45358                       0.69685
                       0.55562                      -0.45380                       0.69667
                       0.55573                      -0.45406                       0.69641
                       0.52933                      -0.46102                       0.71223
                       0.51024                      -0.46582                       0.72295
                       0.49374                      -0.46981                       0.73178
                       0.47650                      -0.47375                       0.74061
                       0.45906                      -0.47754                       0.74915
                       0.44311                      -0.48086                       0.75659
                       0.42783                      -0.48391                       0.76341
                       0.41477                      -0.48645                       0.76899
                       0.40621                      -0.48813                       0.77248
                       0.39810                      -0.48970                       0.77570
                       0.39128                      -0.49098                       0.77836
                       0.38620                      -0.49189                       0.78031
                       0.38444                      -0.49226                       0.78095
                       0.38548                      -0.49213                       0.78052
        </DataArray>
        <DataArray type="Float32" Name="OrientationZ" NumberOfComponents="3" format="ascii">
                      -0.08868                      -0.86586                      -0.49236
                      -0.08850                      -0.86575                      -0.49258
                      -0.08792                      -0.86545                      -0.49322
                      -0.08704                      -0.86505                      -0.49407
                      -0.08560                      -0.86448                      -0.49533
                      -0.08347                      -0.86371                      -0.49704
                      -0.08102                      -0.86291                      -0.49883
                      -0.07838                      -0.86212                      -0.50060
                      -0.07570                      -0.86137                      -0.50230
                      -0.07309                      -0.86069                      -0.50385
                      -0.07070                      -0.86009                      -0.50523
                      -0.06866                      -0.85957                      -0.50638
                      -0.06711                      -0.85916                      -0.50729
                      -0.06621                      -0.85887                      -0.50790
                      -0.06610                      -0.85871                      -0.50818
                      -0.06671                      -0.85870                      -0.50812
                      -0.06776                      -0.85879                      -0.50783
                      -0.06935                      -0.85898                      -0.50730
                      -0.07036                      -0.85911                      -0.50693
        </DataArray>
        <DataArray type="Float32" Name="Force" NumberOfComponents="3" format="ascii">
                       1.05719                      -6.68047                      11.55792
                     421.52942                     -75.79572                      57.53787
                     517.73379                    -137.88457                     150.09138
                     435.77128                    -146.65566                     180.94433
                    2200.31940                     815.43598                   -1814.32770
                    2573.33654                     966.07198                   -2130.91466
                    2505.67254                     771.98294                   -1764.49371
                    2589.23678                     680.32798                   -1601.79938
                    2298.67123                     519.20556                   -1259.47113
                    2031.27691                     401.12752                   -1000.05818
                    2147.74620                     375.75733                    -961.28987
                    1918.33199                     298.09258                    -784.26986
                    1532.77678                     214.22420                    -579.49366
                    1056.02384                     125.08853                    -357.73992
                     581.51549                      47.84399                    -159.99759
                     279.91841                       3.84444                     -43.77459
                     -32.06243                     -37.64327                      70.24055
                     125.36555                      -4.45933                      -9.46597
                   -5546.11925                    -263.91036                    1238.62007
        </DataArray>
        <DataArray type="Float32" Name="Moment" NumberOfComponents="3" format="ascii">
                       0.00000                       0.00000                       0.00000
                       0.00000                       0.00000                       0.00000
                       0.00000                       0.00000                       0.00000
                       0.00000                       0.00000                       0.00000
                      67.45355                     684.32138                     389.36716
                      99.91396                    1041.38706                     592.78164
                     121.04252                    1302.29263                     741.65219
                     147.24650                    1640.78499                     934.90358
                     180.24432                    2084.07477                    1188.10635
                     181.19818                    2174.26544                    1240.14921
                     180.66606                    2245.60323                    1281.43106
                     177.87527                    2280.60971                    1301.92004
                     127.12106                    1669.83173                     953.53341
                     120.31069                    1603.57625                     915.86075
                     112.43747                    1501.74630                     857.72330
                     105.24027                    1392.54081                     795.26096
                      93.71728                    1220.32625                     696.77511
                      47.62465                     605.37041                     345.54731
                     -14.15155                    -177.18496                    -101.11830
        </DataArray>
      </PointData>
      <Lines>
        <DataArray type="Int32" Name="connectivity" format="ascii">
      0      1
      1      2
      2      3
      3      4
      4      5
      5      6
      6      7
      7      8
      8      9
      9     10
     10     11
     11     12
     12     13
     13     14
     14     15
     15     16
     16     17
     17     18
        </DataArray>
        <DataArray type="Int32" Name="offsets" format="ascii">
      2
      4
      6
      8
     10
     12
     14
     16
     18
     20
     22
     24
     26
     28
     30
     32
     34
     36
        </DataArray>
      </Lines>
    </Piece>
  </PolyData>
</VTKFile>
