<?xml version="1.0"?>
<VTKFile type="PolyData" version="0.1" byte_order="LittleEndian">
  <PolyData>
    <Piece NumberOfPoints="    550" NumberOfVerts="  0" NumberOfLines="     21"
           NumberOfStrips="  0" NumberOfPolys="    567">
      <Points>
        <DataArray type="Float32" NumberOfComponents="3" format="ascii">
                       2.97347                      -0.00004                       2.18975
                       2.88005                       0.73941                       2.18978
                       2.60568                       1.43239                       2.18983
                       2.16759                       2.03537                       2.18989
                       1.59330                       2.51046                       2.18996
                       0.91891                       2.82781                       2.19003
                       0.18679                       2.96747                       2.19010
                      -0.55706                       2.92067                       2.19016
                      -1.26591                       2.69035                       2.19021
                      -1.89521                       2.29098                       2.19025
                      -2.40542                       1.74766                       2.19027
                      -2.76448                       1.09453                       2.19028
                      -2.94984                       0.37262                       2.19027
                      -2.94984                      -0.37270                       2.19024
                      -2.76448                      -1.09461                       2.19020
                      -2.40542                      -1.74775                       2.19014
                      -1.89521                      -2.29107                       2.19008
                      -1.26591                      -2.69043                       2.19001
                      -0.55706                      -2.92075                       2.18994
                       0.18679                      -2.96755                       2.18987
                       0.91891                      -2.82789                       2.18982
                       1.59330                      -2.51055                       2.18977
                       2.16759                      -2.03546                       2.18974
                       2.60568                      -1.43248                       2.18972
                       2.88005                      -0.73949                       2.18973
                       2.92104                      -0.00036                       6.56913
                       2.82930                       0.72585                       6.56924
                       2.55984                       1.40642                       6.56939
                       2.12959                       1.99861                       6.56958
                       1.56560                       2.46519                       6.56979
                       0.90328                       2.77685                       6.57002
                       0.18427                       2.91401                       6.57025
                      -0.54626                       2.86804                       6.57046
                      -1.24241                       2.64185                       6.57065
                      -1.86044                       2.24964                       6.57079
                      -2.36152                       1.71605                       6.57088
                      -2.71415                       1.07461                       6.57092
                      -2.89618                       0.36563                       6.57090
                      -2.89618                      -0.36635                       6.57082
                      -2.71415                      -1.07533                       6.57069
                      -2.36152                      -1.71676                       6.57052
                      -1.86044                      -2.25035                       6.57032
                      -1.24242                      -2.64257                       6.57009
                      -0.54626                      -2.86876                       6.56986
                       0.18427                      -2.91472                       6.56964
                       0.90328                      -2.77756                       6.56944
                       1.56559                      -2.46590                       6.56928
                       2.12959                      -1.99932                       6.56916
                       2.55984                      -1.40714                       6.56909
                       2.82930                      -0.72656                       6.56908
                       2.86961                      -0.00096                      10.94845
                       2.77955                       0.71201                      10.94862
                       2.51500                       1.38017                      10.94887
                       2.09260                       1.96156                      10.94920
                       1.53889                       2.41963                      10.94958
                       0.88865                       2.72560                      10.94998
                       0.18275                       2.86026                      10.95038
                      -0.53446                       2.81514                      10.95076
                      -1.21792                       2.59307                      10.95109
                      -1.82467                       2.20801                      10.95136
                      -2.31661                       1.68415                      10.95153
                      -2.66281                       1.05441                      10.95161
                      -2.84153                       0.35836                      10.95159
                      -2.84153                      -0.36027                      10.95147
                      -2.66281                      -1.05632                      10.95126
                      -2.31661                      -1.68606                      10.95097
                      -1.82467                      -2.20992                      10.95062
                      -1.21792                      -2.59498                      10.95022
                      -0.53446                      -2.81705                      10.94982
                       0.18275                      -2.86217                      10.94942
                       0.88865                      -2.72752                      10.94907
                       1.53889                      -2.42154                      10.94877
                       2.09260                      -1.96347                      10.94854
                       2.51500                      -1.38208                      10.94841
                       2.77955                      -0.71392                      10.94838
                       2.81928                      -0.00182                      15.32777
                       2.73089                       0.69790                      15.32800
                       2.47126                       1.35365                      15.32835
                       2.05670                       1.92424                      15.32881
                       1.51327                       2.37380                      15.32934
                       0.87512                       2.67410                      15.32992
                       0.18233                       2.80625                      15.33050
                      -0.52156                       2.76197                      15.33105
                      -1.19232                       2.54402                      15.33153
                      -1.78781                       2.16611                      15.33192
                      -2.27061                       1.65199                      15.33218
                      -2.61038                       1.03394                      15.33231
                      -2.78578                       0.35082                      15.33229
                      -2.78578                      -0.35446                      15.33213
                      -2.61038                      -1.03759                      15.33184
                      -2.27061                      -1.65563                      15.33143
                      -1.78781                      -2.16976                      15.33093
                      -1.19233                      -2.54766                      15.33037
                      -0.52156                      -2.76561                      15.32979
                       0.18233                      -2.80989                      15.32922
                       0.87512                      -2.67774                      15.32870
                       1.51327                      -2.37744                      15.32826
                       2.05670                      -1.92788                      15.32793
                       2.47126                      -1.35730                      15.32773
                       2.73089                      -0.70154                      15.32768
                       2.77006                      -0.00296                      19.70711
                       2.68334                       0.68352                      19.70740
                       2.42862                       1.32686                      19.70785
                       2.02191                       1.88665                      19.70844
                       1.48877                       2.32771                      19.70913
                       0.86269                       2.62232                      19.70987
                       0.18301                       2.75197                      19.71062
                      -0.50755                       2.70852                      19.71133
                      -1.16562                       2.49470                      19.71195
                      -1.74984                       2.12395                      19.71246
                      -2.22350                       1.61955                      19.71280
                      -2.55684                       1.01320                      19.71298
                      -2.72892                       0.34301                      19.71296
                      -2.72892                      -0.34892                      19.71276
                      -2.55684                      -1.01912                      19.71239
                      -2.22350                      -1.62546                      19.71186
                      -1.74984                      -2.12986                      19.71122
                      -1.16562                      -2.50062                      19.71050
                      -0.50755                      -2.71444                      19.70975
                       0.18301                      -2.75788                      19.70901
                       0.86269                      -2.62823                      19.70834
                       1.48877                      -2.33362                      19.70777
                       2.02191                      -1.89256                      19.70734
                       2.42862                      -1.33278                      19.70708
                       2.68334                      -0.68943                      19.70700
                       2.72194                      -0.00438                      24.08649
                       2.63689                       0.66886                      24.08685
                       2.38708                       1.29979                      24.08740
                       1.98822                       1.84878                      24.08811
                       1.46536                       2.28132                      24.08894
                       0.85136                       2.57025                      24.08984
                       0.18479                       2.69740                      24.09074
                      -0.49245                       2.65480                      24.09160
                      -1.13782                       2.44510                      24.09236
                      -1.71077                       2.08150                      24.09297
                      -2.17530                       1.58683                      24.09339
                      -2.50221                       0.99218                      24.09360
                      -2.67096                       0.33491                      24.09359
                      -2.67096                      -0.34367                      24.09334
                      -2.50221                      -1.00094                      24.09289
                      -2.17530                      -1.59559                      24.09225
                      -1.71077                      -2.09026                      24.09147
                      -1.13783                      -2.45386                      24.09060
                      -0.49245                      -2.66355                      24.08969
                       0.18479                      -2.70616                      24.08880
                       0.85136                      -2.57901                      24.08799
                       1.46536                      -2.29008                      24.08730
                       1.98822                      -1.85753                      24.08678
                       2.38708                      -1.30855                      24.08646
                       2.63689                      -0.67761                      24.08636
                       2.67487                      -0.00612                      28.46593
                       2.59149                       0.65388                      28.46634
                       2.34660                       1.27240                      28.46699
                       1.95559                       1.81059                      28.46782
                       1.44301                       2.23462                      28.46879
                       0.84109                       2.51787                      28.46983
                       0.18764                       2.64252                      28.47089
                      -0.47629                       2.60075                      28.47188
                      -1.10897                       2.39518                      28.47276
                      -1.67064                       2.03873                      28.47347
                      -2.12603                       1.55379                      28.47395
                      -2.44651                       0.97084                      28.47419
                      -2.61195                       0.32650                      28.47416
                      -2.61195                      -0.33874                      28.47387
                      -2.44651                      -0.98307                      28.47334
                      -2.12603                      -1.56603                      28.47259
                      -1.67065                      -2.05096                      28.47169
                      -1.10897                      -2.40741                      28.47067
                      -0.47629                      -2.61298                      28.46961
                       0.18763                      -2.65475                      28.46858
                       0.84109                      -2.53010                      28.46763
                       1.44301                      -2.24686                      28.46684
                       1.95559                      -1.82282                      28.46624
                       2.34660                      -1.28463                      28.46587
                       2.59149                      -0.66611                      28.46577
                       2.62883                      -0.00820                      32.84540
                       2.54713                       0.63854                      32.84588
                       2.30715                       1.24466                      32.84662
                       1.92398                       1.77205                      32.84757
                       1.42169                       2.18757                      32.84867
                       0.83185                       2.46514                      32.84985
                       0.19151                       2.58729                      32.85104
                      -0.45910                       2.54635                      32.85217
                      -1.07908                       2.34491                      32.85316
                      -1.62949                       1.99561                      32.85395
                      -2.07573                       1.52040                      32.85449
                      -2.38978                       0.94915                      32.85474
                      -2.55190                       0.31774                      32.85470
                      -2.55190                      -0.33415                      32.85436
                      -2.38979                      -0.96556                      32.85375
                      -2.07574                      -1.53682                      32.85290
                      -1.62949                      -2.01202                      32.85186
                      -1.07908                      -2.36132                      32.85071
                      -0.45910                      -2.56277                      32.84951
                       0.19150                      -2.60370                      32.84834
                       0.83185                      -2.48155                      32.84728
                       1.42169                      -2.20399                      32.84638
                       1.92398                      -1.78846                      32.84571
                       2.30715                      -1.26107                      32.84531
                       2.54713                      -0.65495                      32.84520
                       2.58381                      -0.01069                      37.22489
                       2.50378                       0.62282                      37.22544
                       2.26872                       1.21652                      37.22627
                       1.89340                       1.73311                      37.22734
                       1.40139                       2.14013                      37.22857
                       0.82363                       2.41201                      37.22989
                       0.19640                       2.53166                      37.23122
                      -0.44088                       2.49156                      37.23247
                      -1.04817                       2.29424                      37.23356
                      -1.58731                       1.95209                      37.23442
                      -2.02442                       1.48662                      37.23501
                      -2.33204                       0.92706                      37.23528
                      -2.49084                       0.30858                      37.23521
                      -2.49084                      -0.32996                      37.23482
                      -2.33204                      -0.94844                      37.23412
                      -2.02442                      -1.50800                      37.23316
                      -1.58731                      -1.97348                      37.23201
                      -1.04818                      -2.31562                      37.23072
                      -0.44089                      -2.51294                      37.22939
                       0.19639                      -2.55304                      37.22809
                       0.82362                      -2.43339                      37.22691
                       1.40139                      -2.16151                      37.22592
                       1.89339                      -1.75449                      37.22519
                       2.26872                      -1.23790                      37.22476
                       2.50378                      -0.64420                      37.22466
                       2.53982                      -0.01361                      41.60439
                       2.46146                       0.60665                      41.60501
                       2.23132                       1.18794                      41.60595
                       1.86384                       1.69373                      41.60713
                       1.38212                       2.09225                      41.60850
                       0.81643                       2.35844                      41.60995
                       0.20231                       2.47559                      41.61141
                      -0.42165                       2.43633                      41.61277
                      -1.01624                       2.24314                      41.61396
                      -1.54411                       1.90814                      41.61490
                      -1.97208                       1.45239                      41.61553
                      -2.27327                       0.90453                      41.61580
                      -2.42875                       0.29898                      41.61571
                      -2.42875                      -0.32621                      41.61526
                      -2.27327                      -0.93176                      41.61448
                      -1.97208                      -1.47963                      41.61341
                      -1.54411                      -1.93537                      41.61213
                      -1.01624                      -2.27037                      41.61071
                      -0.42165                      -2.46356                      41.60924
                       0.20231                      -2.50282                      41.60782
                       0.81643                      -2.38567                      41.60653
                       1.38212                      -2.11947                      41.60546
                       1.86383                      -1.72096                      41.60467
                       2.23131                      -1.21517                      41.60421
                       2.46146                      -0.63388                      41.60412
                       2.49689                      -0.01702                      45.98389
                       2.42021                       0.59000                      45.98459
                       2.19497                       1.15888                      45.98563
                       1.83534                       1.65387                      45.98693
                       1.36391                       2.04388                      45.98843
                       0.81029                       2.30439                      45.99002
                       0.20929                       2.41904                      45.99161
                      -0.40135                       2.38062                      45.99309
                      -0.98325                       2.19155                      45.99438
                      -1.49984                       1.86370                      45.99538
                      -1.91868                       1.41768                      45.99605
                      -2.21344                       0.88152                      45.99633
                      -2.36560                       0.28890                      45.99621
                      -2.36560                      -0.32295                      45.99570
                      -2.21344                      -0.91557                      45.99483
                      -1.91868                      -1.45173                      45.99365
                      -1.49985                      -1.89775                      45.99224
                      -0.98325                      -2.22559                      45.99068
                      -0.40135                      -2.41466                      45.98908
                       0.20928                      -2.45308                      45.98753
                       0.81029                      -2.33843                      45.98614
                       1.36390                      -2.07792                      45.98498
                       1.83534                      -1.68791                      45.98414
                       2.19497                      -1.19292                      45.98366
                       2.42021                      -0.62404                      45.98358
                       2.45507                      -0.02095                      50.36338
                       2.38006                       0.57283                      50.36416
                       2.15974                       1.12929                      50.36530
                       1.80796                       1.61349                      50.36673
                       1.34681                       1.99498                      50.36836
                       0.80527                       2.24981                      50.37009
                       0.21738                       2.36196                      50.37181
                      -0.37993                       2.32438                      50.37341
                      -0.94914                       2.13943                      50.37480
                      -1.45446                       1.81874                      50.37587
                      -1.86416                       1.38245                      50.37658
                      -2.15249                       0.85799                      50.37687
                      -2.30133                       0.27829                      50.37672
                      -2.30133                      -0.32021                      50.37614
                      -2.15249                      -0.89990                      50.37518
                      -1.86417                      -1.42437                      50.37388
                      -1.45447                      -1.86065                      50.37234
                      -0.94914                      -2.18134                      50.37065
                      -0.37994                      -2.36629                      50.36891
                       0.21737                      -2.40387                      50.36723
                       0.80527                      -2.29172                      50.36573
                       1.34680                      -2.03689                      50.36449
                       1.80795                      -1.65539                      50.36359
                       2.15974                      -1.17120                      50.36309
                       2.38006                      -0.61473                      50.36302
                       2.41444                      -0.02544                      54.74287
                       2.34110                       0.55509                      54.74372
                       2.12569                       1.09915                      54.74496
                       1.78175                       1.57255                      54.74652
                       1.33089                       1.94553                      54.74829
                       0.80143                       2.19468                      54.75016
                       0.22665                       2.30432                      54.75201
                      -0.35734                       2.26758                      54.75373
                      -0.91385                       2.08676                      54.75522
                      -1.40791                       1.77322                      54.75637
                      -1.80847                       1.34666                      54.75711
                      -2.09036                       0.83389                      54.75740
                      -2.23589                       0.26712                      54.75722
                      -2.23589                      -0.31802                      54.75658
                      -2.09037                      -0.88479                      54.75553
                      -1.80847                      -1.39756                      54.75412
                      -1.40791                      -1.82411                      54.75244
                      -0.91386                      -2.13765                      54.75061
                      -0.35735                      -2.31847                      54.74873
                       0.22664                      -2.35521                      54.74693
                       0.80143                      -2.24557                      54.74531
                       1.33088                      -1.99642                      54.74399
                       1.78175                      -1.62343                      54.74303
                       2.12569                      -1.15004                      54.74251
                       2.34110                      -0.60598                      54.74245
                       2.37503                      -0.03051                      59.12235
                       2.30336                       0.53678                      59.12328
                       2.09287                       1.06842                      59.12463
                       1.75678                       1.53102                      59.12631
                       1.31620                       1.89550                      59.12821
                       0.79882                       2.13896                      59.13022
                       0.23715                       2.24610                      59.13220
                      -0.33352                       2.21020                      59.13405
                      -0.87733                       2.03350                      59.13563
                      -1.36012                       1.72711                      59.13685
                      -1.75154                       1.31029                      59.13763
                      -2.02701                       0.80921                      59.13792
                      -2.16921                       0.25538                      59.13772
                      -2.16921                      -0.31642                      59.13701
                      -2.02701                      -0.87026                      59.13587
                      -1.75155                      -1.37133                      59.13434
                      -1.36012                      -1.78816                      59.13254
                      -0.87734                      -2.09454                      59.13057
                      -0.33353                      -2.27124                      59.12855
                       0.23714                      -2.30714                      59.12662
                       0.79881                      -2.20000                      59.12490
                       1.31619                      -1.95653                      59.12349
                       1.75677                      -1.59205                      59.12248
                       2.09287                      -1.12945                      59.12193
                       2.30336                      -0.59781                      59.12189
                       2.33688                      -0.03618                      63.50186
                       2.26689                       0.51787                      63.50286
                       2.06131                       1.03710                      63.50431
                       1.73306                       1.48890                      63.50610
                       1.30277                       1.84487                      63.50813
                       0.79747                       2.08265                      63.51027
                       0.24891                       2.18729                      63.51238
                      -0.30843                       2.15222                      63.51434
                      -0.83955                       1.97965                      63.51601
                      -1.31107                       1.68042                      63.51729
                      -1.69335                       1.27332                      63.51811
                      -1.96239                       0.78394                      63.51841
                      -2.10127                       0.24304                      63.51817
                      -2.10127                      -0.31542                      63.51741
                      -1.96239                      -0.85633                      63.51618
                      -1.69336                      -1.34570                      63.51455
                      -1.31108                      -1.75280                      63.51262
                      -0.83956                      -2.05203                      63.51052
                      -0.30845                      -2.22460                      63.50838
                       0.24890                      -2.25966                      63.50633
                       0.79746                      -2.15502                      63.50450
                       1.30276                      -1.91724                      63.50301
                       1.73306                      -1.56127                      63.50195
                       2.06131                      -1.10947                      63.50139
                       2.26689                      -0.59023                      63.50135
                       2.29996                      -0.04244                      67.88143
                       2.23164                       0.49837                      67.88250
                       2.03098                       1.00520                      67.88403
                       1.71057                       1.44619                      67.88593
                       1.29057                       1.79366                      67.88807
                       0.79735                       2.02575                      67.89032
                       0.26190                       2.12789                      67.89254
                      -0.28213                       2.09366                      67.89459
                      -0.80055                       1.92521                      67.89634
                      -1.26079                       1.63313                      67.89768
                      -1.63394                       1.23576                      67.89852
                      -1.89655                       0.75808                      67.89882
                      -2.03211                       0.23010                      67.89856
                      -2.03211                      -0.31500                      67.89774
                      -1.89655                      -0.84298                      67.89643
                      -1.63395                      -1.32066                      67.89470
                      -1.26080                      -1.71802                      67.89267
                      -0.80056                      -2.01010                      67.89046
                      -0.28214                      -2.17855                      67.88820
                       0.26189                      -2.21277                      67.88605
                       0.79733                      -2.11063                      67.88414
                       1.29056                      -1.87853                      67.88258
                       1.71057                      -1.53107                      67.88148
                       2.03097                      -1.09007                      67.88090
                       2.23164                      -0.58324                      67.88088
                       2.26414                      -0.04925                      72.26111
                       2.19749                       0.47831                      72.26223
                       2.00174                       0.97272                      72.26383
                       1.68919                       1.40292                      72.26581
                       1.27947                       1.74188                      72.26803
                       0.79832                       1.96829                      72.27037
                       0.27599                       2.06792                      72.27266
                      -0.25471                       2.03453                      72.27478
                      -0.76044                       1.87021                      72.27658
                      -1.20942                       1.58528                      72.27796
                      -1.57343                       1.19764                      72.27882
                      -1.82960                       0.73166                      72.27911
                      -1.96185                       0.21661                      72.27882
                      -1.96185                      -0.31515                      72.27796
                      -1.82961                      -0.83020                      72.27658
                      -1.57344                      -1.29618                      72.27478
                      -1.20943                      -1.68381                      72.27267
                      -0.76046                      -1.96874                      72.27037
                      -0.25473                      -2.13306                      72.26804
                       0.27598                      -2.16645                      72.26581
                       0.79831                      -2.06680                      72.26384
                       1.27945                      -1.84039                      72.26223
                       1.68918                      -1.50144                      72.26111
                       2.00174                      -1.07123                      72.26053
                       2.19749                      -0.57682                      72.26053
                       2.22917                      -0.05659                      76.64097
                       2.16420                       0.45773                      76.64213
                       1.97336                       0.93973                      76.64377
                       1.66865                       1.35913                      76.64579
                       1.26921                       1.68958                      76.64806
                       0.80015                       1.91030                      76.65043
                       0.29093                       2.00744                      76.65276
                      -0.22646                       1.97489                      76.65490
                      -0.71949                       1.81469                      76.65671
                      -1.15719                       1.53691                      76.65809
                      -1.51207                       1.15900                      76.65894
                      -1.76181                       0.70472                      76.65921
                      -1.89074                       0.20260                      76.65889
                      -1.89074                      -0.31581                      76.65799
                      -1.76182                      -0.81793                      76.65658
                      -1.51208                      -1.27222                      76.65473
                      -1.15720                      -1.65012                      76.65257
                      -0.71950                      -1.92790                      76.65024
                      -0.22647                      -2.08809                      76.64787
                       0.29091                      -2.12064                      76.64562
                       0.80013                      -2.02350                      76.64363
                       1.26920                      -1.80277                      76.64202
                       1.66864                      -1.47232                      76.64089
                       1.97335                      -1.05292                      76.64033
                       2.16419                      -0.57091                      76.64035
                       2.19462                      -0.06438                      81.02108
                       2.13132                       0.43670                      81.02227
                       1.94540                       0.90629                      81.02392
                       1.64853                       1.31489                      81.02593
                       1.25938                       1.63683                      81.02818
                       0.80239                       1.85187                      81.03052
                       0.30628                       1.94651                      81.03281
                      -0.19778                       1.91480                      81.03491
                      -0.67812                       1.75872                      81.03668
                      -1.10455                       1.48809                      81.03801
                      -1.45029                       1.11992                      81.03881
                      -1.69360                       0.67733                      81.03904
                      -1.81921                       0.18814                      81.03869
                      -1.81921                      -0.31692                      81.03777
                      -1.69361                      -0.80612                      81.03634
                      -1.45030                      -1.24870                      81.03450
                      -1.10456                      -1.61688                      81.03235
                      -0.67813                      -1.88750                      81.03004
                      -0.19779                      -2.04357                      81.02770
                       0.30627                      -2.07528                      81.02549
                       0.80238                      -1.98064                      81.02354
                       1.25937                      -1.76559                      81.02198
                       1.64852                      -1.44365                      81.02090
                       1.94539                      -1.03505                      81.02038
                       2.13131                      -0.56546                      81.02044
                       2.15983                      -0.07251                      85.40156
                       2.09820                       0.41532                      85.40274
                       1.91719                       0.87251                      85.40434
                       1.62817                       1.27031                      85.40629
                       1.24931                       1.58374                      85.40844
                       0.80440                       1.79310                      85.41067
                       0.32140                       1.88523                      85.41283
                      -0.16934                       1.85436                      85.41480
                      -0.63699                       1.70241                      85.41644
                      -1.05215                       1.43893                      85.41765
                      -1.38875                       1.08049                      85.41836
                      -1.62564                       0.64960                      85.41852
                      -1.74792                       0.17333                      85.41813
                      -1.74792                      -0.31838                      85.41720
                      -1.62564                      -0.79465                      85.41580
                      -1.38876                      -1.22554                      85.41401
                      -1.05216                      -1.58398                      85.41195
                      -0.63700                      -1.84745                      85.40974
                      -0.16936                      -1.99940                      85.40752
                       0.32138                      -2.03027                      85.40544
                       0.80438                      -1.93813                      85.40363
                       1.24929                      -1.72877                      85.40219
                       1.62816                      -1.41534                      85.40122
                       1.91719                      -1.01753                      85.40078
                       2.09820                      -0.56035                      85.40089
                       2.14206                      -0.07668                      87.59197
                       2.08127                       0.40454                      87.59312
                       1.90272                       0.85552                      87.59469
                       1.61763                       1.24792                      87.59657
                       1.24390                       1.55709                      87.59864
                       0.80503                       1.76361                      87.60077
                       0.32858                       1.85450                      87.60283
                      -0.15550                       1.82404                      87.60468
                      -0.61679                       1.67415                      87.60622
                      -1.02632                       1.41425                      87.60735
                      -1.35835                       1.06067                      87.60799
                      -1.59202                       0.63563                      87.60810
                      -1.71265                       0.16583                      87.60768
                      -1.71265                      -0.31921                      87.60676
                      -1.59203                      -0.78901                      87.60538
                      -1.35836                      -1.21405                      87.60365
                      -1.02633                      -1.56763                      87.60166
                      -0.61681                      -1.82752                      87.59954
                      -0.15551                      -1.97741                      87.59743
                       0.32857                      -2.00786                      87.59546
                       0.80501                      -1.91697                      87.59375
                       1.24389                      -1.71045                      87.59240
                       1.61762                      -1.40127                      87.59151
                       1.90271                      -1.00887                      87.59114
                       2.08127                      -0.55789                      87.59129
                       3.00000                       0.00000                       0.00000
                       2.90575                       0.74607                       0.00000
                       2.62892                       1.44526                       0.00000
                       2.18691                       2.05364                       0.00000
                       1.60748                       2.53298                       0.00000
                       0.92705                       2.85317                       0.00000
                       0.18837                       2.99408                       0.00000
                      -0.56214                       2.94686                       0.00000
                      -1.27734                       2.71448                       0.00000
                      -1.91227                       2.31154                       0.00000
                      -2.42705                       1.76336                       0.00000
                      -2.78933                       1.10437                       0.00000
                      -2.97634                       0.37600                       0.00000
                      -2.97634                      -0.37600                       0.00000
                      -2.78933                      -1.10437                       0.00000
                      -2.42705                      -1.76336                       0.00000
                      -1.91227                      -2.31154                       0.00000
                      -1.27734                      -2.71448                       0.00000
                      -0.56214                      -2.94686                       0.00000
                       0.18837                      -2.99408                       0.00000
                       0.92705                      -2.85317                       0.00000
                       1.60748                      -2.53298                       0.00000
                       2.18691                      -2.05364                       0.00000
                       2.62892                      -1.44526                       0.00000
                       2.90575                      -0.74607                       0.00000
        </DataArray>
      </Points>
      <Polys>
        <DataArray type="Int32" Name="connectivity" format="ascii">
      0      1     26     25
      1      2     27     26
      2      3     28     27
      3      4     29     28
      4      5     30     29
      5      6     31     30
      6      7     32     31
      7      8     33     32
      8      9     34     33
      9     10     35     34
     10     11     36     35
     11     12     37     36
     12     13     38     37
     13     14     39     38
     14     15     40     39
     15     16     41     40
     16     17     42     41
     17     18     43     42
     18     19     44     43
     19     20     45     44
     20     21     46     45
     21     22     47     46
     22     23     48     47
     23     24     49     48
     24      0     25     49
     24     23     22     21     20     19     18     17     16     15     14     13     12     11     10      9      8      7      6      5      4      3      2      1      0
     25     26     27     28     29     30     31     32     33     34     35     36     37     38     39     40     41     42     43     44     45     46     47     48     49
     25     26     51     50
     26     27     52     51
     27     28     53     52
     28     29     54     53
     29     30     55     54
     30     31     56     55
     31     32     57     56
     32     33     58     57
     33     34     59     58
     34     35     60     59
     35     36     61     60
     36     37     62     61
     37     38     63     62
     38     39     64     63
     39     40     65     64
     40     41     66     65
     41     42     67     66
     42     43     68     67
     43     44     69     68
     44     45     70     69
     45     46     71     70
     46     47     72     71
     47     48     73     72
     48     49     74     73
     49     25     50     74
     49     48     47     46     45     44     43     42     41     40     39     38     37     36     35     34     33     32     31     30     29     28     27     26     25
     50     51     52     53     54     55     56     57     58     59     60     61     62     63     64     65     66     67     68     69     70     71     72     73     74
     50     51     76     75
     51     52     77     76
     52     53     78     77
     53     54     79     78
     54     55     80     79
     55     56     81     80
     56     57     82     81
     57     58     83     82
     58     59     84     83
     59     60     85     84
     60     61     86     85
     61     62     87     86
     62     63     88     87
     63     64     89     88
     64     65     90     89
     65     66     91     90
     66     67     92     91
     67     68     93     92
     68     69     94     93
     69     70     95     94
     70     71     96     95
     71     72     97     96
     72     73     98     97
     73     74     99     98
     74     50     75     99
     74     73     72     71     70     69     68     67     66     65     64     63     62     61     60     59     58     57     56     55     54     53     52     51     50
     75     76     77     78     79     80     81     82     83     84     85     86     87     88     89     90     91     92     93     94     95     96     97     98     99
     75     76    101    100
     76     77    102    101
     77     78    103    102
     78     79    104    103
     79     80    105    104
     80     81    106    105
     81     82    107    106
     82     83    108    107
     83     84    109    108
     84     85    110    109
     85     86    111    110
     86     87    112    111
     87     88    113    112
     88     89    114    113
     89     90    115    114
     90     91    116    115
     91     92    117    116
     92     93    118    117
     93     94    119    118
     94     95    120    119
     95     96    121    120
     96     97    122    121
     97     98    123    122
     98     99    124    123
     99     75    100    124
     99     98     97     96     95     94     93     92     91     90     89     88     87     86     85     84     83     82     81     80     79     78     77     76     75
    100    101    102    103    104    105    106    107    108    109    110    111    112    113    114    115    116    117    118    119    120    121    122    123    124
    100    101    126    125
    101    102    127    126
    102    103    128    127
    103    104    129    128
    104    105    130    129
    105    106    131    130
    106    107    132    131
    107    108    133    132
    108    109    134    133
    109    110    135    134
    110    111    136    135
    111    112    137    136
    112    113    138    137
    113    114    139    138
    114    115    140    139
    115    116    141    140
    116    117    142    141
    117    118    143    142
    118    119    144    143
    119    120    145    144
    120    121    146    145
    121    122    147    146
    122    123    148    147
    123    124    149    148
    124    100    125    149
    124    123    122    121    120    119    118    117    116    115    114    113    112    111    110    109    108    107    106    105    104    103    102    101    100
    125    126    127    128    129    130    131    132    133    134    135    136    137    138    139    140    141    142    143    144    145    146    147    148    149
    125    126    151    150
    126    127    152    151
    127    128    153    152
    128    129    154    153
    129    130    155    154
    130    131    156    155
    131    132    157    156
    132    133    158    157
    133    134    159    158
    134    135    160    159
    135    136    161    160
    136    137    162    161
    137    138    163    162
    138    139    164    163
    139    140    165    164
    140    141    166    165
    141    142    167    166
    142    143    168    167
    143    144    169    168
    144    145    170    169
    145    146    171    170
    146    147    172    171
    147    148    173    172
    148    149    174    173
    149    125    150    174
    149    148    147    146    145    144    143    142    141    140    139    138    137    136    135    134    133    132    131    130    129    128    127    126    125
    150    151    152    153    154    155    156    157    158    159    160    161    162    163    164    165    166    167    168    169    170    171    172    173    174
    150    151    176    175
    151    152    177    176
    152    153    178    177
    153    154    179    178
    154    155    180    179
    155    156    181    180
    156    157    182    181
    157    158    183    182
    158    159    184    183
    159    160    185    184
    160    161    186    185
    161    162    187    186
    162    163    188    187
    163    164    189    188
    164    165    190    189
    165    166    191    190
    166    167    192    191
    167    168    193    192
    168    169    194    193
    169    170    195    194
    170    171    196    195
    171    172    197    196
    172    173    198    197
    173    174    199    198
    174    150    175    199
    174    173    172    171    170    169    168    167    166    165    164    163    162    161    160    159    158    157    156    155    154    153    152    151    150
    175    176    177    178    179    180    181    182    183    184    185    186    187    188    189    190    191    192    193    194    195    196    197    198    199
    175    176    201    200
    176    177    202    201
    177    178    203    202
    178    179    204    203
    179    180    205    204
    180    181    206    205
    181    182    207    206
    182    183    208    207
    183    184    209    208
    184    185    210    209
    185    186    211    210
    186    187    212    211
    187    188    213    212
    188    189    214    213
    189    190    215    214
    190    191    216    215
    191    192    217    216
    192    193    218    217
    193    194    219    218
    194    195    220    219
    195    196    221    220
    196    197    222    221
    197    198    223    222
    198    199    224    223
    199    175    200    224
    199    198    197    196    195    194    193    192    191    190    189    188    187    186    185    184    183    182    181    180    179    178    177    176    175
    200    201    202    203    204    205    206    207    208    209    210    211    212    213    214    215    216    217    218    219    220    221    222    223    224
    200    201    226    225
    201    202    227    226
    202    203    228    227
    203    204    229    228
    204    205    230    229
    205    206    231    230
    206    207    232    231
    207    208    233    232
    208    209    234    233
    209    210    235    234
    210    211    236    235
    211    212    237    236
    212    213    238    237
    213    214    239    238
    214    215    240    239
    215    216    241    240
    216    217    242    241
    217    218    243    242
    218    219    244    243
    219    220    245    244
    220    221    246    245
    221    222    247    246
    222    223    248    247
    223    224    249    248
    224    200    225    249
    224    223    222    221    220    219    218    217    216    215    214    213    212    211    210    209    208    207    206    205    204    203    202    201    200
    225    226    227    228    229    230    231    232    233    234    235    236    237    238    239    240    241    242    243    244    245    246    247    248    249
    225    226    251    250
    226    227    252    251
    227    228    253    252
    228    229    254    253
    229    230    255    254
    230    231    256    255
    231    232    257    256
    232    233    258    257
    233    234    259    258
    234    235    260    259
    235    236    261    260
    236    237    262    261
    237    238    263    262
    238    239    264    263
    239    240    265    264
    240    241    266    265
    241    242    267    266
    242    243    268    267
    243    244    269    268
    244    245    270    269
    245    246    271    270
    246    247    272    271
    247    248    273    272
    248    249    274    273
    249    225    250    274
    249    248    247    246    245    244    243    242    241    240    239    238    237    236    235    234    233    232    231    230    229    228    227    226    225
    250    251    252    253    254    255    256    257    258    259    260    261    262    263    264    265    266    267    268    269    270    271    272    273    274
    250    251    276    275
    251    252    277    276
    252    253    278    277
    253    254    279    278
    254    255    280    279
    255    256    281    280
    256    257    282    281
    257    258    283    282
    258    259    284    283
    259    260    285    284
    260    261    286    285
    261    262    287    286
    262    263    288    287
    263    264    289    288
    264    265    290    289
    265    266    291    290
    266    267    292    291
    267    268    293    292
    268    269    294    293
    269    270    295    294
    270    271    296    295
    271    272    297    296
    272    273    298    297
    273    274    299    298
    274    250    275    299
    274    273    272    271    270    269    268    267    266    265    264    263    262    261    260    259    258    257    256    255    254    253    252    251    250
    275    276    277    278    279    280    281    282    283    284    285    286    287    288    289    290    291    292    293    294    295    296    297    298    299
    275    276    301    300
    276    277    302    301
    277    278    303    302
    278    279    304    303
    279    280    305    304
    280    281    306    305
    281    282    307    306
    282    283    308    307
    283    284    309    308
    284    285    310    309
    285    286    311    310
    286    287    312    311
    287    288    313    312
    288    289    314    313
    289    290    315    314
    290    291    316    315
    291    292    317    316
    292    293    318    317
    293    294    319    318
    294    295    320    319
    295    296    321    320
    296    297    322    321
    297    298    323    322
    298    299    324    323
    299    275    300    324
    299    298    297    296    295    294    293    292    291    290    289    288    287    286    285    284    283    282    281    280    279    278    277    276    275
    300    301    302    303    304    305    306    307    308    309    310    311    312    313    314    315    316    317    318    319    320    321    322    323    324
    300    301    326    325
    301    302    327    326
    302    303    328    327
    303    304    329    328
    304    305    330    329
    305    306    331    330
    306    307    332    331
    307    308    333    332
    308    309    334    333
    309    310    335    334
    310    311    336    335
    311    312    337    336
    312    313    338    337
    313    314    339    338
    314    315    340    339
    315    316    341    340
    316    317    342    341
    317    318    343    342
    318    319    344    343
    319    320    345    344
    320    321    346    345
    321    322    347    346
    322    323    348    347
    323    324    349    348
    324    300    325    349
    324    323    322    321    320    319    318    317    316    315    314    313    312    311    310    309    308    307    306    305    304    303    302    301    300
    325    326    327    328    329    330    331    332    333    334    335    336    337    338    339    340    341    342    343    344    345    346    347    348    349
    325    326    351    350
    326    327    352    351
    327    328    353    352
    328    329    354    353
    329    330    355    354
    330    331    356    355
    331    332    357    356
    332    333    358    357
    333    334    359    358
    334    335    360    359
    335    336    361    360
    336    337    362    361
    337    338    363    362
    338    339    364    363
    339    340    365    364
    340    341    366    365
    341    342    367    366
    342    343    368    367
    343    344    369    368
    344    345    370    369
    345    346    371    370
    346    347    372    371
    347    348    373    372
    348    349    374    373
    349    325    350    374
    349    348    347    346    345    344    343    342    341    340    339    338    337    336    335    334    333    332    331    330    329    328    327    326    325
    350    351    352    353    354    355    356    357    358    359    360    361    362    363    364    365    366    367    368    369    370    371    372    373    374
    350    351    376    375
    351    352    377    376
    352    353    378    377
    353    354    379    378
    354    355    380    379
    355    356    381    380
    356    357    382    381
    357    358    383    382
    358    359    384    383
    359    360    385    384
    360    361    386    385
    361    362    387    386
    362    363    388    387
    363    364    389    388
    364    365    390    389
    365    366    391    390
    366    367    392    391
    367    368    393    392
    368    369    394    393
    369    370    395    394
    370    371    396    395
    371    372    397    396
    372    373    398    397
    373    374    399    398
    374    350    375    399
    374    373    372    371    370    369    368    367    366    365    364    363    362    361    360    359    358    357    356    355    354    353    352    351    350
    375    376    377    378    379    380    381    382    383    384    385    386    387    388    389    390    391    392    393    394    395    396    397    398    399
    375    376    401    400
    376    377    402    401
    377    378    403    402
    378    379    404    403
    379    380    405    404
    380    381    406    405
    381    382    407    406
    382    383    408    407
    383    384    409    408
    384    385    410    409
    385    386    411    410
    386    387    412    411
    387    388    413    412
    388    389    414    413
    389    390    415    414
    390    391    416    415
    391    392    417    416
    392    393    418    417
    393    394    419    418
    394    395    420    419
    395    396    421    420
    396    397    422    421
    397    398    423    422
    398    399    424    423
    399    375    400    424
    399    398    397    396    395    394    393    392    391    390    389    388    387    386    385    384    383    382    381    380    379    378    377    376    375
    400    401    402    403    404    405    406    407    408    409    410    411    412    413    414    415    416    417    418    419    420    421    422    423    424
    400    401    426    425
    401    402    427    426
    402    403    428    427
    403    404    429    428
    404    405    430    429
    405    406    431    430
    406    407    432    431
    407    408    433    432
    408    409    434    433
    409    410    435    434
    410    411    436    435
    411    412    437    436
    412    413    438    437
    413    414    439    438
    414    415    440    439
    415    416    441    440
    416    417    442    441
    417    418    443    442
    418    419    444    443
    419    420    445    444
    420    421    446    445
    421    422    447    446
    422    423    448    447
    423    424    449    448
    424    400    425    449
    424    423    422    421    420    419    418    417    416    415    414    413    412    411    410    409    408    407    406    405    404    403    402    401    400
    425    426    427    428    429    430    431    432    433    434    435    436    437    438    439    440    441    442    443    444    445    446    447    448    449
    425    426    451    450
    426    427    452    451
    427    428    453    452
    428    429    454    453
    429    430    455    454
    430    431    456    455
    431    432    457    456
    432    433    458    457
    433    434    459    458
    434    435    460    459
    435    436    461    460
    436    437    462    461
    437    438    463    462
    438    439    464    463
    439    440    465    464
    440    441    466    465
    441    442    467    466
    442    443    468    467
    443    444    469    468
    444    445    470    469
    445    446    471    470
    446    447    472    471
    447    448    473    472
    448    449    474    473
    449    425    450    474
    449    448    447    446    445    444    443    442    441    440    439    438    437    436    435    434    433    432    431    430    429    428    427    426    425
    450    451    452    453    454    455    456    457    458    459    460    461    462    463    464    465    466    467    468    469    470    471    472    473    474
    450    451    476    475
    451    452    477    476
    452    453    478    477
    453    454    479    478
    454    455    480    479
    455    456    481    480
    456    457    482    481
    457    458    483    482
    458    459    484    483
    459    460    485    484
    460    461    486    485
    461    462    487    486
    462    463    488    487
    463    464    489    488
    464    465    490    489
    465    466    491    490
    466    467    492    491
    467    468    493    492
    468    469    494    493
    469    470    495    494
    470    471    496    495
    471    472    497    496
    472    473    498    497
    473    474    499    498
    474    450    475    499
    474    473    472    471    470    469    468    467    466    465    464    463    462    461    460    459    458    457    456    455    454    453    452    451    450
    475    476    477    478    479    480    481    482    483    484    485    486    487    488    489    490    491    492    493    494    495    496    497    498    499
    475    476    501    500
    476    477    502    501
    477    478    503    502
    478    479    504    503
    479    480    505    504
    480    481    506    505
    481    482    507    506
    482    483    508    507
    483    484    509    508
    484    485    510    509
    485    486    511    510
    486    487    512    511
    487    488    513    512
    488    489    514    513
    489    490    515    514
    490    491    516    515
    491    492    517    516
    492    493    518    517
    493    494    519    518
    494    495    520    519
    495    496    521    520
    496    497    522    521
    497    498    523    522
    498    499    524    523
    499    475    500    524
    499    498    497    496    495    494    493    492    491    490    489    488    487    486    485    484    483    482    481    480    479    478    477    476    475
    500    501    502    503    504    505    506    507    508    509    510    511    512    513    514    515    516    517    518    519    520    521    522    523    524
    525    526      1      0
    526    527      2      1
    527    528      3      2
    528    529      4      3
    529    530      5      4
    530    531      6      5
    531    532      7      6
    532    533      8      7
    533    534      9      8
    534    535     10      9
    535    536     11     10
    536    537     12     11
    537    538     13     12
    538    539     14     13
    539    540     15     14
    540    541     16     15
    541    542     17     16
    542    543     18     17
    543    544     19     18
    544    545     20     19
    545    546     21     20
    546    547     22     21
    547    548     23     22
    548    549     24     23
    549    525      0     24
    549    548    547    546    545    544    543    542    541    540    539    538    537    536    535    534    533    532    531    530    529    528    527    526    525
      0      1      2      3      4      5      6      7      8      9     10     11     12     13     14     15     16     17     18     19     20     21     22     23     24
        </DataArray>
        <DataArray type="Int32" Name="offsets" format="ascii">
      4
      8
     12
     16
     20
     24
     28
     32
     36
     40
     44
     48
     52
     56
     60
     64
     68
     72
     76
     80
     84
     88
     92
     96
    100
    125
    150
    154
    158
    162
    166
    170
    174
    178
    182
    186
    190
    194
    198
    202
    206
    210
    214
    218
    222
    226
    230
    234
    238
    242
    246
    250
    275
    300
    304
    308
    312
    316
    320
    324
    328
    332
    336
    340
    344
    348
    352
    356
    360
    364
    368
    372
    376
    380
    384
    388
    392
    396
    400
    425
    450
    454
    458
    462
    466
    470
    474
    478
    482
    486
    490
    494
    498
    502
    506
    510
    514
    518
    522
    526
    530
    534
    538
    542
    546
    550
    575
    600
    604
    608
    612
    616
    620
    624
    628
    632
    636
    640
    644
    648
    652
    656
    660
    664
    668
    672
    676
    680
    684
    688
    692
    696
    700
    725
    750
    754
    758
    762
    766
    770
    774
    778
    782
    786
    790
    794
    798
    802
    806
    810
    814
    818
    822
    826
    830
    834
    838
    842
    846
    850
    875
    900
    904
    908
    912
    916
    920
    924
    928
    932
    936
    940
    944
    948
    952
    956
    960
    964
    968
    972
    976
    980
    984
    988
    992
    996
   1000
   1025
   1050
   1054
   1058
   1062
   1066
   1070
   1074
   1078
   1082
   1086
   1090
   1094
   1098
   1102
   1106
   1110
   1114
   1118
   1122
   1126
   1130
   1134
   1138
   1142
   1146
   1150
   1175
   1200
   1204
   1208
   1212
   1216
   1220
   1224
   1228
   1232
   1236
   1240
   1244
   1248
   1252
   1256
   1260
   1264
   1268
   1272
   1276
   1280
   1284
   1288
   1292
   1296
   1300
   1325
   1350
   1354
   1358
   1362
   1366
   1370
   1374
   1378
   1382
   1386
   1390
   1394
   1398
   1402
   1406
   1410
   1414
   1418
   1422
   1426
   1430
   1434
   1438
   1442
   1446
   1450
   1475
   1500
   1504
   1508
   1512
   1516
   1520
   1524
   1528
   1532
   1536
   1540
   1544
   1548
   1552
   1556
   1560
   1564
   1568
   1572
   1576
   1580
   1584
   1588
   1592
   1596
   1600
   1625
   1650
   1654
   1658
   1662
   1666
   1670
   1674
   1678
   1682
   1686
   1690
   1694
   1698
   1702
   1706
   1710
   1714
   1718
   1722
   1726
   1730
   1734
   1738
   1742
   1746
   1750
   1775
   1800
   1804
   1808
   1812
   1816
   1820
   1824
   1828
   1832
   1836
   1840
   1844
   1848
   1852
   1856
   1860
   1864
   1868
   1872
   1876
   1880
   1884
   1888
   1892
   1896
   1900
   1925
   1950
   1954
   1958
   1962
   1966
   1970
   1974
   1978
   1982
   1986
   1990
   1994
   1998
   2002
   2006
   2010
   2014
   2018
   2022
   2026
   2030
   2034
   2038
   2042
   2046
   2050
   2075
   2100
   2104
   2108
   2112
   2116
   2120
   2124
   2128
   2132
   2136
   2140
   2144
   2148
   2152
   2156
   2160
   2164
   2168
   2172
   2176
   2180
   2184
   2188
   2192
   2196
   2200
   2225
   2250
   2254
   2258
   2262
   2266
   2270
   2274
   2278
   2282
   2286
   2290
   2294
   2298
   2302
   2306
   2310
   2314
   2318
   2322
   2326
   2330
   2334
   2338
   2342
   2346
   2350
   2375
   2400
   2404
   2408
   2412
   2416
   2420
   2424
   2428
   2432
   2436
   2440
   2444
   2448
   2452
   2456
   2460
   2464
   2468
   2472
   2476
   2480
   2484
   2488
   2492
   2496
   2500
   2525
   2550
   2554
   2558
   2562
   2566
   2570
   2574
   2578
   2582
   2586
   2590
   2594
   2598
   2602
   2606
   2610
   2614
   2618
   2622
   2626
   2630
   2634
   2638
   2642
   2646
   2650
   2675
   2700
   2704
   2708
   2712
   2716
   2720
   2724
   2728
   2732
   2736
   2740
   2744
   2748
   2752
   2756
   2760
   2764
   2768
   2772
   2776
   2780
   2784
   2788
   2792
   2796
   2800
   2825
   2850
   2854
   2858
   2862
   2866
   2870
   2874
   2878
   2882
   2886
   2890
   2894
   2898
   2902
   2906
   2910
   2914
   2918
   2922
   2926
   2930
   2934
   2938
   2942
   2946
   2950
   2975
   3000
   3004
   3008
   3012
   3016
   3020
   3024
   3028
   3032
   3036
   3040
   3044
   3048
   3052
   3056
   3060
   3064
   3068
   3072
   3076
   3080
   3084
   3088
   3092
   3096
   3100
   3125
   3150
        </DataArray>
      </Polys>
    </Piece>
  </PolyData>
</VTKFile>
