<?xml version="1.0"?>
<VTKFile type="PolyData" version="0.1" byte_order="LittleEndian">
  <PolyData>
    <Piece NumberOfPoints="     19" NumberOfVerts="  0" NumberOfLines="     18"
           NumberOfStrips="  0" NumberOfPolys="      0">
      <Points>
        <DataArray type="Float32" NumberOfComponents="3" format="ascii">
                      -4.76470                      -0.62526                      91.37778
                      -4.71289                      -1.19724                      92.61797
                      -4.63235                      -2.42740                      95.05968
                      -4.55975                      -3.69899                      97.48274
                      -4.46858                      -5.31414                     100.49996
                      -4.28674                      -7.12529                     104.17563
                      -4.05580                      -8.82107                     107.90185
                      -3.80112                     -10.51689                     111.62657
                      -3.51452                     -12.21100                     115.34977
                      -3.19115                     -13.90494                     119.06997
                      -2.82707                     -15.60174                     122.78500
                      -2.41673                     -17.29973                     126.49462
                      -1.95701                     -18.99859                     130.19810
                      -1.44614                     -20.69800                     133.89473
                      -0.88153                     -22.39773                     137.58347
                      -0.36971                     -23.81417                     140.65074
                       0.06433                     -24.94004                     143.10337
                       0.52058                     -26.01586                     145.57499
                       0.75325                     -26.59147                     146.79174
        </DataArray>
      </Points>
      <PointData>
        <DataArray type="Float32" Name="TranslationalVelocity" NumberOfComponents="3" format="ascii">
                       0.45832                      -0.76687                      -0.31296
                       0.43813                      -1.45718                      -0.63048
                       0.39274                      -2.81553                      -1.31333
                       0.34419                      -4.16353                      -2.01932
                       0.28030                      -5.84261                      -2.91632
                       0.20728                      -7.89224                      -3.92280
                       0.13669                      -9.97282                      -4.86539
                       0.06235                     -12.05385                      -5.80781
                      -0.01558                     -14.13537                      -6.74894
                      -0.09716                     -16.21644                      -7.68942
                      -0.18272                     -18.29572                      -8.63070
                      -0.27275                     -20.37307                      -9.57156
                      -0.36831                     -22.44801                     -10.51141
                      -0.47115                     -24.52012                     -11.44963
                      -0.58383                     -26.58892                     -12.38546
                      -0.68805                     -28.31008                     -13.16279
                      -0.77946                     -29.68692                     -13.77868
                      -0.87796                     -31.07488                     -14.36485
                      -0.93264                     -31.75839                     -14.67800
        </DataArray>
        <DataArray type="Float32" Name="RotationalVelocity" NumberOfComponents="3" format="ascii">
                       0.55441                       0.00694                      -0.05015
                       0.55447                       0.00688                      -0.05017
                       0.55461                       0.00663                      -0.05026
                       0.55476                       0.00623                      -0.05038
                       0.55493                       0.00558                      -0.05051
                       0.55508                       0.00460                      -0.05051
                       0.55516                       0.00344                      -0.05022
                       0.55519                       0.00209                      -0.04953
                       0.55519                       0.00055                      -0.04842
                       0.55516                      -0.00120                      -0.04690
                       0.55512                      -0.00319                      -0.04509
                       0.55509                      -0.00542                      -0.04320
                       0.55504                      -0.00787                      -0.04153
                       0.55492                      -0.01053                      -0.04052
                       0.55466                      -0.01332                      -0.04076
                       0.55425                      -0.01567                      -0.04237
                       0.55374                      -0.01751                      -0.04499
                       0.55298                      -0.01924                      -0.04913
                       0.55249                      -0.02004                      -0.05187
        </DataArray>
        <DataArray type="Float32" Name="TranslationalAcceleration" NumberOfComponents="3" format="ascii">
                       0.42677                       0.11996                      -0.36137
                       0.10569                       0.18783                      -0.50540
                       0.23952                       0.58599                      -1.42893
                       0.30384                       0.98064                      -2.27803
                       0.32727                       1.44113                      -3.29336
                       0.26114                       1.87840                      -4.51438
                       0.02116                       2.18960                      -5.76047
                      -0.49740                       2.41934                      -7.01994
                      -1.40730                       2.59136                      -8.26999
                      -2.79236                       2.74497                      -9.47489
                      -4.66984                       2.93345                     -10.59667
                      -6.95876                       3.22175                     -11.60300
                      -9.44163                       3.68612                     -12.47859
                     -11.72873                       4.41231                     -13.23396
                     -13.22088                       5.49780                     -13.91158
                     -13.21323                       6.75592                     -14.48630
                     -11.99206                       8.02975                     -15.00668
                      -9.37652                       9.56831                     -15.64002
                      -7.25952                      10.45897                     -16.01646
        </DataArray>
        <DataArray type="Float32" Name="OrientationX" NumberOfComponents="3" format="ascii">
                       0.96309                      -0.22694                      -0.14475
                       0.96307                      -0.22679                      -0.14510
                       0.96302                      -0.22632                      -0.14620
                       0.96293                      -0.22564                      -0.14782
                       0.96277                      -0.22455                      -0.15049
                       0.97052                      -0.19470                      -0.14210
                       0.97531                      -0.17224                      -0.13824
                       0.97890                      -0.15192                      -0.13665
                       0.98215                      -0.13014                      -0.13582
                       0.98488                      -0.10731                      -0.13602
                       0.98678                      -0.08508                      -0.13796
                       0.98802                      -0.06257                      -0.14110
                       0.98843                      -0.04143                      -0.14588
                       0.98795                      -0.02415                      -0.15289
                       0.98714                      -0.00709                      -0.15969
                       0.98636                       0.00696                      -0.16447
                       0.98572                       0.01729                      -0.16748
                       0.98504                       0.02356                      -0.17071
                       0.98469                       0.02440                      -0.17261
        </DataArray>
        <DataArray type="Float32" Name="OrientationY" NumberOfComponents="3" format="ascii">
                       0.26641                       0.88052                       0.39205
                       0.26642                       0.88052                       0.39206
                       0.26645                       0.88052                       0.39203
                       0.26650                       0.88054                       0.39194
                       0.26661                       0.88061                       0.39172
                       0.23601                       0.88741                       0.39598
                       0.21399                       0.89177                       0.39870
                       0.19488                       0.89518                       0.40083
                       0.17476                       0.89837                       0.40299
                       0.15415                       0.90116                       0.40516
                       0.13482                       0.90334                       0.40718
                       0.11576                       0.90503                       0.40929
                       0.09869                       0.90613                       0.41132
                       0.08607                       0.90669                       0.41292
                       0.07360                       0.90696                       0.41473
                       0.06305                       0.90697                       0.41645
                       0.05509                       0.90685                       0.41783
                       0.05086                       0.90674                       0.41861
                       0.05091                       0.90674                       0.41862
        </DataArray>
        <DataArray type="Float32" Name="OrientationZ" NumberOfComponents="3" format="ascii">
                       0.03848                      -0.41614                       0.90849
                       0.03884                      -0.41624                       0.90843
                       0.04001                      -0.41649                       0.90826
                       0.04172                      -0.41681                       0.90804
                       0.04457                      -0.41726                       0.90769
                       0.04901                      -0.41784                       0.90720
                       0.05460                      -0.41844                       0.90660
                       0.06143                      -0.41900                       0.90590
                       0.06957                      -0.41953                       0.90507
                       0.07910                      -0.42000                       0.90407
                       0.08998                      -0.42040                       0.90287
                       0.10210                      -0.42072                       0.90143
                       0.11515                      -0.42096                       0.89974
                       0.12865                      -0.42110                       0.89784
                       0.14189                      -0.42115                       0.89582
                       0.15207                      -0.42114                       0.89416
                       0.15910                      -0.42109                       0.89296
                       0.16466                      -0.42103                       0.89198
                       0.16673                      -0.42099                       0.89161
        </DataArray>
        <DataArray type="Float32" Name="Force" NumberOfComponents="3" format="ascii">
                       4.87512                       3.61113                       1.44763
                     420.46733                      37.68901                      -0.71415
                     468.50801                      74.66248                      13.56691
                     364.88120                      83.31499                      21.40645
                    2703.30042                    -910.73794                    -550.20767
                    2568.45373                    -738.14912                    -477.29234
                    2727.29677                    -715.63564                    -492.67902
                    2420.43335                    -557.24034                    -420.02709
                    2167.30221                    -406.01232                    -353.19863
                    2239.58086                    -364.28129                    -363.49164
                    2116.28765                    -251.28744                    -326.57705
                    2176.68664                    -207.90519                    -342.26802
                    1930.12446                    -133.34180                    -308.39447
                    2020.28133                    -152.06496                    -359.50403
                    2171.41541                    -216.20568                    -443.60748
                    2479.26063                    -328.38898                    -573.23634
                    2646.38774                    -338.88388                    -627.96479
                    1712.55691                    -191.64346                    -404.56727
                     713.62672                       3.78421                    -131.48665
        </DataArray>
        <DataArray type="Float32" Name="Moment" NumberOfComponents="3" format="ascii">
                       0.00000                       0.00000                       0.00000
                       0.00000                       0.00000                       0.00000
                       0.00000                       0.00000                       0.00000
                       0.00000                       0.00000                       0.00000
                     -76.03684                     709.53672                   -1548.05628
                     -90.50983                     767.89448                   -1674.63601
                     -97.87145                     745.17209                   -1624.17345
                    -109.18587                     738.97956                   -1609.57794
                    -117.57468                     702.62887                   -1529.15608
                    -126.04405                     662.57337                   -1440.60789
                    -120.72029                     557.81148                   -1211.50544
                    -128.58607                     523.59301                   -1135.80367
                    -133.16252                     480.62413                   -1041.22337
                    -135.32834                     436.95198                    -945.32019
                    -133.52497                     390.63459                    -843.97944
                    -136.10143                     371.28355                    -801.33850
                    -151.50879                     394.84182                    -851.57089
                     -61.24147                     154.14275                    -332.25613
                     -30.41751                      75.59521                    -162.91146
        </DataArray>
      </PointData>
      <Lines>
        <DataArray type="Int32" Name="connectivity" format="ascii">
      0      1
      1      2
      2      3
      3      4
      4      5
      5      6
      6      7
      7      8
      8      9
      9     10
     10     11
     11     12
     12     13
     13     14
     14     15
     15     16
     16     17
     17     18
        </DataArray>
        <DataArray type="Int32" Name="offsets" format="ascii">
      2
      4
      6
      8
     10
     12
     14
     16
     18
     20
     22
     24
     26
     28
     30
     32
     34
     36
        </DataArray>
      </Lines>
    </Piece>
  </PolyData>
</VTKFile>
