<?xml version="1.0"?>
<VTKFile type="PolyData" version="0.1" byte_order="LittleEndian">
  <PolyData>
    <Piece NumberOfPoints="     19" NumberOfVerts="  0" NumberOfLines="     18"
           NumberOfStrips="  0" NumberOfPolys="      0">
      <Points>
        <DataArray type="Float32" NumberOfComponents="3" format="ascii">
                      -4.50053                       1.14470                      90.99348
                      -4.47754                       2.19749                      91.86475
                      -4.44352                       4.24280                      93.68070
                      -4.41170                       6.26047                      95.53067
                      -4.36726                       8.76751                      97.86235
                      -4.25540                      11.87117                     100.54310
                      -4.10607                      15.06073                     103.11743
                      -3.92938                      18.25450                     105.68482
                      -3.71628                      21.45321                     108.24315
                      -3.46045                      24.65501                     110.79344
                      -3.15614                      27.85682                     113.33808
                      -2.79653                      31.05868                     115.87524
                      -2.37700                      34.25962                     118.40434
                      -1.89424                      37.45859                     120.92476
                      -1.34418                      40.65433                     123.43552
                      -0.83275                      43.31410                     125.51954
                      -0.39220                      45.44427                     127.17506
                       0.07088                      47.60652                     128.78281
                       0.31533                      48.66028                     129.61676
        </DataArray>
      </Points>
      <PointData>
        <DataArray type="Float32" Name="TranslationalVelocity" NumberOfComponents="3" format="ascii">
                      -0.16366                      -0.81182                       0.94601
                      -0.08313                      -1.53977                       1.82352
                       0.07430                      -3.05617                       3.52847
                       0.23143                      -4.60115                       5.21070
                       0.43007                      -6.54930                       7.30151
                       0.68305                      -8.79482                       9.89077
                       0.95310                     -10.95541                      12.55229
                       1.23703                     -13.11322                      15.21737
                       1.53896                     -15.26730                      17.88586
                       1.86322                     -17.41920                      20.55523
                       2.21409                     -19.57167                      23.22178
                       2.59606                     -21.72421                      25.88426
                       3.01318                     -23.87736                      28.54048
                       3.46898                     -26.03172                      31.18812
                       3.96624                     -28.18797                      33.82454
                       4.41443                     -29.98680                      36.01092
                       4.79466                     -31.42214                      37.75649
                       5.19643                     -32.82308                      39.52355
                       5.40271                     -33.55135                      40.38198
        </DataArray>
        <DataArray type="Float32" Name="RotationalVelocity" NumberOfComponents="3" format="ascii">
                       0.83332                      -0.00408                      -0.07989
                       0.83338                      -0.00398                      -0.08002
                       0.83354                      -0.00363                      -0.08042
                       0.83373                      -0.00311                      -0.08101
                       0.83396                      -0.00224                      -0.08200
                       0.83421                      -0.00084                      -0.08358
                       0.83438                       0.00104                      -0.08567
                       0.83445                       0.00352                      -0.08833
                       0.83438                       0.00676                      -0.09165
                       0.83418                       0.01087                      -0.09571
                       0.83386                       0.01596                      -0.10053
                       0.83342                       0.02202                      -0.10613
                       0.83289                       0.02900                      -0.11242
                       0.83229                       0.03667                      -0.11927
                       0.83167                       0.04468                      -0.12642
                       0.83115                       0.05124                      -0.13236
                       0.83076                       0.05612                      -0.13691
                       0.83040                       0.06037                      -0.14109
                       0.83023                       0.06217                      -0.14298
        </DataArray>
        <DataArray type="Float32" Name="TranslationalAcceleration" NumberOfComponents="3" format="ascii">
                      -0.60261                      -0.90619                      -0.56712
                      -0.23928                      -1.09428                      -0.67066
                      -0.61866                      -3.10037                      -1.96608
                      -0.88837                      -4.93092                      -3.18862
                      -1.12080                      -7.06237                      -4.63429
                      -1.29456                      -9.53539                      -6.19099
                      -1.41089                     -11.99283                      -7.62156
                      -1.51062                     -14.44824                      -9.04436
                      -1.60573                     -16.93323                     -10.47989
                      -1.69137                     -19.45638                     -11.93769
                      -1.74963                     -22.01039                     -13.41918
                      -1.75332                     -24.58112                     -14.91798
                      -1.67031                     -27.15163                     -16.42794
                      -1.46750                     -29.70908                     -17.94639
                      -1.11489                     -32.25087                     -19.47847
                      -0.68635                     -34.36642                     -20.77826
                      -0.25304                     -36.07317                     -21.83776
                       0.26318                     -37.82749                     -22.89852
                       0.55090                     -38.70704                     -23.47320
        </DataArray>
        <DataArray type="Float32" Name="OrientationX" NumberOfComponents="3" format="ascii">
                       0.98733                      -0.11334                       0.11104
                       0.98732                      -0.11364                       0.11080
                       0.98730                      -0.11459                       0.10999
                       0.98727                      -0.11601                       0.10879
                       0.98721                      -0.11836                       0.10679
                       0.99162                      -0.10215                       0.07913
                       0.99406                      -0.09250                       0.05736
                       0.99563                      -0.08578                       0.03682
                       0.99673                      -0.07957                       0.01428
                       0.99719                      -0.07428                      -0.00994
                       0.99688                      -0.07103                      -0.03446
                       0.99580                      -0.06910                      -0.06000
                       0.99396                      -0.06936                      -0.08500
                       0.99156                      -0.07300                      -0.10712
                       0.98865                      -0.07674                      -0.12913
                       0.98595                      -0.07924                      -0.14706
                       0.98378                      -0.08077                      -0.16018
                       0.98203                      -0.08362                      -0.16920
                       0.98144                      -0.08592                      -0.17144
        </DataArray>
        <DataArray type="Float32" Name="OrientationY" NumberOfComponents="3" format="ascii">
                       0.15775                       0.62568                      -0.76396
                       0.15774                       0.62549                      -0.76412
                       0.15771                       0.62496                      -0.76456
                       0.15766                       0.62424                      -0.76516
                       0.15757                       0.62314                      -0.76607
                       0.12587                       0.62515                      -0.77029
                       0.10285                       0.62582                      -0.77316
                       0.08261                       0.62602                      -0.77542
                       0.06113                       0.62621                      -0.77725
                       0.03890                       0.62643                      -0.77851
                       0.01771                       0.62661                      -0.77913
                      -0.00344                       0.62692                      -0.77907
                      -0.02280                       0.62732                      -0.77842
                      -0.03779                       0.62768                      -0.77755
                      -0.05261                       0.62830                      -0.77619
                      -0.06499                       0.62903                      -0.77466
                      -0.07421                       0.62967                      -0.77331
                      -0.07945                       0.63005                      -0.77248
                      -0.07978                       0.63005                      -0.77244
        </DataArray>
        <DataArray type="Float32" Name="OrientationZ" NumberOfComponents="3" format="ascii">
                       0.01711                       0.77180                       0.63563
                       0.01753                       0.77191                       0.63549
                       0.01888                       0.77220                       0.63510
                       0.02086                       0.77257                       0.63458
                       0.02413                       0.77311                       0.63382
                       0.02921                       0.77379                       0.63277
                       0.03562                       0.77446                       0.63161
                       0.04347                       0.77508                       0.63037
                       0.05291                       0.77558                       0.62903
                       0.06405                       0.77593                       0.62755
                       0.07693                       0.77609                       0.62591
                       0.09145                       0.77601                       0.62405
                       0.10731                       0.77566                       0.62196
                       0.12400                       0.77504                       0.61963
                       0.14070                       0.77417                       0.61714
                       0.15388                       0.77333                       0.61504
                       0.16332                       0.77265                       0.61346
                       0.17120                       0.77204                       0.61208
                       0.17438                       0.77178                       0.61151
        </DataArray>
        <DataArray type="Float32" Name="Force" NumberOfComponents="3" format="ascii">
                       0.00490                      -0.04221                       0.05113
                     443.93416                      27.39619                     -45.51822
                     488.51417                      65.03443                     -93.52871
                     378.12911                      77.37938                    -106.46821
                    3093.80137                    -582.14835                     589.48712
                    3003.64399                    -483.72559                     449.31747
                    3262.81891                    -486.95014                     408.40410
                    2974.98541                    -404.34562                     287.40873
                    2751.19737                    -324.51463                     164.62482
                    2924.89369                    -332.40263                     108.14070
                    2868.58956                    -308.78312                      26.38307
                    3167.68304                    -396.93960                      24.56095
                    3524.82136                    -552.98600                      74.82211
                    3930.08761                    -671.04679                      45.22284
                    4332.31390                    -792.28815                      -2.38148
                    4632.48508                    -889.22177                     -50.14576
                    4651.87595                    -913.35711                     -97.17412
                    3508.79460                    -703.22042                    -101.24799
                    1065.54887                     -86.98809                    -193.81643
        </DataArray>
        <DataArray type="Float32" Name="Moment" NumberOfComponents="3" format="ascii">
                       0.00000                       0.00000                       0.00000
                       0.00000                       0.00000                       0.00000
                       0.00000                       0.00000                       0.00000
                       0.00000                       0.00000                       0.00000
                     -43.69121                   -1390.83519                   -1144.21581
                     -57.82938                   -1518.78381                   -1248.50636
                     -69.45658                   -1495.35485                   -1228.04597
                     -86.35721                   -1523.83115                   -1249.93771
                    -102.27301                   -1483.46304                   -1215.07939
                    -119.07093                   -1427.47259                   -1167.23716
                    -120.16731                   -1200.02833                    -979.33229
                    -134.02800                   -1126.32819                    -917.14899
                    -149.56999                   -1071.10746                    -870.06278
                    -158.55768                    -982.24942                    -795.83105
                    -151.17860                    -824.65714                    -666.41556
                    -144.99620                    -722.51307                    -582.66864
                    -132.91246                    -623.52577                    -502.09427
                     -64.91338                    -290.27982                    -233.45664
                     -58.41822                    -256.38847                    -206.09568
        </DataArray>
      </PointData>
      <Lines>
        <DataArray type="Int32" Name="connectivity" format="ascii">
      0      1
      1      2
      2      3
      3      4
      4      5
      5      6
      6      7
      7      8
      8      9
      9     10
     10     11
     11     12
     12     13
     13     14
     14     15
     15     16
     16     17
     17     18
        </DataArray>
        <DataArray type="Int32" Name="offsets" format="ascii">
      2
      4
      6
      8
     10
     12
     14
     16
     18
     20
     22
     24
     26
     28
     30
     32
     34
     36
        </DataArray>
      </Lines>
    </Piece>
  </PolyData>
</VTKFile>
