<?xml version="1.0"?>
<VTKFile type="PolyData" version="0.1" byte_order="LittleEndian">
  <PolyData>
    <Piece NumberOfPoints="    625" NumberOfVerts="  0" NumberOfLines="      0"
           NumberOfStrips="  0" NumberOfPolys="    600">
      <Points>
        <DataArray type="Float32" NumberOfComponents="3" format="ascii">
                      -4.65654                       0.43705                      91.42471
                      -4.65654                       0.43705                      91.42471
                      -4.65654                       0.43705                      91.42471
                      -4.65654                       0.43705                      91.42471
                      -4.65654                       0.43705                      91.42471
                      -4.65654                       0.43705                      91.42471
                      -4.65654                       0.43705                      91.42471
                      -4.65654                       0.43705                      91.42471
                      -4.65654                       0.43705                      91.42471
                      -4.65654                       0.43705                      91.42471
                      -4.65654                       0.43705                      91.42471
                      -4.65654                       0.43705                      91.42471
                      -4.65654                       0.43705                      91.42471
                      -4.65654                       0.43705                      91.42471
                      -4.65654                       0.43705                      91.42471
                      -4.65654                       0.43705                      91.42471
                      -4.65654                       0.43705                      91.42471
                      -4.65654                       0.43705                      91.42471
                      -4.65654                       0.43705                      91.42471
                      -4.65654                       0.43705                      91.42471
                      -4.65654                       0.43705                      91.42471
                      -4.65654                       0.43705                      91.42471
                      -4.65654                       0.43705                      91.42471
                      -4.65654                       0.43705                      91.42471
                      -4.65654                       0.43705                      91.42471
                      -4.07025                       0.39484                      91.25300
                      -4.08439                       0.25455                      91.30495
                      -4.13516                       0.12307                      91.35707
                      -4.21936                       0.00866                      91.40607
                      -4.33170                      -0.08150                      91.44889
                      -4.46512                      -0.14172                      91.48283
                      -4.61124                      -0.16824                      91.50575
                      -4.76089                      -0.15939                      91.51622
                      -4.90464                      -0.11571                      91.51358
                      -5.03349                      -0.03996                      91.49800
                      -5.13931                       0.06310                      91.47045
                      -5.21548                       0.18701                      91.43267
                      -5.25720                       0.32396                      91.38703
                      -5.26185                       0.46537                      91.33639
                      -5.22914                       0.60234                      91.28395
                      -5.16112                       0.72626                      91.23298
                      -5.06207                       0.82936                      91.18671
                      -4.93821                       0.90514                      91.14803
                      -4.79733                       0.94886                      91.11937
                      -4.64827                       0.95776                      91.10254
                      -4.50040                       0.93129                      91.09859
                      -4.36302                       0.87110                      91.10778
                      -4.24475                       0.78098                      91.12951
                      -4.15303                       0.66660                      91.16244
                      -4.09362                       0.53513                      91.20448
                      -3.85223                       0.35258                      91.11496
                      -3.87179                       0.15854                      91.18681
                      -3.94200                      -0.02332                      91.25889
                      -4.05846                      -0.18157                      91.32667
                      -4.21384                      -0.30626                      91.38589
                      -4.39838                      -0.38956                      91.43283
                      -4.60049                      -0.42624                      91.46454
                      -4.80746                      -0.41399                      91.47902
                      -5.00630                      -0.35358                      91.47537
                      -5.18450                      -0.24881                      91.45382
                      -5.33088                      -0.10626                      91.41572
                      -5.43623                       0.06511                      91.36346
                      -5.49393                       0.25454                      91.30033
                      -5.50036                       0.45012                      91.23030
                      -5.45512                       0.63957                      91.15776
                      -5.36104                       0.81097                      91.08727
                      -5.22404                       0.95357                      91.02326
                      -5.05273                       1.05839                      90.96976
                      -4.85787                       1.11886                      90.93013
                      -4.65170                       1.13117                      90.90685
                      -4.44718                       1.09455                      90.90139
                      -4.25717                       1.01131                      90.91409
                      -4.09359                       0.88666                      90.94416
                      -3.96672                       0.72845                      90.98970
                      -3.88455                       0.54662                      91.04785
                      -3.70061                       0.31031                      90.98298
                      -3.72401                       0.07812                      91.06896
                      -3.80803                      -0.13949                      91.15521
                      -3.94738                      -0.32884                      91.23632
                      -4.13331                      -0.47805                      91.30718
                      -4.35413                      -0.57773                      91.36334
                      -4.59597                      -0.62162                      91.40129
                      -4.84363                      -0.60696                      91.41862
                      -5.08155                      -0.53468                      91.41425
                      -5.29479                      -0.40931                      91.38846
                      -5.46994                      -0.23873                      91.34287
                      -5.59600                      -0.03367                      91.28034
                      -5.66504                       0.19300                      91.20480
                      -5.67274                       0.42703                      91.12099
                      -5.61860                       0.65371                      91.03419
                      -5.50603                       0.85881                      90.94985
                      -5.34210                       1.02944                      90.87326
                      -5.13711                       1.15487                      90.80925
                      -4.90394                       1.22722                      90.76182
                      -4.65724                       1.24195                      90.73396
                      -4.41252                       1.19814                      90.72743
                      -4.18515                       1.09853                      90.74263
                      -3.98941                       0.94938                      90.77860
                      -3.83761                       0.76007                      90.83309
                      -3.73928                       0.54249                      90.90268
                      -3.58595                       0.26803                      90.85439
                      -3.61233                       0.00638                      90.95127
                      -3.70700                      -0.23883                      91.04847
                      -3.86403                      -0.45221                      91.13986
                      -4.07355                      -0.62035                      91.21971
                      -4.32239                      -0.73267                      91.28301
                      -4.59491                      -0.78213                      91.32576
                      -4.87399                      -0.76561                      91.34529
                      -5.14210                      -0.68416                      91.34037
                      -5.38239                      -0.54289                      91.31131
                      -5.57976                      -0.35067                      91.25993
                      -5.72182                      -0.11959                      91.18947
                      -5.79962                       0.13583                      91.10434
                      -5.80829                       0.39955                      91.00991
                      -5.74729                       0.65500                      90.91209
                      -5.62043                       0.88612                      90.81705
                      -5.43570                       1.07840                      90.73075
                      -5.20471                       1.21974                      90.65861
                      -4.94196                       1.30127                      90.60516
                      -4.66396                       1.31788                      90.57377
                      -4.38819                       1.26850                      90.56641
                      -4.13197                       1.15625                      90.58354
                      -3.91140                       0.98818                      90.62408
                      -3.74034                       0.77485                      90.68548
                      -3.62953                       0.52967                      90.76389
                      -3.49675                       0.22575                      90.72812
                      -3.52550                      -0.05938                      90.83370
                      -3.62867                      -0.32660                      90.93961
                      -3.79979                      -0.55912                      91.03921
                      -4.02810                      -0.74234                      91.12622
                      -4.29926                      -0.86474                      91.19519
                      -4.59624                      -0.91864                      91.24178
                      -4.90036                      -0.90064                      91.26307
                      -5.19253                      -0.81188                      91.25770
                      -5.45438                      -0.65793                      91.22603
                      -5.66946                      -0.44847                      91.17005
                      -5.82426                      -0.19665                      91.09326
                      -5.90904                       0.08169                      91.00050
                      -5.91849                       0.36907                      90.89759
                      -5.85201                       0.64744                      90.79100
                      -5.71378                       0.89930                      90.68743
                      -5.51247                       1.10882                      90.59338
                      -5.26075                       1.26285                      90.51477
                      -4.97442                       1.35170                      90.45653
                      -4.67149                       1.36979                      90.42233
                      -4.37097                       1.31599                      90.41430
                      -4.09176                       1.19367                      90.43297
                      -3.85140                       1.01052                      90.47714
                      -3.66499                       0.77804                      90.54406
                      -3.54425                       0.51086                      90.62950
                      -3.42710                       0.18346                      90.60363
                      -3.45775                      -0.12054                      90.71621
                      -3.56775                      -0.40546                      90.82914
                      -3.75020                      -0.65339                      90.93533
                      -3.99364                      -0.84874                      91.02811
                      -4.28276                      -0.97925                      91.10164
                      -4.59940                      -1.03672                      91.15132
                      -4.92367                      -1.01752                      91.17401
                      -5.23518                      -0.92288                      91.16829
                      -5.51437                      -0.75874                      91.13453
                      -5.74370                      -0.53540                      91.07483
                      -5.90875                      -0.26691                      90.99296
                      -5.99915                       0.02986                      90.89405
                      -6.00923                       0.33628                      90.78433
                      -5.93834                       0.63308                      90.67068
                      -5.79095                       0.90162                      90.56025
                      -5.57632                       1.12502                      90.45998
                      -5.30792                       1.28925                      90.37616
                      -5.00263                       1.38398                      90.31406
                      -4.67963                       1.40327                      90.27759
                      -4.35922                       1.34590                      90.26904
                      -4.06151                       1.21548                      90.28893
                      -3.80523                       1.02020                      90.33604
                      -3.60648                       0.77234                      90.40738
                      -3.47774                       0.48746                      90.49849
                      -3.37352                       0.14117                      90.48062
                      -3.40569                      -0.17794                      90.59879
                      -3.52116                      -0.47701                      90.71733
                      -3.71268                      -0.73726                      90.82880
                      -3.96821                      -0.94232                      90.92619
                      -4.27170                      -1.07932                      91.00338
                      -4.60407                      -1.13964                      91.05552
                      -4.94445                      -1.11949                      91.07934
                      -5.27145                      -1.02015                      91.07334
                      -5.56451                      -0.84785                      91.03789
                      -5.80523                      -0.61341                      90.97523
                      -5.97848                      -0.33158                      90.88929
                      -6.07338                      -0.02006                      90.78547
                      -6.08395                       0.30159                      90.67030
                      -6.00955                       0.61314                      90.55100
                      -5.85483                       0.89502                      90.43508
                      -5.62953                       1.12952                      90.32982
                      -5.34780                       1.30191                      90.24184
                      -5.02734                       1.40135                      90.17666
                      -4.68829                       1.42160                      90.13837
                      -4.35195                       1.36138                      90.12939
                      -4.03946                       1.22448                      90.15028
                      -3.77044                       1.01950                      90.19973
                      -3.56181                       0.75931                      90.27462
                      -3.42667                       0.46027                      90.37025
                      -3.33380                       0.09888                      90.35887
                      -3.36717                      -0.23208                      90.48143
                      -3.48693                      -0.54225                      90.60437
                      -3.68555                      -0.81216                      90.71998
                      -3.95057                      -1.02484                      90.82098
                      -4.26533                      -1.16692                      90.90104
                      -4.61004                      -1.22948                      90.95512
                      -4.96306                      -1.20858                      90.97982
                      -5.30220                      -1.10555                      90.97360
                      -5.60614                      -0.92685                      90.93684
                      -5.85580                      -0.68372                      90.87185
                      -6.03548                      -0.39142                      90.78272
                      -6.13390                      -0.06833                      90.67504
                      -6.14487                       0.26525                      90.55559
                      -6.06770                       0.58837                      90.43187
                      -5.90724                       0.88072                      90.31165
                      -5.67358                       1.12393                      90.20248
                      -5.38138                       1.30271                      90.11123
                      -5.04903                       1.40585                      90.04363
                      -4.69739                       1.42685                      90.00392
                      -4.34856                       1.36439                      89.99461
                      -4.02447                       1.22241                      90.01627
                      -3.74546                       1.00981                      90.06755
                      -3.52909                       0.73997                      90.14522
                      -3.38893                       0.42983                      90.24441
                      -3.30651                       0.05659                      90.23826
                      -3.34077                      -0.28330                      90.36412
                      -3.46376                      -0.60184                      90.49038
                      -3.66775                      -0.87903                      90.60911
                      -3.93992                      -1.09745                      90.71284
                      -4.26316                      -1.24336                      90.79505
                      -4.61718                      -1.30761                      90.85059
                      -4.97972                      -1.28615                      90.87596
                      -5.32801                      -1.18034                      90.86957
                      -5.64015                      -0.99682                      90.83182
                      -5.89655                      -0.74713                      90.76508
                      -6.08108                      -0.44694                      90.67354
                      -6.18215                      -0.11514                      90.56296
                      -6.19341                       0.22745                      90.44029
                      -6.11416                       0.55928                      90.31323
                      -5.94938                       0.85952                      90.18976
                      -5.70941                       1.10929                      90.07765
                      -5.40933                       1.29290                      89.98394
                      -5.06801                       1.39882                      89.91451
                      -4.70688                       1.42038                      89.87373
                      -4.34864                       1.35624                      89.86417
                      -4.01580                       1.21043                      89.88642
                      -3.72928                       0.99210                      89.93908
                      -3.50706                       0.71497                      90.01885
                      -3.36312                       0.39647                      90.12071
                      -3.29067                       0.01430                      90.11870
                      -3.32556                      -0.33183                      90.24687
                      -3.45081                      -0.65622                      90.37544
                      -3.65854                      -0.93849                      90.49635
                      -3.93570                      -1.16092                      90.60198
                      -4.26488                      -1.30951                      90.68571
                      -4.62539                      -1.37494                      90.74226
                      -4.99458                      -1.35309                      90.76810
                      -5.34926                      -1.24533                      90.76159
                      -5.66713                      -1.05844                      90.72315
                      -5.92823                      -0.80417                      90.65518
                      -6.11615                      -0.49848                      90.56196
                      -6.21908                      -0.16058                      90.44936
                      -6.23055                       0.18829                      90.32443
                      -6.14984                       0.52621                      90.19504
                      -5.98203                       0.83196                      90.06931
                      -5.73766                       1.08631                      89.95514
                      -5.43208                       1.27329                      89.85970
                      -5.08449                       1.38115                      89.78901
                      -4.71674                       1.40311                      89.74748
                      -4.35193                       1.33780                      89.73774
                      -4.01298                       1.18931                      89.76040
                      -3.72119                       0.96697                      89.81402
                      -3.49490                       0.68476                      89.89526
                      -3.34832                       0.36041                      89.99899
                      -3.28567                      -0.02800                      90.00012
                      -3.32094                      -0.37781                      90.12966
                      -3.44752                      -0.70566                      90.25961
                      -3.65746                      -0.99094                      90.38180
                      -3.93758                      -1.21574                      90.48856
                      -4.27026                      -1.36591                      90.57318
                      -4.63462                      -1.43204                      90.63034
                      -5.00775                      -1.40995                      90.65645
                      -5.36620                      -1.30105                      90.64987
                      -5.68747                      -1.11217                      90.61102
                      -5.95135                      -0.85519                      90.54233
                      -6.14127                      -0.54624                      90.44812
                      -6.24529                      -0.20474                      90.33431
                      -6.25688                       0.14785                      90.20805
                      -6.17532                       0.48937                      90.07728
                      -6.00572                       0.79838                      89.95021
                      -5.75874                       1.05544                      89.83482
                      -5.44990                       1.24442                      89.73837
                      -5.09861                       1.35343                      89.66692
                      -4.72694                       1.37562                      89.62495
                      -4.35824                       1.30961                      89.61511
                      -4.01568                       1.15953                      89.63800
                      -3.72078                       0.93483                      89.69220
                      -3.49208                       0.64961                      89.77430
                      -3.34394                       0.32180                      89.87914
                      -3.29118                      -0.07029                      89.88251
                      -3.32656                      -0.42133                      90.01250
                      -3.45359                      -0.75032                      90.14290
                      -3.66426                      -1.03660                      90.26552
                      -3.94536                      -1.26218                      90.37265
                      -4.27921                      -1.41288                      90.45756
                      -4.64483                      -1.47923                      90.51492
                      -5.01926                      -1.45707                      90.54113
                      -5.37897                      -1.34779                      90.53452
                      -5.70135                      -1.15825                      90.49553
                      -5.96616                      -0.90037                      90.42660
                      -6.15674                      -0.59034                      90.33207
                      -6.26113                      -0.24765                      90.21786
                      -6.27276                       0.10617                      90.09116
                      -6.19091                       0.44888                      89.95993
                      -6.02072                       0.75896                      89.83242
                      -5.77288                       1.01693                      89.71663
                      -5.46296                       1.20656                      89.61984
                      -5.11045                       1.31595                      89.54814
                      -4.73748                       1.33822                      89.50603
                      -4.36749                       1.27198                      89.49615
                      -4.02373                       1.12138                      89.51913
                      -3.72781                       0.89589                      89.57352
                      -3.49831                       0.60968                      89.65590
                      -3.34965                       0.28073                      89.76110
                      -3.30707                      -0.11259                      89.76585
                      -3.34234                      -0.46241                      89.89538
                      -3.46892                      -0.79026                      90.02533
                      -3.67886                      -1.07554                      90.14752
                      -3.95898                      -1.30033                      90.25428
                      -4.29167                      -1.45051                      90.33890
                      -4.65602                      -1.51663                      90.39606
                      -5.02915                      -1.49455                      90.42217
                      -5.38761                      -1.38565                      90.41559
                      -5.70887                      -1.19677                      90.37674
                      -5.97275                      -0.93978                      90.30805
                      -6.16267                      -0.63083                      90.21384
                      -6.26669                      -0.28933                      90.10003
                      -6.27829                       0.06325                      89.97377
                      -6.19672                       0.40478                      89.84300
                      -6.02712                       0.71378                      89.71593
                      -5.78014                       0.97085                      89.60054
                      -5.47131                       1.15982                      89.50409
                      -5.12001                       1.26883                      89.43264
                      -4.74834                       1.29103                      89.39067
                      -4.37964                       1.22501                      89.38083
                      -4.03708                       1.07494                      89.40373
                      -3.74219                       0.85023                      89.45793
                      -3.51348                       0.56502                      89.54002
                      -3.36534                       0.23721                      89.64486
                      -3.33347                      -0.15489                      89.65014
                      -3.36836                      -0.50102                      89.77831
                      -3.49361                      -0.82541                      89.90689
                      -3.70134                      -1.10769                      90.02779
                      -3.97850                      -1.33011                      90.13343
                      -4.30768                      -1.47870                      90.21715
                      -4.66819                      -1.54413                      90.27371
                      -5.03739                      -1.52228                      90.29955
                      -5.39206                      -1.41452                      90.29304
                      -5.70994                      -1.22763                      90.25459
                      -5.97104                      -0.97336                      90.18663
                      -6.15895                      -0.66767                      90.09341
                      -6.26188                      -0.32977                      89.98080
                      -6.27335                       0.01910                      89.85588
                      -6.19265                       0.35702                      89.72648
                      -6.02484                       0.66277                      89.60075
                      -5.78046                       0.91712                      89.48658
                      -5.47488                       1.10410                      89.39115
                      -5.12729                       1.21196                      89.32045
                      -4.75954                       1.23392                      89.27893
                      -4.39473                       1.16861                      89.26919
                      -4.05578                       1.02012                      89.29184
                      -3.76400                       0.79778                      89.34547
                      -3.53770                       0.51557                      89.42670
                      -3.39113                       0.19122                      89.53043
                      -3.37071                      -0.19719                      89.53543
                      -3.40498                      -0.53708                      89.66129
                      -3.52796                      -0.85563                      89.78755
                      -3.73195                      -1.13282                      89.90628
                      -4.00412                      -1.35123                      90.01001
                      -4.32737                      -1.49715                      90.09222
                      -4.68138                      -1.56139                      90.14776
                      -5.04392                      -1.53994                      90.17313
                      -5.39221                      -1.43413                      90.16674
                      -5.70436                      -1.25061                      90.12899
                      -5.96075                      -1.00091                      90.06225
                      -6.14528                      -0.70073                      89.97071
                      -6.24635                      -0.36892                      89.86013
                      -6.25762                      -0.02634                      89.73746
                      -6.17837                       0.30550                      89.61039
                      -6.01358                       0.60573                      89.48693
                      -5.77361                       0.85550                      89.37482
                      -5.47354                       1.03911                      89.28111
                      -5.13221                       1.14503                      89.21168
                      -4.77109                       1.16660                      89.17090
                      -4.41285                       1.10246                      89.16134
                      -4.08001                       0.95664                      89.18359
                      -3.79348                       0.73831                      89.23625
                      -3.57126                       0.46119                      89.31602
                      -3.42733                       0.14268                      89.41788
                      -3.41941                      -0.23950                      89.42177
                      -3.45277                      -0.57046                      89.54432
                      -3.57253                      -0.88064                      89.66726
                      -3.77116                      -1.15054                      89.78287
                      -4.03618                      -1.36322                      89.88387
                      -4.35093                      -1.50530                      89.96393
                      -4.69565                      -1.56786                      90.01801
                      -5.04866                      -1.54697                      90.04271
                      -5.38780                      -1.44393                      90.03649
                      -5.69175                      -1.26524                      89.99973
                      -5.94140                      -1.02210                      89.93474
                      -6.12109                      -0.72980                      89.84561
                      -6.21950                      -0.40671                      89.73794
                      -6.23047                      -0.07313                      89.61848
                      -6.15330                       0.24999                      89.49476
                      -5.99285                       0.54234                      89.37454
                      -5.75918                       0.78554                      89.26537
                      -5.46699                       0.96433                      89.17412
                      -5.13463                       1.06747                      89.10652
                      -4.78299                       1.08847                      89.06681
                      -4.43417                       1.02601                      89.05750
                      -4.11007                       0.88403                      89.07916
                      -3.83107                       0.67143                      89.13044
                      -3.61469                       0.40159                      89.20812
                      -3.47454                       0.09145                      89.30730
                      -3.48052                      -0.28180                      89.30924
                      -3.51269                      -0.60091                      89.42740
                      -3.62816                      -0.89999                      89.54594
                      -3.81968                      -1.16023                      89.65741
                      -4.07521                      -1.36530                      89.75480
                      -4.37870                      -1.50229                      89.83199
                      -4.71108                      -1.56261                      89.88414
                      -5.05146                      -1.54247                      89.90796
                      -5.37845                      -1.44312                      89.90196
                      -5.67152                      -1.27082                      89.86651
                      -5.91224                      -1.03639                      89.80385
                      -6.08549                      -0.75456                      89.71791
                      -6.18038                      -0.44303                      89.61409
                      -6.19096                      -0.12139                      89.49891
                      -6.11655                       0.19016                      89.37962
                      -5.96184                       0.47204                      89.26370
                      -5.73654                       0.70655                      89.15844
                      -5.45481                       0.87893                      89.07046
                      -5.13435                       0.97838                      89.00527
                      -4.79530                       0.99862                      88.96699
                      -4.45896                       0.93840                      88.95801
                      -4.14646                       0.80150                      88.97890
                      -3.87745                       0.59652                      89.02834
                      -3.66882                       0.33633                      89.10323
                      -3.53368                       0.03730                      89.19887
                      -3.55551                      -0.32411                      89.19797
                      -3.58615                      -0.62812                      89.31055
                      -3.69616                      -0.91303                      89.42348
                      -3.87861                      -1.16096                      89.52967
                      -4.12205                      -1.35631                      89.62245
                      -4.41117                      -1.48682                      89.69598
                      -4.72781                      -1.54429                      89.74566
                      -5.05207                      -1.52510                      89.76835
                      -5.36359                      -1.43046                      89.76263
                      -5.64278                      -1.26631                      89.72887
                      -5.87211                      -1.04298                      89.66917
                      -6.03716                      -0.77449                      89.58730
                      -6.12756                      -0.47771                      89.48839
                      -6.13764                      -0.17129                      89.37867
                      -6.06675                       0.12551                      89.26502
                      -5.91936                       0.39405                      89.15459
                      -5.70472                       0.61745                      89.05432
                      -5.43633                       0.78168                      88.97050
                      -5.13104                       0.87641                      88.90840
                      -4.80804                       0.89570                      88.87193
                      -4.48762                       0.83833                      88.86337
                      -4.18992                       0.70791                      88.88327
                      -3.93364                       0.51263                      88.93038
                      -3.73489                       0.26477                      89.00172
                      -3.60615                      -0.02012                      89.09283
                      -3.64656                      -0.36642                      89.08818
                      -3.67530                      -0.65154                      89.19376
                      -3.77848                      -0.91876                      89.29968
                      -3.94960                      -1.15129                      89.39927
                      -4.17791                      -1.33451                      89.48629
                      -4.44907                      -1.45691                      89.55526
                      -4.74605                      -1.51081                      89.60185
                      -5.05017                      -1.49281                      89.62313
                      -5.34234                      -1.40405                      89.61777
                      -5.60419                      -1.25010                      89.58610
                      -5.81927                      -1.04063                      89.53011
                      -5.97407                      -0.78882                      89.45332
                      -6.05885                      -0.51048                      89.36056
                      -6.06830                      -0.22309                      89.25765
                      -6.00182                       0.05527                      89.15106
                      -5.86359                       0.30713                      89.04749
                      -5.66228                       0.51666                      88.95345
                      -5.41056                       0.67068                      88.87483
                      -5.12423                       0.75953                      88.81659
                      -4.82130                       0.77762                      88.78239
                      -4.52078                       0.72382                      88.77436
                      -4.24157                       0.60150                      88.79303
                      -4.00121                       0.41835                      88.83720
                      -3.81480                       0.18588                      88.90412
                      -3.69406                      -0.08131                      88.98957
                      -3.75716                      -0.40873                      88.98017
                      -3.78354                      -0.67038                      89.07706
                      -3.87822                      -0.91560                      89.17425
                      -4.03524                      -1.12898                      89.26565
                      -4.24476                      -1.29711                      89.34550
                      -4.49360                      -1.40944                      89.40879
                      -4.76612                      -1.45889                      89.45155
                      -5.04520                      -1.44238                      89.47108
                      -5.31331                      -1.36092                      89.46615
                      -5.55360                      -1.21965                      89.43709
                      -5.75097                      -1.02743                      89.38572
                      -5.89303                      -0.79635                      89.31525
                      -5.97083                      -0.54093                      89.23013
                      -5.97950                      -0.27721                      89.13569
                      -5.91850                      -0.02176                      89.03788
                      -5.79164                       0.20936                      88.94284
                      -5.60691                       0.40163                      88.85653
                      -5.37592                       0.54298                      88.78439
                      -5.11317                       0.62451                      88.73095
                      -4.83517                       0.64111                      88.69956
                      -4.55940                       0.59174                      88.69220
                      -4.30318                       0.47949                      88.70932
                      -4.08261                       0.31142                      88.74986
                      -3.91155                       0.09809                      88.81127
                      -3.80074                      -0.14710                      88.88968
                      -3.89322                      -0.45105                      88.87449
                      -3.91662                      -0.68324                      88.96047
                      -4.00064                      -0.90085                      89.04672
                      -4.13999                      -1.09020                      89.12783
                      -4.32592                      -1.23941                      89.19869
                      -4.54674                      -1.33909                      89.25485
                      -4.78858                      -1.38298                      89.29279
                      -5.03624                      -1.36832                      89.31013
                      -5.27416                      -1.29603                      89.30576
                      -5.48740                      -1.17067                      89.27997
                      -5.66255                      -1.00009                      89.23438
                      -5.78861                      -0.79503                      89.17184
                      -5.85765                      -0.56836                      89.09630
                      -5.86535                      -0.33433                      89.01250
                      -5.81121                      -0.10765                      88.92570
                      -5.69864                       0.09745                      88.84136
                      -5.53471                       0.26808                      88.76477
                      -5.32972                       0.39351                      88.70075
                      -5.09655                       0.46587                      88.65333
                      -4.84985                       0.48060                      88.62547
                      -4.60513                       0.43678                      88.61894
                      -4.37776                       0.33717                      88.63414
                      -4.18202                       0.18802                      88.67011
                      -4.03022                      -0.00129                      88.72460
                      -3.93189                      -0.21887                      88.79419
                      -4.06624                      -0.49337                      88.77219
                      -4.08580                      -0.68741                      88.84404
                      -4.15602                      -0.86927                      88.91613
                      -4.27247                      -1.02752                      88.98391
                      -4.42785                      -1.15221                      89.04313
                      -4.61240                      -1.23551                      89.09006
                      -4.81450                      -1.27219                      89.12177
                      -5.02148                      -1.25994                      89.13625
                      -5.22031                      -1.19953                      89.13261
                      -5.39852                      -1.09476                      89.11105
                      -5.54489                      -0.95221                      89.07295
                      -5.65024                      -0.78084                      89.02069
                      -5.70794                      -0.59141                      88.95756
                      -5.71437                      -0.39583                      88.88753
                      -5.66913                      -0.20639                      88.81499
                      -5.57505                      -0.03498                      88.74450
                      -5.43805                       0.10761                      88.68050
                      -5.26674                       0.21244                      88.62700
                      -5.07188                       0.27290                      88.58736
                      -4.86571                       0.28522                      88.56408
                      -4.66120                       0.24860                      88.55862
                      -4.47118                       0.16535                      88.57132
                      -4.30760                       0.04071                      88.60139
                      -4.18074                      -0.11750                      88.64693
                      -4.09856                      -0.29934                      88.70508
                      -4.30567                      -0.53570                      88.67596
                      -4.31981                      -0.67600                      88.72791
                      -4.37057                      -0.80748                      88.78002
                      -4.45477                      -0.92189                      88.82903
                      -4.56711                      -1.01204                      88.87184
                      -4.70053                      -1.07227                      88.90578
                      -4.84666                      -1.09879                      88.92870
                      -4.99630                      -1.08993                      88.93918
                      -5.14006                      -1.04626                      88.93654
                      -5.26890                      -0.97051                      88.92096
                      -5.37473                      -0.86745                      88.89341
                      -5.45090                      -0.74354                      88.85562
                      -5.49261                      -0.60659                      88.80998
                      -5.49726                      -0.46518                      88.75935
                      -5.46455                      -0.32821                      88.70690
                      -5.39653                      -0.20429                      88.65594
                      -5.29748                      -0.10119                      88.60966
                      -5.17363                      -0.02541                      88.57098
                      -5.03274                       0.01831                      88.54233
                      -4.88368                       0.02721                      88.52550
                      -4.73582                       0.00074                      88.52155
                      -4.59843                      -0.05945                      88.53073
                      -4.48017                      -0.14956                      88.55247
                      -4.38845                      -0.26395                      88.58539
                      -4.32903                      -0.39542                      88.62744
                      -4.91336                      -0.57809                      88.61339
                      -4.91336                      -0.57809                      88.61339
                      -4.91336                      -0.57809                      88.61339
                      -4.91336                      -0.57809                      88.61339
                      -4.91336                      -0.57809                      88.61339
                      -4.91336                      -0.57809                      88.61339
                      -4.91336                      -0.57809                      88.61339
                      -4.91336                      -0.57809                      88.61339
                      -4.91336                      -0.57809                      88.61339
                      -4.91336                      -0.57809                      88.61339
                      -4.91336                      -0.57809                      88.61339
                      -4.91336                      -0.57809                      88.61339
                      -4.91336                      -0.57809                      88.61339
                      -4.91336                      -0.57809                      88.61339
                      -4.91336                      -0.57809                      88.61339
                      -4.91336                      -0.57809                      88.61339
                      -4.91336                      -0.57809                      88.61339
                      -4.91336                      -0.57809                      88.61339
                      -4.91336                      -0.57809                      88.61339
                      -4.91336                      -0.57809                      88.61339
                      -4.91336                      -0.57809                      88.61339
                      -4.91336                      -0.57809                      88.61339
                      -4.91336                      -0.57809                      88.61339
                      -4.91336                      -0.57809                      88.61339
                      -4.91336                      -0.57809                      88.61339
        </DataArray>
      </Points>
      <Polys>
        <DataArray type="Int32" Name="connectivity" format="ascii">
      0      1     26     25
      1      2     27     26
      2      3     28     27
      3      4     29     28
      4      5     30     29
      5      6     31     30
      6      7     32     31
      7      8     33     32
      8      9     34     33
      9     10     35     34
     10     11     36     35
     11     12     37     36
     12     13     38     37
     13     14     39     38
     14     15     40     39
     15     16     41     40
     16     17     42     41
     17     18     43     42
     18     19     44     43
     19     20     45     44
     20     21     46     45
     21     22     47     46
     22     23     48     47
     23     24     49     48
     24      0     25     49
     25     26     51     50
     26     27     52     51
     27     28     53     52
     28     29     54     53
     29     30     55     54
     30     31     56     55
     31     32     57     56
     32     33     58     57
     33     34     59     58
     34     35     60     59
     35     36     61     60
     36     37     62     61
     37     38     63     62
     38     39     64     63
     39     40     65     64
     40     41     66     65
     41     42     67     66
     42     43     68     67
     43     44     69     68
     44     45     70     69
     45     46     71     70
     46     47     72     71
     47     48     73     72
     48     49     74     73
     49     25     50     74
     50     51     76     75
     51     52     77     76
     52     53     78     77
     53     54     79     78
     54     55     80     79
     55     56     81     80
     56     57     82     81
     57     58     83     82
     58     59     84     83
     59     60     85     84
     60     61     86     85
     61     62     87     86
     62     63     88     87
     63     64     89     88
     64     65     90     89
     65     66     91     90
     66     67     92     91
     67     68     93     92
     68     69     94     93
     69     70     95     94
     70     71     96     95
     71     72     97     96
     72     73     98     97
     73     74     99     98
     74     50     75     99
     75     76    101    100
     76     77    102    101
     77     78    103    102
     78     79    104    103
     79     80    105    104
     80     81    106    105
     81     82    107    106
     82     83    108    107
     83     84    109    108
     84     85    110    109
     85     86    111    110
     86     87    112    111
     87     88    113    112
     88     89    114    113
     89     90    115    114
     90     91    116    115
     91     92    117    116
     92     93    118    117
     93     94    119    118
     94     95    120    119
     95     96    121    120
     96     97    122    121
     97     98    123    122
     98     99    124    123
     99     75    100    124
    100    101    126    125
    101    102    127    126
    102    103    128    127
    103    104    129    128
    104    105    130    129
    105    106    131    130
    106    107    132    131
    107    108    133    132
    108    109    134    133
    109    110    135    134
    110    111    136    135
    111    112    137    136
    112    113    138    137
    113    114    139    138
    114    115    140    139
    115    116    141    140
    116    117    142    141
    117    118    143    142
    118    119    144    143
    119    120    145    144
    120    121    146    145
    121    122    147    146
    122    123    148    147
    123    124    149    148
    124    100    125    149
    125    126    151    150
    126    127    152    151
    127    128    153    152
    128    129    154    153
    129    130    155    154
    130    131    156    155
    131    132    157    156
    132    133    158    157
    133    134    159    158
    134    135    160    159
    135    136    161    160
    136    137    162    161
    137    138    163    162
    138    139    164    163
    139    140    165    164
    140    141    166    165
    141    142    167    166
    142    143    168    167
    143    144    169    168
    144    145    170    169
    145    146    171    170
    146    147    172    171
    147    148    173    172
    148    149    174    173
    149    125    150    174
    150    151    176    175
    151    152    177    176
    152    153    178    177
    153    154    179    178
    154    155    180    179
    155    156    181    180
    156    157    182    181
    157    158    183    182
    158    159    184    183
    159    160    185    184
    160    161    186    185
    161    162    187    186
    162    163    188    187
    163    164    189    188
    164    165    190    189
    165    166    191    190
    166    167    192    191
    167    168    193    192
    168    169    194    193
    169    170    195    194
    170    171    196    195
    171    172    197    196
    172    173    198    197
    173    174    199    198
    174    150    175    199
    175    176    201    200
    176    177    202    201
    177    178    203    202
    178    179    204    203
    179    180    205    204
    180    181    206    205
    181    182    207    206
    182    183    208    207
    183    184    209    208
    184    185    210    209
    185    186    211    210
    186    187    212    211
    187    188    213    212
    188    189    214    213
    189    190    215    214
    190    191    216    215
    191    192    217    216
    192    193    218    217
    193    194    219    218
    194    195    220    219
    195    196    221    220
    196    197    222    221
    197    198    223    222
    198    199    224    223
    199    175    200    224
    200    201    226    225
    201    202    227    226
    202    203    228    227
    203    204    229    228
    204    205    230    229
    205    206    231    230
    206    207    232    231
    207    208    233    232
    208    209    234    233
    209    210    235    234
    210    211    236    235
    211    212    237    236
    212    213    238    237
    213    214    239    238
    214    215    240    239
    215    216    241    240
    216    217    242    241
    217    218    243    242
    218    219    244    243
    219    220    245    244
    220    221    246    245
    221    222    247    246
    222    223    248    247
    223    224    249    248
    224    200    225    249
    225    226    251    250
    226    227    252    251
    227    228    253    252
    228    229    254    253
    229    230    255    254
    230    231    256    255
    231    232    257    256
    232    233    258    257
    233    234    259    258
    234    235    260    259
    235    236    261    260
    236    237    262    261
    237    238    263    262
    238    239    264    263
    239    240    265    264
    240    241    266    265
    241    242    267    266
    242    243    268    267
    243    244    269    268
    244    245    270    269
    245    246    271    270
    246    247    272    271
    247    248    273    272
    248    249    274    273
    249    225    250    274
    250    251    276    275
    251    252    277    276
    252    253    278    277
    253    254    279    278
    254    255    280    279
    255    256    281    280
    256    257    282    281
    257    258    283    282
    258    259    284    283
    259    260    285    284
    260    261    286    285
    261    262    287    286
    262    263    288    287
    263    264    289    288
    264    265    290    289
    265    266    291    290
    266    267    292    291
    267    268    293    292
    268    269    294    293
    269    270    295    294
    270    271    296    295
    271    272    297    296
    272    273    298    297
    273    274    299    298
    274    250    275    299
    275    276    301    300
    276    277    302    301
    277    278    303    302
    278    279    304    303
    279    280    305    304
    280    281    306    305
    281    282    307    306
    282    283    308    307
    283    284    309    308
    284    285    310    309
    285    286    311    310
    286    287    312    311
    287    288    313    312
    288    289    314    313
    289    290    315    314
    290    291    316    315
    291    292    317    316
    292    293    318    317
    293    294    319    318
    294    295    320    319
    295    296    321    320
    296    297    322    321
    297    298    323    322
    298    299    324    323
    299    275    300    324
    300    301    326    325
    301    302    327    326
    302    303    328    327
    303    304    329    328
    304    305    330    329
    305    306    331    330
    306    307    332    331
    307    308    333    332
    308    309    334    333
    309    310    335    334
    310    311    336    335
    311    312    337    336
    312    313    338    337
    313    314    339    338
    314    315    340    339
    315    316    341    340
    316    317    342    341
    317    318    343    342
    318    319    344    343
    319    320    345    344
    320    321    346    345
    321    322    347    346
    322    323    348    347
    323    324    349    348
    324    300    325    349
    325    326    351    350
    326    327    352    351
    327    328    353    352
    328    329    354    353
    329    330    355    354
    330    331    356    355
    331    332    357    356
    332    333    358    357
    333    334    359    358
    334    335    360    359
    335    336    361    360
    336    337    362    361
    337    338    363    362
    338    339    364    363
    339    340    365    364
    340    341    366    365
    341    342    367    366
    342    343    368    367
    343    344    369    368
    344    345    370    369
    345    346    371    370
    346    347    372    371
    347    348    373    372
    348    349    374    373
    349    325    350    374
    350    351    376    375
    351    352    377    376
    352    353    378    377
    353    354    379    378
    354    355    380    379
    355    356    381    380
    356    357    382    381
    357    358    383    382
    358    359    384    383
    359    360    385    384
    360    361    386    385
    361    362    387    386
    362    363    388    387
    363    364    389    388
    364    365    390    389
    365    366    391    390
    366    367    392    391
    367    368    393    392
    368    369    394    393
    369    370    395    394
    370    371    396    395
    371    372    397    396
    372    373    398    397
    373    374    399    398
    374    350    375    399
    375    376    401    400
    376    377    402    401
    377    378    403    402
    378    379    404    403
    379    380    405    404
    380    381    406    405
    381    382    407    406
    382    383    408    407
    383    384    409    408
    384    385    410    409
    385    386    411    410
    386    387    412    411
    387    388    413    412
    388    389    414    413
    389    390    415    414
    390    391    416    415
    391    392    417    416
    392    393    418    417
    393    394    419    418
    394    395    420    419
    395    396    421    420
    396    397    422    421
    397    398    423    422
    398    399    424    423
    399    375    400    424
    400    401    426    425
    401    402    427    426
    402    403    428    427
    403    404    429    428
    404    405    430    429
    405    406    431    430
    406    407    432    431
    407    408    433    432
    408    409    434    433
    409    410    435    434
    410    411    436    435
    411    412    437    436
    412    413    438    437
    413    414    439    438
    414    415    440    439
    415    416    441    440
    416    417    442    441
    417    418    443    442
    418    419    444    443
    419    420    445    444
    420    421    446    445
    421    422    447    446
    422    423    448    447
    423    424    449    448
    424    400    425    449
    425    426    451    450
    426    427    452    451
    427    428    453    452
    428    429    454    453
    429    430    455    454
    430    431    456    455
    431    432    457    456
    432    433    458    457
    433    434    459    458
    434    435    460    459
    435    436    461    460
    436    437    462    461
    437    438    463    462
    438    439    464    463
    439    440    465    464
    440    441    466    465
    441    442    467    466
    442    443    468    467
    443    444    469    468
    444    445    470    469
    445    446    471    470
    446    447    472    471
    447    448    473    472
    448    449    474    473
    449    425    450    474
    450    451    476    475
    451    452    477    476
    452    453    478    477
    453    454    479    478
    454    455    480    479
    455    456    481    480
    456    457    482    481
    457    458    483    482
    458    459    484    483
    459    460    485    484
    460    461    486    485
    461    462    487    486
    462    463    488    487
    463    464    489    488
    464    465    490    489
    465    466    491    490
    466    467    492    491
    467    468    493    492
    468    469    494    493
    469    470    495    494
    470    471    496    495
    471    472    497    496
    472    473    498    497
    473    474    499    498
    474    450    475    499
    475    476    501    500
    476    477    502    501
    477    478    503    502
    478    479    504    503
    479    480    505    504
    480    481    506    505
    481    482    507    506
    482    483    508    507
    483    484    509    508
    484    485    510    509
    485    486    511    510
    486    487    512    511
    487    488    513    512
    488    489    514    513
    489    490    515    514
    490    491    516    515
    491    492    517    516
    492    493    518    517
    493    494    519    518
    494    495    520    519
    495    496    521    520
    496    497    522    521
    497    498    523    522
    498    499    524    523
    499    475    500    524
    500    501    526    525
    501    502    527    526
    502    503    528    527
    503    504    529    528
    504    505    530    529
    505    506    531    530
    506    507    532    531
    507    508    533    532
    508    509    534    533
    509    510    535    534
    510    511    536    535
    511    512    537    536
    512    513    538    537
    513    514    539    538
    514    515    540    539
    515    516    541    540
    516    517    542    541
    517    518    543    542
    518    519    544    543
    519    520    545    544
    520    521    546    545
    521    522    547    546
    522    523    548    547
    523    524    549    548
    524    500    525    549
    525    526    551    550
    526    527    552    551
    527    528    553    552
    528    529    554    553
    529    530    555    554
    530    531    556    555
    531    532    557    556
    532    533    558    557
    533    534    559    558
    534    535    560    559
    535    536    561    560
    536    537    562    561
    537    538    563    562
    538    539    564    563
    539    540    565    564
    540    541    566    565
    541    542    567    566
    542    543    568    567
    543    544    569    568
    544    545    570    569
    545    546    571    570
    546    547    572    571
    547    548    573    572
    548    549    574    573
    549    525    550    574
    550    551    576    575
    551    552    577    576
    552    553    578    577
    553    554    579    578
    554    555    580    579
    555    556    581    580
    556    557    582    581
    557    558    583    582
    558    559    584    583
    559    560    585    584
    560    561    586    585
    561    562    587    586
    562    563    588    587
    563    564    589    588
    564    565    590    589
    565    566    591    590
    566    567    592    591
    567    568    593    592
    568    569    594    593
    569    570    595    594
    570    571    596    595
    571    572    597    596
    572    573    598    597
    573    574    599    598
    574    550    575    599
    575    576    601    600
    576    577    602    601
    577    578    603    602
    578    579    604    603
    579    580    605    604
    580    581    606    605
    581    582    607    606
    582    583    608    607
    583    584    609    608
    584    585    610    609
    585    586    611    610
    586    587    612    611
    587    588    613    612
    588    589    614    613
    589    590    615    614
    590    591    616    615
    591    592    617    616
    592    593    618    617
    593    594    619    618
    594    595    620    619
    595    596    621    620
    596    597    622    621
    597    598    623    622
    598    599    624    623
    599    575    600    624
        </DataArray>
        <DataArray type="Int32" Name="offsets" format="ascii">
      4
      8
     12
     16
     20
     24
     28
     32
     36
     40
     44
     48
     52
     56
     60
     64
     68
     72
     76
     80
     84
     88
     92
     96
    100
    104
    108
    112
    116
    120
    124
    128
    132
    136
    140
    144
    148
    152
    156
    160
    164
    168
    172
    176
    180
    184
    188
    192
    196
    200
    204
    208
    212
    216
    220
    224
    228
    232
    236
    240
    244
    248
    252
    256
    260
    264
    268
    272
    276
    280
    284
    288
    292
    296
    300
    304
    308
    312
    316
    320
    324
    328
    332
    336
    340
    344
    348
    352
    356
    360
    364
    368
    372
    376
    380
    384
    388
    392
    396
    400
    404
    408
    412
    416
    420
    424
    428
    432
    436
    440
    444
    448
    452
    456
    460
    464
    468
    472
    476
    480
    484
    488
    492
    496
    500
    504
    508
    512
    516
    520
    524
    528
    532
    536
    540
    544
    548
    552
    556
    560
    564
    568
    572
    576
    580
    584
    588
    592
    596
    600
    604
    608
    612
    616
    620
    624
    628
    632
    636
    640
    644
    648
    652
    656
    660
    664
    668
    672
    676
    680
    684
    688
    692
    696
    700
    704
    708
    712
    716
    720
    724
    728
    732
    736
    740
    744
    748
    752
    756
    760
    764
    768
    772
    776
    780
    784
    788
    792
    796
    800
    804
    808
    812
    816
    820
    824
    828
    832
    836
    840
    844
    848
    852
    856
    860
    864
    868
    872
    876
    880
    884
    888
    892
    896
    900
    904
    908
    912
    916
    920
    924
    928
    932
    936
    940
    944
    948
    952
    956
    960
    964
    968
    972
    976
    980
    984
    988
    992
    996
   1000
   1004
   1008
   1012
   1016
   1020
   1024
   1028
   1032
   1036
   1040
   1044
   1048
   1052
   1056
   1060
   1064
   1068
   1072
   1076
   1080
   1084
   1088
   1092
   1096
   1100
   1104
   1108
   1112
   1116
   1120
   1124
   1128
   1132
   1136
   1140
   1144
   1148
   1152
   1156
   1160
   1164
   1168
   1172
   1176
   1180
   1184
   1188
   1192
   1196
   1200
   1204
   1208
   1212
   1216
   1220
   1224
   1228
   1232
   1236
   1240
   1244
   1248
   1252
   1256
   1260
   1264
   1268
   1272
   1276
   1280
   1284
   1288
   1292
   1296
   1300
   1304
   1308
   1312
   1316
   1320
   1324
   1328
   1332
   1336
   1340
   1344
   1348
   1352
   1356
   1360
   1364
   1368
   1372
   1376
   1380
   1384
   1388
   1392
   1396
   1400
   1404
   1408
   1412
   1416
   1420
   1424
   1428
   1432
   1436
   1440
   1444
   1448
   1452
   1456
   1460
   1464
   1468
   1472
   1476
   1480
   1484
   1488
   1492
   1496
   1500
   1504
   1508
   1512
   1516
   1520
   1524
   1528
   1532
   1536
   1540
   1544
   1548
   1552
   1556
   1560
   1564
   1568
   1572
   1576
   1580
   1584
   1588
   1592
   1596
   1600
   1604
   1608
   1612
   1616
   1620
   1624
   1628
   1632
   1636
   1640
   1644
   1648
   1652
   1656
   1660
   1664
   1668
   1672
   1676
   1680
   1684
   1688
   1692
   1696
   1700
   1704
   1708
   1712
   1716
   1720
   1724
   1728
   1732
   1736
   1740
   1744
   1748
   1752
   1756
   1760
   1764
   1768
   1772
   1776
   1780
   1784
   1788
   1792
   1796
   1800
   1804
   1808
   1812
   1816
   1820
   1824
   1828
   1832
   1836
   1840
   1844
   1848
   1852
   1856
   1860
   1864
   1868
   1872
   1876
   1880
   1884
   1888
   1892
   1896
   1900
   1904
   1908
   1912
   1916
   1920
   1924
   1928
   1932
   1936
   1940
   1944
   1948
   1952
   1956
   1960
   1964
   1968
   1972
   1976
   1980
   1984
   1988
   1992
   1996
   2000
   2004
   2008
   2012
   2016
   2020
   2024
   2028
   2032
   2036
   2040
   2044
   2048
   2052
   2056
   2060
   2064
   2068
   2072
   2076
   2080
   2084
   2088
   2092
   2096
   2100
   2104
   2108
   2112
   2116
   2120
   2124
   2128
   2132
   2136
   2140
   2144
   2148
   2152
   2156
   2160
   2164
   2168
   2172
   2176
   2180
   2184
   2188
   2192
   2196
   2200
   2204
   2208
   2212
   2216
   2220
   2224
   2228
   2232
   2236
   2240
   2244
   2248
   2252
   2256
   2260
   2264
   2268
   2272
   2276
   2280
   2284
   2288
   2292
   2296
   2300
   2304
   2308
   2312
   2316
   2320
   2324
   2328
   2332
   2336
   2340
   2344
   2348
   2352
   2356
   2360
   2364
   2368
   2372
   2376
   2380
   2384
   2388
   2392
   2396
   2400
        </DataArray>
      </Polys>
    </Piece>
  </PolyData>
</VTKFile>
