<?xml version="1.0"?>
<VTKFile type="PolyData" version="0.1" byte_order="LittleEndian">
  <PolyData>
    <Piece NumberOfPoints="     19" NumberOfVerts="  0" NumberOfLines="     18"
           NumberOfStrips="  0" NumberOfPolys="      0">
      <Points>
        <DataArray type="Float32" NumberOfComponents="3" format="ascii">
                      -4.90551                      -1.31215                      89.27288
                      -5.02849                      -2.48930                      88.58928
                      -5.29992                      -4.79432                      87.14168
                      -5.57908                      -7.07552                      85.65435
                      -5.92513                      -9.91214                      83.76877
                      -6.25575                     -13.38834                      81.61647
                      -6.52247                     -16.92903                      79.56496
                      -6.75259                     -20.46865                      77.50687
                      -6.93459                     -24.00782                      75.44312
                      -7.06022                     -27.54510                      73.37204
                      -7.12219                     -31.07799                      71.29079
                      -7.11158                     -34.60643                      69.20109
                      -7.02223                     -38.12944                      67.10374
                      -6.84981                     -41.64579                      64.99983
                      -6.58975                     -45.15376                      62.89057
                      -6.30425                     -48.06916                      61.12993
                      -6.03381                     -50.39971                      59.72722
                      -5.72441                     -52.75281                      58.37128
                      -5.56037                     -53.90534                      57.65794
        </DataArray>
      </Points>
      <PointData>
        <DataArray type="Float32" Name="TranslationalVelocity" NumberOfComponents="3" format="ascii">
                      -0.12213                       0.70917                      -1.21824
                      -0.22333                       1.36287                      -2.32576
                      -0.42080                       2.74762                      -4.49380
                      -0.61500                       4.16960                      -6.63857
                      -0.85406                       5.97021                      -9.30418
                      -1.14276                       8.01788                     -12.56852
                      -1.43122                       9.96338                     -15.89056
                      -1.71276                      11.90994                     -19.20863
                      -1.98671                      13.85593                     -22.52331
                      -2.25235                      15.80253                     -25.83329
                      -2.50903                      17.75217                     -29.13638
                      -2.75651                      19.70297                     -32.43267
                      -2.99464                      21.65414                     -35.72139
                      -3.22344                      23.60485                     -39.00156
                      -3.44310                      25.55417                     -42.27166
                      -3.61926                      27.17673                     -44.98765
                      -3.75653                      28.46680                     -47.15771
                      -3.89307                      29.71101                     -49.34779
                      -3.95805                      30.36572                     -50.42008
        </DataArray>
        <DataArray type="Float32" Name="RotationalVelocity" NumberOfComponents="3" format="ascii">
                       0.94093                      -0.00010                      -0.08612
                       0.94080                      -0.00015                      -0.08603
                       0.94045                      -0.00032                      -0.08573
                       0.94001                      -0.00059                      -0.08530
                       0.93936                      -0.00108                      -0.08462
                       0.93851                      -0.00193                      -0.08364
                       0.93764                      -0.00303                      -0.08254
                       0.93680                      -0.00436                      -0.08136
                       0.93602                      -0.00589                      -0.08009
                       0.93534                      -0.00754                      -0.07874
                       0.93476                      -0.00926                      -0.07730
                       0.93429                      -0.01097                      -0.07577
                       0.93391                      -0.01259                      -0.07416
                       0.93364                      -0.01404                      -0.07250
                       0.93344                      -0.01523                      -0.07082
                       0.93333                      -0.01599                      -0.06947
                       0.93328                      -0.01640                      -0.06846
                       0.93325                      -0.01663                      -0.06756
                       0.93324                      -0.01667                      -0.06716
        </DataArray>
        <DataArray type="Float32" Name="TranslationalAcceleration" NumberOfComponents="3" format="ascii">
                       0.79040                       1.23938                       0.62787
                       0.26853                       1.49158                       0.68250
                       0.68023                       4.23154                       2.01478
                       0.95484                       6.72986                       3.27585
                       1.17190                       9.62867                       4.76734
                       1.32130                      12.95581                       6.34090
                       1.43666                      16.22780                       7.75722
                       1.58681                      19.48216                       9.16304
                       1.80896                      22.76450                      10.57736
                       2.12166                      26.08968                      12.00742
                       2.52843                      29.45084                      13.45149
                       3.02181                      32.83054                      14.89792
                       3.58770                      36.20648                      16.33507
                       4.20959                      39.56034                      17.75447
                       4.87266                      42.88607                      19.15511
                       5.45059                      45.64495                      20.31544
                       5.92732                      47.86148                      21.24099
                       6.42174                      50.12494                      22.13767
                       6.67621                      51.25942                      22.62996
        </DataArray>
        <DataArray type="Float32" Name="OrientationX" NumberOfComponents="3" format="ascii">
                       0.94810                       0.07950                      -0.30787
                       0.94815                       0.08001                      -0.30759
                       0.94830                       0.08160                      -0.30670
                       0.94852                       0.08394                      -0.30540
                       0.94883                       0.08782                      -0.30332
                       0.95853                       0.07787                      -0.27415
                       0.96509                       0.07389                      -0.25128
                       0.97051                       0.07297                      -0.22977
                       0.97579                       0.07319                      -0.20610
                       0.98072                       0.07488                      -0.18051
                       0.98485                       0.07890                      -0.15440
                       0.98830                       0.08458                      -0.12692
                       0.99072                       0.09243                      -0.09969
                       0.99181                       0.10318                      -0.07529
                       0.99221                       0.11378                      -0.05072
                       0.99211                       0.12161                      -0.03057
                       0.99179                       0.12691                      -0.01575
                       0.99116                       0.13257                      -0.00552
                       0.99074                       0.13576                      -0.00296
        </DataArray>
        <DataArray type="Float32" Name="OrientationY" NumberOfComponents="3" format="ascii">
                       0.30516                      -0.49953                       0.81077
                       0.30517                      -0.49960                       0.81072
                       0.30518                      -0.49974                       0.81063
                       0.30522                      -0.49984                       0.81055
                       0.30536                      -0.49988                       0.81048
                       0.27525                      -0.50242                       0.81964
                       0.25356                      -0.50396                       0.82567
                       0.23462                      -0.50506                       0.83059
                       0.21441                      -0.50608                       0.83541
                       0.19331                      -0.50707                       0.83994
                       0.17299                      -0.50802                       0.84380
                       0.15235                      -0.50912                       0.84710
                       0.13311                      -0.51036                       0.84960
                       0.11783                      -0.51152                       0.85115
                       0.10240                      -0.51303                       0.85224
                       0.08935                      -0.51456                       0.85278
                       0.07956                      -0.51585                       0.85298
                       0.07385                      -0.51667                       0.85299
                       0.07336                      -0.51676                       0.85298
        </DataArray>
        <DataArray type="Float32" Name="OrientationZ" NumberOfComponents="3" format="ascii">
                      -0.08933                      -0.86264                      -0.49786
                      -0.08881                      -0.86255                      -0.49811
                      -0.08712                      -0.86232                      -0.49881
                      -0.08461                      -0.86204                      -0.49973
                      -0.08045                      -0.86163                      -0.50112
                      -0.07391                      -0.86111                      -0.50302
                      -0.06563                      -0.86056                      -0.50510
                      -0.05544                      -0.86000                      -0.50728
                      -0.04316                      -0.85937                      -0.50952
                      -0.02864                      -0.85864                      -0.51177
                      -0.01186                      -0.85772                      -0.51397
                       0.00703                      -0.85653                      -0.51605
                       0.02765                      -0.85498                      -0.51792
                       0.04931                      -0.85305                      -0.51949
                       0.07095                      -0.85080                      -0.52068
                       0.08798                      -0.84879                      -0.52137
                       0.10013                      -0.84723                      -0.52171
                       0.11023                      -0.84586                      -0.52189
                       0.11427                      -0.84530                      -0.52193
        </DataArray>
        <DataArray type="Float32" Name="Force" NumberOfComponents="3" format="ascii">
                       0.77391                      -4.95849                       8.45268
                     413.94831                     -65.29996                      39.31494
                     496.99526                    -111.42391                     106.12155
                     407.28867                    -111.94774                     124.75245
                    3129.56348                     463.11548                   -1304.46777
                    3054.62347                     389.79749                   -1123.45647
                    3380.41597                     415.33495                   -1156.88575
                    3164.00766                     388.92609                   -1016.09255
                    3175.73172                     429.02973                   -1005.74457
                    3695.77646                     568.60644                   -1179.03837
                    4070.36049                     719.20606                   -1317.65888
                    4600.70747                     876.22480                   -1419.85240
                    5462.50302                    1034.17763                   -1446.43753
                    5836.37416                    1163.20688                   -1388.17288
                    6063.30416                    1263.46235                   -1269.80115
                    6218.00227                    1340.18735                   -1163.03466
                    6102.82357                    1344.80775                   -1040.96518
                    4508.15019                    1015.20522                    -713.32384
                    1467.32664                     195.59873                       4.92976
        </DataArray>
        <DataArray type="Float32" Name="Moment" NumberOfComponents="3" format="ascii">
                       0.00000                       0.00000                       0.00000
                       0.00000                       0.00000                       0.00000
                       0.00000                       0.00000                       0.00000
                       0.00000                       0.00000                       0.00000
                     132.30905                    1422.90415                     822.58720
                     136.37853                    1599.35196                     925.72207
                     120.33904                    1593.31044                     923.64655
                     104.32020                    1640.37834                     952.72409
                      76.02210                    1543.42135                     898.43829
                      46.84634                    1448.24934                     845.27996
                      14.77239                    1151.69880                     674.25471
                      -9.69589                    1058.97899                     622.10387
                     -36.13942                    1089.00889                     642.14108
                     -61.81266                    1056.57669                     625.46636
                     -85.55970                    1019.56819                     605.93075
                    -101.04667                     971.33148                     579.05218
                    -101.31496                     855.35110                     511.04057
                     -55.98873                     429.08995                     256.83812
                     -53.40561                     394.67546                     236.41345
        </DataArray>
      </PointData>
      <Lines>
        <DataArray type="Int32" Name="connectivity" format="ascii">
      0      1
      1      2
      2      3
      3      4
      4      5
      5      6
      6      7
      7      8
      8      9
      9     10
     10     11
     11     12
     12     13
     13     14
     14     15
     15     16
     16     17
     17     18
        </DataArray>
        <DataArray type="Int32" Name="offsets" format="ascii">
      2
      4
      6
      8
     10
     12
     14
     16
     18
     20
     22
     24
     26
     28
     30
     32
     34
     36
        </DataArray>
      </Lines>
    </Piece>
  </PolyData>
</VTKFile>
