<?xml version="1.0"?>
<VTKFile type="PolyData" version="0.1" byte_order="LittleEndian">
  <PolyData>
    <Piece NumberOfPoints="    550" NumberOfVerts="  0" NumberOfLines="     21"
           NumberOfStrips="  0" NumberOfPolys="    567">
      <Points>
        <DataArray type="Float32" NumberOfComponents="3" format="ascii">
                       2.97347                      -0.00003                       2.18975
                       2.88005                       0.73942                       2.18978
                       2.60568                       1.43240                       2.18982
                       2.16759                       2.03538                       2.18987
                       1.59330                       2.51047                       2.18993
                       0.91891                       2.82782                       2.19000
                       0.18679                       2.96748                       2.19007
                      -0.55706                       2.92068                       2.19013
                      -1.26591                       2.69036                       2.19018
                      -1.89521                       2.29099                       2.19022
                      -2.40542                       1.74768                       2.19025
                      -2.76448                       1.09454                       2.19027
                      -2.94984                       0.37263                       2.19026
                      -2.94984                      -0.37269                       2.19024
                      -2.76448                      -1.09460                       2.19020
                      -2.40542                      -1.74774                       2.19016
                      -1.89521                      -2.29106                       2.19010
                      -1.26591                      -2.69042                       2.19003
                      -0.55706                      -2.92074                       2.18997
                       0.18679                      -2.96754                       2.18990
                       0.91891                      -2.82788                       2.18984
                       1.59330                      -2.51053                       2.18980
                       2.16759                      -2.03545                       2.18976
                       2.60568                      -1.43246                       2.18974
                       2.88005                      -0.73948                       2.18973
                       2.92103                      -0.00026                       6.56914
                       2.82929                       0.72594                       6.56922
                       2.55983                       1.40652                       6.56935
                       2.12959                       1.99870                       6.56953
                       1.56559                       2.46528                       6.56973
                       0.90327                       2.77694                       6.56995
                       0.18426                       2.91410                       6.57017
                      -0.54627                       2.86814                       6.57038
                      -1.24242                       2.64195                       6.57057
                      -1.86045                       2.24973                       6.57072
                      -2.36152                       1.71614                       6.57083
                      -2.71416                       1.07471                       6.57088
                      -2.89619                       0.36573                       6.57088
                      -2.89619                      -0.36625                       6.57083
                      -2.71416                      -1.07523                       6.57072
                      -2.36152                      -1.71667                       6.57056
                      -1.86045                      -2.25026                       6.57037
                      -1.24242                      -2.64247                       6.57016
                      -0.54627                      -2.86866                       6.56994
                       0.18426                      -2.91463                       6.56972
                       0.90328                      -2.77747                       6.56952
                       1.56559                      -2.46581                       6.56935
                       2.12959                      -1.99923                       6.56922
                       2.55983                      -1.40704                       6.56914
                       2.82929                      -0.72647                       6.56911
                       2.86959                      -0.00070                      10.94846
                       2.77952                       0.71226                      10.94860
                       2.51498                       1.38042                      10.94883
                       2.09258                       1.96181                      10.94912
                       1.53887                       2.41988                      10.94948
                       0.88863                       2.72586                      10.94986
                       0.18273                       2.86051                      10.95026
                      -0.53448                       2.81539                      10.95064
                      -1.21794                       2.59332                      10.95097
                      -1.82470                       2.20826                      10.95125
                      -2.31663                       1.68440                      10.95145
                      -2.66283                       1.05466                      10.95156
                      -2.84155                       0.35861                      10.95157
                      -2.84155                      -0.36002                      10.95148
                      -2.66283                      -1.05607                      10.95130
                      -2.31663                      -1.68581                      10.95103
                      -1.82470                      -2.20967                      10.95070
                      -1.21794                      -2.59473                      10.95033
                      -0.53448                      -2.81680                      10.94994
                       0.18273                      -2.86192                      10.94955
                       0.88863                      -2.72726                      10.94919
                       1.53887                      -2.42129                      10.94888
                       2.09258                      -1.96322                      10.94864
                       2.51498                      -1.38183                      10.94848
                       2.77952                      -0.71367                      10.94842
                       2.81924                      -0.00135                      15.32778
                       2.73084                       0.69837                      15.32797
                       2.47121                       1.35413                      15.32829
                       2.05666                       1.92471                      15.32871
                       1.51323                       2.37427                      15.32922
                       0.87507                       2.67457                      15.32977
                       0.18228                       2.80672                      15.33034
                      -0.52161                       2.76244                      15.33088
                      -1.19237                       2.54449                      15.33138
                      -1.78786                       2.16659                      15.33178
                      -2.27066                       1.65246                      15.33207
                      -2.61043                       1.03442                      15.33223
                      -2.78583                       0.35129                      15.33226
                      -2.78583                      -0.35399                      15.33214
                      -2.61043                      -1.03711                      15.33188
                      -2.27066                      -1.65516                      15.33151
                      -1.78786                      -2.16928                      15.33104
                      -1.19237                      -2.54719                      15.33051
                      -0.52161                      -2.76514                      15.32994
                       0.18228                      -2.80942                      15.32938
                       0.87507                      -2.67727                      15.32886
                       1.51323                      -2.37697                      15.32841
                       2.05666                      -1.92741                      15.32806
                       2.47121                      -1.35682                      15.32783
                       2.73084                      -0.70107                      15.32773
                       2.76998                      -0.00220                      19.70713
                       2.68326                       0.68427                      19.70737
                       2.42854                       1.32762                      19.70778
                       2.02184                       1.88740                      19.70832
                       1.48869                       2.32846                      19.70897
                       0.86261                       2.62307                      19.70969
                       0.18294                       2.75273                      19.71042
                      -0.50763                       2.70928                      19.71113
                      -1.16570                       2.49546                      19.71177
                      -1.74992                       2.12470                      19.71229
                      -2.22358                       1.62030                      19.71267
                      -2.55692                       1.01396                      19.71288
                      -2.72900                       0.34376                      19.71291
                      -2.72900                      -0.34817                      19.71276
                      -2.55692                      -1.01837                      19.71244
                      -2.22358                      -1.62471                      19.71196
                      -1.74992                      -2.12911                      19.71135
                      -1.16570                      -2.49986                      19.71067
                      -0.50763                      -2.71368                      19.70994
                       0.18294                      -2.75713                      19.70921
                       0.86261                      -2.62748                      19.70853
                       1.48869                      -2.33286                      19.70795
                       2.02184                      -1.89181                      19.70749
                       2.42854                      -1.33202                      19.70719
                       2.68326                      -0.68868                      19.70707
                       2.72182                      -0.00328                      24.08652
                       2.63677                       0.66995                      24.08682
                       2.38696                       1.30088                      24.08731
                       1.98810                       1.84987                      24.08797
                       1.46524                       2.28242                      24.08876
                       0.85124                       2.57134                      24.08963
                       0.18468                       2.69850                      24.09052
                      -0.49257                       2.65589                      24.09137
                      -1.13794                       2.44619                      24.09214
                      -1.71089                       2.08259                      24.09278
                      -2.17541                       1.58792                      24.09324
                      -2.50232                       0.99327                      24.09349
                      -2.67108                       0.33601                      24.09353
                      -2.67108                      -0.34258                      24.09334
                      -2.50233                      -0.99984                      24.09295
                      -2.17541                      -1.59449                      24.09236
                      -1.71089                      -2.08916                      24.09163
                      -1.13794                      -2.45276                      24.09080
                      -0.49257                      -2.66246                      24.08991
                       0.18468                      -2.70507                      24.08903
                       0.85124                      -2.57791                      24.08821
                       1.46524                      -2.28899                      24.08751
                       1.98810                      -1.85644                      24.08695
                       2.38696                      -1.30745                      24.08659
                       2.63677                      -0.67652                      24.08645
                       2.67470                      -0.00462                      28.46596
                       2.59133                       0.65537                      28.46631
                       2.34644                       1.27389                      28.46689
                       1.95542                       1.81208                      28.46766
                       1.44285                       2.23612                      28.46858
                       0.84092                       2.51936                      28.46959
                       0.18747                       2.64402                      28.47063
                      -0.47646                       2.60225                      28.47162
                      -1.10913                       2.39668                      28.47251
                      -1.67081                       2.04022                      28.47325
                      -2.12620                       1.55529                      28.47377
                      -2.44668                       0.97233                      28.47406
                      -2.61212                       0.32800                      28.47410
                      -2.61212                      -0.33724                      28.47387
                      -2.44668                      -0.98158                      28.47341
                      -2.12620                      -1.56453                      28.47272
                      -1.67081                      -2.04947                      28.47187
                      -1.10913                      -2.40592                      28.47090
                      -0.47646                      -2.61149                      28.46987
                       0.18747                      -2.65326                      28.46884
                       0.84092                      -2.52861                      28.46789
                       1.44284                      -2.24536                      28.46707
                       1.95542                      -1.82132                      28.46644
                       2.34644                      -1.28314                      28.46603
                       2.59133                      -0.66461                      28.46586
                       2.62861                      -0.00625                      32.84543
                       2.54691                       0.64050                      32.84584
                       2.30693                       1.24661                      32.84651
                       1.92376                       1.77400                      32.84739
                       1.42147                       2.18953                      32.84844
                       0.83163                       2.46709                      32.84959
                       0.19128                       2.58924                      32.85076
                      -0.45932                       2.54831                      32.85188
                      -1.07930                       2.34687                      32.85288
                      -1.62971                       1.99757                      32.85370
                      -2.07596                       1.52236                      32.85429
                      -2.39001                       0.95110                      32.85460
                      -2.55213                       0.31969                      32.85463
                      -2.55213                      -0.33219                      32.85436
                      -2.39001                      -0.96360                      32.85382
                      -2.07596                      -1.53486                      32.85304
                      -1.62971                      -2.01007                      32.85207
                      -1.07930                      -2.35937                      32.85096
                      -0.45932                      -2.56081                      32.84979
                       0.19128                      -2.60174                      32.84864
                       0.83162                      -2.47959                      32.84757
                       1.42147                      -2.20203                      32.84665
                       1.92376                      -1.78650                      32.84594
                       2.30693                      -1.25911                      32.84548
                       2.54691                      -0.65300                      32.84531
                       2.58353                      -0.00821                      37.22493
                       2.50350                       0.62530                      37.22540
                       2.26844                       1.21900                      37.22615
                       1.89311                       1.73559                      37.22715
                       1.40111                       2.14261                      37.22832
                       0.82334                       2.41449                      37.22960
                       0.19611                       2.53414                      37.23090
                      -0.44117                       2.49405                      37.23214
                      -1.04846                       2.29672                      37.23325
                      -1.58760                       1.95458                      37.23415
                      -2.02471                       1.48910                      37.23479
                      -2.33233                       0.92954                      37.23512
                      -2.49113                       0.31106                      37.23514
                      -2.49113                      -0.32748                      37.23482
                      -2.33233                      -0.94596                      37.23421
                      -2.02471                      -1.50552                      37.23333
                      -1.58760                      -1.97100                      37.23223
                      -1.04846                      -2.31314                      37.23100
                      -0.44117                      -2.51046                      37.22970
                       0.19611                      -2.55056                      37.22842
                       0.82334                      -2.43091                      37.22723
                       1.40110                      -2.15903                      37.22622
                       1.89311                      -1.75201                      37.22545
                       2.26843                      -1.23541                      37.22495
                       2.50350                      -0.64171                      37.22478
                       2.53947                      -0.01054                      41.60444
                       2.46111                       0.60973                      41.60497
                       2.23096                       1.19102                      41.60581
                       1.86348                       1.69681                      41.60692
                       1.38176                       2.09532                      41.60822
                       0.81607                       2.36151                      41.60963
                       0.20196                       2.47866                      41.61106
                      -0.42200                       2.43941                      41.61242
                      -1.01660                       2.24621                      41.61362
                      -1.54446                       1.91121                      41.61460
                      -1.97244                       1.45547                      41.61528
                      -2.27363                       0.90761                      41.61564
                      -2.42911                       0.30205                      41.61563
                      -2.42911                      -0.32314                      41.61527
                      -2.27363                      -0.92869                      41.61457
                      -1.97244                      -1.47655                      41.61359
                      -1.54447                      -1.93230                      41.61238
                      -1.01660                      -2.26729                      41.61101
                      -0.42201                      -2.46049                      41.60958
                       0.20195                      -2.49974                      41.60818
                       0.81607                      -2.38259                      41.60688
                       1.38176                      -2.11640                      41.60578
                       1.86348                      -1.71788                      41.60495
                       2.23096                      -1.21209                      41.60442
                       2.46111                      -0.63080                      41.60425
                       2.49646                      -0.01329                      45.98394
                       2.41977                       0.59374                      45.98454
                       2.19454                       1.16261                      45.98548
                       1.83491                       1.65761                      45.98670
                       1.36347                       2.04761                      45.98813
                       0.80986                       2.30812                      45.98967
                       0.20886                       2.42277                      45.99123
                      -0.40178                       2.38435                      45.99270
                      -0.98368                       2.19528                      45.99401
                      -1.50028                       1.86744                      45.99506
                      -1.91911                       1.42142                      45.99579
                      -2.21387                       0.88526                      45.99615
                      -2.36603                       0.29263                      45.99612
                      -2.36603                      -0.31921                      45.99571
                      -2.21387                      -0.91184                      45.99493
                      -1.91911                      -1.44800                      45.99384
                      -1.50028                      -1.89402                      45.99251
                      -0.98368                      -2.22186                      45.99101
                      -0.40179                      -2.41093                      45.98945
                       0.20885                      -2.44935                      45.98792
                       0.80986                      -2.33470                      45.98652
                       1.36347                      -2.07419                      45.98533
                       1.83490                      -1.68418                      45.98444
                       2.19454                      -1.18919                      45.98389
                       2.41977                      -0.62031                      45.98372
                       2.45456                      -0.01649                      50.36343
                       2.37955                       0.57729                      50.36411
                       2.15923                       1.13376                      50.36514
                       1.80744                       1.61795                      50.36648
                       1.34629                       1.99945                      50.36804
                       0.80476                       2.25428                      50.36971
                       0.21686                       2.36642                      50.37140
                      -0.38045                       2.32884                      50.37300
                      -0.94965                       2.14390                      50.37440
                      -1.45498                       1.82320                      50.37553
                      -1.86468                       1.38692                      50.37630
                      -2.15301                       0.86245                      50.37667
                      -2.30185                       0.28276                      50.37662
                      -2.30185                      -0.31574                      50.37615
                      -2.15301                      -0.89544                      50.37529
                      -1.86468                      -1.41990                      50.37409
                      -1.45498                      -1.85619                      50.37263
                      -0.94966                      -2.17688                      50.37101
                      -0.38046                      -2.36182                      50.36931
                       0.21686                      -2.39940                      50.36765
                       0.80475                      -2.28726                      50.36614
                       1.34629                      -2.03243                      50.36487
                       1.80744                      -1.65093                      50.36391
                       2.15922                      -1.16674                      50.36333
                       2.37955                      -0.61027                      50.36317
                       2.41383                      -0.02018                      54.74292
                       2.34049                       0.56036                      54.74366
                       2.12508                       1.10441                      54.74480
                       1.78114                       1.57781                      54.74626
                       1.33028                       1.95080                      54.74794
                       0.80082                       2.19994                      54.74975
                       0.22604                       2.30959                      54.75158
                      -0.35795                       2.27284                      54.75329
                      -0.91446                       2.09202                      54.75480
                      -1.40851                       1.77848                      54.75600
                      -1.80908                       1.35193                      54.75681
                      -2.09097                       0.83916                      54.75719
                      -2.23649                       0.27239                      54.75712
                      -2.23649                      -0.31276                      54.75659
                      -2.09097                      -0.87953                      54.75565
                      -1.80908                      -1.39230                      54.75434
                      -1.40852                      -1.81885                      54.75276
                      -0.91446                      -2.13239                      54.75099
                      -0.35796                      -2.31321                      54.74916
                       0.22604                      -2.34995                      54.74738
                       0.80082                      -2.24030                      54.74575
                       1.33028                      -1.99116                      54.74439
                       1.78114                      -1.61817                      54.74338
                       2.12508                      -1.14477                      54.74277
                       2.34049                      -0.60071                      54.74262
                       2.37432                      -0.02438                      59.12241
                       2.30266                       0.54291                      59.12322
                       2.09217                       1.07456                      59.12445
                       1.75607                       1.53715                      59.12603
                       1.31549                       1.90163                      59.12785
                       0.79812                       2.14509                      59.12979
                       0.23645                       2.25223                      59.13175
                      -0.33422                       2.21633                      59.13358
                      -0.87804                       2.03963                      59.13518
                      -1.36082                       1.73325                      59.13646
                      -1.75225                       1.31642                      59.13732
                      -2.02771                       0.81535                      59.13771
                      -2.16992                       0.26151                      59.13761
                      -2.16992                      -0.31029                      59.13703
                      -2.02772                      -0.86413                      59.13599
                      -1.75225                      -1.36520                      59.13458
                      -1.36083                      -1.78203                      59.13287
                      -0.87804                      -2.08841                      59.13097
                      -0.33423                      -2.26511                      59.12901
                       0.23644                      -2.30101                      59.12710
                       0.79811                      -2.19386                      59.12537
                       1.31549                      -1.95040                      59.12392
                       1.75607                      -1.58592                      59.12284
                       2.09216                      -1.12332                      59.12221
                       2.30266                      -0.59168                      59.12206
                       2.33607                      -0.02912                      63.50192
                       2.26608                       0.52493                      63.50280
                       2.06050                       1.04417                      63.50413
                       1.73225                       1.49597                      63.50581
                       1.30196                       1.85194                      63.50775
                       0.79666                       2.08971                      63.50983
                       0.24810                       2.19436                      63.51190
                      -0.30925                       2.15929                      63.51385
                      -0.84037                       1.98672                      63.51555
                      -1.31188                       1.68748                      63.51689
                      -1.69417                       1.28038                      63.51779
                      -1.96320                       0.79101                      63.51819
                      -2.10209                       0.25010                      63.51806
                      -2.10209                      -0.30835                      63.51743
                      -1.96321                      -0.84926                      63.51631
                      -1.69417                      -1.33864                      63.51480
                      -1.31189                      -1.74573                      63.51297
                      -0.84037                      -2.04496                      63.51095
                      -0.30926                      -2.21754                      63.50885
                       0.24809                      -2.25260                      63.50683
                       0.79665                      -2.14795                      63.50499
                       1.30195                      -1.91018                      63.50346
                       1.73224                      -1.55420                      63.50233
                       2.06049                      -1.10240                      63.50168
                       2.26607                      -0.58317                      63.50154
                       2.29903                      -0.03438                      67.88149
                       2.23071                       0.50643                      67.88244
                       2.03005                       1.01325                      67.88384
                       1.70965                       1.45425                      67.88563
                       1.28964                       1.80171                      67.88768
                       0.79642                       2.03381                      67.88986
                       0.26097                       2.13595                      67.89204
                      -0.28305                       2.10172                      67.89409
                      -0.80148                       1.93327                      67.89586
                      -1.26172                       1.64119                      67.89726
                      -1.63487                       1.24382                      67.89819
                      -1.89748                       0.76614                      67.89859
                      -2.03304                       0.23816                      67.89845
                      -2.03304                      -0.30694                      67.89776
                      -1.89748                      -0.83492                      67.89657
                      -1.63488                      -1.31260                      67.89496
                      -1.26173                      -1.70996                      67.89303
                      -0.80149                      -2.00204                      67.89090
                      -0.28306                      -2.17049                      67.88870
                       0.26096                      -2.20472                      67.88657
                       0.79641                      -2.10257                      67.88465
                       1.28963                      -1.87048                      67.88305
                       1.70964                      -1.52301                      67.88188
                       2.03004                      -1.08201                      67.88120
                       2.23071                      -0.57519                      67.88107
                       2.26309                      -0.04015                      72.26118
                       2.19645                       0.48741                      72.26217
                       2.00070                       0.98183                      72.26365
                       1.68814                       1.41203                      72.26551
                       1.27842                       1.75098                      72.26764
                       0.79728                       1.97739                      72.26990
                       0.27494                       2.07703                      72.27216
                      -0.25576                       2.04364                      72.27427
                      -0.76149                       1.87932                      72.27610
                      -1.21047                       1.59439                      72.27753
                      -1.57448                       1.20675                      72.27848
                      -1.83065                       0.74077                      72.27888
                      -1.96289                       0.22572                      72.27871
                      -1.96290                      -0.30604                      72.27798
                      -1.83066                      -0.82109                      72.27673
                      -1.57448                      -1.28707                      72.27505
                      -1.21047                      -1.67471                      72.27304
                      -0.76150                      -1.95963                      72.27083
                      -0.25577                      -2.12395                      72.26855
                       0.27493                      -2.15734                      72.26634
                       0.79726                      -2.05770                      72.26436
                       1.27841                      -1.83129                      72.26272
                       1.68813                      -1.49233                      72.26152
                       2.00069                      -1.06213                      72.26084
                       2.19644                      -0.56771                      72.26072
                       2.22800                      -0.04639                      76.64104
                       2.16302                       0.46793                      76.64207
                       1.97219                       0.94993                      76.64359
                       1.66748                       1.36933                      76.64549
                       1.26804                       1.69978                      76.64766
                       0.79898                       1.92051                      76.64996
                       0.28975                       2.01764                      76.65225
                      -0.22763                       1.98509                      76.65438
                      -0.72066                       1.82489                      76.65622
                      -1.15837                       1.54711                      76.65765
                      -1.51324                       1.16921                      76.65859
                      -1.76298                       0.71492                      76.65897
                      -1.89191                       0.21280                      76.65878
                      -1.89191                      -0.30561                      76.65801
                      -1.76299                      -0.80773                      76.65673
                      -1.51325                      -1.26202                      76.65501
                      -1.15838                      -1.63992                      76.65295
                      -0.72067                      -1.91769                      76.65070
                      -0.22764                      -2.07789                      76.64839
                       0.28974                      -2.11044                      76.64616
                       0.79896                      -2.01330                      76.64416
                       1.26803                      -1.79257                      76.64251
                       1.66747                      -1.46212                      76.64131
                       1.97218                      -1.04272                      76.64065
                       2.16302                      -0.56071                      76.64055
                       2.19332                      -0.05304                      81.02116
                       2.13002                       0.44804                      81.02221
                       1.94410                       0.91763                      81.02373
                       1.64723                       1.32623                      81.02562
                       1.25808                       1.64817                      81.02778
                       0.80109                       1.86321                      81.03005
                       0.30498                       1.95785                      81.03230
                      -0.19908                       1.92613                      81.03439
                      -0.67942                       1.77006                      81.03619
                      -1.10585                       1.49943                      81.03758
                      -1.45159                       1.13126                      81.03847
                      -1.69490                       0.68867                      81.03881
                      -1.82051                       0.19948                      81.03858
                      -1.82051                      -0.30558                      81.03779
                      -1.69491                      -0.79478                      81.03650
                      -1.45160                      -1.23737                      81.03478
                      -1.10586                      -1.60554                      81.03274
                      -0.67943                      -1.87616                      81.03051
                      -0.19909                      -2.03223                      81.02822
                       0.30497                      -2.06394                      81.02604
                       0.80108                      -1.96930                      81.02408
                       1.25807                      -1.75426                      81.02248
                       1.64722                      -1.43232                      81.02133
                       1.94409                      -1.02371                      81.02070
                       2.13002                      -0.55412                      81.02065
                       2.15841                      -0.06001                      85.40163
                       2.09678                       0.42783                      85.40267
                       1.91577                       0.88501                      85.40415
                       1.62675                       1.28281                      85.40598
                       1.24788                       1.59624                      85.40804
                       0.80297                       1.80560                      85.41020
                       0.31997                       1.89774                      85.41233
                      -0.17077                       1.86686                      85.41429
                      -0.63841                       1.71491                      85.41595
                      -1.05357                       1.45144                      85.41723
                      -1.39017                       1.09299                      85.41803
                      -1.62706                       0.66210                      85.41830
                      -1.74934                       0.18584                      85.41803
                      -1.74934                      -0.30588                      85.41723
                      -1.62706                      -0.78214                      85.41596
                      -1.39018                      -1.21303                      85.41429
                      -1.05358                      -1.57147                      85.41234
                      -0.63842                      -1.83495                      85.41021
                      -0.17078                      -1.98689                      85.40805
                       0.31996                      -2.01776                      85.40599
                       0.80296                      -1.92563                      85.40416
                       1.24787                      -1.71626                      85.40268
                       1.62674                      -1.40283                      85.40164
                       1.91576                      -1.00503                      85.40110
                       2.09678                      -0.54784                      85.40110
                       2.14058                      -0.06358                      87.59204
                       2.07979                       0.41764                      87.59306
                       1.90124                       0.86861                      87.59450
                       1.61614                       1.26102                      87.59626
                       1.24242                       1.57019                      87.59824
                       0.80355                       1.77671                      87.60030
                       0.32710                       1.86759                      87.60232
                      -0.15698                       1.83714                      87.60418
                      -0.61827                       1.68725                      87.60575
                      -1.02780                       1.42735                      87.60693
                      -1.35984                       1.07377                      87.60766
                      -1.59350                       0.64873                      87.60788
                      -1.71413                       0.17893                      87.60758
                      -1.71413                      -0.30611                      87.60679
                      -1.59351                      -0.77591                      87.60555
                      -1.35984                      -1.20095                      87.60393
                      -1.02781                      -1.55453                      87.60205
                      -0.61829                      -1.81443                      87.60002
                      -0.15699                      -1.96431                      87.59796
                       0.32709                      -1.99476                      87.59600
                       0.80353                      -1.90388                      87.59428
                       1.24241                      -1.69735                      87.59289
                       1.61614                      -1.38818                      87.59193
                       1.90123                      -0.99577                      87.59145
                       2.07979                      -0.54479                      87.59149
                       3.00000                       0.00000                       0.00000
                       2.90575                       0.74607                       0.00000
                       2.62892                       1.44526                       0.00000
                       2.18691                       2.05364                       0.00000
                       1.60748                       2.53298                       0.00000
                       0.92705                       2.85317                       0.00000
                       0.18837                       2.99408                       0.00000
                      -0.56214                       2.94686                       0.00000
                      -1.27734                       2.71448                       0.00000
                      -1.91227                       2.31154                       0.00000
                      -2.42705                       1.76336                       0.00000
                      -2.78933                       1.10437                       0.00000
                      -2.97634                       0.37600                       0.00000
                      -2.97634                      -0.37600                       0.00000
                      -2.78933                      -1.10437                       0.00000
                      -2.42705                      -1.76336                       0.00000
                      -1.91227                      -2.31154                       0.00000
                      -1.27734                      -2.71448                       0.00000
                      -0.56214                      -2.94686                       0.00000
                       0.18837                      -2.99408                       0.00000
                       0.92705                      -2.85317                       0.00000
                       1.60748                      -2.53298                       0.00000
                       2.18691                      -2.05364                       0.00000
                       2.62892                      -1.44526                       0.00000
                       2.90575                      -0.74607                       0.00000
        </DataArray>
      </Points>
      <Polys>
        <DataArray type="Int32" Name="connectivity" format="ascii">
      0      1     26     25
      1      2     27     26
      2      3     28     27
      3      4     29     28
      4      5     30     29
      5      6     31     30
      6      7     32     31
      7      8     33     32
      8      9     34     33
      9     10     35     34
     10     11     36     35
     11     12     37     36
     12     13     38     37
     13     14     39     38
     14     15     40     39
     15     16     41     40
     16     17     42     41
     17     18     43     42
     18     19     44     43
     19     20     45     44
     20     21     46     45
     21     22     47     46
     22     23     48     47
     23     24     49     48
     24      0     25     49
     24     23     22     21     20     19     18     17     16     15     14     13     12     11     10      9      8      7      6      5      4      3      2      1      0
     25     26     27     28     29     30     31     32     33     34     35     36     37     38     39     40     41     42     43     44     45     46     47     48     49
     25     26     51     50
     26     27     52     51
     27     28     53     52
     28     29     54     53
     29     30     55     54
     30     31     56     55
     31     32     57     56
     32     33     58     57
     33     34     59     58
     34     35     60     59
     35     36     61     60
     36     37     62     61
     37     38     63     62
     38     39     64     63
     39     40     65     64
     40     41     66     65
     41     42     67     66
     42     43     68     67
     43     44     69     68
     44     45     70     69
     45     46     71     70
     46     47     72     71
     47     48     73     72
     48     49     74     73
     49     25     50     74
     49     48     47     46     45     44     43     42     41     40     39     38     37     36     35     34     33     32     31     30     29     28     27     26     25
     50     51     52     53     54     55     56     57     58     59     60     61     62     63     64     65     66     67     68     69     70     71     72     73     74
     50     51     76     75
     51     52     77     76
     52     53     78     77
     53     54     79     78
     54     55     80     79
     55     56     81     80
     56     57     82     81
     57     58     83     82
     58     59     84     83
     59     60     85     84
     60     61     86     85
     61     62     87     86
     62     63     88     87
     63     64     89     88
     64     65     90     89
     65     66     91     90
     66     67     92     91
     67     68     93     92
     68     69     94     93
     69     70     95     94
     70     71     96     95
     71     72     97     96
     72     73     98     97
     73     74     99     98
     74     50     75     99
     74     73     72     71     70     69     68     67     66     65     64     63     62     61     60     59     58     57     56     55     54     53     52     51     50
     75     76     77     78     79     80     81     82     83     84     85     86     87     88     89     90     91     92     93     94     95     96     97     98     99
     75     76    101    100
     76     77    102    101
     77     78    103    102
     78     79    104    103
     79     80    105    104
     80     81    106    105
     81     82    107    106
     82     83    108    107
     83     84    109    108
     84     85    110    109
     85     86    111    110
     86     87    112    111
     87     88    113    112
     88     89    114    113
     89     90    115    114
     90     91    116    115
     91     92    117    116
     92     93    118    117
     93     94    119    118
     94     95    120    119
     95     96    121    120
     96     97    122    121
     97     98    123    122
     98     99    124    123
     99     75    100    124
     99     98     97     96     95     94     93     92     91     90     89     88     87     86     85     84     83     82     81     80     79     78     77     76     75
    100    101    102    103    104    105    106    107    108    109    110    111    112    113    114    115    116    117    118    119    120    121    122    123    124
    100    101    126    125
    101    102    127    126
    102    103    128    127
    103    104    129    128
    104    105    130    129
    105    106    131    130
    106    107    132    131
    107    108    133    132
    108    109    134    133
    109    110    135    134
    110    111    136    135
    111    112    137    136
    112    113    138    137
    113    114    139    138
    114    115    140    139
    115    116    141    140
    116    117    142    141
    117    118    143    142
    118    119    144    143
    119    120    145    144
    120    121    146    145
    121    122    147    146
    122    123    148    147
    123    124    149    148
    124    100    125    149
    124    123    122    121    120    119    118    117    116    115    114    113    112    111    110    109    108    107    106    105    104    103    102    101    100
    125    126    127    128    129    130    131    132    133    134    135    136    137    138    139    140    141    142    143    144    145    146    147    148    149
    125    126    151    150
    126    127    152    151
    127    128    153    152
    128    129    154    153
    129    130    155    154
    130    131    156    155
    131    132    157    156
    132    133    158    157
    133    134    159    158
    134    135    160    159
    135    136    161    160
    136    137    162    161
    137    138    163    162
    138    139    164    163
    139    140    165    164
    140    141    166    165
    141    142    167    166
    142    143    168    167
    143    144    169    168
    144    145    170    169
    145    146    171    170
    146    147    172    171
    147    148    173    172
    148    149    174    173
    149    125    150    174
    149    148    147    146    145    144    143    142    141    140    139    138    137    136    135    134    133    132    131    130    129    128    127    126    125
    150    151    152    153    154    155    156    157    158    159    160    161    162    163    164    165    166    167    168    169    170    171    172    173    174
    150    151    176    175
    151    152    177    176
    152    153    178    177
    153    154    179    178
    154    155    180    179
    155    156    181    180
    156    157    182    181
    157    158    183    182
    158    159    184    183
    159    160    185    184
    160    161    186    185
    161    162    187    186
    162    163    188    187
    163    164    189    188
    164    165    190    189
    165    166    191    190
    166    167    192    191
    167    168    193    192
    168    169    194    193
    169    170    195    194
    170    171    196    195
    171    172    197    196
    172    173    198    197
    173    174    199    198
    174    150    175    199
    174    173    172    171    170    169    168    167    166    165    164    163    162    161    160    159    158    157    156    155    154    153    152    151    150
    175    176    177    178    179    180    181    182    183    184    185    186    187    188    189    190    191    192    193    194    195    196    197    198    199
    175    176    201    200
    176    177    202    201
    177    178    203    202
    178    179    204    203
    179    180    205    204
    180    181    206    205
    181    182    207    206
    182    183    208    207
    183    184    209    208
    184    185    210    209
    185    186    211    210
    186    187    212    211
    187    188    213    212
    188    189    214    213
    189    190    215    214
    190    191    216    215
    191    192    217    216
    192    193    218    217
    193    194    219    218
    194    195    220    219
    195    196    221    220
    196    197    222    221
    197    198    223    222
    198    199    224    223
    199    175    200    224
    199    198    197    196    195    194    193    192    191    190    189    188    187    186    185    184    183    182    181    180    179    178    177    176    175
    200    201    202    203    204    205    206    207    208    209    210    211    212    213    214    215    216    217    218    219    220    221    222    223    224
    200    201    226    225
    201    202    227    226
    202    203    228    227
    203    204    229    228
    204    205    230    229
    205    206    231    230
    206    207    232    231
    207    208    233    232
    208    209    234    233
    209    210    235    234
    210    211    236    235
    211    212    237    236
    212    213    238    237
    213    214    239    238
    214    215    240    239
    215    216    241    240
    216    217    242    241
    217    218    243    242
    218    219    244    243
    219    220    245    244
    220    221    246    245
    221    222    247    246
    222    223    248    247
    223    224    249    248
    224    200    225    249
    224    223    222    221    220    219    218    217    216    215    214    213    212    211    210    209    208    207    206    205    204    203    202    201    200
    225    226    227    228    229    230    231    232    233    234    235    236    237    238    239    240    241    242    243    244    245    246    247    248    249
    225    226    251    250
    226    227    252    251
    227    228    253    252
    228    229    254    253
    229    230    255    254
    230    231    256    255
    231    232    257    256
    232    233    258    257
    233    234    259    258
    234    235    260    259
    235    236    261    260
    236    237    262    261
    237    238    263    262
    238    239    264    263
    239    240    265    264
    240    241    266    265
    241    242    267    266
    242    243    268    267
    243    244    269    268
    244    245    270    269
    245    246    271    270
    246    247    272    271
    247    248    273    272
    248    249    274    273
    249    225    250    274
    249    248    247    246    245    244    243    242    241    240    239    238    237    236    235    234    233    232    231    230    229    228    227    226    225
    250    251    252    253    254    255    256    257    258    259    260    261    262    263    264    265    266    267    268    269    270    271    272    273    274
    250    251    276    275
    251    252    277    276
    252    253    278    277
    253    254    279    278
    254    255    280    279
    255    256    281    280
    256    257    282    281
    257    258    283    282
    258    259    284    283
    259    260    285    284
    260    261    286    285
    261    262    287    286
    262    263    288    287
    263    264    289    288
    264    265    290    289
    265    266    291    290
    266    267    292    291
    267    268    293    292
    268    269    294    293
    269    270    295    294
    270    271    296    295
    271    272    297    296
    272    273    298    297
    273    274    299    298
    274    250    275    299
    274    273    272    271    270    269    268    267    266    265    264    263    262    261    260    259    258    257    256    255    254    253    252    251    250
    275    276    277    278    279    280    281    282    283    284    285    286    287    288    289    290    291    292    293    294    295    296    297    298    299
    275    276    301    300
    276    277    302    301
    277    278    303    302
    278    279    304    303
    279    280    305    304
    280    281    306    305
    281    282    307    306
    282    283    308    307
    283    284    309    308
    284    285    310    309
    285    286    311    310
    286    287    312    311
    287    288    313    312
    288    289    314    313
    289    290    315    314
    290    291    316    315
    291    292    317    316
    292    293    318    317
    293    294    319    318
    294    295    320    319
    295    296    321    320
    296    297    322    321
    297    298    323    322
    298    299    324    323
    299    275    300    324
    299    298    297    296    295    294    293    292    291    290    289    288    287    286    285    284    283    282    281    280    279    278    277    276    275
    300    301    302    303    304    305    306    307    308    309    310    311    312    313    314    315    316    317    318    319    320    321    322    323    324
    300    301    326    325
    301    302    327    326
    302    303    328    327
    303    304    329    328
    304    305    330    329
    305    306    331    330
    306    307    332    331
    307    308    333    332
    308    309    334    333
    309    310    335    334
    310    311    336    335
    311    312    337    336
    312    313    338    337
    313    314    339    338
    314    315    340    339
    315    316    341    340
    316    317    342    341
    317    318    343    342
    318    319    344    343
    319    320    345    344
    320    321    346    345
    321    322    347    346
    322    323    348    347
    323    324    349    348
    324    300    325    349
    324    323    322    321    320    319    318    317    316    315    314    313    312    311    310    309    308    307    306    305    304    303    302    301    300
    325    326    327    328    329    330    331    332    333    334    335    336    337    338    339    340    341    342    343    344    345    346    347    348    349
    325    326    351    350
    326    327    352    351
    327    328    353    352
    328    329    354    353
    329    330    355    354
    330    331    356    355
    331    332    357    356
    332    333    358    357
    333    334    359    358
    334    335    360    359
    335    336    361    360
    336    337    362    361
    337    338    363    362
    338    339    364    363
    339    340    365    364
    340    341    366    365
    341    342    367    366
    342    343    368    367
    343    344    369    368
    344    345    370    369
    345    346    371    370
    346    347    372    371
    347    348    373    372
    348    349    374    373
    349    325    350    374
    349    348    347    346    345    344    343    342    341    340    339    338    337    336    335    334    333    332    331    330    329    328    327    326    325
    350    351    352    353    354    355    356    357    358    359    360    361    362    363    364    365    366    367    368    369    370    371    372    373    374
    350    351    376    375
    351    352    377    376
    352    353    378    377
    353    354    379    378
    354    355    380    379
    355    356    381    380
    356    357    382    381
    357    358    383    382
    358    359    384    383
    359    360    385    384
    360    361    386    385
    361    362    387    386
    362    363    388    387
    363    364    389    388
    364    365    390    389
    365    366    391    390
    366    367    392    391
    367    368    393    392
    368    369    394    393
    369    370    395    394
    370    371    396    395
    371    372    397    396
    372    373    398    397
    373    374    399    398
    374    350    375    399
    374    373    372    371    370    369    368    367    366    365    364    363    362    361    360    359    358    357    356    355    354    353    352    351    350
    375    376    377    378    379    380    381    382    383    384    385    386    387    388    389    390    391    392    393    394    395    396    397    398    399
    375    376    401    400
    376    377    402    401
    377    378    403    402
    378    379    404    403
    379    380    405    404
    380    381    406    405
    381    382    407    406
    382    383    408    407
    383    384    409    408
    384    385    410    409
    385    386    411    410
    386    387    412    411
    387    388    413    412
    388    389    414    413
    389    390    415    414
    390    391    416    415
    391    392    417    416
    392    393    418    417
    393    394    419    418
    394    395    420    419
    395    396    421    420
    396    397    422    421
    397    398    423    422
    398    399    424    423
    399    375    400    424
    399    398    397    396    395    394    393    392    391    390    389    388    387    386    385    384    383    382    381    380    379    378    377    376    375
    400    401    402    403    404    405    406    407    408    409    410    411    412    413    414    415    416    417    418    419    420    421    422    423    424
    400    401    426    425
    401    402    427    426
    402    403    428    427
    403    404    429    428
    404    405    430    429
    405    406    431    430
    406    407    432    431
    407    408    433    432
    408    409    434    433
    409    410    435    434
    410    411    436    435
    411    412    437    436
    412    413    438    437
    413    414    439    438
    414    415    440    439
    415    416    441    440
    416    417    442    441
    417    418    443    442
    418    419    444    443
    419    420    445    444
    420    421    446    445
    421    422    447    446
    422    423    448    447
    423    424    449    448
    424    400    425    449
    424    423    422    421    420    419    418    417    416    415    414    413    412    411    410    409    408    407    406    405    404    403    402    401    400
    425    426    427    428    429    430    431    432    433    434    435    436    437    438    439    440    441    442    443    444    445    446    447    448    449
    425    426    451    450
    426    427    452    451
    427    428    453    452
    428    429    454    453
    429    430    455    454
    430    431    456    455
    431    432    457    456
    432    433    458    457
    433    434    459    458
    434    435    460    459
    435    436    461    460
    436    437    462    461
    437    438    463    462
    438    439    464    463
    439    440    465    464
    440    441    466    465
    441    442    467    466
    442    443    468    467
    443    444    469    468
    444    445    470    469
    445    446    471    470
    446    447    472    471
    447    448    473    472
    448    449    474    473
    449    425    450    474
    449    448    447    446    445    444    443    442    441    440    439    438    437    436    435    434    433    432    431    430    429    428    427    426    425
    450    451    452    453    454    455    456    457    458    459    460    461    462    463    464    465    466    467    468    469    470    471    472    473    474
    450    451    476    475
    451    452    477    476
    452    453    478    477
    453    454    479    478
    454    455    480    479
    455    456    481    480
    456    457    482    481
    457    458    483    482
    458    459    484    483
    459    460    485    484
    460    461    486    485
    461    462    487    486
    462    463    488    487
    463    464    489    488
    464    465    490    489
    465    466    491    490
    466    467    492    491
    467    468    493    492
    468    469    494    493
    469    470    495    494
    470    471    496    495
    471    472    497    496
    472    473    498    497
    473    474    499    498
    474    450    475    499
    474    473    472    471    470    469    468    467    466    465    464    463    462    461    460    459    458    457    456    455    454    453    452    451    450
    475    476    477    478    479    480    481    482    483    484    485    486    487    488    489    490    491    492    493    494    495    496    497    498    499
    475    476    501    500
    476    477    502    501
    477    478    503    502
    478    479    504    503
    479    480    505    504
    480    481    506    505
    481    482    507    506
    482    483    508    507
    483    484    509    508
    484    485    510    509
    485    486    511    510
    486    487    512    511
    487    488    513    512
    488    489    514    513
    489    490    515    514
    490    491    516    515
    491    492    517    516
    492    493    518    517
    493    494    519    518
    494    495    520    519
    495    496    521    520
    496    497    522    521
    497    498    523    522
    498    499    524    523
    499    475    500    524
    499    498    497    496    495    494    493    492    491    490    489    488    487    486    485    484    483    482    481    480    479    478    477    476    475
    500    501    502    503    504    505    506    507    508    509    510    511    512    513    514    515    516    517    518    519    520    521    522    523    524
    525    526      1      0
    526    527      2      1
    527    528      3      2
    528    529      4      3
    529    530      5      4
    530    531      6      5
    531    532      7      6
    532    533      8      7
    533    534      9      8
    534    535     10      9
    535    536     11     10
    536    537     12     11
    537    538     13     12
    538    539     14     13
    539    540     15     14
    540    541     16     15
    541    542     17     16
    542    543     18     17
    543    544     19     18
    544    545     20     19
    545    546     21     20
    546    547     22     21
    547    548     23     22
    548    549     24     23
    549    525      0     24
    549    548    547    546    545    544    543    542    541    540    539    538    537    536    535    534    533    532    531    530    529    528    527    526    525
      0      1      2      3      4      5      6      7      8      9     10     11     12     13     14     15     16     17     18     19     20     21     22     23     24
        </DataArray>
        <DataArray type="Int32" Name="offsets" format="ascii">
      4
      8
     12
     16
     20
     24
     28
     32
     36
     40
     44
     48
     52
     56
     60
     64
     68
     72
     76
     80
     84
     88
     92
     96
    100
    125
    150
    154
    158
    162
    166
    170
    174
    178
    182
    186
    190
    194
    198
    202
    206
    210
    214
    218
    222
    226
    230
    234
    238
    242
    246
    250
    275
    300
    304
    308
    312
    316
    320
    324
    328
    332
    336
    340
    344
    348
    352
    356
    360
    364
    368
    372
    376
    380
    384
    388
    392
    396
    400
    425
    450
    454
    458
    462
    466
    470
    474
    478
    482
    486
    490
    494
    498
    502
    506
    510
    514
    518
    522
    526
    530
    534
    538
    542
    546
    550
    575
    600
    604
    608
    612
    616
    620
    624
    628
    632
    636
    640
    644
    648
    652
    656
    660
    664
    668
    672
    676
    680
    684
    688
    692
    696
    700
    725
    750
    754
    758
    762
    766
    770
    774
    778
    782
    786
    790
    794
    798
    802
    806
    810
    814
    818
    822
    826
    830
    834
    838
    842
    846
    850
    875
    900
    904
    908
    912
    916
    920
    924
    928
    932
    936
    940
    944
    948
    952
    956
    960
    964
    968
    972
    976
    980
    984
    988
    992
    996
   1000
   1025
   1050
   1054
   1058
   1062
   1066
   1070
   1074
   1078
   1082
   1086
   1090
   1094
   1098
   1102
   1106
   1110
   1114
   1118
   1122
   1126
   1130
   1134
   1138
   1142
   1146
   1150
   1175
   1200
   1204
   1208
   1212
   1216
   1220
   1224
   1228
   1232
   1236
   1240
   1244
   1248
   1252
   1256
   1260
   1264
   1268
   1272
   1276
   1280
   1284
   1288
   1292
   1296
   1300
   1325
   1350
   1354
   1358
   1362
   1366
   1370
   1374
   1378
   1382
   1386
   1390
   1394
   1398
   1402
   1406
   1410
   1414
   1418
   1422
   1426
   1430
   1434
   1438
   1442
   1446
   1450
   1475
   1500
   1504
   1508
   1512
   1516
   1520
   1524
   1528
   1532
   1536
   1540
   1544
   1548
   1552
   1556
   1560
   1564
   1568
   1572
   1576
   1580
   1584
   1588
   1592
   1596
   1600
   1625
   1650
   1654
   1658
   1662
   1666
   1670
   1674
   1678
   1682
   1686
   1690
   1694
   1698
   1702
   1706
   1710
   1714
   1718
   1722
   1726
   1730
   1734
   1738
   1742
   1746
   1750
   1775
   1800
   1804
   1808
   1812
   1816
   1820
   1824
   1828
   1832
   1836
   1840
   1844
   1848
   1852
   1856
   1860
   1864
   1868
   1872
   1876
   1880
   1884
   1888
   1892
   1896
   1900
   1925
   1950
   1954
   1958
   1962
   1966
   1970
   1974
   1978
   1982
   1986
   1990
   1994
   1998
   2002
   2006
   2010
   2014
   2018
   2022
   2026
   2030
   2034
   2038
   2042
   2046
   2050
   2075
   2100
   2104
   2108
   2112
   2116
   2120
   2124
   2128
   2132
   2136
   2140
   2144
   2148
   2152
   2156
   2160
   2164
   2168
   2172
   2176
   2180
   2184
   2188
   2192
   2196
   2200
   2225
   2250
   2254
   2258
   2262
   2266
   2270
   2274
   2278
   2282
   2286
   2290
   2294
   2298
   2302
   2306
   2310
   2314
   2318
   2322
   2326
   2330
   2334
   2338
   2342
   2346
   2350
   2375
   2400
   2404
   2408
   2412
   2416
   2420
   2424
   2428
   2432
   2436
   2440
   2444
   2448
   2452
   2456
   2460
   2464
   2468
   2472
   2476
   2480
   2484
   2488
   2492
   2496
   2500
   2525
   2550
   2554
   2558
   2562
   2566
   2570
   2574
   2578
   2582
   2586
   2590
   2594
   2598
   2602
   2606
   2610
   2614
   2618
   2622
   2626
   2630
   2634
   2638
   2642
   2646
   2650
   2675
   2700
   2704
   2708
   2712
   2716
   2720
   2724
   2728
   2732
   2736
   2740
   2744
   2748
   2752
   2756
   2760
   2764
   2768
   2772
   2776
   2780
   2784
   2788
   2792
   2796
   2800
   2825
   2850
   2854
   2858
   2862
   2866
   2870
   2874
   2878
   2882
   2886
   2890
   2894
   2898
   2902
   2906
   2910
   2914
   2918
   2922
   2926
   2930
   2934
   2938
   2942
   2946
   2950
   2975
   3000
   3004
   3008
   3012
   3016
   3020
   3024
   3028
   3032
   3036
   3040
   3044
   3048
   3052
   3056
   3060
   3064
   3068
   3072
   3076
   3080
   3084
   3088
   3092
   3096
   3100
   3125
   3150
        </DataArray>
      </Polys>
    </Piece>
  </PolyData>
</VTKFile>
