<?xml version="1.0"?>
<VTKFile type="PolyData" version="0.1" byte_order="LittleEndian">
  <PolyData>
    <Piece NumberOfPoints="    550" NumberOfVerts="  0" NumberOfLines="     21"
           NumberOfStrips="  0" NumberOfPolys="    567">
      <Points>
        <DataArray type="Float32" NumberOfComponents="3" format="ascii">
                       2.97347                      -0.00002                       2.18974
                       2.88005                       0.73943                       2.18976
                       2.60568                       1.43241                       2.18980
                       2.16759                       2.03539                       2.18985
                       1.59331                       2.51048                       2.18991
                       0.91892                       2.82783                       2.18997
                       0.18679                       2.96749                       2.19004
                      -0.55706                       2.92069                       2.19010
                      -1.26591                       2.69037                       2.19016
                      -1.89521                       2.29100                       2.19021
                      -2.40542                       1.74769                       2.19024
                      -2.76448                       1.09455                       2.19026
                      -2.94984                       0.37264                       2.19026
                      -2.94984                      -0.37268                       2.19025
                      -2.76448                      -1.09459                       2.19022
                      -2.40542                      -1.74773                       2.19018
                      -1.89521                      -2.29105                       2.19012
                      -1.26591                      -2.69041                       2.19006
                      -0.55706                      -2.92073                       2.18999
                       0.18679                      -2.96753                       2.18993
                       0.91892                      -2.82787                       2.18987
                       1.59331                      -2.51052                       2.18981
                       2.16759                      -2.03544                       2.18977
                       2.60568                      -1.43246                       2.18975
                       2.88005                      -0.73947                       2.18973
                       2.92105                      -0.00018                       6.56912
                       2.82931                       0.72603                       6.56918
                       2.55985                       1.40660                       6.56930
                       2.12961                       1.99878                       6.56946
                       1.56561                       2.46536                       6.56966
                       0.90330                       2.77702                       6.56988
                       0.18429                       2.91418                       6.57010
                      -0.54625                       2.86822                       6.57032
                      -1.24240                       2.64203                       6.57052
                      -1.86043                       2.24982                       6.57068
                      -2.36150                       1.71623                       6.57080
                      -2.71413                       1.07479                       6.57088
                      -2.89617                       0.36581                       6.57089
                      -2.89617                      -0.36617                       6.57085
                      -2.71413                      -1.07515                       6.57076
                      -2.36150                      -1.71659                       6.57062
                      -1.86043                      -2.25017                       6.57044
                      -1.24240                      -2.64239                       6.57023
                      -0.54625                      -2.86858                       6.57001
                       0.18429                      -2.91454                       6.56979
                       0.90330                      -2.77738                       6.56958
                       1.56561                      -2.46572                       6.56940
                       2.12961                      -1.99914                       6.56925
                       2.55985                      -1.40696                       6.56915
                       2.82931                      -0.72639                       6.56911
                       2.86966                      -0.00049                      10.94843
                       2.77959                       0.71248                      10.94854
                       2.51504                       1.38064                      10.94874
                       2.09264                       1.96202                      10.94903
                       1.53893                       2.42010                      10.94937
                       0.88869                       2.72607                      10.94975
                       0.18279                       2.86073                      10.95015
                      -0.53442                       2.81561                      10.95054
                      -1.21787                       2.59354                      10.95089
                      -1.82463                       2.20848                      10.95119
                      -2.31657                       1.68462                      10.95141
                      -2.66277                       1.05488                      10.95155
                      -2.84149                       0.35883                      10.95159
                      -2.84149                      -0.35980                      10.95152
                      -2.66277                      -1.05585                      10.95137
                      -2.31657                      -1.68559                      10.95112
                      -1.82463                      -2.20945                      10.95081
                      -1.21788                      -2.59451                      10.95044
                      -0.53442                      -2.81658                      10.95005
                       0.18279                      -2.86170                      10.94965
                       0.88869                      -2.72705                      10.94928
                       1.53893                      -2.42107                      10.94895
                       2.09264                      -1.96300                      10.94869
                       2.51504                      -1.38161                      10.94851
                       2.77959                      -0.71345                      10.94842
                       2.81936                      -0.00094                      15.32774
                       2.73096                       0.69878                      15.32790
                       2.47133                       1.35454                      15.32818
                       2.05678                       1.92512                      15.32858
                       1.51335                       2.37468                      15.32908
                       0.87519                       2.67498                      15.32962
                       0.18240                       2.80713                      15.33020
                      -0.52148                       2.76285                      15.33076
                      -1.19225                       2.54490                      15.33127
                      -1.78774                       2.16700                      15.33170
                      -2.27053                       1.65287                      15.33202
                      -2.61031                       1.03483                      15.33222
                      -2.78570                       0.35170                      15.33228
                      -2.78570                      -0.35358                      15.33220
                      -2.61031                      -1.03670                      15.33197
                      -2.27053                      -1.65475                      15.33163
                      -1.78774                      -2.16887                      15.33118
                      -1.19225                      -2.54678                      15.33065
                      -0.52149                      -2.76473                      15.33009
                       0.18240                      -2.80901                      15.32952
                       0.87519                      -2.67686                      15.32898
                       1.51335                      -2.37656                      15.32850
                       2.05678                      -1.92700                      15.32812
                       2.47133                      -1.35641                      15.32786
                       2.73096                      -0.70066                      15.32773
                       2.77018                      -0.00155                      19.70708
                       2.68346                       0.68493                      19.70728
                       2.42874                       1.32827                      19.70765
                       2.02204                       1.88806                      19.70817
                       1.48889                       2.32911                      19.70880
                       0.86281                       2.62372                      19.70951
                       0.18313                       2.75338                      19.71025
                      -0.50743                       2.70993                      19.71097
                      -1.16550                       2.49611                      19.71163
                      -1.74972                       2.12536                      19.71219
                      -2.22338                       1.62096                      19.71261
                      -2.55672                       1.01461                      19.71287
                      -2.72880                       0.34442                      19.71294
                      -2.72880                      -0.34751                      19.71284
                      -2.55672                      -1.01771                      19.71255
                      -2.22338                      -1.62406                      19.71210
                      -1.74972                      -2.12845                      19.71152
                      -1.16550                      -2.49921                      19.71084
                      -0.50743                      -2.71303                      19.71011
                       0.18313                      -2.75648                      19.70938
                       0.86281                      -2.62682                      19.70868
                       1.48889                      -2.33221                      19.70806
                       2.02203                      -1.89116                      19.70757
                       2.42874                      -1.33137                      19.70723
                       2.68346                      -0.68803                      19.70706
                       2.72210                      -0.00233                      24.08647
                       2.63705                       0.67090                      24.08671
                       2.38725                       1.30183                      24.08716
                       1.98839                       1.85082                      24.08780
                       1.46553                       2.28337                      24.08856
                       0.85153                       2.57229                      24.08942
                       0.18496                       2.69945                      24.09032
                      -0.49228                       2.65684                      24.09119
                      -1.13766                       2.44715                      24.09199
                      -1.71060                       2.08354                      24.09266
                      -2.17513                       1.58887                      24.09317
                      -2.50204                       0.99423                      24.09347
                      -2.67080                       0.33696                      24.09356
                      -2.67080                      -0.34163                      24.09342
                      -2.50204                      -0.99889                      24.09307
                      -2.17513                      -1.59354                      24.09253
                      -1.71060                      -2.08821                      24.09182
                      -1.13766                      -2.45181                      24.09100
                      -0.49228                      -2.66151                      24.09012
                       0.18496                      -2.70412                      24.08923
                       0.85153                      -2.57696                      24.08838
                       1.46553                      -2.28804                      24.08764
                       1.98839                      -1.85549                      24.08705
                       2.38725                      -1.30650                      24.08664
                       2.63705                      -0.67557                      24.08644
                       2.67508                      -0.00332                      28.46590
                       2.59171                       0.65667                      28.46620
                       2.34682                       1.27519                      28.46673
                       1.95580                       1.81338                      28.46747
                       1.44323                       2.23742                      28.46836
                       0.84130                       2.52066                      28.46936
                       0.18785                       2.64531                      28.47040
                      -0.47608                       2.60354                      28.47141
                      -1.10875                       2.39797                      28.47233
                      -1.67043                       2.04152                      28.47311
                      -2.12582                       1.55658                      28.47369
                      -2.44630                       0.97363                      28.47404
                      -2.61173                       0.32930                      28.47413
                      -2.61173                      -0.33594                      28.47396
                      -2.44630                      -0.98028                      28.47354
                      -2.12582                      -1.56323                      28.47290
                      -1.67043                      -2.04817                      28.47208
                      -1.10875                      -2.40462                      28.47113
                      -0.47608                      -2.61019                      28.47010
                       0.18785                      -2.65196                      28.46907
                       0.84130                      -2.52731                      28.46809
                       1.44323                      -2.24406                      28.46723
                       1.95580                      -1.82003                      28.46655
                       2.34682                      -1.28184                      28.46608
                       2.59171                      -0.66331                      28.46586
                       2.62909                      -0.00455                      32.84538
                       2.54738                       0.64220                      32.84572
                       2.30741                       1.24831                      32.84633
                       1.92424                       1.77570                      32.84718
                       1.42195                       2.19123                      32.84819
                       0.83210                       2.46879                      32.84933
                       0.19176                       2.59094                      32.85050
                      -0.45884                       2.55001                      32.85164
                      -1.07883                       2.34857                      32.85267
                      -1.62923                       1.99927                      32.85354
                      -2.07548                       1.52406                      32.85418
                      -2.38953                       0.95280                      32.85456
                      -2.55165                       0.32139                      32.85465
                      -2.55165                      -0.33049                      32.85445
                      -2.38953                      -0.96190                      32.85397
                      -2.07548                      -1.53316                      32.85324
                      -1.62923                      -2.00837                      32.85230
                      -1.07883                      -2.35767                      32.85121
                      -0.45884                      -2.55911                      32.85005
                       0.19176                      -2.60004                      32.84889
                       0.83210                      -2.47789                      32.84779
                       1.42195                      -2.20033                      32.84683
                       1.92423                      -1.78480                      32.84607
                       2.30741                      -1.25741                      32.84556
                       2.54738                      -0.65130                      32.84532
                       2.58409                      -0.00605                      37.22488
                       2.50406                       0.62746                      37.22528
                       2.26900                       1.22116                      37.22597
                       1.89368                       1.73775                      37.22692
                       1.40167                       2.14477                      37.22806
                       0.82391                       2.41665                      37.22931
                       0.19668                       2.53630                      37.23061
                      -0.44060                       2.49620                      37.23187
                      -1.04789                       2.29888                      37.23301
                      -1.58703                       1.95673                      37.23396
                      -2.02414                       1.49126                      37.23466
                      -2.33176                       0.93170                      37.23507
                      -2.49056                       0.31322                      37.23515
                      -2.49056                      -0.32532                      37.23491
                      -2.33176                      -0.94380                      37.23436
                      -2.02414                      -1.50336                      37.23353
                      -1.58703                      -1.96884                      37.23248
                      -1.04789                      -2.31098                      37.23127
                      -0.44061                      -2.50831                      37.22999
                       0.19667                      -2.54840                      37.22870
                       0.82390                      -2.42875                      37.22749
                       1.40167                      -2.15687                      37.22643
                       1.89368                      -1.74985                      37.22560
                       2.26900                      -1.23326                      37.22505
                       2.50406                      -0.63956                      37.22480
                       2.54011                      -0.00787                      41.60439
                       2.46175                       0.61240                      41.60485
                       2.23161                       1.19369                      41.60563
                       1.86413                       1.69948                      41.60668
                       1.38241                       2.09799                      41.60794
                       0.81672                       2.36419                      41.60932
                       0.20260                       2.48133                      41.61074
                      -0.42136                       2.44208                      41.61212
                      -1.01595                       2.24888                      41.61336
                      -1.54382                       1.91389                      41.61439
                      -1.97179                       1.45814                      41.61514
                      -2.27298                       0.91028                      41.61556
                      -2.42846                       0.30473                      41.61563
                      -2.42846                      -0.32047                      41.61535
                      -2.27298                      -0.92602                      41.61473
                      -1.97179                      -1.47388                      41.61380
                      -1.54382                      -1.92963                      41.61264
                      -1.01595                      -2.26462                      41.61131
                      -0.42136                      -2.45782                      41.60990
                       0.20260                      -2.49707                      41.60848
                       0.81672                      -2.37992                      41.60717
                       1.38241                      -2.11373                      41.60602
                       1.86413                      -1.71521                      41.60513
                       2.23160                      -1.20942                      41.60454
                       2.46175                      -0.62813                      41.60429
                       2.49717                      -0.01004                      45.98391
                       2.42048                       0.59698                      45.98443
                       2.19525                       1.16586                      45.98529
                       1.83562                       1.66085                      45.98645
                       1.36418                       2.05086                      45.98783
                       0.81057                       2.31137                      45.98934
                       0.20956                       2.42602                      45.99089
                      -0.40107                       2.38760                      45.99238
                      -0.98297                       2.19853                      45.99372
                      -1.49957                       1.87068                      45.99482
                      -1.91840                       1.42467                      45.99561
                      -2.21316                       0.88850                      45.99605
                      -2.36532                       0.29588                      45.99611
                      -2.36532                      -0.31597                      45.99578
                      -2.21316                      -0.90859                      45.99508
                      -1.91841                      -1.44475                      45.99406
                      -1.49957                      -1.89077                      45.99279
                      -0.98297                      -2.21861                      45.99133
                      -0.40108                      -2.40768                      45.98979
                       0.20956                      -2.44610                      45.98826
                       0.81057                      -2.33145                      45.98683
                       1.36418                      -2.07094                      45.98560
                       1.83561                      -1.68093                      45.98465
                       2.19525                      -1.18594                      45.98402
                       2.42048                      -0.61706                      45.98377
                       2.45531                      -0.01261                      50.36342
                       2.38030                       0.58117                      50.36400
                       2.15998                       1.13764                      50.36496
                       1.80819                       1.62183                      50.36622
                       1.34704                       2.00333                      50.36772
                       0.80551                       2.25816                      50.36936
                       0.21761                       2.37030                      50.37104
                      -0.37970                       2.33272                      50.37264
                      -0.94890                       2.14778                      50.37408
                      -1.45423                       1.82708                      50.37526
                      -1.86393                       1.39080                      50.37610
                      -2.15226                       0.86633                      50.37655
                      -2.30110                       0.28664                      50.37659
                      -2.30110                      -0.31186                      50.37621
                      -2.15226                      -0.89156                      50.37544
                      -1.86393                      -1.41602                      50.37432
                      -1.45423                      -1.85231                      50.37292
                      -0.94891                      -2.17300                      50.37134
                      -0.37971                      -2.35794                      50.36967
                       0.21761                      -2.39552                      50.36802
                       0.80550                      -2.28338                      50.36648
                       1.34704                      -2.02855                      50.36517
                       1.80819                      -1.64705                      50.36415
                       2.15997                      -1.16286                      50.36350
                       2.38030                      -0.60639                      50.36325
                       2.41459                      -0.01561                      54.74292
                       2.34125                       0.56493                      54.74357
                       2.12585                       1.10899                      54.74461
                       1.78191                       1.58238                      54.74599
                       1.33104                       1.95537                      54.74762
                       0.80159                       2.20451                      54.74939
                       0.22680                       2.31416                      54.75119
                      -0.35719                       2.27742                      54.75291
                      -0.91370                       2.09660                      54.75445
                      -1.40775                       1.78306                      54.75570
                      -1.80831                       1.35650                      54.75659
                      -2.09021                       0.84373                      54.75705
                      -2.23573                       0.27696                      54.75707
                      -2.23573                      -0.30818                      54.75664
                      -2.09021                      -0.87495                      54.75579
                      -1.80832                      -1.38772                      54.75457
                      -1.40776                      -1.81428                      54.75305
                      -0.91370                      -2.12781                      54.75134
                      -0.35719                      -2.30863                      54.74954
                       0.22680                      -2.34538                      54.74776
                       0.80158                      -2.23573                      54.74612
                       1.33104                      -1.98658                      54.74472
                       1.78190                      -1.61360                      54.74364
                       2.12584                      -1.14020                      54.74296
                       2.34125                      -0.59614                      54.74271
                       2.37507                      -0.01906                      59.12243
                       2.30340                       0.54824                      59.12314
                       2.09291                       1.07988                      59.12428
                       1.75682                       1.54248                      59.12576
                       1.31624                       1.90696                      59.12751
                       0.79886                       2.15042                      59.12941
                       0.23719                       2.25756                      59.13134
                      -0.33348                       2.22166                      59.13318
                      -0.87729                       2.04496                      59.13481
                      -1.36008                       1.73857                      59.13613
                      -1.75150                       1.32175                      59.13706
                      -2.02697                       0.82067                      59.13754
                      -2.16917                       0.26684                      59.13754
                      -2.16917                      -0.30496                      59.13706
                      -2.02697                      -0.85880                      59.13613
                      -1.75151                      -1.35987                      59.13481
                      -1.36008                      -1.77670                      59.13317
                      -0.87730                      -2.08308                      59.13134
                      -0.33349                      -2.25978                      59.12941
                       0.23718                      -2.29568                      59.12751
                       0.79886                      -2.18854                      59.12576
                       1.31623                      -1.94508                      59.12427
                       1.75681                      -1.58060                      59.12314
                       2.09291                      -1.11800                      59.12243
                       2.30340                      -0.58635                      59.12218
                       2.33676                      -0.02298                      63.50196
                       2.26677                       0.53107                      63.50273
                       2.06119                       1.05031                      63.50396
                       1.73295                       1.50210                      63.50555
                       1.30265                       1.85807                      63.50742
                       0.79735                       2.09585                      63.50944
                       0.24879                       2.20049                      63.51148
                      -0.30855                       2.16543                      63.51343
                      -0.83967                       1.99285                      63.51515
                      -1.31119                       1.69362                      63.51654
                      -1.69347                       1.28652                      63.51751
                      -1.96251                       0.79715                      63.51800
                      -2.10139                       0.25624                      63.51798
                      -2.10139                      -0.30221                      63.51745
                      -1.96251                      -0.84312                      63.51644
                      -1.69348                      -1.33250                      63.51502
                      -1.31119                      -1.73959                      63.51328
                      -0.83968                      -2.03883                      63.51132
                      -0.30856                      -2.21140                      63.50927
                       0.24879                      -2.24646                      63.50726
                       0.79735                      -2.14182                      63.50541
                       1.30265                      -1.90404                      63.50384
                       1.73294                      -1.54807                      63.50265
                       2.06119                      -1.09627                      63.50192
                       2.26677                      -0.57703                      63.50168
                       2.29964                      -0.02738                      67.88155
                       2.23132                       0.51343                      67.88238
                       2.03066                       1.02025                      67.88368
                       1.71026                       1.46125                      67.88537
                       1.29025                       1.80872                      67.88734
                       0.79703                       2.04081                      67.88946
                       0.26158                       2.14295                      67.89161
                      -0.28244                       2.10872                      67.89365
                      -0.80087                       1.94027                      67.89544
                      -1.26111                       1.64819                      67.89689
                      -1.63426                       1.25083                      67.89789
                      -1.89687                       0.77315                      67.89839
                      -2.03243                       0.24517                      67.89834
                      -2.03243                      -0.29994                      67.89777
                      -1.89687                      -0.82792                      67.89669
                      -1.63427                      -1.30560                      67.89519
                      -1.26112                      -1.70296                      67.89334
                      -0.80088                      -1.99504                      67.89128
                      -0.28245                      -2.16349                      67.88913
                       0.26157                      -2.19771                      67.88702
                       0.79702                      -2.09557                      67.88509
                       1.29024                      -1.86348                      67.88345
                       1.71025                      -1.51601                      67.88222
                       2.03065                      -1.07501                      67.88147
                       2.23132                      -0.56819                      67.88124
                       2.26358                      -0.03224                      72.26125
                       2.19694                       0.49533                      72.26213
                       2.00119                       0.98974                      72.26349
                       1.68863                       1.41994                      72.26525
                       1.27891                       1.75889                      72.26730
                       0.79776                       1.98531                      72.26950
                       0.27543                       2.08495                      72.27172
                      -0.25527                       2.05155                      72.27382
                      -0.76100                       1.88723                      72.27567
                      -1.20998                       1.60230                      72.27714
                      -1.57399                       1.21467                      72.27816
                      -1.83016                       0.74868                      72.27865
                      -1.96241                       0.23363                      72.27859
                      -1.96241                      -0.29813                      72.27797
                      -1.83017                      -0.81318                      72.27684
                      -1.57399                      -1.27916                      72.27527
                      -1.20998                      -1.66679                      72.27335
                      -0.76101                      -1.95172                      72.27121
                      -0.25528                      -2.11604                      72.26898
                       0.27542                      -2.14943                      72.26681
                       0.79775                      -2.04979                      72.26482
                       1.27890                      -1.82338                      72.26314
                       1.68862                      -1.48442                      72.26188
                       2.00118                      -1.05422                      72.26112
                       2.19693                      -0.55980                      72.26091
                       2.22833                      -0.03753                      76.64113
                       2.16336                       0.47679                      76.64204
                       1.97252                       0.95880                      76.64344
                       1.66781                       1.37820                      76.64524
                       1.26838                       1.70865                      76.64732
                       0.79931                       1.92937                      76.64955
                       0.29009                       2.02651                      76.65180
                      -0.22729                       1.99396                      76.65392
                      -0.72033                       1.83376                      76.65578
                      -1.15803                       1.55598                      76.65726
                      -1.51291                       1.17808                      76.65827
                      -1.76265                       0.72379                      76.65874
                      -1.89157                       0.22167                      76.65865
                      -1.89157                      -0.29674                      76.65800
                      -1.76265                      -0.79886                      76.65683
                      -1.51291                      -1.25315                      76.65522
                      -1.15804                      -1.63105                      76.65326
                      -0.72034                      -1.90883                      76.65109
                      -0.22730                      -2.06902                      76.64883
                       0.29008                      -2.10157                      76.64663
                       0.79930                      -2.00443                      76.64463
                       1.26837                      -1.78370                      76.64295
                       1.66781                      -1.45326                      76.64169
                       1.97252                      -1.03385                      76.64095
                       2.16336                      -0.55185                      76.64075
                       2.19347                      -0.04319                      81.02126
                       2.13017                       0.45789                      81.02219
                       1.94425                       0.92748                      81.02359
                       1.64739                       1.33609                      81.02538
                       1.25823                       1.65802                      81.02745
                       0.80125                       1.87307                      81.02965
                       0.30513                       1.96770                      81.03186
                      -0.19893                       1.93599                      81.03393
                      -0.67926                       1.77992                      81.03574
                      -1.10570                       1.50929                      81.03717
                      -1.45144                       1.14111                      81.03813
                      -1.69475                       0.69853                      81.03857
                      -1.82035                       0.20933                      81.03844
                      -1.82036                      -0.29573                      81.03777
                      -1.69475                      -0.78492                      81.03659
                      -1.45144                      -1.22751                      81.03499
                      -1.10571                      -1.59568                      81.03304
                      -0.67928                      -1.86631                      81.03089
                      -0.19894                      -2.02238                      81.02867
                       0.30512                      -2.05409                      81.02651
                       0.80123                      -1.95945                      81.02455
                       1.25822                      -1.74440                      81.02292
                       1.64738                      -1.42247                      81.02172
                       1.94424                      -1.01386                      81.02101
                       2.13017                      -0.54427                      81.02086
                       2.15835                      -0.04914                      85.40174
                       2.09673                       0.43870                      85.40267
                       1.91572                       0.89588                      85.40403
                       1.62670                       1.29368                      85.40575
                       1.24783                       1.60711                      85.40772
                       0.80292                       1.81647                      85.40981
                       0.31992                       1.90861                      85.41189
                      -0.17082                       1.87773                      85.41383
                      -0.63846                       1.72578                      85.41551
                      -1.05363                       1.46231                      85.41682
                      -1.39023                       1.10386                      85.41769
                      -1.62711                       0.67297                      85.41805
                      -1.74940                       0.19671                      85.41789
                      -1.74940                      -0.29501                      85.41721
                      -1.62712                      -0.77127                      85.41605
                      -1.39023                      -1.20216                      85.41450
                      -1.05364                      -1.56061                      85.41264
                      -0.63847                      -1.82408                      85.41060
                      -0.17083                      -1.97602                      85.40849
                       0.31991                      -2.00690                      85.40647
                       0.80291                      -1.91476                      85.40464
                       1.24782                      -1.70540                      85.40313
                       1.62669                      -1.39197                      85.40203
                       1.91571                      -0.99416                      85.40141
                       2.09672                      -0.53698                      85.40131
                       2.14042                      -0.05220                      87.59215
                       2.07963                       0.42902                      87.59306
                       1.90108                       0.88000                      87.59438
                       1.61598                       1.27240                      87.59604
                       1.24225                       1.58157                      87.59792
                       0.80338                       1.78809                      87.59991
                       0.32694                       1.87898                      87.60189
                      -0.15714                       1.84852                      87.60372
                      -0.61844                       1.69863                      87.60530
                      -1.02797                       1.43874                      87.60653
                      -1.36000                       1.08516                      87.60732
                      -1.59367                       0.66011                      87.60763
                      -1.71429                       0.19031                      87.60744
                      -1.71429                      -0.29473                      87.60676
                      -1.59367                      -0.76453                      87.60564
                      -1.36001                      -1.18957                      87.60414
                      -1.02798                      -1.54315                      87.60235
                      -0.61845                      -1.80304                      87.60040
                      -0.15715                      -1.95293                      87.59840
                       0.32693                      -1.98338                      87.59648
                       0.80337                      -1.89249                      87.59476
                       1.24225                      -1.68597                      87.59334
                       1.61597                      -1.37680                      87.59233
                       1.90107                      -0.98439                      87.59177
                       2.07963                      -0.53341                      87.59171
                       3.00000                       0.00000                       0.00000
                       2.90575                       0.74607                       0.00000
                       2.62892                       1.44526                       0.00000
                       2.18691                       2.05364                       0.00000
                       1.60748                       2.53298                       0.00000
                       0.92705                       2.85317                       0.00000
                       0.18837                       2.99408                       0.00000
                      -0.56214                       2.94686                       0.00000
                      -1.27734                       2.71448                       0.00000
                      -1.91227                       2.31154                       0.00000
                      -2.42705                       1.76336                       0.00000
                      -2.78933                       1.10437                       0.00000
                      -2.97634                       0.37600                       0.00000
                      -2.97634                      -0.37600                       0.00000
                      -2.78933                      -1.10437                       0.00000
                      -2.42705                      -1.76336                       0.00000
                      -1.91227                      -2.31154                       0.00000
                      -1.27734                      -2.71448                       0.00000
                      -0.56214                      -2.94686                       0.00000
                       0.18837                      -2.99408                       0.00000
                       0.92705                      -2.85317                       0.00000
                       1.60748                      -2.53298                       0.00000
                       2.18691                      -2.05364                       0.00000
                       2.62892                      -1.44526                       0.00000
                       2.90575                      -0.74607                       0.00000
        </DataArray>
      </Points>
      <Polys>
        <DataArray type="Int32" Name="connectivity" format="ascii">
      0      1     26     25
      1      2     27     26
      2      3     28     27
      3      4     29     28
      4      5     30     29
      5      6     31     30
      6      7     32     31
      7      8     33     32
      8      9     34     33
      9     10     35     34
     10     11     36     35
     11     12     37     36
     12     13     38     37
     13     14     39     38
     14     15     40     39
     15     16     41     40
     16     17     42     41
     17     18     43     42
     18     19     44     43
     19     20     45     44
     20     21     46     45
     21     22     47     46
     22     23     48     47
     23     24     49     48
     24      0     25     49
     24     23     22     21     20     19     18     17     16     15     14     13     12     11     10      9      8      7      6      5      4      3      2      1      0
     25     26     27     28     29     30     31     32     33     34     35     36     37     38     39     40     41     42     43     44     45     46     47     48     49
     25     26     51     50
     26     27     52     51
     27     28     53     52
     28     29     54     53
     29     30     55     54
     30     31     56     55
     31     32     57     56
     32     33     58     57
     33     34     59     58
     34     35     60     59
     35     36     61     60
     36     37     62     61
     37     38     63     62
     38     39     64     63
     39     40     65     64
     40     41     66     65
     41     42     67     66
     42     43     68     67
     43     44     69     68
     44     45     70     69
     45     46     71     70
     46     47     72     71
     47     48     73     72
     48     49     74     73
     49     25     50     74
     49     48     47     46     45     44     43     42     41     40     39     38     37     36     35     34     33     32     31     30     29     28     27     26     25
     50     51     52     53     54     55     56     57     58     59     60     61     62     63     64     65     66     67     68     69     70     71     72     73     74
     50     51     76     75
     51     52     77     76
     52     53     78     77
     53     54     79     78
     54     55     80     79
     55     56     81     80
     56     57     82     81
     57     58     83     82
     58     59     84     83
     59     60     85     84
     60     61     86     85
     61     62     87     86
     62     63     88     87
     63     64     89     88
     64     65     90     89
     65     66     91     90
     66     67     92     91
     67     68     93     92
     68     69     94     93
     69     70     95     94
     70     71     96     95
     71     72     97     96
     72     73     98     97
     73     74     99     98
     74     50     75     99
     74     73     72     71     70     69     68     67     66     65     64     63     62     61     60     59     58     57     56     55     54     53     52     51     50
     75     76     77     78     79     80     81     82     83     84     85     86     87     88     89     90     91     92     93     94     95     96     97     98     99
     75     76    101    100
     76     77    102    101
     77     78    103    102
     78     79    104    103
     79     80    105    104
     80     81    106    105
     81     82    107    106
     82     83    108    107
     83     84    109    108
     84     85    110    109
     85     86    111    110
     86     87    112    111
     87     88    113    112
     88     89    114    113
     89     90    115    114
     90     91    116    115
     91     92    117    116
     92     93    118    117
     93     94    119    118
     94     95    120    119
     95     96    121    120
     96     97    122    121
     97     98    123    122
     98     99    124    123
     99     75    100    124
     99     98     97     96     95     94     93     92     91     90     89     88     87     86     85     84     83     82     81     80     79     78     77     76     75
    100    101    102    103    104    105    106    107    108    109    110    111    112    113    114    115    116    117    118    119    120    121    122    123    124
    100    101    126    125
    101    102    127    126
    102    103    128    127
    103    104    129    128
    104    105    130    129
    105    106    131    130
    106    107    132    131
    107    108    133    132
    108    109    134    133
    109    110    135    134
    110    111    136    135
    111    112    137    136
    112    113    138    137
    113    114    139    138
    114    115    140    139
    115    116    141    140
    116    117    142    141
    117    118    143    142
    118    119    144    143
    119    120    145    144
    120    121    146    145
    121    122    147    146
    122    123    148    147
    123    124    149    148
    124    100    125    149
    124    123    122    121    120    119    118    117    116    115    114    113    112    111    110    109    108    107    106    105    104    103    102    101    100
    125    126    127    128    129    130    131    132    133    134    135    136    137    138    139    140    141    142    143    144    145    146    147    148    149
    125    126    151    150
    126    127    152    151
    127    128    153    152
    128    129    154    153
    129    130    155    154
    130    131    156    155
    131    132    157    156
    132    133    158    157
    133    134    159    158
    134    135    160    159
    135    136    161    160
    136    137    162    161
    137    138    163    162
    138    139    164    163
    139    140    165    164
    140    141    166    165
    141    142    167    166
    142    143    168    167
    143    144    169    168
    144    145    170    169
    145    146    171    170
    146    147    172    171
    147    148    173    172
    148    149    174    173
    149    125    150    174
    149    148    147    146    145    144    143    142    141    140    139    138    137    136    135    134    133    132    131    130    129    128    127    126    125
    150    151    152    153    154    155    156    157    158    159    160    161    162    163    164    165    166    167    168    169    170    171    172    173    174
    150    151    176    175
    151    152    177    176
    152    153    178    177
    153    154    179    178
    154    155    180    179
    155    156    181    180
    156    157    182    181
    157    158    183    182
    158    159    184    183
    159    160    185    184
    160    161    186    185
    161    162    187    186
    162    163    188    187
    163    164    189    188
    164    165    190    189
    165    166    191    190
    166    167    192    191
    167    168    193    192
    168    169    194    193
    169    170    195    194
    170    171    196    195
    171    172    197    196
    172    173    198    197
    173    174    199    198
    174    150    175    199
    174    173    172    171    170    169    168    167    166    165    164    163    162    161    160    159    158    157    156    155    154    153    152    151    150
    175    176    177    178    179    180    181    182    183    184    185    186    187    188    189    190    191    192    193    194    195    196    197    198    199
    175    176    201    200
    176    177    202    201
    177    178    203    202
    178    179    204    203
    179    180    205    204
    180    181    206    205
    181    182    207    206
    182    183    208    207
    183    184    209    208
    184    185    210    209
    185    186    211    210
    186    187    212    211
    187    188    213    212
    188    189    214    213
    189    190    215    214
    190    191    216    215
    191    192    217    216
    192    193    218    217
    193    194    219    218
    194    195    220    219
    195    196    221    220
    196    197    222    221
    197    198    223    222
    198    199    224    223
    199    175    200    224
    199    198    197    196    195    194    193    192    191    190    189    188    187    186    185    184    183    182    181    180    179    178    177    176    175
    200    201    202    203    204    205    206    207    208    209    210    211    212    213    214    215    216    217    218    219    220    221    222    223    224
    200    201    226    225
    201    202    227    226
    202    203    228    227
    203    204    229    228
    204    205    230    229
    205    206    231    230
    206    207    232    231
    207    208    233    232
    208    209    234    233
    209    210    235    234
    210    211    236    235
    211    212    237    236
    212    213    238    237
    213    214    239    238
    214    215    240    239
    215    216    241    240
    216    217    242    241
    217    218    243    242
    218    219    244    243
    219    220    245    244
    220    221    246    245
    221    222    247    246
    222    223    248    247
    223    224    249    248
    224    200    225    249
    224    223    222    221    220    219    218    217    216    215    214    213    212    211    210    209    208    207    206    205    204    203    202    201    200
    225    226    227    228    229    230    231    232    233    234    235    236    237    238    239    240    241    242    243    244    245    246    247    248    249
    225    226    251    250
    226    227    252    251
    227    228    253    252
    228    229    254    253
    229    230    255    254
    230    231    256    255
    231    232    257    256
    232    233    258    257
    233    234    259    258
    234    235    260    259
    235    236    261    260
    236    237    262    261
    237    238    263    262
    238    239    264    263
    239    240    265    264
    240    241    266    265
    241    242    267    266
    242    243    268    267
    243    244    269    268
    244    245    270    269
    245    246    271    270
    246    247    272    271
    247    248    273    272
    248    249    274    273
    249    225    250    274
    249    248    247    246    245    244    243    242    241    240    239    238    237    236    235    234    233    232    231    230    229    228    227    226    225
    250    251    252    253    254    255    256    257    258    259    260    261    262    263    264    265    266    267    268    269    270    271    272    273    274
    250    251    276    275
    251    252    277    276
    252    253    278    277
    253    254    279    278
    254    255    280    279
    255    256    281    280
    256    257    282    281
    257    258    283    282
    258    259    284    283
    259    260    285    284
    260    261    286    285
    261    262    287    286
    262    263    288    287
    263    264    289    288
    264    265    290    289
    265    266    291    290
    266    267    292    291
    267    268    293    292
    268    269    294    293
    269    270    295    294
    270    271    296    295
    271    272    297    296
    272    273    298    297
    273    274    299    298
    274    250    275    299
    274    273    272    271    270    269    268    267    266    265    264    263    262    261    260    259    258    257    256    255    254    253    252    251    250
    275    276    277    278    279    280    281    282    283    284    285    286    287    288    289    290    291    292    293    294    295    296    297    298    299
    275    276    301    300
    276    277    302    301
    277    278    303    302
    278    279    304    303
    279    280    305    304
    280    281    306    305
    281    282    307    306
    282    283    308    307
    283    284    309    308
    284    285    310    309
    285    286    311    310
    286    287    312    311
    287    288    313    312
    288    289    314    313
    289    290    315    314
    290    291    316    315
    291    292    317    316
    292    293    318    317
    293    294    319    318
    294    295    320    319
    295    296    321    320
    296    297    322    321
    297    298    323    322
    298    299    324    323
    299    275    300    324
    299    298    297    296    295    294    293    292    291    290    289    288    287    286    285    284    283    282    281    280    279    278    277    276    275
    300    301    302    303    304    305    306    307    308    309    310    311    312    313    314    315    316    317    318    319    320    321    322    323    324
    300    301    326    325
    301    302    327    326
    302    303    328    327
    303    304    329    328
    304    305    330    329
    305    306    331    330
    306    307    332    331
    307    308    333    332
    308    309    334    333
    309    310    335    334
    310    311    336    335
    311    312    337    336
    312    313    338    337
    313    314    339    338
    314    315    340    339
    315    316    341    340
    316    317    342    341
    317    318    343    342
    318    319    344    343
    319    320    345    344
    320    321    346    345
    321    322    347    346
    322    323    348    347
    323    324    349    348
    324    300    325    349
    324    323    322    321    320    319    318    317    316    315    314    313    312    311    310    309    308    307    306    305    304    303    302    301    300
    325    326    327    328    329    330    331    332    333    334    335    336    337    338    339    340    341    342    343    344    345    346    347    348    349
    325    326    351    350
    326    327    352    351
    327    328    353    352
    328    329    354    353
    329    330    355    354
    330    331    356    355
    331    332    357    356
    332    333    358    357
    333    334    359    358
    334    335    360    359
    335    336    361    360
    336    337    362    361
    337    338    363    362
    338    339    364    363
    339    340    365    364
    340    341    366    365
    341    342    367    366
    342    343    368    367
    343    344    369    368
    344    345    370    369
    345    346    371    370
    346    347    372    371
    347    348    373    372
    348    349    374    373
    349    325    350    374
    349    348    347    346    345    344    343    342    341    340    339    338    337    336    335    334    333    332    331    330    329    328    327    326    325
    350    351    352    353    354    355    356    357    358    359    360    361    362    363    364    365    366    367    368    369    370    371    372    373    374
    350    351    376    375
    351    352    377    376
    352    353    378    377
    353    354    379    378
    354    355    380    379
    355    356    381    380
    356    357    382    381
    357    358    383    382
    358    359    384    383
    359    360    385    384
    360    361    386    385
    361    362    387    386
    362    363    388    387
    363    364    389    388
    364    365    390    389
    365    366    391    390
    366    367    392    391
    367    368    393    392
    368    369    394    393
    369    370    395    394
    370    371    396    395
    371    372    397    396
    372    373    398    397
    373    374    399    398
    374    350    375    399
    374    373    372    371    370    369    368    367    366    365    364    363    362    361    360    359    358    357    356    355    354    353    352    351    350
    375    376    377    378    379    380    381    382    383    384    385    386    387    388    389    390    391    392    393    394    395    396    397    398    399
    375    376    401    400
    376    377    402    401
    377    378    403    402
    378    379    404    403
    379    380    405    404
    380    381    406    405
    381    382    407    406
    382    383    408    407
    383    384    409    408
    384    385    410    409
    385    386    411    410
    386    387    412    411
    387    388    413    412
    388    389    414    413
    389    390    415    414
    390    391    416    415
    391    392    417    416
    392    393    418    417
    393    394    419    418
    394    395    420    419
    395    396    421    420
    396    397    422    421
    397    398    423    422
    398    399    424    423
    399    375    400    424
    399    398    397    396    395    394    393    392    391    390    389    388    387    386    385    384    383    382    381    380    379    378    377    376    375
    400    401    402    403    404    405    406    407    408    409    410    411    412    413    414    415    416    417    418    419    420    421    422    423    424
    400    401    426    425
    401    402    427    426
    402    403    428    427
    403    404    429    428
    404    405    430    429
    405    406    431    430
    406    407    432    431
    407    408    433    432
    408    409    434    433
    409    410    435    434
    410    411    436    435
    411    412    437    436
    412    413    438    437
    413    414    439    438
    414    415    440    439
    415    416    441    440
    416    417    442    441
    417    418    443    442
    418    419    444    443
    419    420    445    444
    420    421    446    445
    421    422    447    446
    422    423    448    447
    423    424    449    448
    424    400    425    449
    424    423    422    421    420    419    418    417    416    415    414    413    412    411    410    409    408    407    406    405    404    403    402    401    400
    425    426    427    428    429    430    431    432    433    434    435    436    437    438    439    440    441    442    443    444    445    446    447    448    449
    425    426    451    450
    426    427    452    451
    427    428    453    452
    428    429    454    453
    429    430    455    454
    430    431    456    455
    431    432    457    456
    432    433    458    457
    433    434    459    458
    434    435    460    459
    435    436    461    460
    436    437    462    461
    437    438    463    462
    438    439    464    463
    439    440    465    464
    440    441    466    465
    441    442    467    466
    442    443    468    467
    443    444    469    468
    444    445    470    469
    445    446    471    470
    446    447    472    471
    447    448    473    472
    448    449    474    473
    449    425    450    474
    449    448    447    446    445    444    443    442    441    440    439    438    437    436    435    434    433    432    431    430    429    428    427    426    425
    450    451    452    453    454    455    456    457    458    459    460    461    462    463    464    465    466    467    468    469    470    471    472    473    474
    450    451    476    475
    451    452    477    476
    452    453    478    477
    453    454    479    478
    454    455    480    479
    455    456    481    480
    456    457    482    481
    457    458    483    482
    458    459    484    483
    459    460    485    484
    460    461    486    485
    461    462    487    486
    462    463    488    487
    463    464    489    488
    464    465    490    489
    465    466    491    490
    466    467    492    491
    467    468    493    492
    468    469    494    493
    469    470    495    494
    470    471    496    495
    471    472    497    496
    472    473    498    497
    473    474    499    498
    474    450    475    499
    474    473    472    471    470    469    468    467    466    465    464    463    462    461    460    459    458    457    456    455    454    453    452    451    450
    475    476    477    478    479    480    481    482    483    484    485    486    487    488    489    490    491    492    493    494    495    496    497    498    499
    475    476    501    500
    476    477    502    501
    477    478    503    502
    478    479    504    503
    479    480    505    504
    480    481    506    505
    481    482    507    506
    482    483    508    507
    483    484    509    508
    484    485    510    509
    485    486    511    510
    486    487    512    511
    487    488    513    512
    488    489    514    513
    489    490    515    514
    490    491    516    515
    491    492    517    516
    492    493    518    517
    493    494    519    518
    494    495    520    519
    495    496    521    520
    496    497    522    521
    497    498    523    522
    498    499    524    523
    499    475    500    524
    499    498    497    496    495    494    493    492    491    490    489    488    487    486    485    484    483    482    481    480    479    478    477    476    475
    500    501    502    503    504    505    506    507    508    509    510    511    512    513    514    515    516    517    518    519    520    521    522    523    524
    525    526      1      0
    526    527      2      1
    527    528      3      2
    528    529      4      3
    529    530      5      4
    530    531      6      5
    531    532      7      6
    532    533      8      7
    533    534      9      8
    534    535     10      9
    535    536     11     10
    536    537     12     11
    537    538     13     12
    538    539     14     13
    539    540     15     14
    540    541     16     15
    541    542     17     16
    542    543     18     17
    543    544     19     18
    544    545     20     19
    545    546     21     20
    546    547     22     21
    547    548     23     22
    548    549     24     23
    549    525      0     24
    549    548    547    546    545    544    543    542    541    540    539    538    537    536    535    534    533    532    531    530    529    528    527    526    525
      0      1      2      3      4      5      6      7      8      9     10     11     12     13     14     15     16     17     18     19     20     21     22     23     24
        </DataArray>
        <DataArray type="Int32" Name="offsets" format="ascii">
      4
      8
     12
     16
     20
     24
     28
     32
     36
     40
     44
     48
     52
     56
     60
     64
     68
     72
     76
     80
     84
     88
     92
     96
    100
    125
    150
    154
    158
    162
    166
    170
    174
    178
    182
    186
    190
    194
    198
    202
    206
    210
    214
    218
    222
    226
    230
    234
    238
    242
    246
    250
    275
    300
    304
    308
    312
    316
    320
    324
    328
    332
    336
    340
    344
    348
    352
    356
    360
    364
    368
    372
    376
    380
    384
    388
    392
    396
    400
    425
    450
    454
    458
    462
    466
    470
    474
    478
    482
    486
    490
    494
    498
    502
    506
    510
    514
    518
    522
    526
    530
    534
    538
    542
    546
    550
    575
    600
    604
    608
    612
    616
    620
    624
    628
    632
    636
    640
    644
    648
    652
    656
    660
    664
    668
    672
    676
    680
    684
    688
    692
    696
    700
    725
    750
    754
    758
    762
    766
    770
    774
    778
    782
    786
    790
    794
    798
    802
    806
    810
    814
    818
    822
    826
    830
    834
    838
    842
    846
    850
    875
    900
    904
    908
    912
    916
    920
    924
    928
    932
    936
    940
    944
    948
    952
    956
    960
    964
    968
    972
    976
    980
    984
    988
    992
    996
   1000
   1025
   1050
   1054
   1058
   1062
   1066
   1070
   1074
   1078
   1082
   1086
   1090
   1094
   1098
   1102
   1106
   1110
   1114
   1118
   1122
   1126
   1130
   1134
   1138
   1142
   1146
   1150
   1175
   1200
   1204
   1208
   1212
   1216
   1220
   1224
   1228
   1232
   1236
   1240
   1244
   1248
   1252
   1256
   1260
   1264
   1268
   1272
   1276
   1280
   1284
   1288
   1292
   1296
   1300
   1325
   1350
   1354
   1358
   1362
   1366
   1370
   1374
   1378
   1382
   1386
   1390
   1394
   1398
   1402
   1406
   1410
   1414
   1418
   1422
   1426
   1430
   1434
   1438
   1442
   1446
   1450
   1475
   1500
   1504
   1508
   1512
   1516
   1520
   1524
   1528
   1532
   1536
   1540
   1544
   1548
   1552
   1556
   1560
   1564
   1568
   1572
   1576
   1580
   1584
   1588
   1592
   1596
   1600
   1625
   1650
   1654
   1658
   1662
   1666
   1670
   1674
   1678
   1682
   1686
   1690
   1694
   1698
   1702
   1706
   1710
   1714
   1718
   1722
   1726
   1730
   1734
   1738
   1742
   1746
   1750
   1775
   1800
   1804
   1808
   1812
   1816
   1820
   1824
   1828
   1832
   1836
   1840
   1844
   1848
   1852
   1856
   1860
   1864
   1868
   1872
   1876
   1880
   1884
   1888
   1892
   1896
   1900
   1925
   1950
   1954
   1958
   1962
   1966
   1970
   1974
   1978
   1982
   1986
   1990
   1994
   1998
   2002
   2006
   2010
   2014
   2018
   2022
   2026
   2030
   2034
   2038
   2042
   2046
   2050
   2075
   2100
   2104
   2108
   2112
   2116
   2120
   2124
   2128
   2132
   2136
   2140
   2144
   2148
   2152
   2156
   2160
   2164
   2168
   2172
   2176
   2180
   2184
   2188
   2192
   2196
   2200
   2225
   2250
   2254
   2258
   2262
   2266
   2270
   2274
   2278
   2282
   2286
   2290
   2294
   2298
   2302
   2306
   2310
   2314
   2318
   2322
   2326
   2330
   2334
   2338
   2342
   2346
   2350
   2375
   2400
   2404
   2408
   2412
   2416
   2420
   2424
   2428
   2432
   2436
   2440
   2444
   2448
   2452
   2456
   2460
   2464
   2468
   2472
   2476
   2480
   2484
   2488
   2492
   2496
   2500
   2525
   2550
   2554
   2558
   2562
   2566
   2570
   2574
   2578
   2582
   2586
   2590
   2594
   2598
   2602
   2606
   2610
   2614
   2618
   2622
   2626
   2630
   2634
   2638
   2642
   2646
   2650
   2675
   2700
   2704
   2708
   2712
   2716
   2720
   2724
   2728
   2732
   2736
   2740
   2744
   2748
   2752
   2756
   2760
   2764
   2768
   2772
   2776
   2780
   2784
   2788
   2792
   2796
   2800
   2825
   2850
   2854
   2858
   2862
   2866
   2870
   2874
   2878
   2882
   2886
   2890
   2894
   2898
   2902
   2906
   2910
   2914
   2918
   2922
   2926
   2930
   2934
   2938
   2942
   2946
   2950
   2975
   3000
   3004
   3008
   3012
   3016
   3020
   3024
   3028
   3032
   3036
   3040
   3044
   3048
   3052
   3056
   3060
   3064
   3068
   3072
   3076
   3080
   3084
   3088
   3092
   3096
   3100
   3125
   3150
        </DataArray>
      </Polys>
    </Piece>
  </PolyData>
</VTKFile>
