<?xml version="1.0"?>
<VTKFile type="PolyData" version="0.1" byte_order="LittleEndian">
  <PolyData>
    <Piece NumberOfPoints="      8" NumberOfVerts="  0" NumberOfLines="      0"
           NumberOfStrips="  0" NumberOfPolys="      6">
      <Points>
        <DataArray type="Float32" NumberOfComponents="3" format="ascii">
                      -3.29413                       2.32938                      87.61747
                       3.70581                       2.32941                      87.59032
                       3.70580                      -2.47059                      87.58180
                      -3.29415                      -2.47062                      87.60895
                      -3.27554                      -2.47914                      92.40891
                       3.72441                      -2.47911                      92.38177
                       3.72443                       2.32089                      92.39029
                      -3.27552                       2.32086                      92.41743
        </DataArray>
      </Points>
      <Polys>
        <DataArray type="Int32" Name="connectivity" format="ascii">
      0      1      2      3
      4      5      6      7
      7      6      1      0
      6      5      2      1
      5      4      3      2
      4      7      0      3
        </DataArray>
        <DataArray type="Int32" Name="offsets" format="ascii">
      4
      8
     12
     16
     20
     24
        </DataArray>
      </Polys>
    </Piece>
  </PolyData>
</VTKFile>
