<?xml version="1.0"?>
<VTKFile type="PolyData" version="0.1" byte_order="LittleEndian">
  <PolyData>
    <Piece NumberOfPoints="     19" NumberOfVerts="  0" NumberOfLines="     18"
           NumberOfStrips="  0" NumberOfPolys="      0">
      <Points>
        <DataArray type="Float32" NumberOfComponents="3" format="ascii">
                      -4.82549                      -1.54790                      90.30525
                      -4.86308                      -2.88968                      90.56272
                      -4.99176                      -5.58744                      90.99669
                      -5.14376                      -8.29238                      91.39023
                      -5.34409                     -11.67858                      91.85468
                      -5.47395                     -15.72459                      92.51630
                      -5.52169                     -19.75334                      93.27867
                      -5.55570                     -23.78382                      94.03338
                      -5.57153                     -27.81590                      94.78107
                      -5.56959                     -31.84970                      95.52042
                      -5.55208                     -35.88554                      96.24902
                      -5.51813                     -39.92299                      96.96875
                      -5.46955                     -43.96171                      97.68088
                      -5.40919                     -48.00136                      98.38693
                      -5.33872                     -52.04171                      99.08764
                      -5.27530                     -55.40898                      99.66867
                      -5.22105                     -58.10151                     100.13968
                      -5.14753                     -60.78531                     100.66058
                      -5.12884                     -62.13357                     100.88351
        </DataArray>
      </Points>
      <PointData>
        <DataArray type="Float32" Name="TranslationalVelocity" NumberOfComponents="3" format="ascii">
                      -0.16469                      -0.40880                      -1.85700
                      -0.31931                      -0.72935                      -3.55010
                      -0.63084                      -1.26214                      -6.95418
                      -0.94435                      -1.74113                     -10.36721
                      -1.33915                      -2.30374                     -14.63949
                      -1.81536                      -3.12293                     -19.74326
                      -2.29567                      -4.07846                     -24.82376
                      -2.78356                      -5.02555                     -29.90445
                      -3.28026                      -5.96553                     -34.98458
                      -3.78704                      -6.89665                     -40.06369
                      -4.30519                      -7.81559                     -45.14154
                      -4.83588                      -8.72482                     -50.21692
                      -5.38025                      -9.62568                     -55.28880
                      -5.93943                     -10.51971                     -60.35613
                      -6.51447                     -11.40762                     -65.41805
                      -7.00687                     -12.14391                     -69.63141
                      -7.40920                     -12.74082                     -72.99700
                      -7.81836                     -13.40265                     -76.34838
                      -8.02695                     -13.68384                     -78.03079
        </DataArray>
        <DataArray type="Float32" Name="RotationalVelocity" NumberOfComponents="3" format="ascii">
                       1.26182                       0.00028                      -0.11525
                       1.26181                       0.00003                      -0.11530
                       1.26177                      -0.00035                      -0.11555
                       1.26169                      -0.00062                      -0.11601
                       1.26152                      -0.00085                      -0.11683
                       1.26123                      -0.00104                      -0.11812
                       1.26082                      -0.00122                      -0.11971
                       1.26028                      -0.00141                      -0.12159
                       1.25960                      -0.00163                      -0.12378
                       1.25875                      -0.00187                      -0.12629
                       1.25774                      -0.00211                      -0.12914
                       1.25656                      -0.00233                      -0.13233
                       1.25522                      -0.00248                      -0.13584
                       1.25374                      -0.00256                      -0.13963
                       1.25215                      -0.00255                      -0.14361
                       1.25080                      -0.00247                      -0.14699
                       1.24971                      -0.00238                      -0.14966
                       1.24866                      -0.00228                      -0.15223
                       1.24816                      -0.00223                      -0.15344
        </DataArray>
        <DataArray type="Float32" Name="TranslationalAcceleration" NumberOfComponents="3" format="ascii">
                      -0.07534                       2.36440                      -0.45587
                      -0.05962                       2.85912                      -0.53929
                      -0.15108                       8.20471                      -1.40097
                      -0.21970                      13.13301                      -2.10468
                      -0.28621                      18.89689                      -2.84590
                      -0.37160                      25.42418                      -3.82138
                      -0.46894                      31.75715                      -4.90751
                      -0.56855                      38.07519                      -5.95006
                      -0.67702                      44.45606                      -6.96674
                      -0.79848                      50.92348                      -7.96259
                      -0.93416                      57.46208                      -8.93494
                      -1.08299                      64.03183                      -9.88582
                      -1.24040                      70.58492                     -10.81628
                      -1.39823                      77.08124                     -11.73087
                      -1.54441                      83.50424                     -12.63943
                      -1.64523                      88.81479                     -13.40613
                      -1.70552                      93.06030                     -14.04982
                      -1.74468                      97.33181                     -14.80772
                      -1.74832                      99.50590                     -15.13871
        </DataArray>
        <DataArray type="Float32" Name="OrientationX" NumberOfComponents="3" format="ascii">
                       0.82399                      -0.12925                      -0.55167
                       0.82399                      -0.12889                      -0.55174
                       0.82400                      -0.12779                      -0.55199
                       0.82399                      -0.12623                      -0.55237
                       0.82394                      -0.12374                      -0.55300
                       0.84146                      -0.11556                      -0.52782
                       0.85341                      -0.10809                      -0.50991
                       0.86328                      -0.10068                      -0.49458
                       0.87314                      -0.09288                      -0.47853
                       0.88267                      -0.08493                      -0.46226
                       0.89100                      -0.07725                      -0.44739
                       0.89865                      -0.06989                      -0.43306
                       0.90495                      -0.06334                      -0.42077
                       0.90899                      -0.05823                      -0.41274
                       0.91273                      -0.05423                      -0.40495
                       0.91582                      -0.05190                      -0.39823
                       0.91808                      -0.05101                      -0.39311
                       0.91888                      -0.05167                      -0.39113
                       0.91846                      -0.05274                      -0.39199
        </DataArray>
        <DataArray type="Float32" Name="OrientationY" NumberOfComponents="3" format="ascii">
                       0.56600                       0.14273                       0.81195
                       0.56600                       0.14260                       0.81198
                       0.56603                       0.14229                       0.81201
                       0.56610                       0.14195                       0.81202
                       0.56624                       0.14153                       0.81200
                       0.53997                       0.14486                       0.82912
                       0.52099                       0.14695                       0.84082
                       0.50458                       0.14860                       0.85048
                       0.48740                       0.15025                       0.86016
                       0.46999                       0.15180                       0.86952
                       0.45401                       0.15308                       0.87775
                       0.43863                       0.15417                       0.88534
                       0.42542                       0.15496                       0.89163
                       0.41666                       0.15535                       0.89569
                       0.40832                       0.15563                       0.89947
                       0.40131                       0.15584                       0.90259
                       0.39611                       0.15599                       0.90485
                       0.39427                       0.15597                       0.90566
                       0.39530                       0.15587                       0.90523
        </DataArray>
        <DataArray type="Float32" Name="OrientationZ" NumberOfComponents="3" format="ascii">
                      -0.02620                      -0.98129                       0.19076
                      -0.02598                      -0.98135                       0.19045
                      -0.02523                      -0.98154                       0.18958
                      -0.02409                      -0.98179                       0.18842
                      -0.02221                      -0.98217                       0.18668
                      -0.01935                      -0.98268                       0.18429
                      -0.01596                      -0.98322                       0.18173
                      -0.01213                      -0.98376                       0.17909
                      -0.00800                      -0.98428                       0.17646
                      -0.00368                      -0.98476                       0.17390
                       0.00068                      -0.98519                       0.17147
                       0.00489                      -0.98557                       0.16921
                       0.00873                      -0.98589                       0.16718
                       0.01196                      -0.98614                       0.16547
                       0.01425                      -0.98633                       0.16419
                       0.01522                      -0.98642                       0.16355
                       0.01516                      -0.98644                       0.16341
                       0.01421                      -0.98641                       0.16369
                       0.01336                      -0.98637                       0.16400
        </DataArray>
        <DataArray type="Float32" Name="Force" NumberOfComponents="3" format="ascii">
                       1.32520                       2.78359                      14.50091
                     455.52679                       3.88555                      81.96921
                     532.79751                      21.61027                     181.43186
                     440.62650                      31.69536                     218.46999
                    2213.07773                    -426.11071                   -1942.28103
                    2559.60893                    -510.23013                   -2380.62442
                    2715.13580                    -452.73444                   -2123.61418
                    2878.46630                    -412.87846                   -1969.43058
                    2624.08148                    -324.38382                   -1589.39408
                    2423.87630                    -259.81331                   -1322.16145
                    2606.91365                    -242.30153                   -1294.33718
                    2447.10068                    -197.64611                   -1118.85022
                    2154.90933                    -152.66107                    -921.13644
                    1761.21688                    -107.77202                    -696.46795
                    1367.62651                     -71.91017                    -497.08346
                    1058.66402                     -48.37846                    -352.46293
                     793.47316                     -31.78758                    -240.49111
                     334.86309                      -9.47725                     -79.04456
                   -5678.85528                     153.53966                    1275.71646
        </DataArray>
        <DataArray type="Float32" Name="Moment" NumberOfComponents="3" format="ascii">
                       0.00000                       0.00000                       0.00000
                       0.00000                       0.00000                       0.00000
                       0.00000                       0.00000                       0.00000
                       0.00000                       0.00000                       0.00000
                      17.66557                     792.76584                    -153.79378
                      21.34256                    1113.18368                    -215.63723
                      23.26546                    1501.24211                    -290.30467
                      21.91677                    1924.72231                    -371.47270
                      17.09358                    2454.81366                    -472.78828
                       6.09062                    2578.35563                    -495.49787
                      -6.01718                    2662.23317                    -510.49251
                     -18.22225                    2712.15048                    -518.95925
                     -21.62337                    2003.97420                    -382.70688
                     -27.46685                    1933.61961                    -368.66759
                     -30.34614                    1823.93595                    -347.34958
                     -30.07157                    1701.43903                    -323.86015
                     -26.36208                    1495.22351                    -284.61401
                     -12.31615                     739.65603                    -140.85887
                       3.10880                    -197.23539                      37.57721
        </DataArray>
      </PointData>
      <Lines>
        <DataArray type="Int32" Name="connectivity" format="ascii">
      0      1
      1      2
      2      3
      3      4
      4      5
      5      6
      6      7
      7      8
      8      9
      9     10
     10     11
     11     12
     12     13
     13     14
     14     15
     15     16
     16     17
     17     18
        </DataArray>
        <DataArray type="Int32" Name="offsets" format="ascii">
      2
      4
      6
      8
     10
     12
     14
     16
     18
     20
     22
     24
     26
     28
     30
     32
     34
     36
        </DataArray>
      </Lines>
    </Piece>
  </PolyData>
</VTKFile>
