<?xml version="1.0"?>
<VTKFile type="PolyData" version="0.1" byte_order="LittleEndian">
  <PolyData>
    <Piece NumberOfPoints="    625" NumberOfVerts="  0" NumberOfLines="      0"
           NumberOfStrips="  0" NumberOfPolys="    600">
      <Points>
        <DataArray type="Float32" NumberOfComponents="3" format="ascii">
                      -4.86731                       1.14782                      89.12100
                      -4.86731                       1.14782                      89.12100
                      -4.86731                       1.14782                      89.12100
                      -4.86731                       1.14782                      89.12100
                      -4.86731                       1.14782                      89.12100
                      -4.86731                       1.14782                      89.12100
                      -4.86731                       1.14782                      89.12100
                      -4.86731                       1.14782                      89.12100
                      -4.86731                       1.14782                      89.12100
                      -4.86731                       1.14782                      89.12100
                      -4.86731                       1.14782                      89.12100
                      -4.86731                       1.14782                      89.12100
                      -4.86731                       1.14782                      89.12100
                      -4.86731                       1.14782                      89.12100
                      -4.86731                       1.14782                      89.12100
                      -4.86731                       1.14782                      89.12100
                      -4.86731                       1.14782                      89.12100
                      -4.86731                       1.14782                      89.12100
                      -4.86731                       1.14782                      89.12100
                      -4.86731                       1.14782                      89.12100
                      -4.86731                       1.14782                      89.12100
                      -4.86731                       1.14782                      89.12100
                      -4.86731                       1.14782                      89.12100
                      -4.86731                       1.14782                      89.12100
                      -4.86731                       1.14782                      89.12100
                      -4.26347                       1.04801                      89.14127
                      -4.27139                       1.13763                      89.26162
                      -4.31633                       1.22163                      89.37784
                      -4.39545                       1.29471                      89.48262
                      -4.50380                       1.35228                      89.56939
                      -4.63455                       1.39073                      89.63268
                      -4.77950                       1.40764                      89.66852
                      -4.92953                       1.40195                      89.67466
                      -5.07523                       1.37402                      89.65072
                      -5.20743                       1.32559                      89.59819
                      -5.31783                       1.25972                      89.52039
                      -5.39949                       1.18055                      89.42219
                      -5.44728                       1.09304                      89.30976
                      -5.45820                       1.00269                      89.19018
                      -5.43156                       0.91519                      89.07096
                      -5.36904                       0.83603                      88.95958
                      -5.27456                       0.77019                      88.86304
                      -5.15406                       0.72180                      88.78742
                      -5.01512                       0.69389                      88.73746
                      -4.86645                       0.68824                      88.71630
                      -4.71741                       0.70518                      88.72527
                      -4.57736                       0.74367                      88.76381
                      -4.45509                       0.80127                      88.82949
                      -4.35830                       0.87437                      88.91820
                      -4.29306                       0.95837                      89.02435
                      -4.02789                       0.94815                      89.19520
                      -4.03885                       1.07211                      89.36167
                      -4.10100                       1.18829                      89.52241
                      -4.21044                       1.28936                      89.66734
                      -4.36030                       1.36900                      89.78734
                      -4.54115                       1.42218                      89.87488
                      -4.74163                       1.44557                      89.92446
                      -4.94915                       1.43770                      89.93296
                      -5.15066                       1.39906                      89.89984
                      -5.33351                       1.33209                      89.82719
                      -5.48621                       1.24098                      89.71957
                      -5.59916                       1.13147                      89.58374
                      -5.66526                       1.01043                      89.42825
                      -5.68036                       0.88548                      89.26285
                      -5.64352                       0.76445                      89.09795
                      -5.55704                       0.65496                      88.94390
                      -5.42636                       0.56389                      88.81038
                      -5.25970                       0.49696                      88.70578
                      -5.06752                       0.45836                      88.63668
                      -4.86189                       0.45054                      88.60741
                      -4.65575                       0.47398                      88.61982
                      -4.46204                       0.52721                      88.67312
                      -4.29293                       0.60688                      88.76397
                      -4.15906                       0.70798                      88.88666
                      -4.06882                       0.82417                      89.03348
                      -3.85872                       0.84828                      89.25520
                      -3.87183                       0.99662                      89.45439
                      -3.94620                       1.13563                      89.64674
                      -4.07715                       1.25657                      89.82016
                      -4.25647                       1.35186                      89.96375
                      -4.47287                       1.41550                      90.06850
                      -4.71276                       1.44349                      90.12782
                      -4.96108                       1.43407                      90.13799
                      -5.20221                       1.38784                      90.09836
                      -5.42100                       1.30770                      90.01143
                      -5.60372                       1.19868                      89.88265
                      -5.73887                       1.06764                      89.72013
                      -5.81797                       0.92281                      89.53406
                      -5.83604                       0.77329                      89.33615
                      -5.79195                       0.62847                      89.13883
                      -5.68847                       0.49746                      88.95449
                      -5.53211                       0.38848                      88.79473
                      -5.33268                       0.30839                      88.66957
                      -5.10272                       0.26221                      88.58688
                      -4.85667                       0.25285                      88.55186
                      -4.61000                       0.28090                      88.56671
                      -4.37821                       0.34459                      88.63049
                      -4.17586                       0.43992                      88.73920
                      -4.01566                       0.56090                      88.88601
                      -3.90769                       0.69993                      89.06169
                      -3.72651                       0.74841                      89.31858
                      -3.74129                       0.91556                      89.54304
                      -3.82509                       1.07221                      89.75979
                      -3.97266                       1.20850                      89.95521
                      -4.17472                       1.31588                      90.11703
                      -4.41858                       1.38759                      90.23507
                      -4.68891                       1.41913                      90.30191
                      -4.96873                       1.40852                      90.31337
                      -5.24045                       1.35642                      90.26871
                      -5.48701                       1.26611                      90.17075
                      -5.69290                       1.14326                      90.02564
                      -5.84520                       0.99560                      89.84249
                      -5.93433                       0.83239                      89.63282
                      -5.95470                       0.66390                      89.40980
                      -5.90502                       0.50071                      89.18745
                      -5.78841                       0.35308                      88.97972
                      -5.61221                       0.23028                      88.79969
                      -5.38747                       0.14002                      88.65865
                      -5.12834                       0.08799                      88.56547
                      -4.85108                       0.07744                      88.52601
                      -4.57311                       0.10904                      88.54274
                      -4.31191                       0.18081                      88.61461
                      -4.08389                       0.28824                      88.73712
                      -3.90337                       0.42457                      88.90255
                      -3.78169                       0.58124                      89.10052
                      -3.61976                       0.64853                      89.38429
                      -3.63586                       0.83069                      89.62889
                      -3.72719                       1.00139                      89.86509
                      -3.88800                       1.14991                      90.07804
                      -4.10819                       1.26692                      90.25438
                      -4.37392                       1.34507                      90.38301
                      -4.66851                       1.37944                      90.45585
                      -4.97344                       1.36787                      90.46833
                      -5.26954                       1.31110                      90.41967
                      -5.53822                       1.21269                      90.31292
                      -5.76259                       1.07882                      90.15479
                      -5.92855                       0.91790                      89.95521
                      -6.02568                       0.74005                      89.72673
                      -6.04787                       0.55644                      89.48370
                      -5.99373                       0.37861                      89.24139
                      -5.86666                       0.21773                      89.01503
                      -5.67465                       0.08391                      88.81883
                      -5.42975                      -0.01444                      88.66514
                      -5.14736                      -0.07115                      88.56360
                      -4.84523                      -0.08264                      88.52060
                      -4.54232                      -0.04820                      88.53883
                      -4.25769                       0.03001                      88.61716
                      -4.00921                       0.14707                      88.75065
                      -3.81249                       0.29564                      88.93093
                      -3.67990                       0.46637                      89.14666
                      -3.53255                       0.54865                      89.45178
                      -3.54972                       0.74288                      89.71258
                      -3.64709                       0.92488                      89.96442
                      -3.81855                       1.08324                      90.19148
                      -4.05333                       1.20800                      90.37949
                      -4.33667                       1.29132                      90.51664
                      -4.65076                       1.32797                      90.59431
                      -4.97588                       1.31563                      90.60762
                      -5.29160                       1.25510                      90.55574
                      -5.57807                       1.15017                      90.44191
                      -5.81730                       1.00744                      90.27331
                      -5.99425                       0.83587                      90.06051
                      -6.09781                       0.64624                      89.81690
                      -6.12148                       0.45047                      89.55777
                      -6.06375                       0.26086                      89.29942
                      -5.92827                       0.08932                      89.05806
                      -5.72353                      -0.05336                      88.84888
                      -5.46242                      -0.15823                      88.68501
                      -5.16133                      -0.21869                      88.57674
                      -4.83918                      -0.23094                      88.53089
                      -4.51622                      -0.19422                      88.55033
                      -4.21273                      -0.11083                      88.63385
                      -3.94779                       0.01399                      88.77618
                      -3.73805                       0.17239                      88.96840
                      -3.59667                       0.35442                      89.19842
                      -3.46142                       0.44878                      89.52075
                      -3.47944                       0.65265                      89.79450
                      -3.58165                       0.84370                      90.05886
                      -3.76163                       1.00993                      90.29720
                      -4.00807                       1.14088                      90.49455
                      -4.30549                       1.22834                      90.63852
                      -4.63519                       1.26681                      90.72005
                      -4.97647                       1.25387                      90.73402
                      -5.30787                       1.19033                      90.67956
                      -5.60858                       1.08018                      90.56008
                      -5.85969                       0.93036                      90.38309
                      -6.04544                       0.75026                      90.15973
                      -6.15415                       0.55121                      89.90401
                      -6.17899                       0.34571                      89.63200
                      -6.11839                       0.14668                      89.36081
                      -5.97618                      -0.03338                      89.10746
                      -5.76127                      -0.18315                      88.88788
                      -5.48718                      -0.29323                      88.71587
                      -5.17113                      -0.35669                      88.60222
                      -4.83297                      -0.36956                      88.55409
                      -4.49396                      -0.33101                      88.57450
                      -4.17540                      -0.24348                      88.66216
                      -3.89729                      -0.11246                      88.81157
                      -3.67712                       0.05381                      89.01334
                      -3.52872                       0.24489                      89.25479
                      -3.40415                       0.34890                      89.59098
                      -3.42284                       0.56034                      89.87490
                      -3.52885                       0.75848                      90.14907
                      -3.71551                       0.93088                      90.39626
                      -3.97110                       1.06670                      90.60094
                      -4.27956                       1.15741                      90.75025
                      -4.62150                       1.19730                      90.83480
                      -4.97545                       1.18388                      90.84929
                      -5.31915                       1.11798                      90.79281
                      -5.63103                       1.00375                      90.66889
                      -5.89147                       0.84835                      90.48534
                      -6.08411                       0.66157                      90.25368
                      -6.19685                       0.45513                      89.98846
                      -6.22261                       0.24200                      89.70636
                      -6.15977                       0.03558                      89.42510
                      -6.01227                      -0.15116                      89.16235
                      -5.78939                      -0.30649                      88.93462
                      -5.50512                      -0.42066                      88.75622
                      -5.17734                      -0.48648                      88.63835
                      -4.82663                      -0.49982                      88.58844
                      -4.47503                      -0.45984                      88.60960
                      -4.14464                      -0.36906                      88.70052
                      -3.85621                      -0.23318                      88.85547
                      -3.62786                      -0.06073                      89.06473
                      -3.47396                       0.13744                      89.31514
                      -3.35930                       0.24901                      89.66234
                      -3.37850                       0.46616                      89.95392
                      -3.48736                       0.66965                      90.23549
                      -3.67906                       0.84670                      90.48935
                      -3.94155                       0.98618                      90.69955
                      -4.25833                       1.07934                      90.85289
                      -4.60950                       1.12031                      90.93973
                      -4.97299                       1.10652                      90.95461
                      -5.32597                       1.03885                      90.89660
                      -5.64626                       0.92153                      90.76934
                      -5.91372                       0.76195                      90.58084
                      -6.11157                       0.57012                      90.34292
                      -6.22735                       0.35811                      90.07055
                      -6.25381                       0.13924                      89.78084
                      -6.18927                      -0.07275                      89.49199
                      -6.03779                      -0.26453                      89.22215
                      -5.80889                      -0.42406                      88.98827
                      -5.51696                      -0.54130                      88.80506
                      -5.18033                      -0.60890                      88.68402
                      -4.82016                      -0.62260                      88.63275
                      -4.45907                      -0.58154                      88.65449
                      -4.11976                      -0.48831                      88.74786
                      -3.82355                      -0.34876                      88.90699
                      -3.58905                      -0.17166                      89.12190
                      -3.43099                       0.03186                      89.37907
                      -3.32591                       0.14913                      89.73475
                      -3.34546                       0.37026                      90.03169
                      -3.45632                       0.57748                      90.31842
                      -3.65154                       0.75778                      90.57694
                      -3.91884                       0.89983                      90.79100
                      -4.24143                       0.99469                      90.94715
                      -4.59905                       1.03641                      91.03558
                      -4.96921                       1.02238                      91.05073
                      -5.32867                       0.95346                      90.99166
                      -5.65483                       0.83399                      90.86207
                      -5.92720                       0.67148                      90.67010
                      -6.12868                       0.47613                      90.42782
                      -6.24659                       0.26023                      90.15046
                      -6.27353                       0.03734                      89.85543
                      -6.20780                      -0.17854                      89.56128
                      -6.05355                      -0.37384                      89.28648
                      -5.82045                      -0.53629                      89.04832
                      -5.52316                      -0.65569                      88.86174
                      -5.18035                      -0.72452                      88.73848
                      -4.81357                      -0.73848                      88.68627
                      -4.44586                      -0.69667                      88.70841
                      -4.10033                      -0.60173                      88.80349
                      -3.79868                      -0.45962                      88.96555
                      -3.55987                      -0.27927                      89.18439
                      -3.39891                      -0.07201                      89.44628
                      -3.30336                       0.04925                      89.80816
                      -3.32312                       0.27273                      90.10825
                      -3.43516                       0.48216                      90.39804
                      -3.63246                       0.66438                      90.65932
                      -3.90261                       0.80794                      90.87566
                      -4.22864                       0.90382                      91.03347
                      -4.59007                       0.94599                      91.12285
                      -4.96418                       0.93180                      91.13816
                      -5.32746                       0.86214                      91.07846
                      -5.65710                       0.74140                      90.94749
                      -5.93238                       0.57716                      90.75347
                      -6.13600                       0.37973                      90.50861
                      -6.25517                       0.16153                      90.22829
                      -6.28239                      -0.06374                      89.93012
                      -6.21597                      -0.28192                      89.63283
                      -6.06007                      -0.47930                      89.35511
                      -5.82449                      -0.64348                      89.11440
                      -5.52403                      -0.76415                      88.92584
                      -5.17757                      -0.83372                      88.80126
                      -4.80688                      -0.84782                      88.74850
                      -4.43525                      -0.80557                      88.77087
                      -4.08603                      -0.70961                      88.86697
                      -3.78117                      -0.56599                      89.03075
                      -3.53982                      -0.38372                      89.25193
                      -3.37714                      -0.17425                      89.51661
                      -3.29131                      -0.05064                      89.88252
                      -3.31114                       0.17363                      90.18366
                      -3.42357                       0.38379                      90.47446
                      -3.62156                       0.56665                      90.73665
                      -3.89265                       0.71070                      90.95375
                      -4.21982                       0.80691                      91.11211
                      -4.58251                       0.84923                      91.20180
                      -4.95792                       0.83499                      91.21717
                      -5.32248                       0.76510                      91.15725
                      -5.65327                       0.64393                      91.02583
                      -5.92951                       0.47912                      90.83114
                      -6.13384                       0.28100                      90.58542
                      -6.25342                       0.06204                      90.30412
                      -6.28074                      -0.16402                      90.00491
                      -6.21409                      -0.38296                      89.70658
                      -6.05764                      -0.58103                      89.42789
                      -5.82124                      -0.74579                      89.18635
                      -5.51973                      -0.86688                      88.99712
                      -5.17206                      -0.93669                      88.87211
                      -4.80008                      -0.95084                      88.81917
                      -4.42715                      -0.90844                      88.84161
                      -4.07671                      -0.81215                      88.93805
                      -3.77079                      -0.66802                      89.10240
                      -3.52859                      -0.48511                      89.32435
                      -3.36535                      -0.27492                      89.58996
                      -3.28966                      -0.15053                      89.95783
                      -3.30941                       0.07296                      90.25793
                      -3.42146                       0.28239                      90.54772
                      -3.61875                       0.46461                      90.80899
                      -3.88891                       0.60817                      91.02533
                      -4.21494                       0.70404                      91.18315
                      -4.57636                       0.74621                      91.27252
                      -4.95047                       0.73202                      91.28784
                      -5.31376                       0.66237                      91.22813
                      -5.64340                       0.54163                      91.09716
                      -5.91867                       0.37739                      90.90315
                      -6.12229                       0.17996                      90.65829
                      -6.24146                      -0.03824                      90.37797
                      -6.26869                      -0.26351                      90.07979
                      -6.20227                      -0.48169                      89.78251
                      -6.04636                      -0.67907                      89.50479
                      -5.81078                      -0.84326                      89.26408
                      -5.51032                      -0.96392                      89.07552
                      -5.16386                      -1.03349                      88.95094
                      -4.79317                      -1.04759                      88.89818
                      -4.42154                      -1.00534                      88.92055
                      -4.07233                      -0.90939                      89.01664
                      -3.76746                      -0.76576                      89.18043
                      -3.52611                      -0.58349                      89.40161
                      -3.36344                      -0.37403                      89.66629
                      -3.29850                      -0.25042                      90.03411
                      -3.31805                      -0.02929                      90.33104
                      -3.42891                       0.17794                      90.61777
                      -3.62413                       0.35824                      90.87629
                      -3.89143                       0.50028                      91.09035
                      -4.21402                       0.59514                      91.24650
                      -4.57164                       0.63687                      91.33493
                      -4.94180                       0.62283                      91.35009
                      -5.30126                       0.55391                      91.29101
                      -5.62742                       0.43444                      91.16142
                      -5.89980                       0.27193                      90.96945
                      -6.10127                       0.07659                      90.72718
                      -6.21918                      -0.13931                      90.44981
                      -6.24612                      -0.36221                      90.15478
                      -6.18040                      -0.57809                      89.86063
                      -6.02614                      -0.77339                      89.58584
                      -5.79304                      -0.93584                      89.34767
                      -5.49575                      -1.05523                      89.16109
                      -5.15294                      -1.12407                      89.03783
                      -4.78616                      -1.13802                      88.98563
                      -4.41845                      -1.09621                      89.00776
                      -4.07292                      -1.00127                      89.10284
                      -3.77127                      -0.85916                      89.26490
                      -3.53246                      -0.67881                      89.48375
                      -3.37150                      -0.47156                      89.74563
                      -3.31819                      -0.35031                      90.11137
                      -3.33738                      -0.13316                      90.40295
                      -3.44625                       0.07033                      90.68452
                      -3.63795                       0.24738                      90.93838
                      -3.90044                       0.38686                      91.14858
                      -4.21722                       0.48002                      91.30192
                      -4.56839                       0.52099                      91.38876
                      -4.93188                       0.50720                      91.40364
                      -5.28486                       0.43953                      91.34563
                      -5.60514                       0.32221                      91.21837
                      -5.87261                       0.16263                      91.02986
                      -6.07045                      -0.02919                      90.79195
                      -6.18624                      -0.24120                      90.51958
                      -6.21269                      -0.46008                      90.22987
                      -6.14815                      -0.67207                      89.94102
                      -5.99668                      -0.86385                      89.67118
                      -5.76778                      -1.02338                      89.43730
                      -5.47585                      -1.14062                      89.25409
                      -5.13922                      -1.20822                      89.13305
                      -4.77904                      -1.22192                      89.08178
                      -4.41796                      -1.18086                      89.10352
                      -4.07865                      -1.08763                      89.19689
                      -3.78244                      -0.94808                      89.35602
                      -3.54794                      -0.77098                      89.57093
                      -3.38988                      -0.56746                      89.82810
                      -3.34934                      -0.45020                      90.18968
                      -3.36803                      -0.23876                      90.47360
                      -3.47403                      -0.04061                      90.74777
                      -3.66069                       0.13179                      90.99496
                      -3.91628                       0.26761                      91.19964
                      -4.22474                       0.35831                      91.34895
                      -4.56669                       0.39821                      91.43351
                      -4.92063                       0.38479                      91.44800
                      -5.26434                       0.31889                      91.39151
                      -5.57621                       0.20465                      91.26760
                      -5.83665                       0.04926                      91.08405
                      -6.02929                      -0.13752                      90.85238
                      -6.14204                      -0.34396                      90.58717
                      -6.16780                      -0.55709                      90.30507
                      -6.10495                      -0.76351                      90.02381
                      -5.95746                      -0.95025                      89.76105
                      -5.73457                      -1.10559                      89.53332
                      -5.45031                      -1.21975                      89.35492
                      -5.12252                      -1.28557                      89.23706
                      -4.77181                      -1.29891                      89.18714
                      -4.42021                      -1.25893                      89.20831
                      -4.08982                      -1.16815                      89.29922
                      -3.80139                      -1.03227                      89.45418
                      -3.57305                      -0.85982                      89.66344
                      -3.41914                      -0.66165                      89.91385
                      -3.39290                      -0.55009                      90.26913
                      -3.41092                      -0.34622                      90.54289
                      -3.51313                      -0.15517                      90.80724
                      -3.69311                       0.01106                      91.04558
                      -3.93955                       0.14202                      91.24294
                      -4.23697                       0.22948                      91.38690
                      -4.56667                       0.26795                      91.46843
                      -4.90795                       0.25500                      91.48240
                      -5.23935                       0.19146                      91.42794
                      -5.54006                       0.08132                      91.30846
                      -5.79117                      -0.06851                      91.13148
                      -5.97692                      -0.24861                      90.90811
                      -6.08563                      -0.44766                      90.65239
                      -6.11047                      -0.65315                      90.38038
                      -6.04987                      -0.85218                      90.10919
                      -5.90766                      -1.03224                      89.85584
                      -5.69275                      -1.18202                      89.63626
                      -5.41866                      -1.29209                      89.46425
                      -5.10261                      -1.35556                      89.35061
                      -4.76445                      -1.36842                      89.30248
                      -4.42544                      -1.32988                      89.32288
                      -4.10687                      -1.24234                      89.41054
                      -3.82877                      -1.11133                      89.55995
                      -3.60860                      -0.94505                      89.76172
                      -3.46020                      -0.75397                      90.00317
                      -3.45033                      -0.64998                      90.34984
                      -3.46750                      -0.45576                      90.61064
                      -3.56487                      -0.27376                      90.86248
                      -3.73633                      -0.11540                      91.08954
                      -3.97110                       0.00936                      91.27755
                      -4.25444                       0.09268                      91.41470
                      -4.56854                       0.12933                      91.49237
                      -4.89366                       0.11700                      91.50568
                      -5.20937                       0.05647                      91.45379
                      -5.49584                      -0.04846                      91.33997
                      -5.73507                      -0.19120                      91.17137
                      -5.91203                      -0.36277                      90.95857
                      -6.01559                      -0.55240                      90.71496
                      -6.03925                      -0.74817                      90.45583
                      -5.98153                      -0.93778                      90.19747
                      -5.84604                      -1.10931                      89.95612
                      -5.64131                      -1.25200                      89.74694
                      -5.38019                      -1.35686                      89.58306
                      -5.07910                      -1.41732                      89.47480
                      -4.75696                      -1.42958                      89.42895
                      -4.43399                      -1.39286                      89.44839
                      -4.13051                      -1.30947                      89.53190
                      -3.86557                      -1.18465                      89.67424
                      -3.65582                      -1.02625                      89.86645
                      -3.51445                      -0.84421                      90.09647
                      -3.52383                      -0.74988                      90.43202
                      -3.53993                      -0.56772                      90.67662
                      -3.63126                      -0.39702                      90.91282
                      -3.79207                      -0.24850                      91.12578
                      -4.01226                      -0.13149                      91.30211
                      -4.27800                      -0.05334                      91.43074
                      -4.57258                      -0.01897                      91.50358
                      -4.87751                      -0.03054                      91.51607
                      -5.17361                      -0.08731                      91.46741
                      -5.44229                      -0.18572                      91.36065
                      -5.66666                      -0.31959                      91.20252
                      -5.83262                      -0.48051                      91.00294
                      -5.92975                      -0.65836                      90.77446
                      -5.95194                      -0.84197                      90.53143
                      -5.89780                      -1.01980                      90.28912
                      -5.77073                      -1.18068                      90.06276
                      -5.57872                      -1.31450                      89.86657
                      -5.33382                      -1.41285                      89.71288
                      -5.05144                      -1.46956                      89.61134
                      -4.74930                      -1.48105                      89.56833
                      -4.44639                      -1.44661                      89.58657
                      -4.16176                      -1.36840                      89.66489
                      -3.91328                      -1.25134                      89.79839
                      -3.71656                      -1.10277                      89.97866
                      -3.58397                      -0.93204                      90.19439
                      -3.61688                      -0.84978                      90.51599
                      -3.63165                      -0.68262                      90.74045
                      -3.71546                      -0.52597                      90.95720
                      -3.86303                      -0.38968                      91.15262
                      -4.06509                      -0.28230                      91.31444
                      -4.30895                      -0.21059                      91.43248
                      -4.57928                      -0.17905                      91.49932
                      -4.85910                      -0.18967                      91.51078
                      -5.13082                      -0.24176                      91.46612
                      -5.37738                      -0.33207                      91.36816
                      -5.58327                      -0.45492                      91.22305
                      -5.73557                      -0.60259                      91.03990
                      -5.82470                      -0.76579                      90.83023
                      -5.84507                      -0.93428                      90.60721
                      -5.79538                      -1.09747                      90.38486
                      -5.67878                      -1.24511                      90.17713
                      -5.50257                      -1.36791                      89.99710
                      -5.27784                      -1.45816                      89.85606
                      -5.01870                      -1.51020                      89.76288
                      -4.74144                      -1.52074                      89.72342
                      -4.46348                      -1.48914                      89.74015
                      -4.20228                      -1.41737                      89.81202
                      -3.97426                      -1.30995                      89.93453
                      -3.79374                      -1.17361                      90.09996
                      -3.67206                      -1.01694                      90.29793
                      -3.73538                      -0.94968                      90.60229
                      -3.74849                      -0.80134                      90.80148
                      -3.82286                      -0.66233                      90.99382
                      -3.95382                      -0.54138                      91.16724
                      -4.13313                      -0.44610                      91.31084
                      -4.34953                      -0.38246                      91.41559
                      -4.58943                      -0.35447                      91.47491
                      -4.83774                      -0.36389                      91.48508
                      -5.07887                      -0.41012                      91.44545
                      -5.29767                      -0.49026                      91.35851
                      -5.48038                      -0.59928                      91.22974
                      -5.61553                      -0.73032                      91.06721
                      -5.69463                      -0.87515                      90.88115
                      -5.71270                      -1.02467                      90.68324
                      -5.66861                      -1.16949                      90.48592
                      -5.56514                      -1.30050                      90.30158
                      -5.40877                      -1.40947                      90.14181
                      -5.20934                      -1.48957                      90.01665
                      -4.97938                      -1.53574                      89.93397
                      -4.73333                      -1.54510                      89.89895
                      -4.48667                      -1.51706                      89.91379
                      -4.25487                      -1.45337                      89.97758
                      -4.05252                      -1.35804                      90.08629
                      -3.89233                      -1.23706                      90.23310
                      -3.78435                      -1.09802                      90.40878
                      -3.89085                      -1.04958                      90.69196
                      -3.90181                      -0.92562                      90.85843
                      -3.96396                      -0.80944                      91.01917
                      -4.07340                      -0.70837                      91.16410
                      -4.22326                      -0.62873                      91.28411
                      -4.40410                      -0.57555                      91.37165
                      -4.60459                      -0.55216                      91.42122
                      -4.81211                      -0.56003                      91.42972
                      -5.01362                      -0.59867                      91.39660
                      -5.19647                      -0.66564                      91.32395
                      -5.34917                      -0.75675                      91.21633
                      -5.46212                      -0.86626                      91.08051
                      -5.52822                      -0.98730                      90.92501
                      -5.54332                      -1.11225                      90.75962
                      -5.50648                      -1.23328                      90.59471
                      -5.42000                      -1.34277                      90.44066
                      -5.28932                      -1.43384                      90.30714
                      -5.12266                      -1.50077                      90.20254
                      -4.93047                      -1.53936                      90.13344
                      -4.72485                      -1.54719                      90.10417
                      -4.51871                      -1.52375                      90.11658
                      -4.32500                      -1.47052                      90.16989
                      -4.15589                      -1.39085                      90.26074
                      -4.02201                      -1.28975                      90.38343
                      -3.93178                      -1.17356                      90.53024
                      -4.11272                      -1.14950                      90.78771
                      -4.12065                      -1.05987                      90.90806
                      -4.16558                      -0.97588                      91.02428
                      -4.24471                      -0.90280                      91.12906
                      -4.35305                      -0.84522                      91.21583
                      -4.48380                      -0.80677                      91.27912
                      -4.62875                      -0.78986                      91.31496
                      -4.77879                      -0.79555                      91.32110
                      -4.92449                      -0.82349                      91.29716
                      -5.05669                      -0.87191                      91.24463
                      -5.16709                      -0.93778                      91.16682
                      -5.24875                      -1.01695                      91.06862
                      -5.29654                      -1.10446                      90.95620
                      -5.30746                      -1.19481                      90.83662
                      -5.28082                      -1.28231                      90.71739
                      -5.21830                      -1.36147                      90.60601
                      -5.12382                      -1.42731                      90.50948
                      -5.00332                      -1.47571                      90.43386
                      -4.86437                      -1.50361                      90.38390
                      -4.71571                      -1.50926                      90.36274
                      -4.56666                      -1.49232                      90.37171
                      -4.42661                      -1.45384                      90.41025
                      -4.30435                      -1.39623                      90.47593
                      -4.20755                      -1.32314                      90.56464
                      -4.14231                      -1.23913                      90.67078
                      -4.70286                      -1.24945                      90.91711
                      -4.70286                      -1.24945                      90.91711
                      -4.70286                      -1.24945                      90.91711
                      -4.70286                      -1.24945                      90.91711
                      -4.70286                      -1.24945                      90.91711
                      -4.70286                      -1.24945                      90.91711
                      -4.70286                      -1.24945                      90.91711
                      -4.70286                      -1.24945                      90.91711
                      -4.70286                      -1.24945                      90.91711
                      -4.70286                      -1.24945                      90.91711
                      -4.70286                      -1.24945                      90.91711
                      -4.70286                      -1.24945                      90.91711
                      -4.70286                      -1.24945                      90.91711
                      -4.70286                      -1.24945                      90.91711
                      -4.70286                      -1.24945                      90.91711
                      -4.70286                      -1.24945                      90.91711
                      -4.70286                      -1.24945                      90.91711
                      -4.70286                      -1.24945                      90.91711
                      -4.70286                      -1.24945                      90.91711
                      -4.70286                      -1.24945                      90.91711
                      -4.70286                      -1.24945                      90.91711
                      -4.70286                      -1.24945                      90.91711
                      -4.70286                      -1.24945                      90.91711
                      -4.70286                      -1.24945                      90.91711
                      -4.70286                      -1.24945                      90.91711
        </DataArray>
      </Points>
      <Polys>
        <DataArray type="Int32" Name="connectivity" format="ascii">
      0      1     26     25
      1      2     27     26
      2      3     28     27
      3      4     29     28
      4      5     30     29
      5      6     31     30
      6      7     32     31
      7      8     33     32
      8      9     34     33
      9     10     35     34
     10     11     36     35
     11     12     37     36
     12     13     38     37
     13     14     39     38
     14     15     40     39
     15     16     41     40
     16     17     42     41
     17     18     43     42
     18     19     44     43
     19     20     45     44
     20     21     46     45
     21     22     47     46
     22     23     48     47
     23     24     49     48
     24      0     25     49
     25     26     51     50
     26     27     52     51
     27     28     53     52
     28     29     54     53
     29     30     55     54
     30     31     56     55
     31     32     57     56
     32     33     58     57
     33     34     59     58
     34     35     60     59
     35     36     61     60
     36     37     62     61
     37     38     63     62
     38     39     64     63
     39     40     65     64
     40     41     66     65
     41     42     67     66
     42     43     68     67
     43     44     69     68
     44     45     70     69
     45     46     71     70
     46     47     72     71
     47     48     73     72
     48     49     74     73
     49     25     50     74
     50     51     76     75
     51     52     77     76
     52     53     78     77
     53     54     79     78
     54     55     80     79
     55     56     81     80
     56     57     82     81
     57     58     83     82
     58     59     84     83
     59     60     85     84
     60     61     86     85
     61     62     87     86
     62     63     88     87
     63     64     89     88
     64     65     90     89
     65     66     91     90
     66     67     92     91
     67     68     93     92
     68     69     94     93
     69     70     95     94
     70     71     96     95
     71     72     97     96
     72     73     98     97
     73     74     99     98
     74     50     75     99
     75     76    101    100
     76     77    102    101
     77     78    103    102
     78     79    104    103
     79     80    105    104
     80     81    106    105
     81     82    107    106
     82     83    108    107
     83     84    109    108
     84     85    110    109
     85     86    111    110
     86     87    112    111
     87     88    113    112
     88     89    114    113
     89     90    115    114
     90     91    116    115
     91     92    117    116
     92     93    118    117
     93     94    119    118
     94     95    120    119
     95     96    121    120
     96     97    122    121
     97     98    123    122
     98     99    124    123
     99     75    100    124
    100    101    126    125
    101    102    127    126
    102    103    128    127
    103    104    129    128
    104    105    130    129
    105    106    131    130
    106    107    132    131
    107    108    133    132
    108    109    134    133
    109    110    135    134
    110    111    136    135
    111    112    137    136
    112    113    138    137
    113    114    139    138
    114    115    140    139
    115    116    141    140
    116    117    142    141
    117    118    143    142
    118    119    144    143
    119    120    145    144
    120    121    146    145
    121    122    147    146
    122    123    148    147
    123    124    149    148
    124    100    125    149
    125    126    151    150
    126    127    152    151
    127    128    153    152
    128    129    154    153
    129    130    155    154
    130    131    156    155
    131    132    157    156
    132    133    158    157
    133    134    159    158
    134    135    160    159
    135    136    161    160
    136    137    162    161
    137    138    163    162
    138    139    164    163
    139    140    165    164
    140    141    166    165
    141    142    167    166
    142    143    168    167
    143    144    169    168
    144    145    170    169
    145    146    171    170
    146    147    172    171
    147    148    173    172
    148    149    174    173
    149    125    150    174
    150    151    176    175
    151    152    177    176
    152    153    178    177
    153    154    179    178
    154    155    180    179
    155    156    181    180
    156    157    182    181
    157    158    183    182
    158    159    184    183
    159    160    185    184
    160    161    186    185
    161    162    187    186
    162    163    188    187
    163    164    189    188
    164    165    190    189
    165    166    191    190
    166    167    192    191
    167    168    193    192
    168    169    194    193
    169    170    195    194
    170    171    196    195
    171    172    197    196
    172    173    198    197
    173    174    199    198
    174    150    175    199
    175    176    201    200
    176    177    202    201
    177    178    203    202
    178    179    204    203
    179    180    205    204
    180    181    206    205
    181    182    207    206
    182    183    208    207
    183    184    209    208
    184    185    210    209
    185    186    211    210
    186    187    212    211
    187    188    213    212
    188    189    214    213
    189    190    215    214
    190    191    216    215
    191    192    217    216
    192    193    218    217
    193    194    219    218
    194    195    220    219
    195    196    221    220
    196    197    222    221
    197    198    223    222
    198    199    224    223
    199    175    200    224
    200    201    226    225
    201    202    227    226
    202    203    228    227
    203    204    229    228
    204    205    230    229
    205    206    231    230
    206    207    232    231
    207    208    233    232
    208    209    234    233
    209    210    235    234
    210    211    236    235
    211    212    237    236
    212    213    238    237
    213    214    239    238
    214    215    240    239
    215    216    241    240
    216    217    242    241
    217    218    243    242
    218    219    244    243
    219    220    245    244
    220    221    246    245
    221    222    247    246
    222    223    248    247
    223    224    249    248
    224    200    225    249
    225    226    251    250
    226    227    252    251
    227    228    253    252
    228    229    254    253
    229    230    255    254
    230    231    256    255
    231    232    257    256
    232    233    258    257
    233    234    259    258
    234    235    260    259
    235    236    261    260
    236    237    262    261
    237    238    263    262
    238    239    264    263
    239    240    265    264
    240    241    266    265
    241    242    267    266
    242    243    268    267
    243    244    269    268
    244    245    270    269
    245    246    271    270
    246    247    272    271
    247    248    273    272
    248    249    274    273
    249    225    250    274
    250    251    276    275
    251    252    277    276
    252    253    278    277
    253    254    279    278
    254    255    280    279
    255    256    281    280
    256    257    282    281
    257    258    283    282
    258    259    284    283
    259    260    285    284
    260    261    286    285
    261    262    287    286
    262    263    288    287
    263    264    289    288
    264    265    290    289
    265    266    291    290
    266    267    292    291
    267    268    293    292
    268    269    294    293
    269    270    295    294
    270    271    296    295
    271    272    297    296
    272    273    298    297
    273    274    299    298
    274    250    275    299
    275    276    301    300
    276    277    302    301
    277    278    303    302
    278    279    304    303
    279    280    305    304
    280    281    306    305
    281    282    307    306
    282    283    308    307
    283    284    309    308
    284    285    310    309
    285    286    311    310
    286    287    312    311
    287    288    313    312
    288    289    314    313
    289    290    315    314
    290    291    316    315
    291    292    317    316
    292    293    318    317
    293    294    319    318
    294    295    320    319
    295    296    321    320
    296    297    322    321
    297    298    323    322
    298    299    324    323
    299    275    300    324
    300    301    326    325
    301    302    327    326
    302    303    328    327
    303    304    329    328
    304    305    330    329
    305    306    331    330
    306    307    332    331
    307    308    333    332
    308    309    334    333
    309    310    335    334
    310    311    336    335
    311    312    337    336
    312    313    338    337
    313    314    339    338
    314    315    340    339
    315    316    341    340
    316    317    342    341
    317    318    343    342
    318    319    344    343
    319    320    345    344
    320    321    346    345
    321    322    347    346
    322    323    348    347
    323    324    349    348
    324    300    325    349
    325    326    351    350
    326    327    352    351
    327    328    353    352
    328    329    354    353
    329    330    355    354
    330    331    356    355
    331    332    357    356
    332    333    358    357
    333    334    359    358
    334    335    360    359
    335    336    361    360
    336    337    362    361
    337    338    363    362
    338    339    364    363
    339    340    365    364
    340    341    366    365
    341    342    367    366
    342    343    368    367
    343    344    369    368
    344    345    370    369
    345    346    371    370
    346    347    372    371
    347    348    373    372
    348    349    374    373
    349    325    350    374
    350    351    376    375
    351    352    377    376
    352    353    378    377
    353    354    379    378
    354    355    380    379
    355    356    381    380
    356    357    382    381
    357    358    383    382
    358    359    384    383
    359    360    385    384
    360    361    386    385
    361    362    387    386
    362    363    388    387
    363    364    389    388
    364    365    390    389
    365    366    391    390
    366    367    392    391
    367    368    393    392
    368    369    394    393
    369    370    395    394
    370    371    396    395
    371    372    397    396
    372    373    398    397
    373    374    399    398
    374    350    375    399
    375    376    401    400
    376    377    402    401
    377    378    403    402
    378    379    404    403
    379    380    405    404
    380    381    406    405
    381    382    407    406
    382    383    408    407
    383    384    409    408
    384    385    410    409
    385    386    411    410
    386    387    412    411
    387    388    413    412
    388    389    414    413
    389    390    415    414
    390    391    416    415
    391    392    417    416
    392    393    418    417
    393    394    419    418
    394    395    420    419
    395    396    421    420
    396    397    422    421
    397    398    423    422
    398    399    424    423
    399    375    400    424
    400    401    426    425
    401    402    427    426
    402    403    428    427
    403    404    429    428
    404    405    430    429
    405    406    431    430
    406    407    432    431
    407    408    433    432
    408    409    434    433
    409    410    435    434
    410    411    436    435
    411    412    437    436
    412    413    438    437
    413    414    439    438
    414    415    440    439
    415    416    441    440
    416    417    442    441
    417    418    443    442
    418    419    444    443
    419    420    445    444
    420    421    446    445
    421    422    447    446
    422    423    448    447
    423    424    449    448
    424    400    425    449
    425    426    451    450
    426    427    452    451
    427    428    453    452
    428    429    454    453
    429    430    455    454
    430    431    456    455
    431    432    457    456
    432    433    458    457
    433    434    459    458
    434    435    460    459
    435    436    461    460
    436    437    462    461
    437    438    463    462
    438    439    464    463
    439    440    465    464
    440    441    466    465
    441    442    467    466
    442    443    468    467
    443    444    469    468
    444    445    470    469
    445    446    471    470
    446    447    472    471
    447    448    473    472
    448    449    474    473
    449    425    450    474
    450    451    476    475
    451    452    477    476
    452    453    478    477
    453    454    479    478
    454    455    480    479
    455    456    481    480
    456    457    482    481
    457    458    483    482
    458    459    484    483
    459    460    485    484
    460    461    486    485
    461    462    487    486
    462    463    488    487
    463    464    489    488
    464    465    490    489
    465    466    491    490
    466    467    492    491
    467    468    493    492
    468    469    494    493
    469    470    495    494
    470    471    496    495
    471    472    497    496
    472    473    498    497
    473    474    499    498
    474    450    475    499
    475    476    501    500
    476    477    502    501
    477    478    503    502
    478    479    504    503
    479    480    505    504
    480    481    506    505
    481    482    507    506
    482    483    508    507
    483    484    509    508
    484    485    510    509
    485    486    511    510
    486    487    512    511
    487    488    513    512
    488    489    514    513
    489    490    515    514
    490    491    516    515
    491    492    517    516
    492    493    518    517
    493    494    519    518
    494    495    520    519
    495    496    521    520
    496    497    522    521
    497    498    523    522
    498    499    524    523
    499    475    500    524
    500    501    526    525
    501    502    527    526
    502    503    528    527
    503    504    529    528
    504    505    530    529
    505    506    531    530
    506    507    532    531
    507    508    533    532
    508    509    534    533
    509    510    535    534
    510    511    536    535
    511    512    537    536
    512    513    538    537
    513    514    539    538
    514    515    540    539
    515    516    541    540
    516    517    542    541
    517    518    543    542
    518    519    544    543
    519    520    545    544
    520    521    546    545
    521    522    547    546
    522    523    548    547
    523    524    549    548
    524    500    525    549
    525    526    551    550
    526    527    552    551
    527    528    553    552
    528    529    554    553
    529    530    555    554
    530    531    556    555
    531    532    557    556
    532    533    558    557
    533    534    559    558
    534    535    560    559
    535    536    561    560
    536    537    562    561
    537    538    563    562
    538    539    564    563
    539    540    565    564
    540    541    566    565
    541    542    567    566
    542    543    568    567
    543    544    569    568
    544    545    570    569
    545    546    571    570
    546    547    572    571
    547    548    573    572
    548    549    574    573
    549    525    550    574
    550    551    576    575
    551    552    577    576
    552    553    578    577
    553    554    579    578
    554    555    580    579
    555    556    581    580
    556    557    582    581
    557    558    583    582
    558    559    584    583
    559    560    585    584
    560    561    586    585
    561    562    587    586
    562    563    588    587
    563    564    589    588
    564    565    590    589
    565    566    591    590
    566    567    592    591
    567    568    593    592
    568    569    594    593
    569    570    595    594
    570    571    596    595
    571    572    597    596
    572    573    598    597
    573    574    599    598
    574    550    575    599
    575    576    601    600
    576    577    602    601
    577    578    603    602
    578    579    604    603
    579    580    605    604
    580    581    606    605
    581    582    607    606
    582    583    608    607
    583    584    609    608
    584    585    610    609
    585    586    611    610
    586    587    612    611
    587    588    613    612
    588    589    614    613
    589    590    615    614
    590    591    616    615
    591    592    617    616
    592    593    618    617
    593    594    619    618
    594    595    620    619
    595    596    621    620
    596    597    622    621
    597    598    623    622
    598    599    624    623
    599    575    600    624
        </DataArray>
        <DataArray type="Int32" Name="offsets" format="ascii">
      4
      8
     12
     16
     20
     24
     28
     32
     36
     40
     44
     48
     52
     56
     60
     64
     68
     72
     76
     80
     84
     88
     92
     96
    100
    104
    108
    112
    116
    120
    124
    128
    132
    136
    140
    144
    148
    152
    156
    160
    164
    168
    172
    176
    180
    184
    188
    192
    196
    200
    204
    208
    212
    216
    220
    224
    228
    232
    236
    240
    244
    248
    252
    256
    260
    264
    268
    272
    276
    280
    284
    288
    292
    296
    300
    304
    308
    312
    316
    320
    324
    328
    332
    336
    340
    344
    348
    352
    356
    360
    364
    368
    372
    376
    380
    384
    388
    392
    396
    400
    404
    408
    412
    416
    420
    424
    428
    432
    436
    440
    444
    448
    452
    456
    460
    464
    468
    472
    476
    480
    484
    488
    492
    496
    500
    504
    508
    512
    516
    520
    524
    528
    532
    536
    540
    544
    548
    552
    556
    560
    564
    568
    572
    576
    580
    584
    588
    592
    596
    600
    604
    608
    612
    616
    620
    624
    628
    632
    636
    640
    644
    648
    652
    656
    660
    664
    668
    672
    676
    680
    684
    688
    692
    696
    700
    704
    708
    712
    716
    720
    724
    728
    732
    736
    740
    744
    748
    752
    756
    760
    764
    768
    772
    776
    780
    784
    788
    792
    796
    800
    804
    808
    812
    816
    820
    824
    828
    832
    836
    840
    844
    848
    852
    856
    860
    864
    868
    872
    876
    880
    884
    888
    892
    896
    900
    904
    908
    912
    916
    920
    924
    928
    932
    936
    940
    944
    948
    952
    956
    960
    964
    968
    972
    976
    980
    984
    988
    992
    996
   1000
   1004
   1008
   1012
   1016
   1020
   1024
   1028
   1032
   1036
   1040
   1044
   1048
   1052
   1056
   1060
   1064
   1068
   1072
   1076
   1080
   1084
   1088
   1092
   1096
   1100
   1104
   1108
   1112
   1116
   1120
   1124
   1128
   1132
   1136
   1140
   1144
   1148
   1152
   1156
   1160
   1164
   1168
   1172
   1176
   1180
   1184
   1188
   1192
   1196
   1200
   1204
   1208
   1212
   1216
   1220
   1224
   1228
   1232
   1236
   1240
   1244
   1248
   1252
   1256
   1260
   1264
   1268
   1272
   1276
   1280
   1284
   1288
   1292
   1296
   1300
   1304
   1308
   1312
   1316
   1320
   1324
   1328
   1332
   1336
   1340
   1344
   1348
   1352
   1356
   1360
   1364
   1368
   1372
   1376
   1380
   1384
   1388
   1392
   1396
   1400
   1404
   1408
   1412
   1416
   1420
   1424
   1428
   1432
   1436
   1440
   1444
   1448
   1452
   1456
   1460
   1464
   1468
   1472
   1476
   1480
   1484
   1488
   1492
   1496
   1500
   1504
   1508
   1512
   1516
   1520
   1524
   1528
   1532
   1536
   1540
   1544
   1548
   1552
   1556
   1560
   1564
   1568
   1572
   1576
   1580
   1584
   1588
   1592
   1596
   1600
   1604
   1608
   1612
   1616
   1620
   1624
   1628
   1632
   1636
   1640
   1644
   1648
   1652
   1656
   1660
   1664
   1668
   1672
   1676
   1680
   1684
   1688
   1692
   1696
   1700
   1704
   1708
   1712
   1716
   1720
   1724
   1728
   1732
   1736
   1740
   1744
   1748
   1752
   1756
   1760
   1764
   1768
   1772
   1776
   1780
   1784
   1788
   1792
   1796
   1800
   1804
   1808
   1812
   1816
   1820
   1824
   1828
   1832
   1836
   1840
   1844
   1848
   1852
   1856
   1860
   1864
   1868
   1872
   1876
   1880
   1884
   1888
   1892
   1896
   1900
   1904
   1908
   1912
   1916
   1920
   1924
   1928
   1932
   1936
   1940
   1944
   1948
   1952
   1956
   1960
   1964
   1968
   1972
   1976
   1980
   1984
   1988
   1992
   1996
   2000
   2004
   2008
   2012
   2016
   2020
   2024
   2028
   2032
   2036
   2040
   2044
   2048
   2052
   2056
   2060
   2064
   2068
   2072
   2076
   2080
   2084
   2088
   2092
   2096
   2100
   2104
   2108
   2112
   2116
   2120
   2124
   2128
   2132
   2136
   2140
   2144
   2148
   2152
   2156
   2160
   2164
   2168
   2172
   2176
   2180
   2184
   2188
   2192
   2196
   2200
   2204
   2208
   2212
   2216
   2220
   2224
   2228
   2232
   2236
   2240
   2244
   2248
   2252
   2256
   2260
   2264
   2268
   2272
   2276
   2280
   2284
   2288
   2292
   2296
   2300
   2304
   2308
   2312
   2316
   2320
   2324
   2328
   2332
   2336
   2340
   2344
   2348
   2352
   2356
   2360
   2364
   2368
   2372
   2376
   2380
   2384
   2388
   2392
   2396
   2400
        </DataArray>
      </Polys>
    </Piece>
  </PolyData>
</VTKFile>
