<?xml version="1.0"?>
<VTKFile type="PolyData" version="0.1" byte_order="LittleEndian">
  <PolyData>
    <Piece NumberOfPoints="     19" NumberOfVerts="  0" NumberOfLines="     18"
           NumberOfStrips="  0" NumberOfPolys="      0">
      <Points>
        <DataArray type="Float32" NumberOfComponents="3" format="ascii">
                      -4.63078                      -0.71267                      91.37472
                      -4.57801                      -1.31256                      92.60165
                      -4.52524                      -2.58722                      95.02141
                      -4.49630                      -3.89836                      97.42451
                      -4.47223                      -5.56070                     100.41760
                      -4.33944                      -7.45309                     104.05443
                      -4.13343                      -9.24632                     107.73636
                      -3.92305                     -11.04086                     111.41753
                      -3.70673                     -12.83525                     115.09859
                      -3.48791                     -14.62998                     118.77951
                      -3.27172                     -16.42664                     122.45976
                      -3.06013                     -18.22285                     126.14062
                      -2.85739                     -20.01695                     129.82307
                      -2.66822                     -21.80717                     133.50813
                      -2.49543                     -23.59252                     137.19629
                      -2.36766                     -25.07530                     140.27284
                      -2.27469                     -26.25107                     142.73939
                      -2.17373                     -27.37677                     145.23000
                      -2.14501                     -27.97257                     146.45982
        </DataArray>
      </Points>
      <PointData>
        <DataArray type="Float32" Name="TranslationalVelocity" NumberOfComponents="3" format="ascii">
                      -0.15165                      -1.78464                      -0.86862
                      -0.22642                      -3.40759                      -1.65892
                      -0.38219                      -6.60455                      -3.33961
                      -0.53826                      -9.78017                      -5.07045
                      -0.73032                     -13.73922                      -7.26795
                      -0.94147                     -18.56844                      -9.77351
                      -1.12950                     -23.47526                     -12.15331
                      -1.29973                     -28.39397                     -14.54190
                      -1.44731                     -33.32724                     -16.93847
                      -1.56766                     -38.27605                     -19.34463
                      -1.65654                     -43.24031                     -21.76324
                      -1.70974                     -48.22235                     -24.19162
                      -1.72372                     -53.22365                     -26.62773
                      -1.69570                     -58.24533                     -29.06893
                      -1.62398                     -63.28759                     -31.51330
                      -1.52962                     -67.50570                     -33.55033
                      -1.43233                     -70.89440                     -35.16940
                      -1.31232                     -74.32282                     -36.72381
                      -1.24879                     -76.01667                     -37.54581
        </DataArray>
        <DataArray type="Float32" Name="RotationalVelocity" NumberOfComponents="3" format="ascii">
                       1.31726                      -0.00103                      -0.12258
                       1.31778                      -0.00301                      -0.11802
                       1.31899                      -0.00548                      -0.11130
                       1.32041                      -0.00627                      -0.10715
                       1.32244                      -0.00557                      -0.10435
                       1.32522                      -0.00292                      -0.10300
                       1.32837                       0.00102                      -0.10235
                       1.33188                       0.00584                      -0.10134
                       1.33578                       0.01135                      -0.09936
                       1.34008                       0.01752                      -0.09615
                       1.34476                       0.02437                      -0.09173
                       1.34976                       0.03192                      -0.08633
                       1.35499                       0.04015                      -0.08030
                       1.36028                       0.04887                      -0.07405
                       1.36535                       0.05768                      -0.06795
                       1.36919                       0.06463                      -0.06317
                       1.37181                       0.06952                      -0.05962
                       1.37385                       0.07339                      -0.05629
                       1.37460                       0.07480                      -0.05468
        </DataArray>
        <DataArray type="Float32" Name="TranslationalAcceleration" NumberOfComponents="3" format="ascii">
                      -1.21974                       1.26844                      -2.35206
                      -0.57401                       1.53853                      -2.78556
                      -1.51139                       4.54420                      -7.89208
                      -2.22883                       7.38900                     -12.53948
                      -2.93496                      10.78399                     -17.92940
                      -3.65466                      14.50849                     -24.15175
                      -4.35893                      17.98307                     -30.32932
                      -5.11953                      21.44404                     -36.52728
                      -5.98097                      24.91821                     -42.83564
                      -6.95400                      28.40827                     -49.28914
                      -8.02118                      31.90058                     -55.88215
                      -9.14357                      35.36568                     -62.58753
                     -10.26662                      38.77591                     -69.36721
                     -11.32678                      42.11373                     -76.18723
                     -12.25824                      45.38338                     -83.03107
                     -12.88888                      48.07646                     -88.76560
                     -13.27947                      50.22682                     -93.39755
                     -13.56212                      52.33503                     -98.13783
                     -13.65595                      53.47949                    -100.51665
        </DataArray>
        <DataArray type="Float32" Name="OrientationX" NumberOfComponents="3" format="ascii">
                       0.83466                      -0.47991                      -0.27024
                       0.83465                      -0.47983                      -0.27043
                       0.83458                      -0.47961                      -0.27102
                       0.83448                      -0.47932                      -0.27185
                       0.83430                      -0.47889                      -0.27316
                       0.85110                      -0.45391                      -0.26381
                       0.86245                      -0.43572                      -0.25755
                       0.87173                      -0.42009                      -0.25221
                       0.88094                      -0.40413                      -0.24621
                       0.88976                      -0.38847                      -0.23963
                       0.89736                      -0.37476                      -0.23303
                       0.90425                      -0.36234                      -0.22593
                       0.90978                      -0.35266                      -0.21892
                       0.91309                      -0.34775                      -0.21291
                       0.91611                      -0.34385                      -0.20616
                       0.91863                      -0.34086                      -0.19983
                       0.92049                      -0.33893                      -0.19450
                       0.92098                      -0.34000                      -0.19024
                       0.92044                      -0.34223                      -0.18883
        </DataArray>
        <DataArray type="Float32" Name="OrientationY" NumberOfComponents="3" format="ascii">
                       0.54932                       0.76086                       0.34545
                       0.54934                       0.76083                       0.34550
                       0.54940                       0.76072                       0.34563
                       0.54951                       0.76059                       0.34575
                       0.54971                       0.76039                       0.34587
                       0.52320                       0.77496                       0.35455
                       0.50414                       0.78474                       0.36060
                       0.48780                       0.79268                       0.36567
                       0.47086                       0.80051                       0.37077
                       0.45394                       0.80794                       0.37573
                       0.43876                       0.81427                       0.38008
                       0.42451                       0.81993                       0.38406
                       0.41275                       0.82440                       0.38729
                       0.40572                       0.82695                       0.38929
                       0.39925                       0.82925                       0.39108
                       0.39379                       0.83118                       0.39251
                       0.38973                       0.83262                       0.39352
                       0.38883                       0.83290                       0.39381
                       0.39022                       0.83237                       0.39356
        </DataArray>
        <DataArray type="Float32" Name="OrientationZ" NumberOfComponents="3" format="ascii">
                       0.03984                      -0.43678                       0.89869
                       0.03997                      -0.43693                       0.89861
                       0.04040                      -0.43735                       0.89838
                       0.04105                      -0.43790                       0.89808
                       0.04207                      -0.43872                       0.89764
                       0.04351                      -0.43978                       0.89705
                       0.04499                      -0.44084                       0.89646
                       0.04631                      -0.44179                       0.89592
                       0.04726                      -0.44256                       0.89549
                       0.04765                      -0.44308                       0.89521
                       0.04731                      -0.44331                       0.89512
                       0.04609                      -0.44319                       0.89524
                       0.04390                      -0.44271                       0.89559
                       0.04069                      -0.44184                       0.89617
                       0.03649                      -0.44059                       0.89697
                       0.03231                      -0.43926                       0.89778
                       0.02857                      -0.43803                       0.89851
                       0.02456                      -0.43666                       0.89929
                       0.02249                      -0.43594                       0.89970
        </DataArray>
        <DataArray type="Float32" Name="Force" NumberOfComponents="3" format="ascii">
                       0.34329                       7.64544                       3.70063
                     455.41843                      84.40990                      20.76774
                     530.71640                     181.17947                      64.18726
                     437.98226                     216.34342                      85.13172
                    2277.34065                   -1830.33645                    -996.63865
                    2541.58510                   -1861.12697                   -1028.35014
                    2313.33954                   -1418.55450                    -806.12156
                    2286.93637                   -1211.52652                    -707.66666
                    1932.44659                    -891.68993                    -535.92019
                    1505.74846                    -610.46019                    -377.26743
                    1493.43121                    -537.51604                    -340.55825
                    1015.36720                    -316.51126                    -206.32541
                     458.82634                    -118.95786                     -80.38016
                     -24.52031                      52.72566                      26.74410
                    -735.45801                     252.61058                     152.69738
                   -1280.56594                     388.60258                     234.84976
                   -1606.42264                     460.42371                     274.59159
                   -1479.60053                     407.93986                     238.29755
                   -5932.21792                    1166.36165                     713.69809
        </DataArray>
        <DataArray type="Float32" Name="Moment" NumberOfComponents="3" format="ascii">
                       0.00000                       0.00000                       0.00000
                       0.00000                       0.00000                       0.00000
                       0.00000                       0.00000                       0.00000
                       0.00000                       0.00000                       0.00000
                     -36.29871                     376.12430                    -773.69922
                     -59.89278                     599.54371                   -1233.09125
                     -72.73090                     703.54315                   -1446.76141
                     -94.00147                     882.81634                   -1815.16365
                    -122.87259                    1130.11388                   -2323.39798
                    -129.16459                    1177.79582                   -2421.32438
                    -134.02010                    1230.69686                   -2530.16662
                    -132.43806                    1248.32474                   -2566.73227
                     -90.43208                     895.14598                   -1840.96758
                     -79.70763                     851.61975                   -1752.03798
                     -67.47979                     804.71994                   -1656.27807
                     -56.13054                     756.80079                   -1558.33071
                     -43.81531                     669.00646                   -1378.09153
                     -18.75889                     333.85547                    -687.99960
                      12.20286                    -237.55797                     489.65875
        </DataArray>
      </PointData>
      <Lines>
        <DataArray type="Int32" Name="connectivity" format="ascii">
      0      1
      1      2
      2      3
      3      4
      4      5
      5      6
      6      7
      7      8
      8      9
      9     10
     10     11
     11     12
     12     13
     13     14
     14     15
     15     16
     16     17
     17     18
        </DataArray>
        <DataArray type="Int32" Name="offsets" format="ascii">
      2
      4
      6
      8
     10
     12
     14
     16
     18
     20
     22
     24
     26
     28
     30
     32
     34
     36
        </DataArray>
      </Lines>
    </Piece>
  </PolyData>
</VTKFile>
