<?xml version="1.0"?>
<VTKFile type="PolyData" version="0.1" byte_order="LittleEndian">
  <PolyData>
    <Piece NumberOfPoints="     19" NumberOfVerts="  0" NumberOfLines="     18"
           NumberOfStrips="  0" NumberOfPolys="      0">
      <Points>
        <DataArray type="Float32" NumberOfComponents="3" format="ascii">
                      -4.56977                       0.32881                      91.47812
                      -4.50717                       0.68008                      92.79748
                      -4.42567                       1.29993                      95.46053
                      -4.36239                       1.88028                      98.13526
                      -4.28977                       2.58151                     101.48595
                      -4.10373                       3.54062                     105.47036
                      -3.84654                       4.61193                     109.42088
                      -3.57379                       5.68312                     113.37046
                      -3.28120                       6.75481                     117.31855
                      -2.96914                       7.82509                     121.26556
                      -2.63961                       8.89070                     125.21242
                      -2.29209                       9.95281                     129.15869
                      -1.92868                      11.01175                     133.10439
                      -1.55251                      12.06809                     137.04954
                      -1.16549                      13.12191                     140.99421
                      -0.83791                      13.99882                     144.28115
                      -0.57313                      14.70741                     146.90837
                      -0.29528                      15.46724                     149.52086
                      -0.16981                      15.80911                     150.83812
        </DataArray>
      </Points>
      <PointData>
        <DataArray type="Float32" Name="TranslationalVelocity" NumberOfComponents="3" format="ascii">
                       0.10079                      -1.78952                       0.48711
                       0.14352                      -3.43240                       0.92248
                       0.22128                      -6.74471                       1.69105
                       0.29742                     -10.07159                       2.41106
                       0.39453                     -14.24175                       3.28161
                       0.53134                     -19.21643                       4.47261
                       0.69050                     -24.16251                       5.80348
                       0.86239                     -29.11526                       7.13487
                       1.04912                     -34.07457                       8.46726
                       1.25240                     -39.04083                       9.79794
                       1.47356                     -44.01480                      11.12253
                       1.71417                     -48.99578                      12.44209
                       1.97553                     -53.98336                      13.75678
                       2.25868                     -58.97708                      15.06713
                       2.56433                     -63.97679                      16.37306
                       2.83702                     -68.14775                      17.45881
                       3.06722                     -71.48469                      18.33565
                       3.31303                     -74.80737                      19.27579
                       3.43564                     -76.48200                      19.69857
        </DataArray>
        <DataArray type="Float32" Name="RotationalVelocity" NumberOfComponents="3" format="ascii">
                       1.23945                       0.00128                      -0.11648
                       1.23976                       0.00201                      -0.11445
                       1.24047                       0.00342                      -0.11164
                       1.24128                       0.00479                      -0.11018
                       1.24239                       0.00654                      -0.10966
                       1.24379                       0.00882                      -0.11025
                       1.24523                       0.01143                      -0.11145
                       1.24667                       0.01447                      -0.11280
                       1.24809                       0.01800                      -0.11406
                       1.24950                       0.02204                      -0.11516
                       1.25089                       0.02658                      -0.11612
                       1.25227                       0.03156                      -0.11706
                       1.25365                       0.03686                      -0.11810
                       1.25502                       0.04233                      -0.11934
                       1.25637                       0.04775                      -0.12079
                       1.25745                       0.05206                      -0.12210
                       1.25827                       0.05523                      -0.12310
                       1.25903                       0.05804                      -0.12393
                       1.25937                       0.05928                      -0.12423
        </DataArray>
        <DataArray type="Float32" Name="TranslationalAcceleration" NumberOfComponents="3" format="ascii">
                      -0.91371                      -0.57038                      -2.27774
                      -0.47455                      -0.70491                      -2.71805
                      -1.27316                      -1.89316                      -7.80697
                      -1.90762                      -2.92255                     -12.50211
                      -2.54765                      -4.08702                     -17.99745
                      -3.17519                      -5.60412                     -24.20457
                      -3.74836                      -7.28176                     -30.21058
                      -4.34032                      -8.98298                     -36.20539
                      -4.98367                     -10.72963                     -42.26413
                      -5.68687                     -12.52687                     -48.41080
                      -6.44069                     -14.36866                     -54.63264
                      -7.22389                     -16.25103                     -60.89252
                      -8.00999                     -18.16812                     -67.14646
                      -8.77320                     -20.11822                     -73.35814
                      -9.49438                     -22.10701                     -79.51419
                     -10.05614                     -23.80846                     -84.61766
                     -10.48189                     -25.22262                     -88.70493
                     -10.88187                     -26.77147                     -92.81156
                     -11.08946                     -27.51154                     -94.91666
        </DataArray>
        <DataArray type="Float32" Name="OrientationX" NumberOfComponents="3" format="ascii">
                       0.88142                      -0.46512                       0.08223
                       0.88141                      -0.46519                       0.08196
                       0.88135                      -0.46545                       0.08109
                       0.88127                      -0.46582                       0.07982
                       0.88114                      -0.46643                       0.07776
                       0.89545                      -0.44015                       0.06659
                       0.90505                      -0.42146                       0.05707
                       0.91286                      -0.40546                       0.04790
                       0.92057                      -0.38871                       0.03817
                       0.92791                      -0.37174                       0.02819
                       0.93421                      -0.35623                       0.01863
                       0.93992                      -0.34128                       0.00942
                       0.94453                      -0.32844                       0.00125
                       0.94742                      -0.31994                      -0.00493
                       0.95013                      -0.31169                      -0.00997
                       0.95241                      -0.30455                      -0.01316
                       0.95412                      -0.29908                      -0.01468
                       0.95484                      -0.29677                      -0.01426
                       0.95464                      -0.29748                      -0.01306
        </DataArray>
        <DataArray type="Float32" Name="OrientationY" NumberOfComponents="3" format="ascii">
                       0.47001                       0.84645                      -0.25024
                       0.47000                       0.84642                      -0.25035
                       0.47001                       0.84632                      -0.25066
                       0.47002                       0.84618                      -0.25112
                       0.47003                       0.84596                      -0.25183
                       0.44174                       0.86010                      -0.25513
                       0.42121                       0.86962                      -0.25757
                       0.40335                       0.87744                      -0.25964
                       0.38464                       0.88525                      -0.26151
                       0.36567                       0.89279                      -0.26309
                       0.34821                       0.89938                      -0.26431
                       0.33142                       0.90545                      -0.26520
                       0.31694                       0.91045                      -0.26577
                       0.30717                       0.91369                      -0.26610
                       0.29793                       0.91671                      -0.26625
                       0.29024                       0.91917                      -0.26625
                       0.28459                       0.92095                      -0.26619
                       0.28247                       0.92161                      -0.26615
                       0.28345                       0.92131                      -0.26615
        </DataArray>
        <DataArray type="Float32" Name="OrientationZ" NumberOfComponents="3" format="ascii">
                       0.04679                       0.25922                       0.96468
                       0.04709                       0.25918                       0.96468
                       0.04804                       0.25904                       0.96467
                       0.04943                       0.25882                       0.96466
                       0.05168                       0.25845                       0.96464
                       0.05502                       0.25787                       0.96461
                       0.05893                       0.25716                       0.96457
                       0.06325                       0.25633                       0.96452
                       0.06786                       0.25542                       0.96445
                       0.07263                       0.25443                       0.96436
                       0.07740                       0.25341                       0.96426
                       0.08198                       0.25239                       0.96415
                       0.08615                       0.25142                       0.96404
                       0.08964                       0.25060                       0.96393
                       0.09213                       0.25000                       0.96385
                       0.09318                       0.24976                       0.96381
                       0.09313                       0.24980                       0.96381
                       0.09213                       0.25011                       0.96383
                       0.09121                       0.25038                       0.96384
        </DataArray>
        <DataArray type="Float32" Name="Force" NumberOfComponents="3" format="ascii">
                      -0.04946                       1.95732                      -0.52355
                     438.32813                      70.11210                     -40.23615
                     498.60872                     161.47594                     -68.22509
                     402.30636                     196.05909                     -73.30876
                    2521.31690                   -1773.59260                     341.75459
                    3069.57871                   -2406.22271                     472.05023
                    3244.02218                   -2194.00544                     392.14659
                    3430.22907                   -1988.13699                     310.25192
                    3142.79003                   -1590.13651                     207.12704
                    2959.92572                   -1327.22337                     134.71258
                    3110.73511                   -1246.91336                      86.47906
                    2935.03810                   -1062.07619                      36.91092
                    2622.56571                    -866.78780                      -0.47573
                    2168.14572                    -653.88028                     -25.13523
                    1694.08034                    -461.23652                     -37.39826
                    1290.10176                    -315.66820                     -39.49355
                     937.00163                    -203.72373                     -35.53143
                     407.06629                     -68.29502                     -20.46418
                   -5389.10159                     560.11586                     358.64635
        </DataArray>
        <DataArray type="Float32" Name="Moment" NumberOfComponents="3" format="ascii">
                       0.00000                       0.00000                       0.00000
                       0.00000                       0.00000                       0.00000
                       0.00000                       0.00000                       0.00000
                       0.00000                       0.00000                       0.00000
                     -53.46848                    -268.35958                    -998.22972
                     -49.23662                    -232.19983                    -863.44375
                     -79.51440                    -350.30551                   -1302.12969
                    -116.97437                    -480.32099                   -1784.66277
                    -159.02617                    -608.83518                   -2261.14933
                    -179.73682                    -643.18363                   -2387.60688
                    -196.86262                    -661.29884                   -2453.71402
                    -212.58952                    -674.41738                   -2501.27289
                    -168.91680                    -510.03935                   -1890.85997
                    -167.05463                    -484.85047                   -1796.86556
                    -161.87486                    -457.19953                   -1693.97992
                    -152.46256                    -425.75774                   -1577.32179
                    -133.44798                    -372.85697                   -1381.34491
                     -65.12897                    -183.95989                    -681.59410
                      14.41064                      41.11054                     152.33323
        </DataArray>
      </PointData>
      <Lines>
        <DataArray type="Int32" Name="connectivity" format="ascii">
      0      1
      1      2
      2      3
      3      4
      4      5
      5      6
      6      7
      7      8
      8      9
      9     10
     10     11
     11     12
     12     13
     13     14
     14     15
     15     16
     16     17
     17     18
        </DataArray>
        <DataArray type="Int32" Name="offsets" format="ascii">
      2
      4
      6
      8
     10
     12
     14
     16
     18
     20
     22
     24
     26
     28
     30
     32
     34
     36
        </DataArray>
      </Lines>
    </Piece>
  </PolyData>
</VTKFile>
