<?xml version="1.0"?>
<VTKFile type="PolyData" version="0.1" byte_order="LittleEndian">
  <PolyData>
    <Piece NumberOfPoints="     19" NumberOfVerts="  0" NumberOfLines="     18"
           NumberOfStrips="  0" NumberOfPolys="      0">
      <Points>
        <DataArray type="Float32" NumberOfComponents="3" format="ascii">
                      -4.79929                      -0.97282                      91.21382
                      -4.76180                      -1.79566                      92.30454
                      -4.73763                      -3.50919                      94.43684
                      -4.73576                      -5.25627                      96.54475
                      -4.74356                      -7.46243                      99.16329
                      -4.64787                     -10.01953                     102.36949
                      -4.47617                     -12.49045                     105.63790
                      -4.29389                     -14.96593                     108.90252
                      -4.09767                     -17.44511                     112.16382
                      -3.88909                     -19.92888                     115.42114
                      -3.67147                     -22.41908                     118.67320
                      -3.44524                     -24.91391                     121.92135
                      -3.21341                     -27.41216                     125.16661
                      -2.97996                     -29.91241                     128.41024
                      -2.74753                     -32.41374                     131.65297
                      -2.55846                     -34.49790                     134.35561
                      -2.40984                     -36.15837                     136.52294
                      -2.24795                     -37.77655                     138.72219
                      -2.18689                     -38.61559                     139.79951
        </DataArray>
      </Points>
      <PointData>
        <DataArray type="Float32" Name="TranslationalVelocity" NumberOfComponents="3" format="ascii">
                      -1.18937                      -1.97631                      -1.58805
                      -1.33369                      -3.80175                      -2.96026
                      -1.64163                      -7.36079                      -5.81680
                      -1.96795                     -10.87272                      -8.72737
                      -2.39685                     -15.23084                     -12.40112
                      -2.91406                     -20.58726                     -16.65939
                      -3.44478                     -26.05854                     -20.76970
                      -4.02302                     -31.51539                     -24.87684
                      -4.65942                     -36.95496                     -28.97485
                      -5.36338                     -42.37196                     -33.06117
                      -6.14197                     -47.76045                     -37.13574
                      -6.99831                     -53.12058                     -41.19351
                      -7.93170                     -58.45275                     -45.23202
                      -8.93664                     -63.75914                     -49.25039
                     -10.00208                     -69.04370                     -53.25072
                     -10.92395                     -73.43559                     -56.57311
                     -11.67093                     -76.95353                     -59.21693
                     -12.40884                     -80.52746                     -61.79192
                     -12.78117                     -82.27417                     -63.13102
        </DataArray>
        <DataArray type="Float32" Name="RotationalVelocity" NumberOfComponents="3" format="ascii">
                       1.66817                      -0.01769                      -0.15093
                       1.66763                      -0.00599                      -0.16785
                       1.66674                       0.01010                      -0.19302
                       1.66594                       0.01811                      -0.20886
                       1.66482                       0.02013                      -0.22002
                       1.66295                       0.01460                      -0.22596
                       1.66014                       0.00413                      -0.22888
                       1.65619                      -0.00879                      -0.23217
                       1.65098                      -0.02281                      -0.23760
                       1.64456                      -0.03731                      -0.24566
                       1.63713                      -0.05212                      -0.25589
                       1.62906                      -0.06715                      -0.26725
                       1.62087                      -0.08207                      -0.27842
                       1.61328                      -0.09600                      -0.28816
                       1.60717                      -0.10717                      -0.29566
                       1.60391                      -0.11243                      -0.30013
                       1.60310                      -0.11207                      -0.30280
                       1.60432                      -0.10581                      -0.30528
                       1.60583                      -0.09985                      -0.30671
        </DataArray>
        <DataArray type="Float32" Name="TranslationalAcceleration" NumberOfComponents="3" format="ascii">
                      -0.43969                       2.55966                      -3.42786
                      -0.31558                       3.08016                      -4.06829
                      -0.81384                       8.99100                     -11.48076
                      -1.19181                      14.52673                     -18.18494
                      -1.57067                      21.08856                     -25.89921
                      -2.02007                      28.39129                     -34.79926
                      -2.52597                      35.35663                     -43.57944
                      -3.08497                      42.38877                     -52.21933
                      -3.70165                      49.56510                     -60.82140
                      -4.36130                      56.90626                     -69.41017
                      -5.03794                      64.39333                     -77.95555
                      -5.70494                      71.97597                     -86.40530
                      -6.34128                      79.60357                     -94.69533
                      -6.94060                      87.24378                    -102.77299
                      -7.52004                      94.90433                    -110.61800
                      -8.02655                     101.34985                    -116.99783
                      -8.48435                     106.58350                    -122.05320
                      -9.04427                     111.86549                    -127.21235
                      -9.35713                     114.66387                    -129.73247
        </DataArray>
        <DataArray type="Float32" Name="OrientationX" NumberOfComponents="3" format="ascii">
                       0.84360                      -0.41452                      -0.34135
                       0.84361                      -0.41430                      -0.34158
                       0.84357                      -0.41373                      -0.34237
                       0.84346                      -0.41298                      -0.34353
                       0.84323                      -0.41187                      -0.34543
                       0.85948                      -0.38841                      -0.33230
                       0.87031                      -0.37096                      -0.32395
                       0.87902                      -0.35575                      -0.31742
                       0.88756                      -0.34022                      -0.31064
                       0.89559                      -0.32498                      -0.30381
                       0.90233                      -0.31157                      -0.29785
                       0.90830                      -0.29944                      -0.29211
                       0.91289                      -0.28995                      -0.28735
                       0.91527                      -0.28498                      -0.28471
                       0.91743                      -0.28125                      -0.28146
                       0.91931                      -0.27871                      -0.27782
                       0.92076                      -0.27736                      -0.27434
                       0.92098                      -0.27895                      -0.27198
                       0.92036                      -0.28137                      -0.27159
        </DataArray>
        <DataArray type="Float32" Name="OrientationY" NumberOfComponents="3" format="ascii">
                       0.53621                       0.68418                       0.49434
                       0.53619                       0.68413                       0.49444
                       0.53621                       0.68396                       0.49466
                       0.53632                       0.68372                       0.49486
                       0.53659                       0.68336                       0.49507
                       0.50999                       0.69558                       0.50604
                       0.49108                       0.70360                       0.51361
                       0.47506                       0.70997                       0.51986
                       0.45864                       0.71618                       0.52606
                       0.44245                       0.72196                       0.53199
                       0.42823                       0.72673                       0.53710
                       0.41517                       0.73087                       0.54172
                       0.40479                       0.73396                       0.54539
                       0.39928                       0.73543                       0.54747
                       0.39437                       0.73668                       0.54933
                       0.39015                       0.73778                       0.55088
                       0.38696                       0.73861                       0.55200
                       0.38678                       0.73858                       0.55219
                       0.38844                       0.73804                       0.55174
        </DataArray>
        <DataArray type="Float32" Name="OrientationZ" NumberOfComponents="3" format="ascii">
                       0.02863                      -0.60006                       0.79944
                       0.02884                      -0.60027                       0.79928
                       0.02951                      -0.60086                       0.79881
                       0.03051                      -0.60164                       0.79818
                       0.03215                      -0.60281                       0.79723
                       0.03459                      -0.60440                       0.79593
                       0.03740                      -0.60608                       0.79452
                       0.04042                      -0.60776                       0.79309
                       0.04350                      -0.60938                       0.79169
                       0.04645                      -0.61087                       0.79037
                       0.04911                      -0.61220                       0.78918
                       0.05128                      -0.61332                       0.78817
                       0.05277                      -0.61419                       0.78739
                       0.05337                      -0.61477                       0.78690
                       0.05285                      -0.61498                       0.78677
                       0.05144                      -0.61482                       0.78699
                       0.04953                      -0.61443                       0.78742
                       0.04685                      -0.61375                       0.78811
                       0.04520                      -0.61330                       0.78856
        </DataArray>
        <DataArray type="Float32" Name="Force" NumberOfComponents="3" format="ascii">
                       0.79229                      11.72853                       8.77503
                     510.08083                     100.61474                      57.10941
                     611.31692                     221.10710                     143.36571
                     520.61943                     270.73214                     183.30914
                    2743.77549                   -1751.87855                   -1426.54551
                    3091.91180                   -2007.22807                   -1642.69239
                    3116.92980                   -1641.53190                   -1380.94924
                    3209.06416                   -1448.68642                   -1253.44588
                    2862.89499                   -1122.38139                   -1002.20343
                    2488.06221                    -862.25577                    -795.69855
                    2829.50932                    -882.49886                    -841.13766
                    2598.75367                    -734.74125                    -723.04619
                    2094.67949                    -543.08390                    -549.99548
                    1471.14602                    -330.91097                    -349.46593
                     893.01256                    -153.45530                    -175.87690
                     547.73199                     -54.29773                     -76.91168
                     269.97945                      18.57301                      -3.13378
                     336.98279                     -46.40398                     -55.10526
                   -9302.30041                    1455.44706                    1632.51636
        </DataArray>
        <DataArray type="Float32" Name="Moment" NumberOfComponents="3" format="ascii">
                       0.00000                       0.00000                       0.00000
                       0.00000                       0.00000                       0.00000
                       0.00000                       0.00000                       0.00000
                       0.00000                       0.00000                       0.00000
                     -27.77518                     515.37037                    -686.32592
                     -56.57585                     973.22712                   -1295.68770
                     -79.80100                    1266.71062                   -1685.85488
                    -113.91905                    1669.86849                   -2221.62711
                    -163.60508                    2225.20217                   -2959.38887
                    -187.51296                    2385.06342                   -3170.89759
                    -210.58948                    2530.96623                   -3363.82480
                    -227.78163                    2619.34841                   -3480.40239
                    -173.28802                    1935.06214                   -2570.71925
                    -170.65075                    1883.09677                   -2501.50150
                    -160.42080                    1786.42959                   -2373.22173
                    -146.42751                    1674.60619                   -2225.02427
                    -124.39985                    1477.07828                   -1963.00127
                     -58.50436                     734.20438                    -976.04055
                      28.81503                    -374.78016                     498.32197
        </DataArray>
      </PointData>
      <Lines>
        <DataArray type="Int32" Name="connectivity" format="ascii">
      0      1
      1      2
      2      3
      3      4
      4      5
      5      6
      6      7
      7      8
      8      9
      9     10
     10     11
     11     12
     12     13
     13     14
     14     15
     15     16
     16     17
     17     18
        </DataArray>
        <DataArray type="Int32" Name="offsets" format="ascii">
      2
      4
      6
      8
     10
     12
     14
     16
     18
     20
     22
     24
     26
     28
     30
     32
     34
     36
        </DataArray>
      </Lines>
    </Piece>
  </PolyData>
</VTKFile>
