<?xml version="1.0"?>
<VTKFile type="PolyData" version="0.1" byte_order="LittleEndian">
  <PolyData>
    <Piece NumberOfPoints="     19" NumberOfVerts="  0" NumberOfLines="     18"
           NumberOfStrips="  0" NumberOfPolys="      0">
      <Points>
        <DataArray type="Float32" NumberOfComponents="3" format="ascii">
                      -4.98010                      -0.53351                      88.60358
                      -5.15936                      -0.94644                      87.31305
                      -5.56667                      -1.69031                      84.71230
                      -5.99588                      -2.39475                      82.10177
                      -6.54336                      -3.25078                      78.83202
                      -7.10198                      -4.39378                      74.93210
                      -7.59239                      -5.64745                      71.05841
                      -8.07783                      -6.90137                      67.18408
                      -8.55614                      -8.15690                      63.30924
                      -9.02985                      -9.41295                      59.43388
                      -9.50300                     -10.66710                      55.55774
                      -9.97649                     -11.92122                      51.68155
                     -10.45339                     -13.17624                      47.80602
                     -10.93713                     -14.43313                      43.93196
                     -11.42917                     -15.69214                      40.05973
                     -11.84809                     -16.74358                      36.83485
                     -12.18772                     -17.59366                      34.25859
                     -12.51717                     -18.49582                      31.69774
                     -12.69948                     -18.90984                      30.40801
        </DataArray>
      </Points>
      <PointData>
        <DataArray type="Float32" Name="TranslationalVelocity" NumberOfComponents="3" format="ascii">
                      -0.04559                       1.82695                      -0.57567
                      -0.09372                       3.47666                      -1.09684
                      -0.18098                       6.80507                      -2.03520
                      -0.26467                      10.14606                      -2.92309
                      -0.36842                      14.32800                      -4.00084
                      -0.50981                      19.29902                      -5.43806
                      -0.66872                      24.22232                      -7.01193
                      -0.83346                      29.13895                      -8.58310
                      -1.00510                      34.04873                     -10.15324
                      -1.18458                      38.95233                     -11.72098
                      -1.37286                      43.85094                     -13.28325
                      -1.57171                      48.74406                     -14.84232
                      -1.78317                      53.63131                     -16.39910
                      -2.00978                      58.51193                     -17.95437
                      -2.25456                      63.38510                     -19.50778
                      -2.47558                      67.43907                     -20.80085
                      -2.66568                      70.67412                     -21.84329
                      -2.87437                      73.88439                     -22.94749
                      -2.97969                      75.50135                     -23.45174
        </DataArray>
        <DataArray type="Float32" Name="RotationalVelocity" NumberOfComponents="3" format="ascii">
                       1.26253                       0.00035                      -0.11543
                       1.26230                       0.00042                      -0.11533
                       1.26161                       0.00071                      -0.11521
                       1.26070                       0.00115                      -0.11520
                       1.25936                       0.00185                      -0.11534
                       1.25757                       0.00285                      -0.11576
                       1.25572                       0.00401                      -0.11642
                       1.25390                       0.00533                      -0.11728
                       1.25215                       0.00685                      -0.11829
                       1.25047                       0.00866                      -0.11938
                       1.24886                       0.01083                      -0.12049
                       1.24727                       0.01347                      -0.12158
                       1.24565                       0.01668                      -0.12258
                       1.24396                       0.02057                      -0.12347
                       1.24213                       0.02520                      -0.12425
                       1.24047                       0.02966                      -0.12483
                       1.23904                       0.03366                      -0.12528
                       1.23752                       0.03804                      -0.12573
                       1.23672                       0.04037                      -0.12597
        </DataArray>
        <DataArray type="Float32" Name="TranslationalAcceleration" NumberOfComponents="3" format="ascii">
                       0.21720                       0.77251                       2.27406
                       0.25504                       0.89540                       2.76051
                       0.72324                       2.42185                       7.93702
                       1.13727                       3.73760                      12.71737
                       1.59117                       5.19690                      18.31261
                       2.06668                       6.99564                      24.61677
                       2.52113                       8.90757                      30.68754
                       3.00867                      10.81855                      36.71362
                       3.56717                      12.76833                      42.76392
                       4.21921                      14.77126                      48.85928
                       4.96721                      16.82074                      54.98772
                       5.78796                      18.90065                      61.11837
                       6.62777                      20.97968                      67.22013
                       7.39753                      23.01567                      73.27775
                       7.96857                      24.95547                      79.30927
                       8.15954                      26.45380                      84.36303
                       8.03677                      27.56021                      88.46898
                       7.53529                      28.61943                      92.68096
                       7.17828                      29.05437                      94.86050
        </DataArray>
        <DataArray type="Float32" Name="OrientationX" NumberOfComponents="3" format="ascii">
                       0.85020                       0.45546                      -0.26405
                       0.85022                       0.45551                      -0.26388
                       0.85027                       0.45571                      -0.26336
                       0.85033                       0.45602                      -0.26264
                       0.85041                       0.45652                      -0.26152
                       0.86632                       0.43040                      -0.25348
                       0.87716                       0.41176                      -0.24706
                       0.88609                       0.39575                      -0.24131
                       0.89492                       0.37899                      -0.23555
                       0.90334                       0.36201                      -0.23006
                       0.91058                       0.34646                      -0.22540
                       0.91710                       0.33148                      -0.22148
                       0.92230                       0.31858                      -0.21879
                       0.92542                       0.30997                      -0.21799
                       0.92817                       0.30159                      -0.21804
                       0.93037                       0.29434                      -0.21857
                       0.93191                       0.28877                      -0.21944
                       0.93220                       0.28630                      -0.22144
                       0.93164                       0.28690                      -0.22303
        </DataArray>
        <DataArray type="Float32" Name="OrientationY" NumberOfComponents="3" format="ascii">
                       0.51016                      -0.83661                       0.19958
                       0.51016                      -0.83661                       0.19956
                       0.51019                      -0.83660                       0.19953
                       0.51026                      -0.83656                       0.19952
                       0.51040                      -0.83647                       0.19952
                       0.48330                      -0.85045                       0.20773
                       0.46375                      -0.85988                       0.21341
                       0.44689                      -0.86759                       0.21813
                       0.42931                      -0.87523                       0.22287
                       0.41160                      -0.88253                       0.22744
                       0.39548                      -0.88884                       0.23143
                       0.38011                      -0.89457                       0.23509
                       0.36708                      -0.89921                       0.23808
                       0.35867                      -0.90211                       0.23991
                       0.35074                      -0.90476                       0.24162
                       0.34404                      -0.90695                       0.24308
                       0.33902                      -0.90854                       0.24418
                       0.33729                      -0.90909                       0.24452
                       0.33834                      -0.90878                       0.24424
        </DataArray>
        <DataArray type="Float32" Name="OrientationZ" NumberOfComponents="3" format="ascii">
                      -0.13000                      -0.30438                      -0.94364
                      -0.12986                      -0.30429                      -0.94369
                      -0.12940                      -0.30402                      -0.94384
                      -0.12873                      -0.30367                      -0.94404
                      -0.12767                      -0.30315                      -0.94435
                      -0.12617                      -0.30247                      -0.94477
                      -0.12457                      -0.30177                      -0.94521
                      -0.12303                      -0.30112                      -0.94561
                      -0.12169                      -0.30057                      -0.94596
                      -0.12070                      -0.30014                      -0.94623
                      -0.12016                      -0.29987                      -0.94638
                      -0.12020                      -0.29978                      -0.94640
                      -0.12089                      -0.29989                      -0.94628
                      -0.12228                      -0.30021                      -0.94600
                      -0.12440                      -0.30074                      -0.94556
                      -0.12669                      -0.30135                      -0.94506
                      -0.12886                      -0.30195                      -0.94458
                      -0.13130                      -0.30263                      -0.94402
                      -0.13261                      -0.30301                      -0.94372
        </DataArray>
        <DataArray type="Float32" Name="Force" NumberOfComponents="3" format="ascii">
                       0.21421                      -7.31667                       2.33059
                     338.59340                     -95.69926                     -15.72528
                     419.47816                    -198.06834                       6.37383
                     359.05780                    -231.25718                      25.62159
                    2009.43924                    1493.53095                    -753.33980
                    2460.48852                    1790.38972                    -905.94276
                    2355.68317                    1431.50805                    -772.04885
                    2395.22896                    1248.44927                    -714.16016
                    2062.16481                     924.69381                    -563.40595
                    1711.70309                     666.69165                    -433.26948
                    1734.17785                     591.30527                    -410.82371
                    1391.78289                     413.25741                    -310.00844
                     827.30324                     202.71201                    -171.05810
                     238.45233                      13.15096                     -35.07224
                     120.81765                     -14.76725                     -11.13861
                    -218.64595                    -101.88520                      62.16951
                    -473.59052                    -153.70890                     114.19021
                    -625.89619                    -165.60554                     140.48082
                   -5457.04506                    -645.45359                     975.04682
        </DataArray>
        <DataArray type="Float32" Name="Moment" NumberOfComponents="3" format="ascii">
                       0.00000                       0.00000                       0.00000
                       0.00000                       0.00000                       0.00000
                       0.00000                       0.00000                       0.00000
                       0.00000                       0.00000                       0.00000
                      82.83263                     197.56922                     612.63573
                     139.34778                     336.39296                    1043.26470
                     173.46401                     424.21753                    1315.84556
                     218.56361                     541.32850                    1679.35868
                     276.65689                     692.88441                    2149.81404
                     286.02255                     722.37201                    2241.52661
                     294.87718                     748.10656                    2321.50385
                     299.18638                     758.82128                    2354.74559
                     217.74143                     549.07925                    1703.76698
                     208.87725                     520.66080                    1615.36478
                     197.56824                     483.99722                    1501.30254
                     187.35044                     450.57389                    1397.31242
                     167.38296                     395.68196                    1226.81989
                      85.77457                     198.94514                     616.68488
                     -27.72728                     -63.66672                    -197.32689
        </DataArray>
      </PointData>
      <Lines>
        <DataArray type="Int32" Name="connectivity" format="ascii">
      0      1
      1      2
      2      3
      3      4
      4      5
      5      6
      6      7
      7      8
      8      9
      9     10
     10     11
     11     12
     12     13
     13     14
     14     15
     15     16
     16     17
     17     18
        </DataArray>
        <DataArray type="Int32" Name="offsets" format="ascii">
      2
      4
      6
      8
     10
     12
     14
     16
     18
     20
     22
     24
     26
     28
     30
     32
     34
     36
        </DataArray>
      </Lines>
    </Piece>
  </PolyData>
</VTKFile>
