<?xml version="1.0"?>
<VTKFile type="PolyData" version="0.1" byte_order="LittleEndian">
  <PolyData>
    <Piece NumberOfPoints="    550" NumberOfVerts="  0" NumberOfLines="     21"
           NumberOfStrips="  0" NumberOfPolys="    567">
      <Points>
        <DataArray type="Float32" NumberOfComponents="3" format="ascii">
                       2.97351                      -0.00002                       2.18962
                       2.88010                       0.73943                       2.18964
                       2.60572                       1.43241                       2.18969
                       2.16763                       2.03540                       2.18976
                       1.59335                       2.51048                       2.18984
                       0.91896                       2.82783                       2.18993
                       0.18684                       2.96749                       2.19003
                      -0.55702                       2.92069                       2.19012
                      -1.26587                       2.69037                       2.19021
                      -1.89516                       2.29101                       2.19028
                      -2.40537                       1.74769                       2.19034
                      -2.76444                       1.09455                       2.19038
                      -2.94979                       0.37264                       2.19039
                      -2.94979                      -0.37268                       2.19037
                      -2.76444                      -1.09459                       2.19034
                      -2.40537                      -1.74773                       2.19028
                      -1.89516                      -2.29104                       2.19020
                      -1.26587                      -2.69041                       2.19011
                      -0.55702                      -2.92073                       2.19002
                       0.18684                      -2.96753                       2.18992
                       0.91896                      -2.82787                       2.18983
                       1.59335                      -2.51052                       2.18975
                       2.16763                      -2.03544                       2.18968
                       2.60572                      -1.43245                       2.18964
                       2.88010                      -0.73947                       2.18962
                       2.92149                      -0.00017                       6.56870
                       2.82975                       0.72603                       6.56878
                       2.56029                       1.40661                       6.56893
                       2.13005                       1.99879                       6.56915
                       1.56605                       2.46537                       6.56943
                       0.90374                       2.77703                       6.56974
                       0.18473                       2.91419                       6.57007
                      -0.54581                       2.86823                       6.57039
                      -1.24196                       2.64204                       6.57069
                      -1.85999                       2.24982                       6.57094
                      -2.36106                       1.71623                       6.57114
                      -2.71369                       1.07480                       6.57126
                      -2.89573                       0.36582                       6.57131
                      -2.89573                      -0.36616                       6.57127
                      -2.71369                      -1.07514                       6.57115
                      -2.36106                      -1.71658                       6.57096
                      -1.85999                      -2.25017                       6.57071
                      -1.24196                      -2.64238                       6.57042
                      -0.54581                      -2.86857                       6.57010
                       0.18473                      -2.91453                       6.56977
                       0.90374                      -2.77738                       6.56946
                       1.56605                      -2.46572                       6.56918
                       2.13005                      -1.99914                       6.56895
                       2.56029                      -1.40695                       6.56879
                       2.82975                      -0.72638                       6.56870
                       2.87097                      -0.00046                      10.94769
                       2.78091                       0.71250                      10.94782
                       2.51636                       1.38066                      10.94809
                       2.09396                       1.96205                      10.94848
                       1.54025                       2.42012                      10.94896
                       0.89001                       2.72610                      10.94951
                       0.18411                       2.86075                      10.95009
                      -0.53310                       2.81563                      10.95067
                      -1.21656                       2.59356                      10.95120
                      -1.82331                       2.20850                      10.95166
                      -2.31525                       1.68464                      10.95201
                      -2.66145                       1.05490                      10.95224
                      -2.84017                       0.35885                      10.95232
                      -2.84017                      -0.35978                      10.95226
                      -2.66145                      -1.05583                      10.95206
                      -2.31525                      -1.68557                      10.95173
                      -1.82331                      -2.20943                      10.95129
                      -1.21656                      -2.59449                      10.95077
                      -0.53310                      -2.81656                      10.95020
                       0.18411                      -2.86168                      10.94962
                       0.89001                      -2.72702                      10.94906
                       1.54025                      -2.42105                      10.94856
                       2.09396                      -1.96298                      10.94815
                       2.51636                      -1.38159                      10.94786
                       2.78091                      -0.71343                      10.94770
                       2.82208                      -0.00090                      15.32667
                       2.73368                       0.69882                      15.32685
                       2.47405                       1.35457                      15.32724
                       2.05950                       1.92516                      15.32779
                       1.51607                       2.37472                      15.32849
                       0.87791                       2.67502                      15.32928
                       0.18512                       2.80717                      15.33011
                      -0.51877                       2.76289                      15.33094
                      -1.18953                       2.54494                      15.33171
                      -1.78502                       2.16704                      15.33237
                      -2.26782                       1.65291                      15.33288
                      -2.60759                       1.03486                      15.33321
                      -2.78298                       0.35174                      15.33334
                      -2.78298                      -0.35354                      15.33326
                      -2.60759                      -1.03666                      15.33297
                      -2.26782                      -1.65471                      15.33250
                      -1.78502                      -2.16884                      15.33187
                      -1.18953                      -2.54674                      15.33112
                      -0.51877                      -2.76469                      15.33030
                       0.18512                      -2.80897                      15.32946
                       0.87791                      -2.67682                      15.32866
                       1.51607                      -2.37652                      15.32794
                       2.05950                      -1.92696                      15.32735
                       2.47405                      -1.35637                      15.32692
                       2.73368                      -0.70062                      15.32669
                       2.77483                      -0.00149                      19.70569
                       2.68811                       0.68499                      19.70593
                       2.43339                       1.32833                      19.70643
                       2.02668                       1.88812                      19.70715
                       1.49354                       2.32918                      19.70804
                       0.86746                       2.62379                      19.70906
                       0.18778                       2.75344                      19.71014
                      -0.50278                       2.70999                      19.71121
                      -1.16085                       2.49617                      19.71220
                      -1.74507                       2.12542                      19.71306
                      -2.21873                       1.62102                      19.71372
                      -2.55207                       1.01467                      19.71414
                      -2.72415                       0.34448                      19.71431
                      -2.72415                      -0.34745                      19.71420
                      -2.55207                      -1.01765                      19.71383
                      -2.21873                      -1.62400                      19.71322
                      -1.74507                      -2.12839                      19.71241
                      -1.16085                      -2.49915                      19.71144
                      -0.50278                      -2.71297                      19.71038
                       0.18778                      -2.75641                      19.70930
                       0.86746                      -2.62676                      19.70826
                       1.49354                      -2.33215                      19.70733
                       2.02668                      -1.89109                      19.70657
                       2.43339                      -1.33131                      19.70602
                       2.68811                      -0.68796                      19.70572
                       2.72920                      -0.00225                      24.08479
                       2.64415                       0.67099                      24.08508
                       2.39435                       1.30192                      24.08568
                       1.99548                       1.85091                      24.08656
                       1.47263                       2.28346                      24.08765
                       0.85863                       2.57238                      24.08888
                       0.19206                       2.69954                      24.09019
                      -0.48518                       2.65693                      24.09148
                      -1.13056                       2.44723                      24.09268
                      -1.70350                       2.08363                      24.09371
                      -2.16803                       1.58896                      24.09450
                      -2.49494                       0.99431                      24.09501
                      -2.66369                       0.33705                      24.09521
                      -2.66370                      -0.34154                      24.09508
                      -2.49494                      -0.99881                      24.09462
                      -2.16803                      -1.59346                      24.09388
                      -1.70350                      -2.08812                      24.09289
                      -1.13056                      -2.45173                      24.09172
                      -0.48519                      -2.66142                      24.09044
                       0.19206                      -2.70403                      24.08913
                       0.85862                      -2.57687                      24.08788
                       1.47263                      -2.28795                      24.08675
                       1.99548                      -1.85540                      24.08583
                       2.39435                      -1.30641                      24.08518
                       2.64415                      -0.67548                      24.08482
                       2.68513                      -0.00320                      28.46395
                       2.60175                       0.65679                      28.46430
                       2.35686                       1.27531                      28.46501
                       1.96585                       1.81350                      28.46603
                       1.45327                       2.23754                      28.46730
                       0.85135                       2.52078                      28.46873
                       0.19790                       2.64543                      28.47024
                      -0.46602                       2.60366                      28.47174
                      -1.09870                       2.39809                      28.47313
                      -1.66038                       2.04164                      28.47432
                      -2.11576                       1.55670                      28.47523
                      -2.43624                       0.97375                      28.47582
                      -2.60168                       0.32941                      28.47603
                      -2.60168                      -0.33582                      28.47587
                      -2.43624                      -0.98016                      28.47534
                      -2.11576                      -1.56311                      28.47447
                      -1.66038                      -2.04805                      28.47332
                      -1.09870                      -2.40450                      28.47195
                      -0.46603                      -2.61007                      28.47047
                       0.19790                      -2.65184                      28.46895
                       0.85135                      -2.52719                      28.46750
                       1.45327                      -2.24395                      28.46620
                       1.96585                      -1.81991                      28.46514
                       2.35686                      -1.28172                      28.46438
                       2.60175                      -0.66320                      28.46398
                       2.64257                      -0.00440                      32.84317
                       2.56086                       0.64235                      32.84358
                       2.32089                       1.24846                      32.84439
                       1.93772                       1.77585                      32.84555
                       1.43543                       2.19138                      32.84699
                       0.84559                       2.46894                      32.84861
                       0.20525                       2.59109                      32.85032
                      -0.44536                       2.55016                      32.85201
                      -1.06534                       2.34872                      32.85356
                      -1.61574                       1.99942                      32.85489
                      -2.06199                       1.52421                      32.85592
                      -2.37604                       0.95295                      32.85656
                      -2.53816                       0.32154                      32.85680
                      -2.53816                      -0.33034                      32.85660
                      -2.37604                      -0.96175                      32.85598
                      -2.06199                      -1.53301                      32.85499
                      -1.61575                      -2.00822                      32.85368
                      -1.06534                      -2.35752                      32.85214
                      -0.44536                      -2.55896                      32.85046
                       0.20524                      -2.59989                      32.84875
                       0.84558                      -2.47774                      32.84712
                       1.43543                      -2.20018                      32.84566
                       1.93772                      -1.78465                      32.84448
                       2.32089                      -1.25726                      32.84364
                       2.56086                      -0.65115                      32.84319
                       2.60149                      -0.00586                      37.22244
                       2.52146                       0.62764                      37.22291
                       2.28639                       1.22134                      37.22382
                       1.91107                       1.73793                      37.22512
                       1.41907                       2.14495                      37.22672
                       0.84130                       2.41683                      37.22852
                       0.21407                       2.53648                      37.23041
                      -0.42321                       2.49639                      37.23228
                      -1.03049                       2.29907                      37.23399
                      -1.56963                       1.95692                      37.23546
                      -2.00674                       1.49144                      37.23657
                      -2.31436                       0.93188                      37.23727
                      -2.47316                       0.31340                      37.23751
                      -2.47316                      -0.32514                      37.23728
                      -2.31436                      -0.94362                      37.23658
                      -2.00674                      -1.50318                      37.23547
                      -1.56963                      -1.96865                      37.23401
                      -1.03050                      -2.31080                      37.23229
                      -0.42321                      -2.50812                      37.23043
                       0.21407                      -2.54821                      37.22854
                       0.84130                      -2.42856                      37.22673
                       1.41907                      -2.15668                      37.22513
                       1.91107                      -1.74966                      37.22383
                       2.28639                      -1.23307                      37.22291
                       2.52145                      -0.63937                      37.22244
                       2.56189                      -0.00764                      41.60172
                       2.48353                       0.61262                      41.60225
                       2.25339                       1.19391                      41.60327
                       1.88591                       1.69970                      41.60470
                       1.40419                       2.09821                      41.60646
                       0.83850                       2.36441                      41.60844
                       0.22439                       2.48156                      41.61052
                      -0.39957                       2.44230                      41.61255
                      -0.99416                       2.24911                      41.61442
                      -1.52203                       1.91411                      41.61601
                      -1.95000                       1.45836                      41.61722
                      -2.25119                       0.91050                      41.61796
                      -2.40667                       0.30495                      41.61820
                      -2.40667                      -0.32024                      41.61793
                      -2.25119                      -0.92580                      41.61715
                      -1.95000                      -1.47366                      41.61591
                      -1.52203                      -1.92940                      41.61430
                      -0.99416                      -2.26440                      41.61241
                      -0.39957                      -2.45759                      41.61037
                       0.22438                      -2.49685                      41.60830
                       0.83850                      -2.37970                      41.60633
                       1.40419                      -2.11350                      41.60459
                       1.88591                      -1.71499                      41.60318
                       2.25338                      -1.20920                      41.60220
                       2.48353                      -0.62791                      41.60170
                       2.52382                      -0.00978                      45.98100
                       2.44714                       0.59724                      45.98160
                       2.22191                       1.16612                      45.98272
                       1.86228                       1.66112                      45.98430
                       1.39084                       2.05112                      45.98622
                       0.83723                       2.31163                      45.98838
                       0.23623                       2.42628                      45.99063
                      -0.37440                       2.38786                      45.99284
                      -0.95630                       2.19879                      45.99486
                      -1.47289                       1.87095                      45.99657
                      -1.89173                       1.42493                      45.99786
                      -2.18649                       0.88876                      45.99865
                      -2.33865                       0.29614                      45.99889
                      -2.33865                      -0.31570                      45.99856
                      -2.18649                      -0.90833                      45.99770
                      -1.89173                      -1.44449                      45.99634
                      -1.47290                      -1.89051                      45.99457
                      -0.95630                      -2.21835                      45.99251
                      -0.37441                      -2.40742                      45.99029
                       0.23623                      -2.44584                      45.98804
                       0.83723                      -2.33119                      45.98591
                       1.39084                      -2.07068                      45.98403
                       1.86227                      -1.68067                      45.98252
                       2.22191                      -1.18568                      45.98147
                       2.44714                      -0.61680                      45.98095
                       2.48736                      -0.01230                      50.36026
                       2.41235                       0.58147                      50.36094
                       2.19203                       1.13794                      50.36217
                       1.84024                       1.62214                      50.36389
                       1.37910                       2.00363                      50.36598
                       0.83756                       2.25846                      50.36832
                       0.24967                       2.37061                      50.37075
                      -0.34764                       2.33303                      50.37313
                      -0.91684                       2.14808                      50.37530
                      -1.42216                       1.82739                      50.37713
                      -1.83186                       1.39110                      50.37851
                      -2.12019                       0.86663                      50.37934
                      -2.26903                       0.28694                      50.37958
                      -2.26903                      -0.31156                      50.37920
                      -2.12019                      -0.89125                      50.37824
                      -1.83186                      -1.41572                      50.37675
                      -1.42217                      -1.85201                      50.37483
                      -0.91685                      -2.17270                      50.37260
                      -0.34765                      -2.35764                      50.37020
                       0.24967                      -2.39522                      50.36777
                       0.83756                      -2.28307                      50.36548
                       1.37909                      -2.02824                      50.36346
                       1.84024                      -1.64675                      50.36184
                       2.19202                      -1.16255                      50.36073
                       2.41234                      -0.60608                      50.36019
                       2.45257                      -0.01526                      54.73952
                       2.37923                       0.56528                      54.74026
                       2.16383                       1.10933                      54.74161
                       1.81989                       1.58273                      54.74347
                       1.36903                       1.95572                      54.74573
                       0.83958                       2.20486                      54.74825
                       0.26480                       2.31451                      54.75087
                      -0.31919                       2.27776                      54.75342
                      -0.87570                       2.09694                      54.75575
                      -1.36975                       1.78340                      54.75770
                      -1.77031                       1.35684                      54.75916
                      -2.05221                       0.84407                      54.76003
                      -2.19773                       0.27731                      54.76026
                      -2.19773                      -0.30784                      54.75984
                      -2.05221                      -0.87461                      54.75878
                      -1.77031                      -1.38738                      54.75717
                      -1.36976                      -1.81393                      54.75509
                      -0.87570                      -2.12747                      54.75268
                      -0.31920                      -2.30829                      54.75009
                       0.26479                      -2.34503                      54.74749
                       0.83957                      -2.23538                      54.74503
                       1.36902                      -1.98624                      54.74287
                       1.81989                      -1.61325                      54.74115
                       2.16383                      -1.13985                      54.73998
                       2.37923                      -0.59579                      54.73942
                       2.41954                      -0.01867                      59.11877
                       2.34788                       0.54862                      59.11959
                       2.13739                       1.08027                      59.12105
                       1.80130                       1.54287                      59.12306
                       1.36072                       1.90735                      59.12548
                       0.84335                       2.15081                      59.12818
                       0.28168                       2.25795                      59.13098
                      -0.28898                       2.22204                      59.13370
                      -0.83279                       2.04535                      59.13618
                      -1.31558                       1.73896                      59.13825
                      -1.70700                       1.32213                      59.13979
                      -1.98246                       0.82106                      59.14070
                      -2.12467                       0.26722                      59.14093
                      -2.12467                      -0.30458                      59.14045
                      -1.98247                      -0.85842                      59.13930
                      -1.70700                      -1.35949                      59.13756
                      -1.31558                      -1.77631                      59.13532
                      -0.83280                      -2.08270                      59.13274
                      -0.28899                      -2.25939                      59.12997
                       0.28167                      -2.29530                      59.12719
                       0.84334                      -2.18815                      59.12457
                       1.36072                      -1.94469                      59.12228
                       1.80129                      -1.58021                      59.12046
                       2.13739                      -1.11761                      59.11922
                       2.34788                      -0.58596                      59.11865
                       2.38831                      -0.02255                      63.49807
                       2.31832                       0.53150                      63.49895
                       2.11274                       1.05073                      63.50052
                       1.78450                       1.50253                      63.50266
                       1.35421                       1.85850                      63.50525
                       0.84891                       2.09628                      63.50811
                       0.30036                       2.20092                      63.51108
                      -0.25699                       2.16585                      63.51396
                      -0.78810                       1.99328                      63.51658
                      -1.25961                       1.69405                      63.51876
                      -1.64190                       1.28695                      63.52038
                      -1.91093                       0.79757                      63.52132
                      -2.04981                       0.25666                      63.52154
                      -2.04981                      -0.30179                      63.52102
                      -1.91093                      -0.84270                      63.51978
                      -1.64190                      -1.33207                      63.51791
                      -1.25962                      -1.73917                      63.51553
                      -0.78811                      -2.03840                      63.51278
                      -0.25700                      -2.21097                      63.50984
                       0.30035                      -2.24604                      63.50689
                       0.84890                      -2.14139                      63.50412
                       1.35420                      -1.90361                      63.50170
                       1.78449                      -1.54764                      63.49979
                       2.11274                      -1.09584                      63.49850
                       2.31832                      -0.57660                      63.49791
                       2.35882                      -0.02691                      67.87744
                       2.29050                       0.51390                      67.87840
                       2.08984                       1.02072                      67.88005
                       1.76944                       1.46172                      67.88231
                       1.34944                       1.80918                      67.88504
                       0.85622                       2.04128                      67.88805
                       0.32078                       2.14342                      67.89116
                      -0.22324                       2.10919                      67.89418
                      -0.74166                       1.94074                      67.89691
                      -1.20190                       1.64866                      67.89919
                      -1.57505                       1.25129                      67.90087
                      -1.83765                       0.77361                      67.90184
                      -1.97322                       0.24563                      67.90205
                      -1.97322                      -0.29948                      67.90148
                      -1.83766                      -0.82746                      67.90016
                      -1.57506                      -1.30513                      67.89819
                      -1.20191                      -1.70250                      67.89568
                      -0.74168                      -1.99458                      67.89279
                      -0.22326                      -2.16302                      67.88970
                       0.32076                      -2.19725                      67.88661
                       0.85621                      -2.09510                      67.88371
                       1.34942                      -1.86301                      67.88118
                       1.76943                      -1.51554                      67.87919
                       2.08983                      -1.07454                      67.87786
                       2.29050                      -0.56772                      67.87726
                       2.33089                      -0.03173                      72.25698
                       2.26425                       0.49583                      72.25799
                       2.06850                       0.99025                      72.25972
                       1.75594                       1.42045                      72.26207
                       1.34623                       1.75940                      72.26489
                       0.86509                       1.98581                      72.26801
                       0.34276                       2.08545                      72.27122
                      -0.18794                       2.05206                      72.27434
                      -0.69366                       1.88773                      72.27715
                      -1.14263                       1.60280                      72.27949
                      -1.50664                       1.21517                      72.28120
                      -1.76282                       0.74918                      72.28218
                      -1.89506                       0.23413                      72.28238
                      -1.89506                      -0.29762                      72.28176
                      -1.76282                      -0.81268                      72.28039
                      -1.50665                      -1.27866                      72.27833
                      -1.14265                      -1.66629                      72.27572
                      -0.69368                      -1.95122                      72.27273
                      -0.18796                      -2.11554                      72.26954
                       0.34274                      -2.14893                      72.26635
                       0.86507                      -2.04928                      72.26336
                       1.34621                      -1.82287                      72.26076
                       1.75593                      -1.48391                      72.25872
                       2.06849                      -1.05371                      72.25736
                       2.26424                      -0.55930                      72.25677
                       2.30416                      -0.03698                      76.63678
                       2.23918                       0.47734                      76.63782
                       2.04835                       0.95934                      76.63959
                       1.74364                       1.37874                      76.64199
                       1.34421                       1.70919                      76.64485
                       0.87515                       1.92991                      76.64801
                       0.36593                       2.02705                      76.65126
                      -0.15144                       1.99450                      76.65440
                      -0.64447                       1.83430                      76.65724
                      -1.08217                       1.55652                      76.65958
                      -1.43704                       1.17861                      76.66129
                      -1.68679                       0.72433                      76.66226
                      -1.81571                       0.22220                      76.66243
                      -1.81571                      -0.29620                      76.66179
                      -1.68679                      -0.79833                      76.66037
                      -1.43705                      -1.25261                      76.65827
                      -1.08218                      -1.63051                      76.65561
                      -0.64449                      -1.90829                      76.65258
                      -0.15146                      -2.06848                      76.64935
                       0.36592                      -2.10103                      76.64613
                       0.87514                      -2.00389                      76.64311
                       1.34420                      -1.78316                      76.64051
                       1.74363                      -1.45271                      76.63846
                       2.04834                      -1.03331                      76.63711
                       2.23918                      -0.55131                      76.63654
                       2.27799                      -0.04261                      81.01695
                       2.21470                       0.45847                      81.01800
                       2.02878                       0.92806                      81.01977
                       1.73192                       1.33666                      81.02215
                       1.34277                       1.65860                      81.02498
                       0.88578                       1.87364                      81.02809
                       0.38968                       1.96828                      81.03128
                      -0.11438                       1.93656                      81.03436
                      -0.59471                       1.78049                      81.03712
                      -1.02114                       1.50986                      81.03940
                      -1.36688                       1.14169                      81.04105
                      -1.61019                       0.69910                      81.04197
                      -1.73579                       0.20990                      81.04210
                      -1.73579                      -0.29516                      81.04143
                      -1.61019                      -0.78435                      81.04001
                      -1.36688                      -1.22694                      81.03792
                      -1.02115                      -1.59511                      81.03530
                      -0.59473                      -1.86574                      81.03230
                      -0.11439                      -2.02181                      81.02912
                       0.38966                      -2.05352                      81.02597
                       0.88577                      -1.95888                      81.02302
                       1.34275                      -1.74383                      81.02048
                       1.73190                      -1.42189                      81.01850
                       2.02877                      -1.01329                      81.01720
                       2.21469                      -0.54369                      81.01668
                       2.25145                      -0.04853                      85.39763
                       2.18983                       0.43930                      85.39867
                       2.00882                       0.89649                      85.40038
                       1.71980                       1.29429                      85.40265
                       1.34094                       1.60772                      85.40534
                       0.89603                       1.81708                      85.40828
                       0.41304                       1.90921                      85.41128
                      -0.07770                       1.87834                      85.41416
                      -0.54534                       1.72639                      85.41674
                      -0.96050                       1.46291                      85.41885
                      -1.29709                       1.10447                      85.42036
                      -1.53398                       0.67357                      85.42118
                      -1.65626                       0.19731                      85.42125
                      -1.65626                      -0.29440                      85.42058
                      -1.53398                      -0.77067                      85.41919
                      -1.29710                      -1.20156                      85.41719
                      -0.96051                      -1.56000                      85.41469
                      -0.54535                      -1.82347                      85.41185
                      -0.07771                      -1.97542                      85.40886
                       0.41302                      -2.00629                      85.40589
                       0.89602                      -1.91415                      85.40314
                       1.34093                      -1.70479                      85.40078
                       1.71979                      -1.39136                      85.39895
                       2.00881                      -0.99355                      85.39778
                       2.18982                      -0.53637                      85.39733
                       2.23763                      -0.05157                      87.58822
                       2.17684                       0.42964                      87.58924
                       1.99829                       0.88062                      87.59089
                       1.71320                       1.27302                      87.59306
                       1.33947                       1.58220                      87.59563
                       0.90061                       1.78871                      87.59843
                       0.42417                       1.87960                      87.60128
                      -0.05991                       1.84914                      87.60400
                      -0.52120                       1.69925                      87.60643
                      -0.93073                       1.43936                      87.60841
                      -1.26276                       1.08578                      87.60981
                      -1.49642                       0.66073                      87.61055
                      -1.61705                       0.19093                      87.61059
                      -1.61705                      -0.29411                      87.60991
                      -1.49643                      -0.76391                      87.60857
                      -1.26277                      -1.18895                      87.60664
                      -0.93074                      -1.54253                      87.60425
                      -0.52122                      -1.80242                      87.60155
                      -0.05992                      -1.95231                      87.59870
                       0.42415                      -1.98276                      87.59589
                       0.90059                      -1.89187                      87.59330
                       1.33946                      -1.68535                      87.59108
                       1.71319                      -1.37617                      87.58937
                       1.99828                      -0.98377                      87.58829
                       2.17684                      -0.53279                      87.58790
                       3.00000                       0.00000                       0.00000
                       2.90575                       0.74607                       0.00000
                       2.62892                       1.44526                       0.00000
                       2.18691                       2.05364                       0.00000
                       1.60748                       2.53298                       0.00000
                       0.92705                       2.85317                       0.00000
                       0.18837                       2.99408                       0.00000
                      -0.56214                       2.94686                       0.00000
                      -1.27734                       2.71448                       0.00000
                      -1.91227                       2.31154                       0.00000
                      -2.42705                       1.76336                       0.00000
                      -2.78933                       1.10437                       0.00000
                      -2.97634                       0.37600                       0.00000
                      -2.97634                      -0.37600                       0.00000
                      -2.78933                      -1.10437                       0.00000
                      -2.42705                      -1.76336                       0.00000
                      -1.91227                      -2.31154                       0.00000
                      -1.27734                      -2.71448                       0.00000
                      -0.56214                      -2.94686                       0.00000
                       0.18837                      -2.99408                       0.00000
                       0.92705                      -2.85317                       0.00000
                       1.60748                      -2.53298                       0.00000
                       2.18691                      -2.05364                       0.00000
                       2.62892                      -1.44526                       0.00000
                       2.90575                      -0.74607                       0.00000
        </DataArray>
      </Points>
      <Polys>
        <DataArray type="Int32" Name="connectivity" format="ascii">
      0      1     26     25
      1      2     27     26
      2      3     28     27
      3      4     29     28
      4      5     30     29
      5      6     31     30
      6      7     32     31
      7      8     33     32
      8      9     34     33
      9     10     35     34
     10     11     36     35
     11     12     37     36
     12     13     38     37
     13     14     39     38
     14     15     40     39
     15     16     41     40
     16     17     42     41
     17     18     43     42
     18     19     44     43
     19     20     45     44
     20     21     46     45
     21     22     47     46
     22     23     48     47
     23     24     49     48
     24      0     25     49
     24     23     22     21     20     19     18     17     16     15     14     13     12     11     10      9      8      7      6      5      4      3      2      1      0
     25     26     27     28     29     30     31     32     33     34     35     36     37     38     39     40     41     42     43     44     45     46     47     48     49
     25     26     51     50
     26     27     52     51
     27     28     53     52
     28     29     54     53
     29     30     55     54
     30     31     56     55
     31     32     57     56
     32     33     58     57
     33     34     59     58
     34     35     60     59
     35     36     61     60
     36     37     62     61
     37     38     63     62
     38     39     64     63
     39     40     65     64
     40     41     66     65
     41     42     67     66
     42     43     68     67
     43     44     69     68
     44     45     70     69
     45     46     71     70
     46     47     72     71
     47     48     73     72
     48     49     74     73
     49     25     50     74
     49     48     47     46     45     44     43     42     41     40     39     38     37     36     35     34     33     32     31     30     29     28     27     26     25
     50     51     52     53     54     55     56     57     58     59     60     61     62     63     64     65     66     67     68     69     70     71     72     73     74
     50     51     76     75
     51     52     77     76
     52     53     78     77
     53     54     79     78
     54     55     80     79
     55     56     81     80
     56     57     82     81
     57     58     83     82
     58     59     84     83
     59     60     85     84
     60     61     86     85
     61     62     87     86
     62     63     88     87
     63     64     89     88
     64     65     90     89
     65     66     91     90
     66     67     92     91
     67     68     93     92
     68     69     94     93
     69     70     95     94
     70     71     96     95
     71     72     97     96
     72     73     98     97
     73     74     99     98
     74     50     75     99
     74     73     72     71     70     69     68     67     66     65     64     63     62     61     60     59     58     57     56     55     54     53     52     51     50
     75     76     77     78     79     80     81     82     83     84     85     86     87     88     89     90     91     92     93     94     95     96     97     98     99
     75     76    101    100
     76     77    102    101
     77     78    103    102
     78     79    104    103
     79     80    105    104
     80     81    106    105
     81     82    107    106
     82     83    108    107
     83     84    109    108
     84     85    110    109
     85     86    111    110
     86     87    112    111
     87     88    113    112
     88     89    114    113
     89     90    115    114
     90     91    116    115
     91     92    117    116
     92     93    118    117
     93     94    119    118
     94     95    120    119
     95     96    121    120
     96     97    122    121
     97     98    123    122
     98     99    124    123
     99     75    100    124
     99     98     97     96     95     94     93     92     91     90     89     88     87     86     85     84     83     82     81     80     79     78     77     76     75
    100    101    102    103    104    105    106    107    108    109    110    111    112    113    114    115    116    117    118    119    120    121    122    123    124
    100    101    126    125
    101    102    127    126
    102    103    128    127
    103    104    129    128
    104    105    130    129
    105    106    131    130
    106    107    132    131
    107    108    133    132
    108    109    134    133
    109    110    135    134
    110    111    136    135
    111    112    137    136
    112    113    138    137
    113    114    139    138
    114    115    140    139
    115    116    141    140
    116    117    142    141
    117    118    143    142
    118    119    144    143
    119    120    145    144
    120    121    146    145
    121    122    147    146
    122    123    148    147
    123    124    149    148
    124    100    125    149
    124    123    122    121    120    119    118    117    116    115    114    113    112    111    110    109    108    107    106    105    104    103    102    101    100
    125    126    127    128    129    130    131    132    133    134    135    136    137    138    139    140    141    142    143    144    145    146    147    148    149
    125    126    151    150
    126    127    152    151
    127    128    153    152
    128    129    154    153
    129    130    155    154
    130    131    156    155
    131    132    157    156
    132    133    158    157
    133    134    159    158
    134    135    160    159
    135    136    161    160
    136    137    162    161
    137    138    163    162
    138    139    164    163
    139    140    165    164
    140    141    166    165
    141    142    167    166
    142    143    168    167
    143    144    169    168
    144    145    170    169
    145    146    171    170
    146    147    172    171
    147    148    173    172
    148    149    174    173
    149    125    150    174
    149    148    147    146    145    144    143    142    141    140    139    138    137    136    135    134    133    132    131    130    129    128    127    126    125
    150    151    152    153    154    155    156    157    158    159    160    161    162    163    164    165    166    167    168    169    170    171    172    173    174
    150    151    176    175
    151    152    177    176
    152    153    178    177
    153    154    179    178
    154    155    180    179
    155    156    181    180
    156    157    182    181
    157    158    183    182
    158    159    184    183
    159    160    185    184
    160    161    186    185
    161    162    187    186
    162    163    188    187
    163    164    189    188
    164    165    190    189
    165    166    191    190
    166    167    192    191
    167    168    193    192
    168    169    194    193
    169    170    195    194
    170    171    196    195
    171    172    197    196
    172    173    198    197
    173    174    199    198
    174    150    175    199
    174    173    172    171    170    169    168    167    166    165    164    163    162    161    160    159    158    157    156    155    154    153    152    151    150
    175    176    177    178    179    180    181    182    183    184    185    186    187    188    189    190    191    192    193    194    195    196    197    198    199
    175    176    201    200
    176    177    202    201
    177    178    203    202
    178    179    204    203
    179    180    205    204
    180    181    206    205
    181    182    207    206
    182    183    208    207
    183    184    209    208
    184    185    210    209
    185    186    211    210
    186    187    212    211
    187    188    213    212
    188    189    214    213
    189    190    215    214
    190    191    216    215
    191    192    217    216
    192    193    218    217
    193    194    219    218
    194    195    220    219
    195    196    221    220
    196    197    222    221
    197    198    223    222
    198    199    224    223
    199    175    200    224
    199    198    197    196    195    194    193    192    191    190    189    188    187    186    185    184    183    182    181    180    179    178    177    176    175
    200    201    202    203    204    205    206    207    208    209    210    211    212    213    214    215    216    217    218    219    220    221    222    223    224
    200    201    226    225
    201    202    227    226
    202    203    228    227
    203    204    229    228
    204    205    230    229
    205    206    231    230
    206    207    232    231
    207    208    233    232
    208    209    234    233
    209    210    235    234
    210    211    236    235
    211    212    237    236
    212    213    238    237
    213    214    239    238
    214    215    240    239
    215    216    241    240
    216    217    242    241
    217    218    243    242
    218    219    244    243
    219    220    245    244
    220    221    246    245
    221    222    247    246
    222    223    248    247
    223    224    249    248
    224    200    225    249
    224    223    222    221    220    219    218    217    216    215    214    213    212    211    210    209    208    207    206    205    204    203    202    201    200
    225    226    227    228    229    230    231    232    233    234    235    236    237    238    239    240    241    242    243    244    245    246    247    248    249
    225    226    251    250
    226    227    252    251
    227    228    253    252
    228    229    254    253
    229    230    255    254
    230    231    256    255
    231    232    257    256
    232    233    258    257
    233    234    259    258
    234    235    260    259
    235    236    261    260
    236    237    262    261
    237    238    263    262
    238    239    264    263
    239    240    265    264
    240    241    266    265
    241    242    267    266
    242    243    268    267
    243    244    269    268
    244    245    270    269
    245    246    271    270
    246    247    272    271
    247    248    273    272
    248    249    274    273
    249    225    250    274
    249    248    247    246    245    244    243    242    241    240    239    238    237    236    235    234    233    232    231    230    229    228    227    226    225
    250    251    252    253    254    255    256    257    258    259    260    261    262    263    264    265    266    267    268    269    270    271    272    273    274
    250    251    276    275
    251    252    277    276
    252    253    278    277
    253    254    279    278
    254    255    280    279
    255    256    281    280
    256    257    282    281
    257    258    283    282
    258    259    284    283
    259    260    285    284
    260    261    286    285
    261    262    287    286
    262    263    288    287
    263    264    289    288
    264    265    290    289
    265    266    291    290
    266    267    292    291
    267    268    293    292
    268    269    294    293
    269    270    295    294
    270    271    296    295
    271    272    297    296
    272    273    298    297
    273    274    299    298
    274    250    275    299
    274    273    272    271    270    269    268    267    266    265    264    263    262    261    260    259    258    257    256    255    254    253    252    251    250
    275    276    277    278    279    280    281    282    283    284    285    286    287    288    289    290    291    292    293    294    295    296    297    298    299
    275    276    301    300
    276    277    302    301
    277    278    303    302
    278    279    304    303
    279    280    305    304
    280    281    306    305
    281    282    307    306
    282    283    308    307
    283    284    309    308
    284    285    310    309
    285    286    311    310
    286    287    312    311
    287    288    313    312
    288    289    314    313
    289    290    315    314
    290    291    316    315
    291    292    317    316
    292    293    318    317
    293    294    319    318
    294    295    320    319
    295    296    321    320
    296    297    322    321
    297    298    323    322
    298    299    324    323
    299    275    300    324
    299    298    297    296    295    294    293    292    291    290    289    288    287    286    285    284    283    282    281    280    279    278    277    276    275
    300    301    302    303    304    305    306    307    308    309    310    311    312    313    314    315    316    317    318    319    320    321    322    323    324
    300    301    326    325
    301    302    327    326
    302    303    328    327
    303    304    329    328
    304    305    330    329
    305    306    331    330
    306    307    332    331
    307    308    333    332
    308    309    334    333
    309    310    335    334
    310    311    336    335
    311    312    337    336
    312    313    338    337
    313    314    339    338
    314    315    340    339
    315    316    341    340
    316    317    342    341
    317    318    343    342
    318    319    344    343
    319    320    345    344
    320    321    346    345
    321    322    347    346
    322    323    348    347
    323    324    349    348
    324    300    325    349
    324    323    322    321    320    319    318    317    316    315    314    313    312    311    310    309    308    307    306    305    304    303    302    301    300
    325    326    327    328    329    330    331    332    333    334    335    336    337    338    339    340    341    342    343    344    345    346    347    348    349
    325    326    351    350
    326    327    352    351
    327    328    353    352
    328    329    354    353
    329    330    355    354
    330    331    356    355
    331    332    357    356
    332    333    358    357
    333    334    359    358
    334    335    360    359
    335    336    361    360
    336    337    362    361
    337    338    363    362
    338    339    364    363
    339    340    365    364
    340    341    366    365
    341    342    367    366
    342    343    368    367
    343    344    369    368
    344    345    370    369
    345    346    371    370
    346    347    372    371
    347    348    373    372
    348    349    374    373
    349    325    350    374
    349    348    347    346    345    344    343    342    341    340    339    338    337    336    335    334    333    332    331    330    329    328    327    326    325
    350    351    352    353    354    355    356    357    358    359    360    361    362    363    364    365    366    367    368    369    370    371    372    373    374
    350    351    376    375
    351    352    377    376
    352    353    378    377
    353    354    379    378
    354    355    380    379
    355    356    381    380
    356    357    382    381
    357    358    383    382
    358    359    384    383
    359    360    385    384
    360    361    386    385
    361    362    387    386
    362    363    388    387
    363    364    389    388
    364    365    390    389
    365    366    391    390
    366    367    392    391
    367    368    393    392
    368    369    394    393
    369    370    395    394
    370    371    396    395
    371    372    397    396
    372    373    398    397
    373    374    399    398
    374    350    375    399
    374    373    372    371    370    369    368    367    366    365    364    363    362    361    360    359    358    357    356    355    354    353    352    351    350
    375    376    377    378    379    380    381    382    383    384    385    386    387    388    389    390    391    392    393    394    395    396    397    398    399
    375    376    401    400
    376    377    402    401
    377    378    403    402
    378    379    404    403
    379    380    405    404
    380    381    406    405
    381    382    407    406
    382    383    408    407
    383    384    409    408
    384    385    410    409
    385    386    411    410
    386    387    412    411
    387    388    413    412
    388    389    414    413
    389    390    415    414
    390    391    416    415
    391    392    417    416
    392    393    418    417
    393    394    419    418
    394    395    420    419
    395    396    421    420
    396    397    422    421
    397    398    423    422
    398    399    424    423
    399    375    400    424
    399    398    397    396    395    394    393    392    391    390    389    388    387    386    385    384    383    382    381    380    379    378    377    376    375
    400    401    402    403    404    405    406    407    408    409    410    411    412    413    414    415    416    417    418    419    420    421    422    423    424
    400    401    426    425
    401    402    427    426
    402    403    428    427
    403    404    429    428
    404    405    430    429
    405    406    431    430
    406    407    432    431
    407    408    433    432
    408    409    434    433
    409    410    435    434
    410    411    436    435
    411    412    437    436
    412    413    438    437
    413    414    439    438
    414    415    440    439
    415    416    441    440
    416    417    442    441
    417    418    443    442
    418    419    444    443
    419    420    445    444
    420    421    446    445
    421    422    447    446
    422    423    448    447
    423    424    449    448
    424    400    425    449
    424    423    422    421    420    419    418    417    416    415    414    413    412    411    410    409    408    407    406    405    404    403    402    401    400
    425    426    427    428    429    430    431    432    433    434    435    436    437    438    439    440    441    442    443    444    445    446    447    448    449
    425    426    451    450
    426    427    452    451
    427    428    453    452
    428    429    454    453
    429    430    455    454
    430    431    456    455
    431    432    457    456
    432    433    458    457
    433    434    459    458
    434    435    460    459
    435    436    461    460
    436    437    462    461
    437    438    463    462
    438    439    464    463
    439    440    465    464
    440    441    466    465
    441    442    467    466
    442    443    468    467
    443    444    469    468
    444    445    470    469
    445    446    471    470
    446    447    472    471
    447    448    473    472
    448    449    474    473
    449    425    450    474
    449    448    447    446    445    444    443    442    441    440    439    438    437    436    435    434    433    432    431    430    429    428    427    426    425
    450    451    452    453    454    455    456    457    458    459    460    461    462    463    464    465    466    467    468    469    470    471    472    473    474
    450    451    476    475
    451    452    477    476
    452    453    478    477
    453    454    479    478
    454    455    480    479
    455    456    481    480
    456    457    482    481
    457    458    483    482
    458    459    484    483
    459    460    485    484
    460    461    486    485
    461    462    487    486
    462    463    488    487
    463    464    489    488
    464    465    490    489
    465    466    491    490
    466    467    492    491
    467    468    493    492
    468    469    494    493
    469    470    495    494
    470    471    496    495
    471    472    497    496
    472    473    498    497
    473    474    499    498
    474    450    475    499
    474    473    472    471    470    469    468    467    466    465    464    463    462    461    460    459    458    457    456    455    454    453    452    451    450
    475    476    477    478    479    480    481    482    483    484    485    486    487    488    489    490    491    492    493    494    495    496    497    498    499
    475    476    501    500
    476    477    502    501
    477    478    503    502
    478    479    504    503
    479    480    505    504
    480    481    506    505
    481    482    507    506
    482    483    508    507
    483    484    509    508
    484    485    510    509
    485    486    511    510
    486    487    512    511
    487    488    513    512
    488    489    514    513
    489    490    515    514
    490    491    516    515
    491    492    517    516
    492    493    518    517
    493    494    519    518
    494    495    520    519
    495    496    521    520
    496    497    522    521
    497    498    523    522
    498    499    524    523
    499    475    500    524
    499    498    497    496    495    494    493    492    491    490    489    488    487    486    485    484    483    482    481    480    479    478    477    476    475
    500    501    502    503    504    505    506    507    508    509    510    511    512    513    514    515    516    517    518    519    520    521    522    523    524
    525    526      1      0
    526    527      2      1
    527    528      3      2
    528    529      4      3
    529    530      5      4
    530    531      6      5
    531    532      7      6
    532    533      8      7
    533    534      9      8
    534    535     10      9
    535    536     11     10
    536    537     12     11
    537    538     13     12
    538    539     14     13
    539    540     15     14
    540    541     16     15
    541    542     17     16
    542    543     18     17
    543    544     19     18
    544    545     20     19
    545    546     21     20
    546    547     22     21
    547    548     23     22
    548    549     24     23
    549    525      0     24
    549    548    547    546    545    544    543    542    541    540    539    538    537    536    535    534    533    532    531    530    529    528    527    526    525
      0      1      2      3      4      5      6      7      8      9     10     11     12     13     14     15     16     17     18     19     20     21     22     23     24
        </DataArray>
        <DataArray type="Int32" Name="offsets" format="ascii">
      4
      8
     12
     16
     20
     24
     28
     32
     36
     40
     44
     48
     52
     56
     60
     64
     68
     72
     76
     80
     84
     88
     92
     96
    100
    125
    150
    154
    158
    162
    166
    170
    174
    178
    182
    186
    190
    194
    198
    202
    206
    210
    214
    218
    222
    226
    230
    234
    238
    242
    246
    250
    275
    300
    304
    308
    312
    316
    320
    324
    328
    332
    336
    340
    344
    348
    352
    356
    360
    364
    368
    372
    376
    380
    384
    388
    392
    396
    400
    425
    450
    454
    458
    462
    466
    470
    474
    478
    482
    486
    490
    494
    498
    502
    506
    510
    514
    518
    522
    526
    530
    534
    538
    542
    546
    550
    575
    600
    604
    608
    612
    616
    620
    624
    628
    632
    636
    640
    644
    648
    652
    656
    660
    664
    668
    672
    676
    680
    684
    688
    692
    696
    700
    725
    750
    754
    758
    762
    766
    770
    774
    778
    782
    786
    790
    794
    798
    802
    806
    810
    814
    818
    822
    826
    830
    834
    838
    842
    846
    850
    875
    900
    904
    908
    912
    916
    920
    924
    928
    932
    936
    940
    944
    948
    952
    956
    960
    964
    968
    972
    976
    980
    984
    988
    992
    996
   1000
   1025
   1050
   1054
   1058
   1062
   1066
   1070
   1074
   1078
   1082
   1086
   1090
   1094
   1098
   1102
   1106
   1110
   1114
   1118
   1122
   1126
   1130
   1134
   1138
   1142
   1146
   1150
   1175
   1200
   1204
   1208
   1212
   1216
   1220
   1224
   1228
   1232
   1236
   1240
   1244
   1248
   1252
   1256
   1260
   1264
   1268
   1272
   1276
   1280
   1284
   1288
   1292
   1296
   1300
   1325
   1350
   1354
   1358
   1362
   1366
   1370
   1374
   1378
   1382
   1386
   1390
   1394
   1398
   1402
   1406
   1410
   1414
   1418
   1422
   1426
   1430
   1434
   1438
   1442
   1446
   1450
   1475
   1500
   1504
   1508
   1512
   1516
   1520
   1524
   1528
   1532
   1536
   1540
   1544
   1548
   1552
   1556
   1560
   1564
   1568
   1572
   1576
   1580
   1584
   1588
   1592
   1596
   1600
   1625
   1650
   1654
   1658
   1662
   1666
   1670
   1674
   1678
   1682
   1686
   1690
   1694
   1698
   1702
   1706
   1710
   1714
   1718
   1722
   1726
   1730
   1734
   1738
   1742
   1746
   1750
   1775
   1800
   1804
   1808
   1812
   1816
   1820
   1824
   1828
   1832
   1836
   1840
   1844
   1848
   1852
   1856
   1860
   1864
   1868
   1872
   1876
   1880
   1884
   1888
   1892
   1896
   1900
   1925
   1950
   1954
   1958
   1962
   1966
   1970
   1974
   1978
   1982
   1986
   1990
   1994
   1998
   2002
   2006
   2010
   2014
   2018
   2022
   2026
   2030
   2034
   2038
   2042
   2046
   2050
   2075
   2100
   2104
   2108
   2112
   2116
   2120
   2124
   2128
   2132
   2136
   2140
   2144
   2148
   2152
   2156
   2160
   2164
   2168
   2172
   2176
   2180
   2184
   2188
   2192
   2196
   2200
   2225
   2250
   2254
   2258
   2262
   2266
   2270
   2274
   2278
   2282
   2286
   2290
   2294
   2298
   2302
   2306
   2310
   2314
   2318
   2322
   2326
   2330
   2334
   2338
   2342
   2346
   2350
   2375
   2400
   2404
   2408
   2412
   2416
   2420
   2424
   2428
   2432
   2436
   2440
   2444
   2448
   2452
   2456
   2460
   2464
   2468
   2472
   2476
   2480
   2484
   2488
   2492
   2496
   2500
   2525
   2550
   2554
   2558
   2562
   2566
   2570
   2574
   2578
   2582
   2586
   2590
   2594
   2598
   2602
   2606
   2610
   2614
   2618
   2622
   2626
   2630
   2634
   2638
   2642
   2646
   2650
   2675
   2700
   2704
   2708
   2712
   2716
   2720
   2724
   2728
   2732
   2736
   2740
   2744
   2748
   2752
   2756
   2760
   2764
   2768
   2772
   2776
   2780
   2784
   2788
   2792
   2796
   2800
   2825
   2850
   2854
   2858
   2862
   2866
   2870
   2874
   2878
   2882
   2886
   2890
   2894
   2898
   2902
   2906
   2910
   2914
   2918
   2922
   2926
   2930
   2934
   2938
   2942
   2946
   2950
   2975
   3000
   3004
   3008
   3012
   3016
   3020
   3024
   3028
   3032
   3036
   3040
   3044
   3048
   3052
   3056
   3060
   3064
   3068
   3072
   3076
   3080
   3084
   3088
   3092
   3096
   3100
   3125
   3150
        </DataArray>
      </Polys>
    </Piece>
  </PolyData>
</VTKFile>
