<?xml version="1.0"?>
<VTKFile type="PolyData" version="0.1" byte_order="LittleEndian">
  <PolyData>
    <Piece NumberOfPoints="     22" NumberOfVerts="  0" NumberOfLines="     21"
           NumberOfStrips="  0" NumberOfPolys="      0">
      <Points>
        <DataArray type="Float32" NumberOfComponents="3" format="ascii">
                       0.00009                      -0.00003                       2.19000
                       0.00093                      -0.00022                       6.57000
                       0.00280                      -0.00059                      10.95000
                       0.00576                      -0.00114                      15.33000
                       0.00986                      -0.00187                      19.71000
                       0.01505                      -0.00280                      24.08999
                       0.02130                      -0.00396                      28.46999
                       0.02858                      -0.00538                      32.84998
                       0.03686                      -0.00710                      37.22997
                       0.04615                      -0.00916                      41.60996
                       0.05648                      -0.01160                      45.98995
                       0.06789                      -0.01446                      50.36993
                       0.08043                      -0.01777                      54.74992
                       0.09417                      -0.02156                      59.12989
                       0.10911                      -0.02584                      63.50986
                       0.12524                      -0.03062                      67.88983
                       0.14242                      -0.03587                      72.26980
                       0.16040                      -0.04157                      76.64976
                       0.17877                      -0.04765                      81.02971
                       0.19687                      -0.05403                      85.40967
                       0.20555                      -0.05730                      87.59965
                       0.00000                       0.00000                       0.00000
        </DataArray>
      </Points>
      <PointData>
        <DataArray type="Float32" Name="TranslationalVelocity" NumberOfComponents="3" format="ascii">
                      -0.00000                       0.00003                       0.00000
                      -0.00002                       0.00030                       0.00000
                      -0.00006                       0.00078                       0.00000
                      -0.00012                       0.00147                       0.00000
                      -0.00019                       0.00234                       0.00000
                      -0.00026                       0.00340                       0.00000
                      -0.00034                       0.00463                       0.00000
                      -0.00040                       0.00605                       0.00000
                      -0.00045                       0.00765                       0.00000
                      -0.00048                       0.00945                       0.00000
                      -0.00047                       0.01144                       0.00000
                      -0.00042                       0.01364                       0.00001
                      -0.00032                       0.01603                       0.00001
                      -0.00017                       0.01860                       0.00001
                       0.00004                       0.02136                       0.00001
                       0.00031                       0.02428                       0.00001
                       0.00064                       0.02735                       0.00002
                       0.00102                       0.03054                       0.00002
                       0.00145                       0.03384                       0.00002
                       0.00191                       0.03721                       0.00002
                       0.00214                       0.03893                       0.00003
                       0.00000                      -0.00000                       0.00000
        </DataArray>
        <DataArray type="Float32" Name="RotationalVelocity" NumberOfComponents="3" format="ascii">
                      -0.00003                      -0.00000                       0.00000
                      -0.00009                      -0.00001                       0.00000
                      -0.00013                      -0.00001                       0.00000
                      -0.00018                      -0.00001                       0.00000
                      -0.00022                      -0.00002                       0.00000
                      -0.00026                      -0.00002                       0.00000
                      -0.00030                      -0.00002                       0.00000
                      -0.00034                      -0.00001                       0.00000
                      -0.00039                      -0.00001                       0.00000
                      -0.00043                      -0.00000                       0.00000
                      -0.00048                       0.00001                       0.00000
                      -0.00052                       0.00002                       0.00000
                      -0.00057                       0.00003                       0.00000
                      -0.00061                       0.00004                       0.00000
                      -0.00065                       0.00005                       0.00000
                      -0.00068                       0.00007                       0.00000
                      -0.00072                       0.00008                       0.00000
                      -0.00074                       0.00009                       0.00000
                      -0.00076                       0.00010                       0.00000
                      -0.00078                       0.00011                       0.00000
                      -0.00078                       0.00011                       0.00000
                       0.00000                      -0.00000                       0.00000
        </DataArray>
        <DataArray type="Float32" Name="TranslationalAcceleration" NumberOfComponents="3" format="ascii">
                      -0.00006                       0.00001                       0.00000
                      -0.00056                       0.00008                       0.00000
                      -0.00157                       0.00021                       0.00000
                      -0.00303                       0.00037                       0.00000
                      -0.00486                       0.00054                       0.00000
                      -0.00697                       0.00070                       0.00001
                      -0.00921                       0.00082                       0.00001
                      -0.01144                       0.00088                       0.00001
                      -0.01348                       0.00083                       0.00001
                      -0.01520                       0.00065                       0.00002
                      -0.01641                       0.00031                       0.00002
                      -0.01699                      -0.00025                       0.00002
                      -0.01680                      -0.00104                       0.00002
                      -0.01573                      -0.00210                       0.00001
                      -0.01371                      -0.00345                       0.00000
                      -0.01071                      -0.00511                      -0.00001
                      -0.00673                      -0.00709                      -0.00003
                      -0.00185                      -0.00936                      -0.00006
                       0.00384                      -0.01190                      -0.00009
                       0.01014                      -0.01465                      -0.00012
                       0.01345                      -0.01607                      -0.00014
                       0.00000                      -0.00000                       0.00000
        </DataArray>
        <DataArray type="Float32" Name="RotationalAcceleration" NumberOfComponents="3" format="ascii">
                      -0.00001                      -0.00006                       0.00000
                      -0.00002                      -0.00017                       0.00000
                      -0.00003                      -0.00028                       0.00000
                      -0.00004                      -0.00038                       0.00000
                      -0.00004                      -0.00045                       0.00000
                      -0.00003                      -0.00050                       0.00000
                      -0.00002                      -0.00052                       0.00000
                      -0.00000                      -0.00049                       0.00000
                       0.00002                      -0.00044                       0.00000
                       0.00006                      -0.00034                       0.00000
                       0.00010                      -0.00021                       0.00000
                       0.00015                      -0.00005                       0.00000
                       0.00021                       0.00014                       0.00000
                       0.00027                       0.00035                       0.00000
                       0.00034                       0.00057                       0.00000
                       0.00042                       0.00080                       0.00000
                       0.00049                       0.00102                       0.00000
                       0.00055                       0.00121                       0.00000
                       0.00061                       0.00138                       0.00000
                       0.00064                       0.00149                       0.00000
                       0.00066                       0.00152                       0.00000
                       0.00000                      -0.00000                       0.00000
        </DataArray>
        <DataArray type="Float32" Name="OrientationX" NumberOfComponents="3" format="ascii">
                       1.00000                       0.00000                      -0.00009
                       1.00000                       0.00000                      -0.00030
                       1.00000                       0.00000                      -0.00055
                       1.00000                       0.00000                      -0.00081
                       1.00000                       0.00000                      -0.00106
                       1.00000                       0.00000                      -0.00131
                       1.00000                       0.00000                      -0.00155
                       1.00000                       0.00000                      -0.00178
                       1.00000                       0.00000                      -0.00201
                       1.00000                       0.00000                      -0.00224
                       1.00000                       0.00000                      -0.00248
                       1.00000                       0.00000                      -0.00273
                       1.00000                       0.00000                      -0.00300
                       0.99999                       0.00000                      -0.00327
                       0.99999                       0.00000                      -0.00355
                       0.99999                       0.00000                      -0.00381
                       0.99999                       0.00000                      -0.00403
                       0.99999                       0.00000                      -0.00417
                       0.99999                       0.00000                      -0.00419
                       0.99999                       0.00000                      -0.00404
                       0.99999                       0.00000                      -0.00387
                       1.00000                      -0.00000                       0.00000
        </DataArray>
        <DataArray type="Float32" Name="OrientationY" NumberOfComponents="3" format="ascii">
                       0.00000                       1.00000                       0.00002
                       0.00000                       1.00000                       0.00007
                       0.00000                       1.00000                       0.00011
                       0.00000                       1.00000                       0.00015
                       0.00000                       1.00000                       0.00019
                       0.00000                       1.00000                       0.00024
                       0.00000                       1.00000                       0.00029
                       0.00000                       1.00000                       0.00036
                       0.00000                       1.00000                       0.00043
                       0.00000                       1.00000                       0.00051
                       0.00000                       1.00000                       0.00060
                       0.00000                       1.00000                       0.00070
                       0.00000                       1.00000                       0.00081
                       0.00000                       1.00000                       0.00092
                       0.00000                       1.00000                       0.00103
                       0.00000                       1.00000                       0.00115
                       0.00000                       1.00000                       0.00125
                       0.00000                       1.00000                       0.00135
                       0.00000                       1.00000                       0.00143
                       0.00000                       1.00000                       0.00148
                       0.00000                       1.00000                       0.00150
                      -0.00000                       1.00000                      -0.00000
        </DataArray>
        <DataArray type="Float32" Name="OrientationZ" NumberOfComponents="3" format="ascii">
                       0.00009                      -0.00002                       1.00000
                       0.00030                      -0.00007                       1.00000
                       0.00055                      -0.00011                       1.00000
                       0.00081                      -0.00015                       1.00000
                       0.00106                      -0.00019                       1.00000
                       0.00131                      -0.00024                       1.00000
                       0.00155                      -0.00029                       1.00000
                       0.00178                      -0.00036                       1.00000
                       0.00201                      -0.00043                       1.00000
                       0.00224                      -0.00051                       1.00000
                       0.00248                      -0.00060                       1.00000
                       0.00273                      -0.00070                       1.00000
                       0.00300                      -0.00081                       1.00000
                       0.00327                      -0.00092                       0.99999
                       0.00355                      -0.00103                       0.99999
                       0.00381                      -0.00115                       0.99999
                       0.00403                      -0.00125                       0.99999
                       0.00417                      -0.00135                       0.99999
                       0.00419                      -0.00143                       0.99999
                       0.00404                      -0.00148                       0.99999
                       0.00387                      -0.00150                       0.99999
                       0.00000                      -0.00000                       1.00000
        </DataArray>
      </PointData>
      <Lines>
        <DataArray type="Int32" Name="connectivity" format="ascii">
      0      1
      1      2
      2      3
      3      4
      4      5
      5      6
      6      7
      7      8
      8      9
      9     10
     10     11
     11     12
     12     13
     13     14
     14     15
     15     16
     16     17
     17     18
     18     19
     19     20
     21      0
        </DataArray>
        <DataArray type="Int32" Name="offsets" format="ascii">
      2
      4
      6
      8
     10
     12
     14
     16
     18
     20
     22
     24
     26
     28
     30
     32
     34
     36
     38
     40
     42
        </DataArray>
      </Lines>
    </Piece>
  </PolyData>
</VTKFile>
