<?xml version="1.0"?>
<VTKFile type="PolyData" version="0.1" byte_order="LittleEndian">
  <PolyData>
    <Piece NumberOfPoints="     19" NumberOfVerts="  0" NumberOfLines="     18"
           NumberOfStrips="  0" NumberOfPolys="      0">
      <Points>
        <DataArray type="Float32" NumberOfComponents="3" format="ascii">
                      -4.87346                      -1.56208                      89.78401
                      -4.95443                      -2.90905                      89.56675
                      -5.17001                      -5.58696                      89.05176
                      -5.40921                      -8.25709                      88.49673
                      -5.71906                     -11.58979                      87.77594
                      -5.98147                     -15.61193                      87.01518
                      -6.16335                     -19.65503                      86.35565
                      -6.33352                     -23.69771                      85.68960
                      -6.48805                     -27.74026                      85.01782
                      -6.62785                     -31.78236                      84.33919
                      -6.75557                     -35.82344                      83.65149
                      -6.87075                     -39.86381                      82.95673
                      -6.97550                     -43.90355                      82.25630
                      -7.07282                     -47.94278                      81.55176
                      -7.16439                     -51.98148                      80.84387
                      -7.23926                     -55.34674                      80.25254
                      -7.29750                     -58.04009                      79.78654
                      -7.33795                     -60.74296                      79.37098
                      -7.37675                     -62.08701                      79.12609
        </DataArray>
      </Points>
      <PointData>
        <DataArray type="Float32" Name="TranslationalVelocity" NumberOfComponents="3" format="ascii">
                      -0.17385                       0.28056                      -1.86580
                      -0.32904                       0.56388                      -3.56457
                      -0.63834                       1.23809                      -6.94129
                      -0.94785                       1.96540                     -10.30729
                      -1.33623                       2.90970                     -14.50697
                      -1.80901                       3.89856                     -19.57264
                      -2.29040                       4.75016                     -24.66095
                      -2.78018                       5.60818                     -29.74409
                      -3.28062                       6.47100                     -34.82160
                      -3.79393                       7.33997                     -39.89231
                      -4.32208                       8.21806                     -44.95486
                      -4.86673                       9.10255                     -50.00909
                      -5.42895                       9.99187                     -55.05480
                      -6.00909                      10.88438                     -60.09206
                      -6.60654                      11.77934                     -65.12110
                      -7.11674                      12.52598                     -69.30609
                      -7.53152                      13.11382                     -72.65252
                      -7.95200                      13.63589                     -76.00865
                      -8.16279                      13.94573                     -77.67666
        </DataArray>
        <DataArray type="Float32" Name="RotationalVelocity" NumberOfComponents="3" format="ascii">
                       1.26124                       0.00012                      -0.11520
                       1.26115                       0.00009                      -0.11530
                       1.26089                       0.00008                      -0.11560
                       1.26053                       0.00013                      -0.11604
                       1.25995                       0.00024                      -0.11683
                       1.25910                       0.00043                      -0.11813
                       1.25808                       0.00069                      -0.11988
                       1.25689                       0.00103                      -0.12210
                       1.25552                       0.00147                      -0.12484
                       1.25396                       0.00205                      -0.12808
                       1.25224                       0.00278                      -0.13179
                       1.25038                       0.00368                      -0.13588
                       1.24843                       0.00474                      -0.14018
                       1.24649                       0.00592                      -0.14446
                       1.24468                       0.00716                      -0.14842
                       1.24340                       0.00815                      -0.15119
                       1.24261                       0.00886                      -0.15284
                       1.24214                       0.00943                      -0.15378
                       1.24204                       0.00964                      -0.15393
        </DataArray>
        <DataArray type="Float32" Name="TranslationalAcceleration" NumberOfComponents="3" format="ascii">
                       0.05645                       2.42433                       0.39935
                       0.04945                       2.88270                       0.48274
                       0.14907                       8.21420                       1.51880
                       0.24349                      13.09015                       2.54982
                       0.35727                      18.75760                       3.81309
                       0.47198                      25.21619                       5.08172
                       0.56770                      31.52588                       6.14603
                       0.66225                      37.80520                       7.21356
                       0.75551                      44.13416                       8.29651
                       0.84579                      50.53646                       9.40253
                       0.92967                      56.99558                      10.53571
                       1.00155                      63.47271                      11.68988
                       1.05482                      69.92116                      12.85986
                       1.08223                      76.30293                      14.04224
                       1.07685                      82.60453                      15.23894
                       1.04250                      87.81231                      16.25241
                       0.99326                      91.98150                      17.06740
                       0.91842                      96.20913                      17.82194
                       0.88043                      98.34289                      18.27168
        </DataArray>
        <DataArray type="Float32" Name="OrientationX" NumberOfComponents="3" format="ascii">
                       0.82263                       0.04172                      -0.56705
                       0.82265                       0.04204                      -0.56700
                       0.82268                       0.04306                      -0.56687
                       0.82271                       0.04450                      -0.56672
                       0.82274                       0.04679                      -0.56649
                       0.84035                       0.04490                      -0.54018
                       0.85241                       0.04490                      -0.52094
                       0.86240                       0.04568                      -0.50416
                       0.87239                       0.04647                      -0.48660
                       0.88203                       0.04722                      -0.46882
                       0.89047                       0.04811                      -0.45248
                       0.89823                       0.04882                      -0.43681
                       0.90460                       0.04945                      -0.42338
                       0.90868                       0.05022                      -0.41446
                       0.91243                       0.05010                      -0.40615
                       0.91549                       0.04906                      -0.39934
                       0.91770                       0.04753                      -0.39443
                       0.91842                       0.04582                      -0.39294
                       0.91794                       0.04498                      -0.39416
        </DataArray>
        <DataArray type="Float32" Name="OrientationY" NumberOfComponents="3" format="ascii">
                       0.56562                      -0.16167                       0.80866
                       0.56562                      -0.16179                       0.80864
                       0.56564                      -0.16208                       0.80857
                       0.56569                      -0.16238                       0.80847
                       0.56582                      -0.16274                       0.80831
                       0.53956                      -0.16461                       0.82570
                       0.52058                      -0.16600                       0.83752
                       0.50417                      -0.16720                       0.84727
                       0.48699                      -0.16838                       0.85702
                       0.46961                      -0.16952                       0.86645
                       0.45368                      -0.17057                       0.87469
                       0.43837                      -0.17158                       0.88226
                       0.42526                      -0.17249                       0.88848
                       0.41662                      -0.17317                       0.89243
                       0.40842                      -0.17385                       0.89608
                       0.40153                      -0.17441                       0.89909
                       0.39642                      -0.17482                       0.90127
                       0.39465                      -0.17502                       0.90201
                       0.39569                      -0.17501                       0.90155
        </DataArray>
        <DataArray type="Float32" Name="OrientationZ" NumberOfComponents="3" format="ascii">
                      -0.05794                      -0.98596                      -0.15659
                      -0.05774                      -0.98593                      -0.15688
                      -0.05706                      -0.98584                      -0.15769
                      -0.05605                      -0.98572                      -0.15877
                      -0.05437                      -0.98556                      -0.16037
                      -0.05185                      -0.98534                      -0.16255
                      -0.04888                      -0.98510                      -0.16488
                      -0.04559                      -0.98486                      -0.16723
                      -0.04211                      -0.98463                      -0.16952
                      -0.03856                      -0.98439                      -0.17170
                      -0.03510                      -0.98417                      -0.17372
                      -0.03188                      -0.98396                      -0.17552
                      -0.02909                      -0.98377                      -0.17706
                      -0.02696                      -0.98361                      -0.17828
                      -0.02572                      -0.98350                      -0.17909
                      -0.02554                      -0.98345                      -0.17937
                      -0.02611                      -0.98345                      -0.17927
                      -0.02745                      -0.98350                      -0.17882
                      -0.02843                      -0.98354                      -0.17845
        </DataArray>
        <DataArray type="Float32" Name="Force" NumberOfComponents="3" format="ascii">
                       1.32704                      -2.38376                      14.51857
                     452.19637                     -38.46424                      75.52263
                     528.01904                     -58.29953                     174.89135
                     441.61857                     -59.23032                     215.14468
                    2210.38779                     197.54674                   -2002.31822
                    2580.33089                     248.17984                   -2399.54497
                    2599.77962                     199.19635                   -2042.67693
                    2725.93977                     176.56795                   -1875.67491
                    2459.26736                     137.54454                   -1496.00708
                    2230.68736                     111.44103                   -1218.88035
                    2387.27029                     109.02335                   -1183.74780
                    2199.62179                      93.46090                    -998.89097
                    1869.88391                      75.52796                    -789.43728
                    1455.58874                      53.85202                    -562.87878
                    1025.42889                      32.44436                    -353.94219
                     708.77221                      17.41056                    -212.74248
                     477.45975                       7.46872                    -118.79426
                     109.56416                      -3.67347                       5.07996
                   -5621.35086                     -55.81489                    1285.24025
        </DataArray>
        <DataArray type="Float32" Name="Moment" NumberOfComponents="3" format="ascii">
                       0.00000                       0.00000                       0.00000
                       0.00000                       0.00000                       0.00000
                       0.00000                       0.00000                       0.00000
                       0.00000                       0.00000                       0.00000
                      43.74094                     797.89496                     127.00578
                      61.39105                    1178.88302                     187.94573
                      73.89451                    1511.96641                     241.49077
                      86.79122                    1913.85426                     306.29666
                     101.24844                    2431.91555                     390.03405
                      96.30651                    2543.43010                     408.79498
                      89.79321                    2625.91987                     422.93404
                      82.26238                    2671.48548                     431.10365
                      54.70393                    1964.18399                     317.49300
                      48.56431                    1897.77673                     307.15098
                      43.26206                    1782.81330                     288.76014
                      39.98454                    1662.05395                     269.23263
                      35.89882                    1456.49911                     235.85668
                      18.71844                     719.22845                     116.37690
                      -5.42170                    -200.47206                     -32.41931
        </DataArray>
      </PointData>
      <Lines>
        <DataArray type="Int32" Name="connectivity" format="ascii">
      0      1
      1      2
      2      3
      3      4
      4      5
      5      6
      6      7
      7      8
      8      9
      9     10
     10     11
     11     12
     12     13
     13     14
     14     15
     15     16
     16     17
     17     18
        </DataArray>
        <DataArray type="Int32" Name="offsets" format="ascii">
      2
      4
      6
      8
     10
     12
     14
     16
     18
     20
     22
     24
     26
     28
     30
     32
     34
     36
        </DataArray>
      </Lines>
    </Piece>
  </PolyData>
</VTKFile>
