<?xml version="1.0"?>
<VTKFile type="PolyData" version="0.1" byte_order="LittleEndian">
  <PolyData>
    <Piece NumberOfPoints="    625" NumberOfVerts="  0" NumberOfLines="      0"
           NumberOfStrips="  0" NumberOfPolys="    600">
      <Points>
        <DataArray type="Float32" NumberOfComponents="3" format="ascii">
                      -4.70468                       1.12033                      90.93233
                      -4.70468                       1.12033                      90.93233
                      -4.70468                       1.12033                      90.93233
                      -4.70468                       1.12033                      90.93233
                      -4.70468                       1.12033                      90.93233
                      -4.70468                       1.12033                      90.93233
                      -4.70468                       1.12033                      90.93233
                      -4.70468                       1.12033                      90.93233
                      -4.70468                       1.12033                      90.93233
                      -4.70468                       1.12033                      90.93233
                      -4.70468                       1.12033                      90.93233
                      -4.70468                       1.12033                      90.93233
                      -4.70468                       1.12033                      90.93233
                      -4.70468                       1.12033                      90.93233
                      -4.70468                       1.12033                      90.93233
                      -4.70468                       1.12033                      90.93233
                      -4.70468                       1.12033                      90.93233
                      -4.70468                       1.12033                      90.93233
                      -4.70468                       1.12033                      90.93233
                      -4.70468                       1.12033                      90.93233
                      -4.70468                       1.12033                      90.93233
                      -4.70468                       1.12033                      90.93233
                      -4.70468                       1.12033                      90.93233
                      -4.70468                       1.12033                      90.93233
                      -4.70468                       1.12033                      90.93233
                      -4.11463                       1.02152                      90.80167
                      -4.12264                       0.93034                      90.92085
                      -4.16767                       0.84488                      91.03596
                      -4.24687                       0.77052                      91.13978
                      -4.35527                       0.71192                      91.22577
                      -4.48606                       0.67277                      91.28855
                      -4.63103                       0.65553                      91.32416
                      -4.78106                       0.66128                      91.33037
                      -4.92673                       0.68966                      91.30678
                      -5.05888                       0.73888                      91.25489
                      -5.16921                       0.80586                      91.17794
                      -5.25079                       0.88639                      91.08077
                      -5.29850                       0.97540                      90.96949
                      -5.30932                       1.06730                      90.85110
                      -5.28260                       1.15632                      90.73303
                      -5.21999                       1.23687                      90.62269
                      -5.12544                       1.30388                      90.52703
                      -5.00489                       1.35314                      90.45205
                      -4.86592                       1.38156                      90.40246
                      -4.71725                       1.38735                      90.38139
                      -4.56822                       1.37015                      90.39015
                      -4.42821                       1.33104                      90.42819
                      -4.30600                       1.27248                      90.49312
                      -4.20928                       1.19814                      90.58087
                      -4.14413                       1.11270                      90.68592
                      -3.89284                       0.92266                      90.70465
                      -3.90393                       0.79654                      90.86948
                      -3.96620                       0.67834                      91.02869
                      -4.07574                       0.57549                      91.17229
                      -4.22568                       0.49444                      91.29124
                      -4.40658                       0.44029                      91.37807
                      -4.60709                       0.41644                      91.42732
                      -4.81460                       0.42439                      91.43591
                      -5.01608                       0.46365                      91.40328
                      -5.19886                       0.53173                      91.33150
                      -5.35147                       0.62437                      91.22507
                      -5.46431                       0.73575                      91.09068
                      -5.53028                       0.85886                      90.93677
                      -5.54526                       0.98598                      90.77301
                      -5.50829                       1.10911                      90.60970
                      -5.42170                       1.22051                      90.45709
                      -5.29093                       1.31319                      90.32478
                      -5.12419                       1.38133                      90.22107
                      -4.93197                       1.42064                      90.15249
                      -4.72634                       1.42865                      90.12334
                      -4.52022                       1.40486                      90.13545
                      -4.32656                       1.35077                      90.18807
                      -4.15754                       1.26976                      90.27789
                      -4.02376                       1.16694                      90.39925
                      -3.93364                       1.04877                      90.54455
                      -3.73746                       0.82378                      90.61369
                      -3.75072                       0.67288                      90.81092
                      -3.82523                       0.53144                      91.00144
                      -3.95631                       0.40837                      91.17326
                      -4.13572                       0.31138                      91.31559
                      -4.35219                       0.24659                      91.41949
                      -4.59212                       0.21805                      91.47843
                      -4.84042                       0.22757                      91.48870
                      -5.08151                       0.27454                      91.44967
                      -5.30022                       0.35601                      91.36377
                      -5.48283                       0.46686                      91.23642
                      -5.61785                       0.60013                      91.07561
                      -5.69680                       0.74745                      90.89144
                      -5.71472                       0.89955                      90.69549
                      -5.67048                       1.04689                      90.50008
                      -5.56687                       1.18019                      90.31747
                      -5.41039                       1.29109                      90.15914
                      -5.21088                       1.37263                      90.03505
                      -4.98087                       1.41966                      89.95298
                      -4.73481                       1.42925                      89.91810
                      -4.48817                       1.40078                      89.93260
                      -4.25644                       1.33605                      89.99556
                      -4.05419                       1.23913                      90.10303
                      -3.89411                       1.11609                      90.24826
                      -3.78628                       0.97468                      90.42212
                      -3.61904                       0.72491                      90.52610
                      -3.63399                       0.55485                      90.74836
                      -3.71796                       0.39547                      90.96305
                      -3.86566                       0.25678                      91.15667
                      -4.06784                       0.14750                      91.31706
                      -4.31177                       0.07448                      91.43414
                      -4.58213                       0.04232                      91.50056
                      -4.86194                       0.05305                      91.51213
                      -5.13362                       0.10597                      91.46814
                      -5.38008                       0.19778                      91.37135
                      -5.58585                       0.32270                      91.22784
                      -5.73800                       0.47288                      91.04663
                      -5.82697                       0.63889                      90.83910
                      -5.84716                       0.81029                      90.61829
                      -5.79731                       0.97631                      90.39808
                      -5.68055                       1.12653                      90.19230
                      -5.50422                       1.25151                      90.01389
                      -5.27940                       1.34338                      89.87405
                      -5.02020                       1.39638                      89.78157
                      -4.74293                       1.40719                      89.74227
                      -4.46500                       1.37511                      89.75860
                      -4.20387                       1.30217                      89.82955
                      -3.97595                       1.19294                      89.95066
                      -3.79557                       1.05430                      90.11431
                      -3.67406                       0.89495                      90.31023
                      -3.52608                       0.62602                      90.44084
                      -3.54237                       0.44071                      90.68305
                      -3.63387                       0.26703                      90.91700
                      -3.79483                       0.11590                      91.12799
                      -4.01515                      -0.00319                      91.30277
                      -4.28096                      -0.08276                      91.43036
                      -4.57559                      -0.11780                      91.50273
                      -4.88050                      -0.10612                      91.51535
                      -5.17655                      -0.04844                      91.46741
                      -5.44513                       0.05160                      91.36194
                      -5.66936                       0.18773                      91.20555
                      -5.83516                       0.35138                      91.00807
                      -5.93211                       0.53228                      90.78192
                      -5.95412                       0.71906                      90.54130
                      -5.89979                       0.89999                      90.30133
                      -5.77256                       1.06369                      90.07709
                      -5.58041                       1.19987                      89.88267
                      -5.33541                       1.29999                      89.73029
                      -5.05296                       1.35775                      89.62951
                      -4.75081                       1.36952                      89.58668
                      -4.44794                       1.33457                      89.60448
                      -4.16338                       1.25508                      89.68180
                      -3.91502                       1.13606                      89.81377
                      -3.71845                       0.98497                      89.99211
                      -3.58603                       0.81133                      90.20560
                      -3.45267                       0.52714                      90.35737
                      -3.47003                       0.32955                      90.61562
                      -3.56759                       0.14437                      90.86506
                      -3.73922                      -0.01677                      91.09003
                      -3.97412                      -0.14375                      91.27638
                      -4.25754                      -0.22859                      91.41242
                      -4.57168                      -0.26595                      91.48959
                      -4.89679                      -0.25349                      91.50304
                      -5.21244                      -0.19200                      91.45193
                      -5.49881                      -0.08533                      91.33946
                      -5.73789                       0.05982                      91.17272
                      -5.91467                       0.23431                      90.96217
                      -6.01804                       0.42719                      90.72104
                      -6.04151                       0.62634                      90.46448
                      -5.98359                       0.81925                      90.20862
                      -5.84793                       0.99379                      89.96953
                      -5.64305                       1.13899                      89.76223
                      -5.38182                       1.24574                      89.59976
                      -5.08067                       1.30733                      89.49231
                      -4.75851                       1.31988                      89.44664
                      -4.43558                       1.28261                      89.46562
                      -4.13218                       1.19786                      89.54805
                      -3.86736                       1.07095                      89.68877
                      -3.65778                       0.90986                      89.87892
                      -3.51659                       0.72471                      90.10655
                      -3.39533                       0.42825                      90.27537
                      -3.41355                       0.22085                      90.54644
                      -3.51596                       0.02646                      90.80828
                      -3.69611                      -0.14269                      91.04443
                      -3.94269                      -0.27598                      91.24004
                      -4.24020                      -0.36503                      91.38284
                      -4.56994                      -0.40425                      91.46384
                      -4.91120                      -0.39117                      91.47796
                      -5.24254                      -0.32662                      91.42431
                      -5.54314                      -0.21465                      91.30626
                      -5.79411                      -0.06229                      91.13123
                      -5.97967                       0.12087                      90.91021
                      -6.08818                       0.32334                      90.65710
                      -6.11280                       0.53238                      90.38780
                      -6.05201                       0.73487                      90.11922
                      -5.90960                       0.91809                      89.86825
                      -5.69455                       1.07051                      89.65066
                      -5.42034                       1.18256                      89.48011
                      -5.10422                       1.24721                      89.36732
                      -4.76605                       1.26038                      89.31938
                      -4.42708                       1.22126                      89.33930
                      -4.10860                       1.13230                      89.42583
                      -3.83063                       0.99908                      89.57354
                      -3.61063                       0.82999                      89.77314
                      -3.46242                       0.63564                      90.01208
                      -3.35185                       0.32936                      90.19463
                      -3.37076                       0.11426                      90.47577
                      -3.47696                      -0.08734                      90.74733
                      -3.66380                      -0.26277                      90.99224
                      -3.91953                      -0.40101                      91.19512
                      -4.22809                      -0.49337                      91.34322
                      -4.57007                      -0.53404                      91.42723
                      -4.92401                      -0.52048                      91.44187
                      -5.26765                      -0.45353                      91.38623
                      -5.57940                      -0.33740                      91.26380
                      -5.83969                      -0.17939                      91.08227
                      -6.03214                       0.01057                      90.85305
                      -6.14468                       0.22055                      90.59054
                      -6.17022                       0.43736                      90.31124
                      -6.10716                       0.64737                      90.03269
                      -5.95947                       0.83738                      89.77240
                      -5.73643                       0.99546                      89.54673
                      -5.45205                       1.11168                      89.36984
                      -5.12419                       1.17872                      89.25287
                      -4.77347                       1.19239                      89.20315
                      -4.42191                       1.15181                      89.22381
                      -4.09160                       1.05955                      89.31356
                      -3.80331                       0.92139                      89.46674
                      -3.57514                       0.74602                      89.67375
                      -3.42144                       0.54445                      89.92157
                      -3.32079                       0.23047                      90.11502
                      -3.34021                       0.00956                      90.40375
                      -3.44928                      -0.19748                      90.68264
                      -3.64116                      -0.37764                      90.93416
                      -3.90379                      -0.51961                      91.14251
                      -4.22067                      -0.61446                      91.29460
                      -4.57188                      -0.65623                      91.38088
                      -4.93537                      -0.64230                      91.39592
                      -5.28828                      -0.57355                      91.33877
                      -5.60845                      -0.45429                      91.21304
                      -5.87575                      -0.29201                      91.02661
                      -6.07340                      -0.09692                      90.79121
                      -6.18897                       0.11873                      90.52162
                      -6.21520                       0.34138                      90.23478
                      -6.15044                       0.55706                      89.94872
                      -5.99877                       0.75220                      89.68141
                      -5.76971                       0.91454                      89.44964
                      -5.47765                       1.03389                      89.26799
                      -5.14095                       1.10275                      89.14785
                      -4.78076                       1.11678                      89.09679
                      -4.41972                       1.07511                      89.11801
                      -4.08050                       0.98035                      89.21018
                      -3.78443                       0.83847                      89.36750
                      -3.55011                       0.65837                      89.58009
                      -3.39226                       0.45137                      89.83460
                      -3.30119                       0.13158                      90.03647
                      -3.32096                      -0.09338                      90.33049
                      -3.43204                      -0.30422                      90.61449
                      -3.62744                      -0.48769                      90.87063
                      -3.89489                      -0.63226                      91.08281
                      -4.21758                      -0.72885                      91.23769
                      -4.57524                      -0.77139                      91.32555
                      -4.94539                      -0.75721                      91.34086
                      -5.30478                      -0.68719                      91.28267
                      -5.63082                      -0.56574                      91.15463
                      -5.90303                      -0.40049                      90.96478
                      -6.10431                      -0.20182                      90.72506
                      -6.22200                       0.01778                      90.45052
                      -6.24871                       0.24453                      90.15842
                      -6.18277                       0.46416                      89.86711
                      -6.02831                       0.66288                      89.59489
                      -5.79505                       0.82820                      89.35887
                      -5.49763                       0.94974                      89.17389
                      -5.15475                       1.01986                      89.05155
                      -4.78795                       1.03415                      88.99955
                      -4.42028                       0.99172                      89.02116
                      -4.07484                       0.89522                      89.11502
                      -3.77334                       0.75073                      89.27523
                      -3.53472                       0.56733                      89.49172
                      -3.37397                       0.35653                      89.75090
                      -3.29243                       0.03268                      89.95890
                      -3.31242                      -0.19467                      90.25606
                      -3.42468                      -0.40776                      90.54309
                      -3.62216                      -0.59319                      90.80195
                      -3.89246                      -0.73930                      91.01639
                      -4.21859                      -0.83692                      91.17293
                      -4.58006                      -0.87991                      91.26172
                      -4.95416                      -0.86558                      91.27720
                      -5.31738                      -0.79481                      91.21839
                      -5.64689                      -0.67207                      91.08898
                      -5.92201                      -0.50506                      90.89711
                      -6.12542                      -0.30427                      90.65483
                      -6.24437                      -0.08232                      90.37736
                      -6.27137                       0.14683                      90.08215
                      -6.20472                       0.36881                      89.78773
                      -6.04862                       0.56965                      89.51262
                      -5.81287                       0.73673                      89.27408
                      -5.51228                       0.85957                      89.08712
                      -5.16575                       0.93043                      88.96349
                      -4.79504                       0.94488                      88.91093
                      -4.42345                       0.90199                      88.93277
                      -4.07433                       0.80447                      89.02763
                      -3.76961                       0.65844                      89.18955
                      -3.52845                       0.47308                      89.40835
                      -3.36598                       0.26003                      89.67029
                      -3.29418                      -0.06621                      89.88229
                      -3.31423                      -0.29436                      90.18049
                      -3.42688                      -0.50819                      90.46852
                      -3.62505                      -0.69427                      90.72829
                      -3.89630                      -0.84089                      90.94347
                      -4.22357                      -0.93885                      91.10055
                      -4.58630                      -0.98199                      91.18966
                      -4.96170                      -0.96761                      91.20519
                      -5.32619                      -0.89660                      91.14617
                      -5.65686                      -0.77343                      91.01631
                      -5.93293                      -0.60583                      90.82377
                      -6.13706                      -0.40434                      90.58065
                      -6.25642                      -0.18162                      90.30222
                      -6.28351                       0.04834                      90.00597
                      -6.21663                       0.27108                      89.71053
                      -6.05998                       0.47263                      89.43445
                      -5.82341                       0.64029                      89.19509
                      -5.52177                       0.76356                      89.00747
                      -5.17403                       0.83467                      88.88340
                      -4.80203                       0.84916                      88.83067
                      -4.42914                       0.80613                      88.85258
                      -4.07881                       0.70826                      88.94777
                      -3.77302                       0.56173                      89.11025
                      -3.53102                       0.37572                      89.32982
                      -3.36799                       0.16193                      89.59267
                      -3.30631                      -0.16511                      89.80663
                      -3.32630                      -0.39247                      90.10379
                      -3.43856                      -0.60555                      90.39082
                      -3.63604                      -0.79098                      90.64969
                      -3.90634                      -0.93709                      90.86412
                      -4.23247                      -1.03471                      91.02066
                      -4.59394                      -1.07770                      91.10945
                      -4.96804                      -1.06337                      91.12493
                      -5.33126                      -0.99261                      91.06612
                      -5.66077                      -0.86986                      90.93671
                      -5.93588                      -0.70285                      90.74484
                      -6.13930                      -0.50206                      90.50256
                      -6.25825                      -0.28012                      90.22510
                      -6.28525                      -0.05096                      89.92988
                      -6.21860                       0.17101                      89.63547
                      -6.06250                       0.37185                      89.36035
                      -5.82675                       0.53894                      89.12182
                      -5.52616                       0.66177                      88.93486
                      -5.17963                       0.73264                      88.81122
                      -4.80892                       0.74708                      88.75867
                      -4.43733                       0.70420                      88.78051
                      -4.08821                       0.60667                      88.87536
                      -3.78349                       0.46064                      89.03728
                      -3.54233                       0.27528                      89.25608
                      -3.37986                       0.06224                      89.51802
                      -3.32895                      -0.26401                      89.73193
                      -3.34872                      -0.48897                      90.02596
                      -3.45980                      -0.69981                      90.30996
                      -3.65520                      -0.88328                      90.56610
                      -3.92265                      -1.02785                      90.77827
                      -4.24534                      -1.12444                      90.93316
                      -4.60300                      -1.16698                      91.02102
                      -4.97315                      -1.15280                      91.03633
                      -5.33254                      -1.08278                      90.97814
                      -5.65858                      -0.96133                      90.85010
                      -5.93079                      -0.79608                      90.66025
                      -6.13207                      -0.59741                      90.42052
                      -6.24976                      -0.37780                      90.14598
                      -6.27647                      -0.15106                      89.85388
                      -6.21053                       0.06857                      89.56257
                      -6.05607                       0.26729                      89.29036
                      -5.82280                       0.43262                      89.05434
                      -5.52539                       0.55416                      88.86935
                      -5.18251                       0.62427                      88.74702
                      -4.81571                       0.63856                      88.69502
                      -4.44804                       0.59613                      88.71663
                      -4.10260                       0.49964                      88.81049
                      -3.80110                       0.35515                      88.97069
                      -3.56248                       0.17174                      89.18719
                      -3.40173                      -0.03906                      89.44636
                      -3.36243                      -0.36291                      89.65822
                      -3.38185                      -0.58382                      89.94695
                      -3.49092                      -0.79086                      90.22584
                      -3.68280                      -0.97102                      90.47736
                      -3.94543                      -1.11299                      90.68571
                      -4.26231                      -1.20784                      90.83780
                      -4.61352                      -1.24961                      90.92408
                      -4.97700                      -1.23568                      90.93912
                      -5.32992                      -1.16693                      90.88197
                      -5.65008                      -1.04767                      90.75624
                      -5.91739                      -0.88539                      90.56981
                      -6.11504                      -0.69030                      90.33441
                      -6.23061                      -0.47465                      90.06481
                      -6.25684                      -0.25200                      89.77798
                      -6.19208                      -0.03632                      89.49192
                      -6.04041                       0.15882                      89.22460
                      -5.81135                       0.32116                      88.99284
                      -5.51929                       0.44051                      88.81119
                      -5.18259                       0.50937                      88.69105
                      -4.82240                       0.52340                      88.63999
                      -4.46136                       0.48173                      88.66121
                      -4.12214                       0.38698                      88.75338
                      -3.82607                       0.24509                      88.91070
                      -3.59175                       0.06499                      89.12329
                      -3.43389                      -0.14201                      89.37780
                      -3.40737                      -0.46181                      89.58556
                      -3.42627                      -0.67691                      89.86670
                      -3.53248                      -0.87852                      90.13826
                      -3.71932                      -1.05395                      90.38317
                      -3.97505                      -1.19218                      90.58605
                      -4.28360                      -1.28454                      90.73415
                      -4.62559                      -1.32522                      90.81816
                      -4.97952                      -1.31165                      90.83280
                      -5.32317                      -1.24471                      90.77716
                      -5.63492                      -1.12858                      90.65473
                      -5.89520                      -0.97057                      90.47320
                      -6.08766                      -0.78060                      90.24398
                      -6.20019                      -0.57062                      89.98147
                      -6.22573                      -0.35381                      89.70217
                      -6.16268                      -0.14380                      89.42362
                      -6.01499                       0.04621                      89.16333
                      -5.79195                       0.20429                      88.93766
                      -5.50756                       0.32050                      88.76078
                      -5.17971                       0.38755                      88.64380
                      -4.82898                       0.40121                      88.59408
                      -4.47742                       0.36064                      88.61474
                      -4.14712                       0.26837                      88.70449
                      -3.85883                       0.13021                      88.85768
                      -3.63066                      -0.04516                      89.06468
                      -3.47695                      -0.24672                      89.31250
                      -3.46472                      -0.56071                      89.51403
                      -3.48295                      -0.76812                      89.78511
                      -3.58536                      -0.96250                      90.04695
                      -3.76551                      -1.13165                      90.28309
                      -4.01208                      -1.26494                      90.47871
                      -4.30959                      -1.35399                      90.62151
                      -4.63934                      -1.39321                      90.70251
                      -4.98060                      -1.38014                      90.71663
                      -5.31194                      -1.31558                      90.66298
                      -5.61254                      -1.20361                      90.54493
                      -5.86350                      -1.05126                      90.36990
                      -6.04907                      -0.86809                      90.14888
                      -6.15757                      -0.66563                      89.89577
                      -6.18220                      -0.45658                      89.62647
                      -6.12140                      -0.25409                      89.35789
                      -5.97900                      -0.07088                      89.10692
                      -5.76394                       0.08154                      88.88932
                      -5.48974                       0.19360                      88.71877
                      -5.17362                       0.25824                      88.60598
                      -4.83545                       0.27142                      88.55804
                      -4.49647                       0.23229                      88.57797
                      -4.17799                       0.14333                      88.66450
                      -3.90002                       0.01012                      88.81220
                      -3.68002                      -0.15898                      89.01180
                      -3.53182                      -0.35332                      89.25075
                      -3.53594                      -0.65962                      89.44377
                      -3.55331                      -0.85721                      89.70202
                      -3.65087                      -1.04239                      89.95146
                      -3.82249                      -1.20353                      90.17643
                      -4.05740                      -1.33051                      90.36278
                      -4.34082                      -1.41535                      90.49882
                      -4.65495                      -1.45271                      90.57598
                      -4.98006                      -1.44025                      90.58944
                      -5.29572                      -1.37876                      90.53832
                      -5.58208                      -1.27209                      90.42586
                      -5.82117                      -1.12694                      90.25912
                      -5.99795                      -0.95245                      90.04857
                      -6.10132                      -0.75957                      89.80744
                      -6.12478                      -0.56042                      89.55088
                      -6.06686                      -0.36751                      89.29502
                      -5.93120                      -0.19297                      89.05593
                      -5.72632                      -0.04777                      88.84863
                      -5.46510                       0.05898                      88.68616
                      -5.16394                       0.12057                      88.57871
                      -4.84178                       0.13312                      88.53304
                      -4.51885                       0.09585                      88.55202
                      -4.21545                       0.01110                      88.63445
                      -3.95064                      -0.11581                      88.77517
                      -3.74105                      -0.27690                      88.96532
                      -3.59986                      -0.46205                      89.19295
                      -3.62324                      -0.75853                      89.37498
                      -3.63952                      -0.94384                      89.61718
                      -3.73102                      -1.11752                      89.85113
                      -3.89199                      -1.26866                      90.06212
                      -4.11230                      -1.38775                      90.23690
                      -4.37812                      -1.46731                      90.36449
                      -4.67274                      -1.50236                      90.43686
                      -4.97766                      -1.49067                      90.44948
                      -5.27370                      -1.43300                      90.40154
                      -5.54228                      -1.33295                      90.29607
                      -5.76652                      -1.19682                      90.13968
                      -5.93232                      -1.03317                      89.94221
                      -6.02927                      -0.85227                      89.71605
                      -6.05127                      -0.66549                      89.47543
                      -5.99695                      -0.48457                      89.23547
                      -5.86971                      -0.32087                      89.01123
                      -5.67756                      -0.18468                      88.81681
                      -5.43256                      -0.08456                      88.66442
                      -5.15012                      -0.02680                      88.56365
                      -4.84796                      -0.01503                      88.52081
                      -4.54509                      -0.04999                      88.53861
                      -4.26054                      -0.12947                      88.61593
                      -4.01217                      -0.24850                      88.74790
                      -3.81561                      -0.39958                      88.92624
                      -3.68319                      -0.57323                      89.13974
                      -3.73008                      -0.85744                      89.30797
                      -3.74502                      -1.02749                      89.53023
                      -3.82899                      -1.18687                      89.74492
                      -3.97670                      -1.32556                      89.93854
                      -4.17887                      -1.43485                      90.09893
                      -4.42280                      -1.50787                      90.21601
                      -4.69317                      -1.54002                      90.28242
                      -4.97298                      -1.52930                      90.29400
                      -5.24465                      -1.47637                      90.25001
                      -5.49111                      -1.38457                      90.15322
                      -5.69689                      -1.25965                      90.00971
                      -5.84903                      -1.10947                      89.82849
                      -5.93800                      -0.94346                      89.62096
                      -5.95819                      -0.77206                      89.40015
                      -5.90834                      -0.60603                      89.17994
                      -5.79159                      -0.45581                      88.97417
                      -5.61525                      -0.33084                      88.79576
                      -5.39043                      -0.23897                      88.65592
                      -5.13124                      -0.18596                      88.56344
                      -4.85396                      -0.17516                      88.52413
                      -4.57603                      -0.20724                      88.54047
                      -4.31490                      -0.28018                      88.61142
                      -4.08699                      -0.38940                      88.73253
                      -3.90661                      -0.52805                      88.89618
                      -3.78509                      -0.68740                      89.09210
                      -3.86237                      -0.95635                      89.24328
                      -3.87564                      -1.10726                      89.44052
                      -3.95015                      -1.24870                      89.63104
                      -4.08123                      -1.37177                      89.80286
                      -4.26064                      -1.46876                      89.94519
                      -4.47711                      -1.53355                      90.04909
                      -4.71703                      -1.56209                      90.10803
                      -4.96534                      -1.55257                      90.11830
                      -5.20642                      -1.50560                      90.07926
                      -5.42514                      -1.42413                      89.99337
                      -5.60774                      -1.31328                      89.86602
                      -5.74276                      -1.18001                      89.70520
                      -5.82171                      -1.03269                      89.52104
                      -5.83963                      -0.88059                      89.32509
                      -5.79539                      -0.73325                      89.12967
                      -5.69178                      -0.59995                      88.94707
                      -5.53530                      -0.48904                      88.78874
                      -5.33579                      -0.40751                      88.66465
                      -5.10578                      -0.36048                      88.58258
                      -4.85972                      -0.35089                      88.54770
                      -4.61308                      -0.37936                      88.56220
                      -4.38135                      -0.44409                      88.62516
                      -4.17910                      -0.54101                      88.73263
                      -4.01903                      -0.66405                      88.87786
                      -3.91119                      -0.80546                      89.05172
                      -4.03164                      -1.05527                      89.18198
                      -4.04272                      -1.18139                      89.34681
                      -4.10499                      -1.29959                      89.50603
                      -4.21454                      -1.40244                      89.64962
                      -4.36447                      -1.48349                      89.76857
                      -4.54538                      -1.53764                      89.85540
                      -4.74588                      -1.56149                      89.90465
                      -4.95340                      -1.55354                      89.91324
                      -5.15487                      -1.51429                      89.88061
                      -5.33766                      -1.44620                      89.80883
                      -5.49026                      -1.35356                      89.70240
                      -5.60310                      -1.24218                      89.56801
                      -5.66908                      -1.11907                      89.41410
                      -5.68405                      -0.99196                      89.25034
                      -5.64708                      -0.86883                      89.08703
                      -5.56049                      -0.75742                      88.93442
                      -5.42972                      -0.66474                      88.80211
                      -5.26299                      -0.59660                      88.69840
                      -5.07076                      -0.55729                      88.62982
                      -4.86513                      -0.54928                      88.60067
                      -4.65901                      -0.57307                      88.61278
                      -4.46536                      -0.62717                      88.66540
                      -4.29633                      -0.70817                      88.75522
                      -4.16255                      -0.81099                      88.87659
                      -4.07244                      -0.92917                      89.02188
                      -4.26730                      -1.15420                      89.12674
                      -4.27531                      -1.24539                      89.24591
                      -4.32034                      -1.33084                      89.36102
                      -4.39954                      -1.40521                      89.46484
                      -4.50794                      -1.46381                      89.55084
                      -4.63873                      -1.50296                      89.61362
                      -4.78370                      -1.52020                      89.64923
                      -4.93373                      -1.51445                      89.65544
                      -5.07940                      -1.48607                      89.63185
                      -5.21155                      -1.43684                      89.57995
                      -5.32188                      -1.36986                      89.50300
                      -5.40347                      -1.28934                      89.40584
                      -5.45117                      -1.20033                      89.29456
                      -5.46200                      -1.10842                      89.17616
                      -5.43527                      -1.01940                      89.05809
                      -5.37266                      -0.93886                      88.94775
                      -5.27811                      -0.87185                      88.85209
                      -5.15757                      -0.82258                      88.77711
                      -5.01859                      -0.79416                      88.72753
                      -4.86992                      -0.78837                      88.70645
                      -4.72089                      -0.80557                      88.71521
                      -4.58088                      -0.84468                      88.75325
                      -4.45867                      -0.90325                      88.81819
                      -4.36195                      -0.97759                      88.90594
                      -4.29680                      -1.06303                      89.01099
                      -4.87123                      -1.25319                      89.10513
                      -4.87123                      -1.25319                      89.10513
                      -4.87123                      -1.25319                      89.10513
                      -4.87123                      -1.25319                      89.10513
                      -4.87123                      -1.25319                      89.10513
                      -4.87123                      -1.25319                      89.10513
                      -4.87123                      -1.25319                      89.10513
                      -4.87123                      -1.25319                      89.10513
                      -4.87123                      -1.25319                      89.10513
                      -4.87123                      -1.25319                      89.10513
                      -4.87123                      -1.25319                      89.10513
                      -4.87123                      -1.25319                      89.10513
                      -4.87123                      -1.25319                      89.10513
                      -4.87123                      -1.25319                      89.10513
                      -4.87123                      -1.25319                      89.10513
                      -4.87123                      -1.25319                      89.10513
                      -4.87123                      -1.25319                      89.10513
                      -4.87123                      -1.25319                      89.10513
                      -4.87123                      -1.25319                      89.10513
                      -4.87123                      -1.25319                      89.10513
                      -4.87123                      -1.25319                      89.10513
                      -4.87123                      -1.25319                      89.10513
                      -4.87123                      -1.25319                      89.10513
                      -4.87123                      -1.25319                      89.10513
                      -4.87123                      -1.25319                      89.10513
        </DataArray>
      </Points>
      <Polys>
        <DataArray type="Int32" Name="connectivity" format="ascii">
      0      1     26     25
      1      2     27     26
      2      3     28     27
      3      4     29     28
      4      5     30     29
      5      6     31     30
      6      7     32     31
      7      8     33     32
      8      9     34     33
      9     10     35     34
     10     11     36     35
     11     12     37     36
     12     13     38     37
     13     14     39     38
     14     15     40     39
     15     16     41     40
     16     17     42     41
     17     18     43     42
     18     19     44     43
     19     20     45     44
     20     21     46     45
     21     22     47     46
     22     23     48     47
     23     24     49     48
     24      0     25     49
     25     26     51     50
     26     27     52     51
     27     28     53     52
     28     29     54     53
     29     30     55     54
     30     31     56     55
     31     32     57     56
     32     33     58     57
     33     34     59     58
     34     35     60     59
     35     36     61     60
     36     37     62     61
     37     38     63     62
     38     39     64     63
     39     40     65     64
     40     41     66     65
     41     42     67     66
     42     43     68     67
     43     44     69     68
     44     45     70     69
     45     46     71     70
     46     47     72     71
     47     48     73     72
     48     49     74     73
     49     25     50     74
     50     51     76     75
     51     52     77     76
     52     53     78     77
     53     54     79     78
     54     55     80     79
     55     56     81     80
     56     57     82     81
     57     58     83     82
     58     59     84     83
     59     60     85     84
     60     61     86     85
     61     62     87     86
     62     63     88     87
     63     64     89     88
     64     65     90     89
     65     66     91     90
     66     67     92     91
     67     68     93     92
     68     69     94     93
     69     70     95     94
     70     71     96     95
     71     72     97     96
     72     73     98     97
     73     74     99     98
     74     50     75     99
     75     76    101    100
     76     77    102    101
     77     78    103    102
     78     79    104    103
     79     80    105    104
     80     81    106    105
     81     82    107    106
     82     83    108    107
     83     84    109    108
     84     85    110    109
     85     86    111    110
     86     87    112    111
     87     88    113    112
     88     89    114    113
     89     90    115    114
     90     91    116    115
     91     92    117    116
     92     93    118    117
     93     94    119    118
     94     95    120    119
     95     96    121    120
     96     97    122    121
     97     98    123    122
     98     99    124    123
     99     75    100    124
    100    101    126    125
    101    102    127    126
    102    103    128    127
    103    104    129    128
    104    105    130    129
    105    106    131    130
    106    107    132    131
    107    108    133    132
    108    109    134    133
    109    110    135    134
    110    111    136    135
    111    112    137    136
    112    113    138    137
    113    114    139    138
    114    115    140    139
    115    116    141    140
    116    117    142    141
    117    118    143    142
    118    119    144    143
    119    120    145    144
    120    121    146    145
    121    122    147    146
    122    123    148    147
    123    124    149    148
    124    100    125    149
    125    126    151    150
    126    127    152    151
    127    128    153    152
    128    129    154    153
    129    130    155    154
    130    131    156    155
    131    132    157    156
    132    133    158    157
    133    134    159    158
    134    135    160    159
    135    136    161    160
    136    137    162    161
    137    138    163    162
    138    139    164    163
    139    140    165    164
    140    141    166    165
    141    142    167    166
    142    143    168    167
    143    144    169    168
    144    145    170    169
    145    146    171    170
    146    147    172    171
    147    148    173    172
    148    149    174    173
    149    125    150    174
    150    151    176    175
    151    152    177    176
    152    153    178    177
    153    154    179    178
    154    155    180    179
    155    156    181    180
    156    157    182    181
    157    158    183    182
    158    159    184    183
    159    160    185    184
    160    161    186    185
    161    162    187    186
    162    163    188    187
    163    164    189    188
    164    165    190    189
    165    166    191    190
    166    167    192    191
    167    168    193    192
    168    169    194    193
    169    170    195    194
    170    171    196    195
    171    172    197    196
    172    173    198    197
    173    174    199    198
    174    150    175    199
    175    176    201    200
    176    177    202    201
    177    178    203    202
    178    179    204    203
    179    180    205    204
    180    181    206    205
    181    182    207    206
    182    183    208    207
    183    184    209    208
    184    185    210    209
    185    186    211    210
    186    187    212    211
    187    188    213    212
    188    189    214    213
    189    190    215    214
    190    191    216    215
    191    192    217    216
    192    193    218    217
    193    194    219    218
    194    195    220    219
    195    196    221    220
    196    197    222    221
    197    198    223    222
    198    199    224    223
    199    175    200    224
    200    201    226    225
    201    202    227    226
    202    203    228    227
    203    204    229    228
    204    205    230    229
    205    206    231    230
    206    207    232    231
    207    208    233    232
    208    209    234    233
    209    210    235    234
    210    211    236    235
    211    212    237    236
    212    213    238    237
    213    214    239    238
    214    215    240    239
    215    216    241    240
    216    217    242    241
    217    218    243    242
    218    219    244    243
    219    220    245    244
    220    221    246    245
    221    222    247    246
    222    223    248    247
    223    224    249    248
    224    200    225    249
    225    226    251    250
    226    227    252    251
    227    228    253    252
    228    229    254    253
    229    230    255    254
    230    231    256    255
    231    232    257    256
    232    233    258    257
    233    234    259    258
    234    235    260    259
    235    236    261    260
    236    237    262    261
    237    238    263    262
    238    239    264    263
    239    240    265    264
    240    241    266    265
    241    242    267    266
    242    243    268    267
    243    244    269    268
    244    245    270    269
    245    246    271    270
    246    247    272    271
    247    248    273    272
    248    249    274    273
    249    225    250    274
    250    251    276    275
    251    252    277    276
    252    253    278    277
    253    254    279    278
    254    255    280    279
    255    256    281    280
    256    257    282    281
    257    258    283    282
    258    259    284    283
    259    260    285    284
    260    261    286    285
    261    262    287    286
    262    263    288    287
    263    264    289    288
    264    265    290    289
    265    266    291    290
    266    267    292    291
    267    268    293    292
    268    269    294    293
    269    270    295    294
    270    271    296    295
    271    272    297    296
    272    273    298    297
    273    274    299    298
    274    250    275    299
    275    276    301    300
    276    277    302    301
    277    278    303    302
    278    279    304    303
    279    280    305    304
    280    281    306    305
    281    282    307    306
    282    283    308    307
    283    284    309    308
    284    285    310    309
    285    286    311    310
    286    287    312    311
    287    288    313    312
    288    289    314    313
    289    290    315    314
    290    291    316    315
    291    292    317    316
    292    293    318    317
    293    294    319    318
    294    295    320    319
    295    296    321    320
    296    297    322    321
    297    298    323    322
    298    299    324    323
    299    275    300    324
    300    301    326    325
    301    302    327    326
    302    303    328    327
    303    304    329    328
    304    305    330    329
    305    306    331    330
    306    307    332    331
    307    308    333    332
    308    309    334    333
    309    310    335    334
    310    311    336    335
    311    312    337    336
    312    313    338    337
    313    314    339    338
    314    315    340    339
    315    316    341    340
    316    317    342    341
    317    318    343    342
    318    319    344    343
    319    320    345    344
    320    321    346    345
    321    322    347    346
    322    323    348    347
    323    324    349    348
    324    300    325    349
    325    326    351    350
    326    327    352    351
    327    328    353    352
    328    329    354    353
    329    330    355    354
    330    331    356    355
    331    332    357    356
    332    333    358    357
    333    334    359    358
    334    335    360    359
    335    336    361    360
    336    337    362    361
    337    338    363    362
    338    339    364    363
    339    340    365    364
    340    341    366    365
    341    342    367    366
    342    343    368    367
    343    344    369    368
    344    345    370    369
    345    346    371    370
    346    347    372    371
    347    348    373    372
    348    349    374    373
    349    325    350    374
    350    351    376    375
    351    352    377    376
    352    353    378    377
    353    354    379    378
    354    355    380    379
    355    356    381    380
    356    357    382    381
    357    358    383    382
    358    359    384    383
    359    360    385    384
    360    361    386    385
    361    362    387    386
    362    363    388    387
    363    364    389    388
    364    365    390    389
    365    366    391    390
    366    367    392    391
    367    368    393    392
    368    369    394    393
    369    370    395    394
    370    371    396    395
    371    372    397    396
    372    373    398    397
    373    374    399    398
    374    350    375    399
    375    376    401    400
    376    377    402    401
    377    378    403    402
    378    379    404    403
    379    380    405    404
    380    381    406    405
    381    382    407    406
    382    383    408    407
    383    384    409    408
    384    385    410    409
    385    386    411    410
    386    387    412    411
    387    388    413    412
    388    389    414    413
    389    390    415    414
    390    391    416    415
    391    392    417    416
    392    393    418    417
    393    394    419    418
    394    395    420    419
    395    396    421    420
    396    397    422    421
    397    398    423    422
    398    399    424    423
    399    375    400    424
    400    401    426    425
    401    402    427    426
    402    403    428    427
    403    404    429    428
    404    405    430    429
    405    406    431    430
    406    407    432    431
    407    408    433    432
    408    409    434    433
    409    410    435    434
    410    411    436    435
    411    412    437    436
    412    413    438    437
    413    414    439    438
    414    415    440    439
    415    416    441    440
    416    417    442    441
    417    418    443    442
    418    419    444    443
    419    420    445    444
    420    421    446    445
    421    422    447    446
    422    423    448    447
    423    424    449    448
    424    400    425    449
    425    426    451    450
    426    427    452    451
    427    428    453    452
    428    429    454    453
    429    430    455    454
    430    431    456    455
    431    432    457    456
    432    433    458    457
    433    434    459    458
    434    435    460    459
    435    436    461    460
    436    437    462    461
    437    438    463    462
    438    439    464    463
    439    440    465    464
    440    441    466    465
    441    442    467    466
    442    443    468    467
    443    444    469    468
    444    445    470    469
    445    446    471    470
    446    447    472    471
    447    448    473    472
    448    449    474    473
    449    425    450    474
    450    451    476    475
    451    452    477    476
    452    453    478    477
    453    454    479    478
    454    455    480    479
    455    456    481    480
    456    457    482    481
    457    458    483    482
    458    459    484    483
    459    460    485    484
    460    461    486    485
    461    462    487    486
    462    463    488    487
    463    464    489    488
    464    465    490    489
    465    466    491    490
    466    467    492    491
    467    468    493    492
    468    469    494    493
    469    470    495    494
    470    471    496    495
    471    472    497    496
    472    473    498    497
    473    474    499    498
    474    450    475    499
    475    476    501    500
    476    477    502    501
    477    478    503    502
    478    479    504    503
    479    480    505    504
    480    481    506    505
    481    482    507    506
    482    483    508    507
    483    484    509    508
    484    485    510    509
    485    486    511    510
    486    487    512    511
    487    488    513    512
    488    489    514    513
    489    490    515    514
    490    491    516    515
    491    492    517    516
    492    493    518    517
    493    494    519    518
    494    495    520    519
    495    496    521    520
    496    497    522    521
    497    498    523    522
    498    499    524    523
    499    475    500    524
    500    501    526    525
    501    502    527    526
    502    503    528    527
    503    504    529    528
    504    505    530    529
    505    506    531    530
    506    507    532    531
    507    508    533    532
    508    509    534    533
    509    510    535    534
    510    511    536    535
    511    512    537    536
    512    513    538    537
    513    514    539    538
    514    515    540    539
    515    516    541    540
    516    517    542    541
    517    518    543    542
    518    519    544    543
    519    520    545    544
    520    521    546    545
    521    522    547    546
    522    523    548    547
    523    524    549    548
    524    500    525    549
    525    526    551    550
    526    527    552    551
    527    528    553    552
    528    529    554    553
    529    530    555    554
    530    531    556    555
    531    532    557    556
    532    533    558    557
    533    534    559    558
    534    535    560    559
    535    536    561    560
    536    537    562    561
    537    538    563    562
    538    539    564    563
    539    540    565    564
    540    541    566    565
    541    542    567    566
    542    543    568    567
    543    544    569    568
    544    545    570    569
    545    546    571    570
    546    547    572    571
    547    548    573    572
    548    549    574    573
    549    525    550    574
    550    551    576    575
    551    552    577    576
    552    553    578    577
    553    554    579    578
    554    555    580    579
    555    556    581    580
    556    557    582    581
    557    558    583    582
    558    559    584    583
    559    560    585    584
    560    561    586    585
    561    562    587    586
    562    563    588    587
    563    564    589    588
    564    565    590    589
    565    566    591    590
    566    567    592    591
    567    568    593    592
    568    569    594    593
    569    570    595    594
    570    571    596    595
    571    572    597    596
    572    573    598    597
    573    574    599    598
    574    550    575    599
    575    576    601    600
    576    577    602    601
    577    578    603    602
    578    579    604    603
    579    580    605    604
    580    581    606    605
    581    582    607    606
    582    583    608    607
    583    584    609    608
    584    585    610    609
    585    586    611    610
    586    587    612    611
    587    588    613    612
    588    589    614    613
    589    590    615    614
    590    591    616    615
    591    592    617    616
    592    593    618    617
    593    594    619    618
    594    595    620    619
    595    596    621    620
    596    597    622    621
    597    598    623    622
    598    599    624    623
    599    575    600    624
        </DataArray>
        <DataArray type="Int32" Name="offsets" format="ascii">
      4
      8
     12
     16
     20
     24
     28
     32
     36
     40
     44
     48
     52
     56
     60
     64
     68
     72
     76
     80
     84
     88
     92
     96
    100
    104
    108
    112
    116
    120
    124
    128
    132
    136
    140
    144
    148
    152
    156
    160
    164
    168
    172
    176
    180
    184
    188
    192
    196
    200
    204
    208
    212
    216
    220
    224
    228
    232
    236
    240
    244
    248
    252
    256
    260
    264
    268
    272
    276
    280
    284
    288
    292
    296
    300
    304
    308
    312
    316
    320
    324
    328
    332
    336
    340
    344
    348
    352
    356
    360
    364
    368
    372
    376
    380
    384
    388
    392
    396
    400
    404
    408
    412
    416
    420
    424
    428
    432
    436
    440
    444
    448
    452
    456
    460
    464
    468
    472
    476
    480
    484
    488
    492
    496
    500
    504
    508
    512
    516
    520
    524
    528
    532
    536
    540
    544
    548
    552
    556
    560
    564
    568
    572
    576
    580
    584
    588
    592
    596
    600
    604
    608
    612
    616
    620
    624
    628
    632
    636
    640
    644
    648
    652
    656
    660
    664
    668
    672
    676
    680
    684
    688
    692
    696
    700
    704
    708
    712
    716
    720
    724
    728
    732
    736
    740
    744
    748
    752
    756
    760
    764
    768
    772
    776
    780
    784
    788
    792
    796
    800
    804
    808
    812
    816
    820
    824
    828
    832
    836
    840
    844
    848
    852
    856
    860
    864
    868
    872
    876
    880
    884
    888
    892
    896
    900
    904
    908
    912
    916
    920
    924
    928
    932
    936
    940
    944
    948
    952
    956
    960
    964
    968
    972
    976
    980
    984
    988
    992
    996
   1000
   1004
   1008
   1012
   1016
   1020
   1024
   1028
   1032
   1036
   1040
   1044
   1048
   1052
   1056
   1060
   1064
   1068
   1072
   1076
   1080
   1084
   1088
   1092
   1096
   1100
   1104
   1108
   1112
   1116
   1120
   1124
   1128
   1132
   1136
   1140
   1144
   1148
   1152
   1156
   1160
   1164
   1168
   1172
   1176
   1180
   1184
   1188
   1192
   1196
   1200
   1204
   1208
   1212
   1216
   1220
   1224
   1228
   1232
   1236
   1240
   1244
   1248
   1252
   1256
   1260
   1264
   1268
   1272
   1276
   1280
   1284
   1288
   1292
   1296
   1300
   1304
   1308
   1312
   1316
   1320
   1324
   1328
   1332
   1336
   1340
   1344
   1348
   1352
   1356
   1360
   1364
   1368
   1372
   1376
   1380
   1384
   1388
   1392
   1396
   1400
   1404
   1408
   1412
   1416
   1420
   1424
   1428
   1432
   1436
   1440
   1444
   1448
   1452
   1456
   1460
   1464
   1468
   1472
   1476
   1480
   1484
   1488
   1492
   1496
   1500
   1504
   1508
   1512
   1516
   1520
   1524
   1528
   1532
   1536
   1540
   1544
   1548
   1552
   1556
   1560
   1564
   1568
   1572
   1576
   1580
   1584
   1588
   1592
   1596
   1600
   1604
   1608
   1612
   1616
   1620
   1624
   1628
   1632
   1636
   1640
   1644
   1648
   1652
   1656
   1660
   1664
   1668
   1672
   1676
   1680
   1684
   1688
   1692
   1696
   1700
   1704
   1708
   1712
   1716
   1720
   1724
   1728
   1732
   1736
   1740
   1744
   1748
   1752
   1756
   1760
   1764
   1768
   1772
   1776
   1780
   1784
   1788
   1792
   1796
   1800
   1804
   1808
   1812
   1816
   1820
   1824
   1828
   1832
   1836
   1840
   1844
   1848
   1852
   1856
   1860
   1864
   1868
   1872
   1876
   1880
   1884
   1888
   1892
   1896
   1900
   1904
   1908
   1912
   1916
   1920
   1924
   1928
   1932
   1936
   1940
   1944
   1948
   1952
   1956
   1960
   1964
   1968
   1972
   1976
   1980
   1984
   1988
   1992
   1996
   2000
   2004
   2008
   2012
   2016
   2020
   2024
   2028
   2032
   2036
   2040
   2044
   2048
   2052
   2056
   2060
   2064
   2068
   2072
   2076
   2080
   2084
   2088
   2092
   2096
   2100
   2104
   2108
   2112
   2116
   2120
   2124
   2128
   2132
   2136
   2140
   2144
   2148
   2152
   2156
   2160
   2164
   2168
   2172
   2176
   2180
   2184
   2188
   2192
   2196
   2200
   2204
   2208
   2212
   2216
   2220
   2224
   2228
   2232
   2236
   2240
   2244
   2248
   2252
   2256
   2260
   2264
   2268
   2272
   2276
   2280
   2284
   2288
   2292
   2296
   2300
   2304
   2308
   2312
   2316
   2320
   2324
   2328
   2332
   2336
   2340
   2344
   2348
   2352
   2356
   2360
   2364
   2368
   2372
   2376
   2380
   2384
   2388
   2392
   2396
   2400
        </DataArray>
      </Polys>
    </Piece>
  </PolyData>
</VTKFile>
