<?xml version="1.0"?>
<VTKFile type="PolyData" version="0.1" byte_order="LittleEndian">
  <PolyData>
    <Piece NumberOfPoints="     19" NumberOfVerts="  0" NumberOfLines="     18"
           NumberOfStrips="  0" NumberOfPolys="      0">
      <Points>
        <DataArray type="Float32" NumberOfComponents="3" format="ascii">
                      -4.73276                       0.68147                      91.31557
                      -4.68604                       1.36454                      92.49848
                      -4.63427                       2.65616                      94.90923
                      -4.59977                       3.91242                      97.34146
                      -4.56260                       5.46144                     100.39492
                      -4.42203                       7.42745                     103.99296
                      -4.21304                       9.49529                     107.52873
                      -3.98836                      11.56357                     111.06336
                      -3.74352                      13.63272                     114.59619
                      -3.47863                      15.70087                     118.12820
                      -3.19538                      17.76492                     121.66117
                      -2.89305                      19.82575                     125.19446
                      -2.57353                      21.88351                     128.72802
                      -2.23984                      23.93859                     132.26179
                      -1.89373                      25.99098                     135.79581
                      -1.59904                      27.69983                     138.74090
                      -1.36003                      29.07302                     141.09290
                      -1.10861                      30.49206                     143.41727
                      -0.99521                      31.16735                     144.60001
        </DataArray>
      </Points>
      <PointData>
        <DataArray type="Float32" Name="TranslationalVelocity" NumberOfComponents="3" format="ascii">
                       0.07976                      -1.66486                       0.94741
                       0.15827                      -3.16253                       1.80913
                       0.30743                      -6.21101                       3.43917
                       0.45358                      -9.28652                       5.02547
                       0.63569                     -13.15004                       6.98290
                       0.87023                     -17.71880                       9.46960
                       1.12224                     -22.22253                      12.08805
                       1.38233                     -26.73279                      14.71018
                       1.65289                     -31.24946                      17.33637
                       1.93611                     -35.77380                      19.96397
                       2.23384                     -40.30786                      22.58869
                       2.54806                     -44.85078                      25.21126
                       2.88013                     -49.40211                      27.83153
                       3.23074                     -53.96116                      30.44971
                       3.59964                     -58.52753                      33.06552
                       3.92050                     -62.33783                      35.24426
                       4.18531                     -65.38371                      36.99550
                       4.46097                     -68.39803                      38.80556
                       4.59668                     -69.93069                      39.66734
        </DataArray>
        <DataArray type="Float32" Name="RotationalVelocity" NumberOfComponents="3" format="ascii">
                       1.26132                      -0.00018                      -0.11527
                       1.26155                      -0.00006                      -0.11521
                       1.26217                       0.00025                      -0.11522
                       1.26297                       0.00063                      -0.11538
                       1.26413                       0.00126                      -0.11574
                       1.26567                       0.00229                      -0.11642
                       1.26729                       0.00369                      -0.11734
                       1.26893                       0.00553                      -0.11849
                       1.27056                       0.00786                      -0.11988
                       1.27217                       0.01072                      -0.12151
                       1.27376                       0.01408                      -0.12334
                       1.27533                       0.01788                      -0.12536
                       1.27687                       0.02198                      -0.12748
                       1.27835                       0.02617                      -0.12962
                       1.27973                       0.03017                      -0.13162
                       1.28073                       0.03308                      -0.13306
                       1.28138                       0.03493                      -0.13394
                       1.28185                       0.03616                      -0.13449
                       1.28199                       0.03648                      -0.13461
        </DataArray>
        <DataArray type="Float32" Name="TranslationalAcceleration" NumberOfComponents="3" format="ascii">
                      -0.19183                      -1.20222                      -2.07016
                      -0.22993                      -1.45320                      -2.50697
                      -0.66423                      -4.04159                      -7.24228
                      -1.06785                      -6.35815                     -11.63793
                      -1.54502                      -9.01702                     -16.80640
                      -2.08769                     -12.19912                     -22.61216
                      -2.61906                     -15.46388                     -28.19487
                      -3.16429                     -18.72489                     -33.77775
                      -3.73499                     -22.02309                     -39.42985
                      -4.33804                     -25.36882                     -45.17421
                      -4.97559                     -28.75153                     -51.00025
                      -5.64490                     -32.15627                     -56.87267
                      -6.33915                     -35.56425                     -62.74946
                      -7.04771                     -38.96247                     -68.59481
                      -7.75674                     -42.35052                     -74.39335
                      -8.33551                     -45.18165                     -79.20113
                      -8.78207                     -47.48040                     -83.04652
                      -9.20327                     -49.89879                     -86.88640
                      -9.40877                     -51.07840                     -88.86643
        </DataArray>
        <DataArray type="Float32" Name="OrientationX" NumberOfComponents="3" format="ascii">
                       0.89263                      -0.40468                       0.19863
                       0.89262                      -0.40481                       0.19840
                       0.89258                      -0.40526                       0.19766
                       0.89252                      -0.40592                       0.19657
                       0.89242                      -0.40700                       0.19478
                       0.90612                      -0.38411                       0.17719
                       0.91529                      -0.36826                       0.16316
                       0.92275                      -0.35497                       0.15010
                       0.93008                      -0.34114                       0.13626
                       0.93704                      -0.32720                       0.12207
                       0.94299                      -0.31460                       0.10859
                       0.94834                      -0.30252                       0.09554
                       0.95265                      -0.29225                       0.08399
                       0.95533                      -0.28573                       0.07547
                       0.95783                      -0.27916                       0.06811
                       0.95991                      -0.27317                       0.06289
                       0.96147                      -0.26833                       0.05981
                       0.96212                      -0.26604                       0.05948
                       0.96193                      -0.26645                       0.06076
        </DataArray>
        <DataArray type="Float32" Name="OrientationY" NumberOfComponents="3" format="ascii">
                       0.44943                       0.76453                      -0.46208
                       0.44942                       0.76446                      -0.46219
                       0.44942                       0.76426                      -0.46253
                       0.44942                       0.76397                      -0.46299
                       0.44943                       0.76353                      -0.46372
                       0.42079                       0.77553                      -0.47063
                       0.40000                       0.78349                      -0.47554
                       0.38192                       0.78999                      -0.47964
                       0.36299                       0.79652                      -0.48353
                       0.34379                       0.80286                      -0.48705
                       0.32613                       0.80844                      -0.48996
                       0.30914                       0.81361                      -0.49241
                       0.29450                       0.81791                      -0.49426
                       0.28460                       0.82071                      -0.49542
                       0.27526                       0.82334                      -0.49633
                       0.26749                       0.82552                      -0.49695
                       0.26177                       0.82711                      -0.49735
                       0.25963                       0.82771                      -0.49748
                       0.26062                       0.82744                      -0.49741
        </DataArray>
        <DataArray type="Float32" Name="OrientationZ" NumberOfComponents="3" format="ascii">
                       0.03513                       0.50173                       0.86431
                       0.03543                       0.50172                       0.86430
                       0.03638                       0.50167                       0.86429
                       0.03777                       0.50157                       0.86429
                       0.04001                       0.50137                       0.86431
                       0.04336                       0.50101                       0.86435
                       0.04729                       0.50052                       0.86443
                       0.05168                       0.49991                       0.86453
                       0.05641                       0.49918                       0.86466
                       0.06136                       0.49835                       0.86480
                       0.06636                       0.49745                       0.86495
                       0.07123                       0.49651                       0.86510
                       0.07575                       0.49559                       0.86525
                       0.07962                       0.49477                       0.86537
                       0.08248                       0.49414                       0.86546
                       0.08383                       0.49385                       0.86549
                       0.08398                       0.49384                       0.86549
                       0.08312                       0.49408                       0.86543
                       0.08226                       0.49431                       0.86538
        </DataArray>
        <DataArray type="Float32" Name="Force" NumberOfComponents="3" format="ascii">
                      -0.04949                       0.93328                      -0.53976
                     438.07720                      61.47696                     -53.64773
                     495.33153                     143.94177                    -104.41832
                     397.86033                     175.65443                    -119.37718
                    2560.47355                   -1556.05331                     785.26445
                    3046.42140                   -2053.39632                    1040.29447
                    3396.10616                   -2023.03126                     990.21159
                    3591.54031                   -1827.57887                     848.23368
                    3292.41957                   -1464.74972                     637.57037
                    3111.16239                   -1227.76249                     494.13728
                    3275.52912                   -1158.53462                     423.63161
                    3112.83522                    -998.16576                     325.47633
                    2826.32028                    -828.60932                     235.73072
                    2382.51023                    -644.86762                     156.94348
                    1919.62734                    -473.51004                      93.29971
                    1537.65126                    -347.04205                      53.54544
                    1175.96730                    -241.55272                      26.82586
                     551.35392                     -94.89818                       2.41210
                   -5618.67040                     588.65798                     190.60204
        </DataArray>
        <DataArray type="Float32" Name="Moment" NumberOfComponents="3" format="ascii">
                       0.00000                       0.00000                       0.00000
                       0.00000                       0.00000                       0.00000
                       0.00000                       0.00000                       0.00000
                       0.00000                       0.00000                       0.00000
                     -41.38073                    -519.36782                    -894.23347
                     -36.16028                    -419.05431                    -721.26223
                     -61.93677                    -658.52416                   -1132.96100
                     -95.37787                    -928.56879                   -1596.82322
                    -131.99613                   -1178.09205                   -2024.91113
                    -153.45335                   -1260.08538                   -2164.71676
                    -171.03652                   -1299.38215                   -2231.05191
                    -187.81105                   -1329.88368                   -2282.25352
                    -152.01602                   -1012.70269                   -1737.10468
                    -151.97744                    -963.59005                   -1652.18866
                    -148.26596                    -907.61826                   -1555.74936
                    -140.88141                    -848.60770                   -1454.39254
                    -123.81110                    -744.44975                   -1275.86037
                     -60.68050                    -368.60960                    -631.79140
                      12.60000                      77.33999                     132.57167
        </DataArray>
      </PointData>
      <Lines>
        <DataArray type="Int32" Name="connectivity" format="ascii">
      0      1
      1      2
      2      3
      3      4
      4      5
      5      6
      6      7
      7      8
      8      9
      9     10
     10     11
     11     12
     12     13
     13     14
     14     15
     15     16
     16     17
     17     18
        </DataArray>
        <DataArray type="Int32" Name="offsets" format="ascii">
      2
      4
      6
      8
     10
     12
     14
     16
     18
     20
     22
     24
     26
     28
     30
     32
     34
     36
        </DataArray>
      </Lines>
    </Piece>
  </PolyData>
</VTKFile>
