<?xml version="1.0"?>
<VTKFile type="PolyData" version="0.1" byte_order="LittleEndian">
  <PolyData>
    <Piece NumberOfPoints="     19" NumberOfVerts="  0" NumberOfLines="     18"
           NumberOfStrips="  0" NumberOfPolys="      0">
      <Points>
        <DataArray type="Float32" NumberOfComponents="3" format="ascii">
                      -4.98558                      -0.13490                      88.53367
                      -5.17069                      -0.17970                      87.18022
                      -5.58777                      -0.18427                      84.47666
                      -6.02601                      -0.14826                      81.77442
                      -6.58464                      -0.07855                      78.39696
                      -7.16052                      -0.11660                      74.33547
                      -7.67223                      -0.27162                      70.26941
                      -8.18046                      -0.42853                      66.20291
                      -8.68333                      -0.58869                      62.13576
                      -9.18359                      -0.75090                      58.06827
                      -9.68541                      -0.91254                      54.00088
                     -10.18996                      -1.07548                      49.93381
                     -10.70049                      -1.24064                      45.86754
                     -11.22059                      -1.40898                      41.80264
                     -11.75182                      -1.58077                      37.73941
                     -12.20566                      -1.72730                      34.35511
                     -12.57483                      -1.85457                      31.64906
                     -12.93633                      -2.03691                      28.94416
                     -13.13420                      -2.08971                      27.59282
        </DataArray>
      </Points>
      <PointData>
        <DataArray type="Float32" Name="TranslationalVelocity" NumberOfComponents="3" format="ascii">
                       0.00209                       1.91177                      -0.06482
                      -0.00394                       3.64139                      -0.12126
                      -0.00739                       7.09986                      -0.12657
                      -0.00831                      10.55618                      -0.08044
                      -0.01052                      14.87258                       0.00881
                      -0.03365                      20.04473                      -0.03683
                      -0.07794                      25.20684                      -0.22859
                      -0.13063                      30.36072                      -0.42135
                      -0.19198                      35.50684                      -0.61681
                      -0.26208                      40.64565                      -0.81347
                      -0.34116                      45.77758                      -1.00795
                      -0.43052                      50.90283                      -1.20244
                      -0.53214                      56.02120                      -1.39776
                      -0.64899                      61.13200                      -1.59460
                      -0.78519                      66.23403                      -1.79257
                      -0.91801                      70.47737                      -1.95852
                      -1.04021                      73.86529                      -2.10124
                      -1.18566                      77.24446                      -2.30980
                      -1.25996                      78.93226                      -2.36500
        </DataArray>
        <DataArray type="Float32" Name="RotationalVelocity" NumberOfComponents="3" format="ascii">
                       1.26245                       0.00052                      -0.11545
                       1.26217                       0.00068                      -0.11521
                       1.26135                       0.00124                      -0.11491
                       1.26027                       0.00210                      -0.11474
                       1.25869                       0.00343                      -0.11459
                       1.25664                       0.00528                      -0.11444
                       1.25457                       0.00727                      -0.11433
                       1.25258                       0.00932                      -0.11436
                       1.25067                       0.01143                      -0.11469
                       1.24882                       0.01363                      -0.11550
                       1.24697                       0.01604                      -0.11695
                       1.24503                       0.01879                      -0.11914
                       1.24291                       0.02206                      -0.12208
                       1.24056                       0.02604                      -0.12564
                       1.23792                       0.03097                      -0.12953
                       1.23550                       0.03594                      -0.13266
                       1.23343                       0.04061                      -0.13478
                       1.23128                       0.04599                      -0.13627
                       1.23019                       0.04895                      -0.13667
        </DataArray>
        <DataArray type="Float32" Name="TranslationalAcceleration" NumberOfComponents="3" format="ascii">
                       0.20641                       0.12393                       2.39811
                       0.24884                       0.09974                       2.90115
                       0.68460                       0.13357                       8.30161
                       1.05831                       0.07360                      13.26315
                       1.47463                      -0.06359                      19.04487
                       1.94906                      -0.04257                      25.59182
                       2.42765                       0.16678                      31.93817
                       2.92642                       0.38616                      38.24000
                       3.45034                       0.61941                      44.57936
                       3.99181                       0.86123                      50.98476
                       4.53248                       1.10017                      57.44614
                       5.04488                       1.32908                      63.93035
                       5.49439                       1.53766                      70.39666
                       5.84117                       1.71529                      76.81244
                       6.04217                       1.85131                      83.16847
                       6.06318                       1.92647                      88.43912
                       5.97163                       1.97331                      92.66660
                       5.77896                       2.08287                      96.94084
                       5.63118                       2.06496                      99.11618
        </DataArray>
        <DataArray type="Float32" Name="OrientationX" NumberOfComponents="3" format="ascii">
                       0.86203                       0.48875                      -0.13425
                       0.86205                       0.48876                      -0.13412
                       0.86208                       0.48881                      -0.13371
                       0.86212                       0.48890                      -0.13313
                       0.86216                       0.48907                      -0.13222
                       0.87734                       0.46135                      -0.13200
                       0.88764                       0.44140                      -0.13135
                       0.89609                       0.42421                      -0.13067
                       0.90442                       0.40629                      -0.13021
                       0.91232                       0.38825                      -0.13011
                       0.91908                       0.37185                      -0.13046
                       0.92512                       0.35621                      -0.13140
                       0.92989                       0.34295                      -0.13300
                       0.93267                       0.33440                      -0.13528
                       0.93508                       0.32633                      -0.13831
                       0.93698                       0.31950                      -0.14137
                       0.93829                       0.31439                      -0.14413
                       0.93842                       0.31262                      -0.14711
                       0.93782                       0.31368                      -0.14864
        </DataArray>
        <DataArray type="Float32" Name="OrientationY" NumberOfComponents="3" format="ascii">
                       0.48873                      -0.87172                      -0.03541
                       0.48874                      -0.87171                      -0.03538
                       0.48878                      -0.87169                      -0.03530
                       0.48887                      -0.87165                      -0.03517
                       0.48904                      -0.87156                      -0.03497
                       0.46161                      -0.88656                      -0.03049
                       0.44186                      -0.89667                      -0.02726
                       0.42483                      -0.90494                      -0.02451
                       0.40708                      -0.91313                      -0.02174
                       0.38921                      -0.92095                      -0.01907
                       0.37296                      -0.92770                      -0.01671
                       0.35749                      -0.93381                      -0.01454
                       0.34439                      -0.93874                      -0.01274
                       0.33598                      -0.94180                      -0.01164
                       0.32808                      -0.94459                      -0.01060
                       0.32141                      -0.94689                      -0.00970
                       0.31645                      -0.94857                      -0.00900
                       0.31480                      -0.94912                      -0.00879
                       0.31591                      -0.94875                      -0.00899
        </DataArray>
        <DataArray type="Float32" Name="OrientationZ" NumberOfComponents="3" format="ascii">
                      -0.13434                      -0.03509                      -0.99031
                      -0.13421                      -0.03505                      -0.99033
                      -0.13381                      -0.03493                      -0.99039
                      -0.13324                      -0.03477                      -0.99047
                      -0.13234                      -0.03451                      -0.99060
                      -0.13110                      -0.03418                      -0.99078
                      -0.12981                      -0.03385                      -0.99096
                      -0.12864                      -0.03355                      -0.99112
                      -0.12773                      -0.03334                      -0.99125
                      -0.12722                      -0.03324                      -0.99132
                      -0.12724                      -0.03330                      -0.99131
                      -0.12788                      -0.03352                      -0.99122
                      -0.12922                      -0.03395                      -0.99103
                      -0.13130                      -0.03460                      -0.99074
                      -0.13411                      -0.03547                      -0.99033
                      -0.13696                      -0.03635                      -0.98991
                      -0.13955                      -0.03717                      -0.98952
                      -0.14237                      -0.03806                      -0.98908
                      -0.14385                      -0.03853                      -0.98885
        </DataArray>
        <DataArray type="Float32" Name="Force" NumberOfComponents="3" format="ascii">
                       0.01474                      -4.37366                       0.15297
                     323.59865                     -72.82652                     -41.27339
                     382.45911                    -161.39196                     -45.95494
                     317.64431                    -195.49748                     -35.80253
                    1748.97482                    1358.07489                    -281.76324
                    2109.30907                    1581.38626                    -335.10653
                    1997.88129                    1255.73951                    -306.18756
                    2020.98692                    1090.61944                    -300.93056
                    1716.93501                     796.23770                    -249.43478
                    1368.43162                     548.96879                    -195.05474
                    1377.90682                     481.15324                    -193.89049
                    1024.94163                     305.87772                    -143.05637
                     433.96412                      85.59700                     -59.61299
                      56.05655                     -31.44192                      -6.31462
                    -238.66078                    -114.59426                      36.37539
                    -613.43730                    -202.25672                      92.02764
                    -854.91835                    -248.69104                     129.36354
                    -894.06435                    -232.94435                     136.92723
                   -5377.15804                    -744.18576                     808.43315
        </DataArray>
        <DataArray type="Float32" Name="Moment" NumberOfComponents="3" format="ascii">
                       0.00000                       0.00000                       0.00000
                       0.00000                       0.00000                       0.00000
                       0.00000                       0.00000                       0.00000
                       0.00000                       0.00000                       0.00000
                      80.17330                      21.26002                     600.12720
                     131.41803                      35.18165                     993.22748
                     160.85338                      43.48982                    1227.93310
                     204.90564                      55.90729                    1578.72033
                     265.11118                      72.85220                    2057.39688
                     278.76738                      76.91340                    2172.19617
                     292.68332                      80.74343                    2280.36099
                     301.05422                      82.63436                    2333.61871
                     219.30562                      59.56844                    1682.01018
                     212.42675                      56.78300                    1603.03347
                     204.53712                      53.52328                    1510.59403
                     196.12421                      50.24792                    1417.75752
                     177.63232                      44.65969                    1259.76456
                      91.43782                      22.53068                     635.37173
                     -30.74047                      -7.49624                    -211.36558
        </DataArray>
      </PointData>
      <Lines>
        <DataArray type="Int32" Name="connectivity" format="ascii">
      0      1
      1      2
      2      3
      3      4
      4      5
      5      6
      6      7
      7      8
      8      9
      9     10
     10     11
     11     12
     12     13
     13     14
     14     15
     15     16
     16     17
     17     18
        </DataArray>
        <DataArray type="Int32" Name="offsets" format="ascii">
      2
      4
      6
      8
     10
     12
     14
     16
     18
     20
     22
     24
     26
     28
     30
     32
     34
     36
        </DataArray>
      </Lines>
    </Piece>
  </PolyData>
</VTKFile>
