<?xml version="1.0"?>
<VTKFile type="PolyData" version="0.1" byte_order="LittleEndian">
  <PolyData>
    <Piece NumberOfPoints="     19" NumberOfVerts="  0" NumberOfLines="     18"
           NumberOfStrips="  0" NumberOfPolys="      0">
      <Points>
        <DataArray type="Float32" NumberOfComponents="3" format="ascii">
                      -4.73451                      -0.89292                      91.27706
                      -4.69109                      -1.63878                      92.42155
                      -4.65396                      -3.20173                      94.66619
                      -4.63785                      -4.79981                      96.88894
                      -4.62576                      -6.82065                      99.65279
                      -4.50303                      -9.15022                     103.02692
                      -4.29957                     -11.38877                     106.45683
                      -4.07857                     -13.63209                     109.88268
                      -3.83490                     -15.87961                     113.30438
                      -3.56823                     -18.13272                     116.72081
                      -3.27999                     -20.39388                     120.13024
                      -2.96885                     -22.66172                     123.53330
                      -2.63625                     -24.93557                     126.93039
                      -2.28487                     -27.21454                     130.32218
                      -1.91639                     -29.49822                     133.70889
                      -1.59938                     -31.40416                     136.52796
                      -1.33956                     -32.92385                     138.78571
                      -1.06028                     -34.40057                     141.07051
                      -0.93618                     -35.17180                     142.19185
        </DataArray>
      </Points>
      <PointData>
        <DataArray type="Float32" Name="TranslationalVelocity" NumberOfComponents="3" format="ascii">
                      -0.09090                      -1.54335                      -1.02888
                      -0.17675                      -2.99322                      -1.97049
                      -0.35720                      -5.83229                      -3.94432
                      -0.54249                      -8.64271                      -5.96365
                      -0.77814                     -12.13870                      -8.51911
                      -1.05194                     -16.42293                     -11.46784
                      -1.31771                     -20.79158                     -14.30418
                      -1.58695                     -25.16157                     -17.14919
                      -1.85977                     -29.53314                     -20.00188
                      -2.13643                     -33.90450                     -22.86374
                      -2.41726                     -38.27280                     -25.73753
                      -2.70206                     -42.63848                     -28.62120
                      -2.99063                     -47.00136                     -31.51352
                      -3.28272                     -51.36151                     -34.41309
                      -3.57806                     -55.71867                     -37.31917
                      -3.82644                     -59.34773                     -39.74490
                      -4.02554                     -62.25549                     -41.67923
                      -4.22002                     -65.20076                     -43.55908
                      -4.32173                     -66.64485                     -44.54098
        </DataArray>
        <DataArray type="Float32" Name="RotationalVelocity" NumberOfComponents="3" format="ascii">
                       1.26223                       0.00030                      -0.11548
                       1.26244                       0.00035                      -0.11568
                       1.26299                       0.00035                      -0.11606
                       1.26368                       0.00025                      -0.11642
                       1.26467                       0.00004                      -0.11686
                       1.26593                      -0.00028                      -0.11744
                       1.26718                      -0.00062                      -0.11812
                       1.26833                      -0.00093                      -0.11891
                       1.26935                      -0.00119                      -0.11983
                       1.27023                      -0.00139                      -0.12088
                       1.27094                      -0.00154                      -0.12202
                       1.27152                      -0.00164                      -0.12324
                       1.27196                      -0.00172                      -0.12446
                       1.27230                      -0.00178                      -0.12565
                       1.27256                      -0.00183                      -0.12673
                       1.27271                      -0.00187                      -0.12750
                       1.27279                      -0.00189                      -0.12798
                       1.27283                      -0.00190                      -0.12832
                       1.27284                      -0.00190                      -0.12844
        </DataArray>
        <DataArray type="Float32" Name="TranslationalAcceleration" NumberOfComponents="3" format="ascii">
                      -0.17366                       1.34550                      -2.00216
                      -0.21852                       1.59969                      -2.42770
                      -0.61900                       4.69079                      -6.87167
                      -0.98644                       7.59835                     -10.91652
                      -1.42144                      11.04786                     -15.60855
                      -1.94127                      14.83835                     -21.04448
                      -2.47149                      18.39446                     -26.44596
                      -3.01542                      21.95698                     -31.83491
                      -3.58191                      25.57108                     -37.27674
                      -4.17502                      29.25434                     -42.78852
                      -4.79395                      33.00314                     -48.35361
                      -5.43368                      36.79302                     -53.94090
                      -6.08493                      40.59458                     -59.51354
                      -6.73475                      44.38075                     -65.04363
                      -7.36727                      48.13634                     -70.52506
                      -7.86768                      51.24442                     -75.07624
                      -8.24341                      53.71640                     -78.74105
                      -8.59412                      56.13075                     -82.50845
                      -8.75625                      57.40480                     -84.38973
        </DataArray>
        <DataArray type="Float32" Name="OrientationX" NumberOfComponents="3" format="ascii">
                       0.84584                      -0.43182                      -0.31318
                       0.84583                      -0.43162                      -0.31350
                       0.84577                      -0.43100                      -0.31450
                       0.84568                      -0.43012                      -0.31596
                       0.84551                      -0.42871                      -0.31831
                       0.86177                      -0.40350                      -0.30747
                       0.87274                      -0.38426                      -0.30112
                       0.88170                      -0.36691                      -0.29661
                       0.89062                      -0.34860                      -0.29202
                       0.89917                      -0.32987                      -0.28754
                       0.90658                      -0.31225                      -0.28394
                       0.91333                      -0.29513                      -0.28060
                       0.91881                      -0.28002                      -0.27816
                       0.92225                      -0.26908                      -0.27759
                       0.92546                      -0.25911                      -0.27637
                       0.92817                      -0.25142                      -0.27437
                       0.93021                      -0.24626                      -0.27213
                       0.93103                      -0.24469                      -0.27077
                       0.93072                      -0.24589                      -0.27074
        </DataArray>
        <DataArray type="Float32" Name="OrientationY" NumberOfComponents="3" format="ascii">
                       0.53241                       0.71968                       0.44564
                       0.53242                       0.71965                       0.44568
                       0.53245                       0.71960                       0.44572
                       0.53250                       0.71956                       0.44572
                       0.53261                       0.71954                       0.44564
                       0.50559                       0.73279                       0.45540
                       0.48604                       0.74178                       0.46209
                       0.46908                       0.74919                       0.46764
                       0.45129                       0.75653                       0.47328
                       0.43324                       0.76355                       0.47885
                       0.41662                       0.76962                       0.48386
                       0.40058                       0.77510                       0.48863
                       0.38673                       0.77953                       0.49271
                       0.37740                       0.78236                       0.49547
                       0.36851                       0.78489                       0.49815
                       0.36108                       0.78690                       0.50042
                       0.35559                       0.78832                       0.50210
                       0.35354                       0.78882                       0.50276
                       0.35450                       0.78855                       0.50251
        </DataArray>
        <DataArray type="Float32" Name="OrientationZ" NumberOfComponents="3" format="ascii">
                       0.03295                      -0.54369                       0.83864
                       0.03325                      -0.54388                       0.83850
                       0.03421                      -0.54444                       0.83810
                       0.03564                      -0.54519                       0.83756
                       0.03799                      -0.54632                       0.83671
                       0.04155                      -0.54791                       0.83551
                       0.04581                      -0.54964                       0.83415
                       0.05064                      -0.55145                       0.83267
                       0.05594                      -0.55330                       0.83110
                       0.06160                      -0.55514                       0.82947
                       0.06744                      -0.55695                       0.82780
                       0.07328                      -0.55868                       0.82614
                       0.07886                      -0.56029                       0.82454
                       0.08386                      -0.56171                       0.82307
                       0.08785                      -0.56286                       0.82187
                       0.09009                      -0.56354                       0.82116
                       0.09088                      -0.56383                       0.82088
                       0.09057                      -0.56381                       0.82092
                       0.08993                      -0.56368                       0.82109
        </DataArray>
        <DataArray type="Float32" Name="Force" NumberOfComponents="3" format="ascii">
                       0.43464                       7.38059                       4.76770
                     452.39974                      75.33344                      30.89775
                     526.25124                     161.20859                      83.02921
                     433.20286                     191.82530                     105.93903
                    2395.52829                   -1596.91703                   -1144.83388
                    2814.41444                   -2063.98173                   -1479.68045
                    3116.38072                   -1952.70363                   -1439.36597
                    3338.48413                   -1787.80328                   -1364.91296
                    3079.77040                   -1431.45463                   -1138.20615
                    2922.48701                   -1195.71651                    -995.08911
                    3132.60020                   -1136.64053                    -995.22122
                    3007.07018                    -976.75071                    -902.88572
                    2771.03007                    -811.50747                    -793.65319
                    2387.81929                    -638.65119                    -659.28256
                    2001.12138                    -482.81477                    -528.32912
                    1697.17531                    -375.10036                    -430.41774
                    1390.52807                    -283.87180                    -338.73180
                     729.56840                    -131.53018                    -166.08064
                   -5749.35457                     567.15593                     997.99837
        </DataArray>
        <DataArray type="Float32" Name="Moment" NumberOfComponents="3" format="ascii">
                       0.00000                       0.00000                       0.00000
                       0.00000                       0.00000                       0.00000
                       0.00000                       0.00000                       0.00000
                       0.00000                       0.00000                       0.00000
                     -35.23328                     502.36221                    -774.46442
                     -40.12560                     522.20403                    -804.73432
                     -66.03613                     778.45944                   -1199.06565
                    -100.00531                    1065.12460                   -1639.73780
                    -141.42558                    1362.14198                   -2095.75634
                    -164.96159                    1441.92997                   -2217.12564
                    -186.32508                    1486.59774                   -2284.32553
                    -206.97826                    1519.02098                   -2332.63515
                    -168.29511                    1147.27582                   -1760.68557
                    -170.83775                    1094.91807                   -1679.40192
                    -168.82167                    1032.54476                   -1583.02938
                    -162.11905                     966.69869                   -1481.70812
                    -143.76026                     849.66082                   -1302.20255
                     -71.05854                     421.42455                    -645.90377
                      15.89218                     -94.92444                     145.49797
        </DataArray>
      </PointData>
      <Lines>
        <DataArray type="Int32" Name="connectivity" format="ascii">
      0      1
      1      2
      2      3
      3      4
      4      5
      5      6
      6      7
      7      8
      8      9
      9     10
     10     11
     11     12
     12     13
     13     14
     14     15
     15     16
     16     17
     17     18
        </DataArray>
        <DataArray type="Int32" Name="offsets" format="ascii">
      2
      4
      6
      8
     10
     12
     14
     16
     18
     20
     22
     24
     26
     28
     30
     32
     34
     36
        </DataArray>
      </Lines>
    </Piece>
  </PolyData>
</VTKFile>
