<?xml version="1.0"?>
<VTKFile type="PolyData" version="0.1" byte_order="LittleEndian">
  <PolyData>
    <Piece NumberOfPoints="     19" NumberOfVerts="  0" NumberOfLines="     18"
           NumberOfStrips="  0" NumberOfPolys="      0">
      <Points>
        <DataArray type="Float32" NumberOfComponents="3" format="ascii">
                      -4.98692                      -0.12212                      88.53351
                      -5.17201                      -0.16566                      87.18001
                      -5.58902                      -0.16771                      84.47645
                      -6.02720                      -0.12917                      81.77423
                      -6.58576                      -0.05628                      78.39683
                      -7.16157                      -0.09050                      74.33529
                      -7.67323                      -0.24167                      70.26909
                      -8.18142                      -0.39470                      66.20244
                      -8.68428                      -0.55096                      62.13514
                      -9.18455                      -0.70925                      58.06750
                      -9.68641                      -0.86697                      53.99996
                     -10.19103                      -1.02598                      49.93274
                     -10.70164                      -1.18719                      45.86633
                     -11.22187                      -1.35159                      41.80128
                     -11.75324                      -1.51943                      37.73791
                     -12.20723                      -1.66268                      34.35349
                     -12.57653                      -1.78731                      31.64734
                     -12.93818                      -1.96703                      28.94228
                     -13.13612                      -2.01852                      27.59090
        </DataArray>
      </Points>
      <PointData>
        <DataArray type="Float32" Name="TranslationalVelocity" NumberOfComponents="3" format="ascii">
                       0.00009                       1.87869                      -0.06335
                      -0.00571                       3.60844                      -0.11820
                      -0.00873                       7.06709                      -0.12036
                      -0.00922                      10.52360                      -0.07105
                      -0.01089                      14.84033                       0.02219
                      -0.03334                      20.01320                      -0.01865
                      -0.07686                      25.17640                      -0.20563
                      -0.12863                      30.33166                      -0.39361
                      -0.18891                      35.47943                      -0.58432
                      -0.25781                      40.62015                      -0.77622
                      -0.33561                      45.75420                      -0.96597
                      -0.42368                      50.88176                      -1.15573
                      -0.52407                      56.00258                      -1.34631
                      -0.63984                      61.11594                      -1.53840
                      -0.77520                      66.22061                      -1.73161
                      -0.90757                      70.46620                      -1.89357
                      -1.02964                      73.85595                      -2.03309
                      -1.17524                      77.23702                      -2.23845
                      -1.24964                      78.92576                      -2.29202
        </DataArray>
        <DataArray type="Float32" Name="RotationalVelocity" NumberOfComponents="3" format="ascii">
                       1.26251                       0.00046                      -0.11536
                       1.26223                       0.00061                      -0.11522
                       1.26141                       0.00118                      -0.11504
                       1.26034                       0.00204                      -0.11493
                       1.25879                       0.00337                      -0.11480
                       1.25680                       0.00521                      -0.11465
                       1.25480                       0.00717                      -0.11453
                       1.25286                       0.00919                      -0.11458
                       1.25101                       0.01126                      -0.11498
                       1.24920                       0.01344                      -0.11590
                       1.24737                       0.01583                      -0.11751
                       1.24545                       0.01858                      -0.11989
                       1.24334                       0.02187                      -0.12303
                       1.24098                       0.02589                      -0.12679
                       1.23832                       0.03088                      -0.13085
                       1.23589                       0.03591                      -0.13409
                       1.23382                       0.04063                      -0.13629
                       1.23166                       0.04605                      -0.13781
                       1.23057                       0.04904                      -0.13822
        </DataArray>
        <DataArray type="Float32" Name="TranslationalAcceleration" NumberOfComponents="3" format="ascii">
                       0.21170                       0.07114                       2.39607
                       0.25029                       0.08352                       2.90184
                       0.69132                       0.09488                       8.30264
                       1.06962                       0.02141                      13.26416
                       1.48244                      -0.12924                      19.04723
                       1.93874                      -0.12494                      25.59852
                       2.40610                       0.07532                      31.94895
                       2.90761                       0.29258                      38.25351
                       3.44482                       0.52651                      44.59485
                       4.00329                       0.76759                      51.00244
                       4.55757                       1.00148                      57.46716
                       5.07495                       1.21993                      63.95645
                       5.51906                       1.41336                      70.42973
                       5.85273                       1.57337                      76.85385
                       6.04016                       1.69260                      83.21861
                       6.05692                       1.75679                      88.49590
                       5.97310                       1.79887                      92.72754
                       5.79908                       1.90722                      97.00529
                       5.66509                       1.88996                      99.18196
        </DataArray>
        <DataArray type="Float32" Name="OrientationX" NumberOfComponents="3" format="ascii">
                       0.86208                       0.48880                      -0.13378
                       0.86209                       0.48881                      -0.13365
                       0.86213                       0.48886                      -0.13325
                       0.86217                       0.48895                      -0.13266
                       0.86221                       0.48912                      -0.13175
                       0.87738                       0.46140                      -0.13156
                       0.88768                       0.44144                      -0.13093
                       0.89613                       0.42425                      -0.13026
                       0.90446                       0.40633                      -0.12982
                       0.91236                       0.38829                      -0.12974
                       0.91912                       0.37188                      -0.13011
                       0.92516                       0.35624                      -0.13108
                       0.92992                       0.34298                      -0.13269
                       0.93270                       0.33443                      -0.13499
                       0.93512                       0.32635                      -0.13804
                       0.93701                       0.31952                      -0.14110
                       0.93832                       0.31441                      -0.14387
                       0.93845                       0.31264                      -0.14685
                       0.93785                       0.31371                      -0.14839
        </DataArray>
        <DataArray type="Float32" Name="OrientationY" NumberOfComponents="3" format="ascii">
                       0.48866                      -0.87173                      -0.03620
                       0.48866                      -0.87172                      -0.03617
                       0.48871                      -0.87170                      -0.03609
                       0.48880                      -0.87166                      -0.03596
                       0.48896                      -0.87157                      -0.03576
                       0.46153                      -0.88657                      -0.03131
                       0.44178                      -0.89669                      -0.02809
                       0.42474                      -0.90496                      -0.02535
                       0.40699                      -0.91315                      -0.02261
                       0.38912                      -0.92097                      -0.01994
                       0.37287                      -0.92772                      -0.01760
                       0.35739                      -0.93383                      -0.01543
                       0.34429                      -0.93876                      -0.01365
                       0.33588                      -0.94182                      -0.01255
                       0.32797                      -0.94462                      -0.01151
                       0.32130                      -0.94692                      -0.01061
                       0.31633                      -0.94860                      -0.00992
                       0.31469                      -0.94915                      -0.00971
                       0.31580                      -0.94878                      -0.00991
        </DataArray>
        <DataArray type="Float32" Name="OrientationZ" NumberOfComponents="3" format="ascii">
                      -0.13432                      -0.03417                      -0.99035
                      -0.13419                      -0.03413                      -0.99037
                      -0.13379                      -0.03401                      -0.99043
                      -0.13322                      -0.03384                      -0.99051
                      -0.13232                      -0.03358                      -0.99064
                      -0.13108                      -0.03324                      -0.99081
                      -0.12980                      -0.03290                      -0.99099
                      -0.12864                      -0.03261                      -0.99116
                      -0.12773                      -0.03239                      -0.99128
                      -0.12723                      -0.03229                      -0.99135
                      -0.12725                      -0.03234                      -0.99134
                      -0.12790                      -0.03257                      -0.99125
                      -0.12925                      -0.03299                      -0.99106
                      -0.13133                      -0.03364                      -0.99077
                      -0.13415                      -0.03451                      -0.99036
                      -0.13700                      -0.03539                      -0.98994
                      -0.13960                      -0.03621                      -0.98955
                      -0.14242                      -0.03710                      -0.98911
                      -0.14390                      -0.03757                      -0.98888
        </DataArray>
        <DataArray type="Float32" Name="Force" NumberOfComponents="3" format="ascii">
                       0.01374                      -4.20825                       0.14333
                     323.47747                     -71.99182                     -41.34542
                     382.16104                    -160.30681                     -46.09292
                     317.31821                    -194.50204                     -35.96741
                    1747.49833                    1357.27406                    -280.23935
                    2107.03192                    1579.87315                    -333.24499
                    1995.94759                    1254.75782                    -304.70412
                    2019.24350                    1089.90708                    -299.64519
                    1715.60997                     795.79210                    -248.49950
                    1367.42810                     548.67051                    -194.40604
                    1376.43504                     480.69886                    -193.24820
                    1023.28465                     305.37792                    -142.55529
                     431.95062                      85.00911                     -59.25978
                      57.86130                     -30.61330                      -6.61321
                    -241.88214                    -115.34794                      36.73961
                    -617.24156                    -203.05506                      92.41821
                    -858.93163                    -249.45107                     129.76143
                    -896.73344                    -233.35834                     137.14923
                   -5374.10705                    -744.04552                     807.53558
        </DataArray>
        <DataArray type="Float32" Name="Moment" NumberOfComponents="3" format="ascii">
                       0.00000                       0.00000                       0.00000
                       0.00000                       0.00000                       0.00000
                       0.00000                       0.00000                       0.00000
                       0.00000                       0.00000                       0.00000
                      80.35573                      20.75272                     601.58799
                     131.39800                      34.25834                     993.21406
                     160.73594                      42.32297                    1227.17604
                     204.69399                      54.38912                    1577.21905
                     264.79858                      70.86087                    2055.06090
                     278.46198                      74.81403                    2169.81419
                     292.39830                      78.54517                    2278.02293
                     300.80533                      80.39212                    2331.44253
                     219.16504                      57.95963                    1680.66055
                     212.31701                      55.25335                    1601.86173
                     204.47829                      52.09095                    1509.76631
                     196.12255                      48.91539                    1417.33438
                     177.65314                      43.48011                    1259.52728
                      91.45895                      21.93791                     635.32032
                     -30.76926                      -7.30417                    -211.49775
        </DataArray>
      </PointData>
      <Lines>
        <DataArray type="Int32" Name="connectivity" format="ascii">
      0      1
      1      2
      2      3
      3      4
      4      5
      5      6
      6      7
      7      8
      8      9
      9     10
     10     11
     11     12
     12     13
     13     14
     14     15
     15     16
     16     17
     17     18
        </DataArray>
        <DataArray type="Int32" Name="offsets" format="ascii">
      2
      4
      6
      8
     10
     12
     14
     16
     18
     20
     22
     24
     26
     28
     30
     32
     34
     36
        </DataArray>
      </Lines>
    </Piece>
  </PolyData>
</VTKFile>
