<?xml version="1.0"?>
<VTKFile type="PolyData" version="0.1" byte_order="LittleEndian">
  <PolyData>
    <Piece NumberOfPoints="     19" NumberOfVerts="  0" NumberOfLines="     18"
           NumberOfStrips="  0" NumberOfPolys="      0">
      <Points>
        <DataArray type="Float32" NumberOfComponents="3" format="ascii">
                      -4.81136                      -1.08603                      88.93218
                      -4.96688                      -2.00072                      87.92850
                      -5.32880                      -3.76477                      85.86913
                      -5.71389                      -5.49723                      83.78430
                      -6.20743                      -7.64296                      81.16183
                      -6.70010                     -10.30997                      78.08387
                      -7.12420                     -13.06443                      75.07511
                      -7.54634                     -15.81888                      72.06581
                      -7.96539                     -18.57477                      69.05708
                      -8.38508                     -21.33156                      66.04896
                      -8.81071                     -24.08767                      63.04079
                      -9.24438                     -26.84492                      60.03458
                      -9.69030                     -29.60435                      57.03201
                     -10.15299                     -32.36690                      54.03484
                     -10.63484                     -35.13295                      51.04408
                     -11.05437                     -37.44124                      48.55797
                     -11.40005                     -39.29568                      46.57836
                     -11.73857                     -41.19165                      44.63602
                     -11.92925                     -42.11072                      43.64239
        </DataArray>
      </Points>
      <PointData>
        <DataArray type="Float32" Name="TranslationalVelocity" NumberOfComponents="3" format="ascii">
                      -1.09497                       1.88930                      -1.75955
                      -1.22102                       3.58267                      -3.28326
                      -1.47378                       7.06056                      -6.21797
                      -1.73752                      10.58030                      -9.09389
                      -2.08561                      15.00548                     -12.64823
                      -2.54005                      20.18728                     -17.06345
                      -3.04467                      25.24186                     -21.61707
                      -3.61011                      30.29069                     -26.15606
                      -4.25099                      35.33054                     -30.67989
                      -4.98025                      40.36100                     -35.18488
                      -5.80826                      45.38346                     -39.66584
                      -6.74260                      50.39464                     -44.12392
                      -7.78687                      55.39248                     -48.55912
                      -8.93991                      60.37521                     -52.97177
                     -10.19501                      65.34222                     -57.36223
                     -11.31095                      69.46855                     -61.00465
                     -12.23928                      72.75314                     -63.91903
                     -13.19604                      75.97221                     -66.89318
                     -13.67725                      77.62276                     -68.32647
        </DataArray>
        <DataArray type="Float32" Name="RotationalVelocity" NumberOfComponents="3" format="ascii">
                       1.66320                      -0.01723                      -0.15650
                       1.66538                      -0.00149                      -0.14057
                       1.66801                       0.02227                      -0.11862
                       1.66875                       0.03772                      -0.10766
                       1.66784                       0.04941                      -0.10475
                       1.66496                       0.05722                      -0.11171
                       1.66101                       0.06329                      -0.12466
                       1.65653                       0.07115                      -0.13987
                       1.65178                       0.08282                      -0.15525
                       1.64683                       0.09901                      -0.16995
                       1.64160                       0.11928                      -0.18404
                       1.63599                       0.14226                      -0.19811
                       1.62992                       0.16585                      -0.21301
                       1.62344                       0.18737                      -0.22943
                       1.61679                       0.20378                      -0.24760
                       1.61147                       0.21148                      -0.26368
                       1.60770                       0.21216                      -0.27658
                       1.60473                       0.20698                      -0.28863
                       1.60368                       0.20195                      -0.29400
        </DataArray>
        <DataArray type="Float32" Name="TranslationalAcceleration" NumberOfComponents="3" format="ascii">
                      -0.25544                       2.83295                       3.08461
                       0.10828                       3.33224                       3.80546
                       0.45567                       9.35232                      11.01422
                       0.93291                      14.78384                      17.68607
                       1.63648                      21.04432                      25.49721
                       2.46355                      28.37555                      34.19944
                       3.19732                      35.71868                      42.50243
                       3.95603                      43.02788                      50.74446
                       4.86708                      50.43849                      58.96929
                       6.07175                      58.01957                      67.15257
                       7.68422                      65.78375                      75.23397
                       9.75582                      73.71266                      83.13630
                      12.24663                      81.75728                      90.80188
                      15.00039                      89.85483                      98.21737
                      17.72638                      97.94252                     105.44368
                      19.66311                     104.64171                     111.42704
                      20.76092                     109.97638                     116.27761
                      21.50305                     115.44753                     121.10289
                      21.46596                     118.06564                     123.74951
        </DataArray>
        <DataArray type="Float32" Name="OrientationX" NumberOfComponents="3" format="ascii">
                       0.84118                       0.32818                      -0.42978
                       0.84122                       0.32828                      -0.42962
                       0.84128                       0.32865                      -0.42923
                       0.84130                       0.32923                      -0.42875
                       0.84126                       0.33018                      -0.42809
                       0.85753                       0.31021                      -0.41037
                       0.86846                       0.29628                      -0.39749
                       0.87726                       0.28446                      -0.38665
                       0.88583                       0.27201                      -0.37593
                       0.89381                       0.25931                      -0.36588
                       0.90040                       0.24760                      -0.35774
                       0.90608                       0.23615                      -0.35106
                       0.91025                       0.22611                      -0.34688
                       0.91207                       0.21913                      -0.34657
                       0.91348                       0.21195                      -0.34733
                       0.91461                       0.20540                      -0.34829
                       0.91538                       0.20006                      -0.34937
                       0.91489                       0.19687                      -0.35244
                       0.91392                       0.19660                      -0.35509
        </DataArray>
        <DataArray type="Float32" Name="OrientationY" NumberOfComponents="3" format="ascii">
                       0.52890                      -0.66481                       0.52753
                       0.52886                      -0.66488                       0.52749
                       0.52885                      -0.66499                       0.52736
                       0.52893                      -0.66509                       0.52716
                       0.52916                      -0.66516                       0.52684
                       0.50259                      -0.67537                       0.53970
                       0.48369                      -0.68223                       0.54828
                       0.46771                      -0.68777                       0.55518
                       0.45134                      -0.69316                       0.56198
                       0.43523                      -0.69821                       0.56839
                       0.42113                      -0.70244                       0.57378
                       0.40820                      -0.70616                       0.57855
                       0.39798                      -0.70900                       0.58218
                       0.39260                      -0.71053                       0.58396
                       0.38780                      -0.71187                       0.58554
                       0.38363                      -0.71296                       0.58695
                       0.38044                      -0.71376                       0.58806
                       0.38016                      -0.71389                       0.58808
                       0.38174                      -0.71358                       0.58743
        </DataArray>
        <DataArray type="Float32" Name="OrientationZ" NumberOfComponents="3" format="ascii">
                      -0.11259                      -0.67106                      -0.73280
                      -0.11248                      -0.67095                      -0.73292
                      -0.11212                      -0.67065                      -0.73325
                      -0.11160                      -0.67027                      -0.73368
                      -0.11080                      -0.66973                      -0.73429
                      -0.10973                      -0.66906                      -0.73507
                      -0.10873                      -0.66842                      -0.73580
                      -0.10799                      -0.66788                      -0.73639
                      -0.10772                      -0.66748                      -0.73679
                      -0.10807                      -0.66728                      -0.73693
                      -0.10922                      -0.66728                      -0.73675
                      -0.11128                      -0.66752                      -0.73623
                      -0.11430                      -0.66798                      -0.73535
                      -0.11828                      -0.66867                      -0.73409
                      -0.12315                      -0.66957                      -0.73247
                      -0.12776                      -0.67045                      -0.73088
                      -0.13172                      -0.67121                      -0.72947
                      -0.13583                      -0.67201                      -0.72797
                      -0.13790                      -0.67242                      -0.72721
        </DataArray>
        <DataArray type="Float32" Name="Force" NumberOfComponents="3" format="ascii">
                       1.12381                     -13.21598                      11.92986
                     422.43254                    -128.75758                      53.07057
                     559.95968                    -255.42354                     148.24550
                     492.01837                    -290.89786                     191.48070
                    2499.16643                    1338.59728                   -1602.86008
                    2666.65410                    1338.67093                   -1623.84162
                    2435.36967                     977.79959                   -1255.22974
                    2319.80646                     782.05380                   -1056.34865
                    1888.75791                     536.32166                    -767.30065
                    1345.43280                     317.16046                    -487.83202
                    1534.08585                     313.65060                    -514.79525
                    1166.15374                     194.15480                    -354.20135
                     491.87035                      27.19704                    -101.42094
                    -102.08676                    -103.99472                     111.75395
                     -16.39516                     -74.79882                      71.34464
                    -159.00163                    -103.77597                     122.98740
                    -293.70695                    -121.21227                     164.23512
                    -568.29334                    -136.08138                     230.81212
                   -9376.13616                    -626.98703                    2349.83234
        </DataArray>
        <DataArray type="Float32" Name="Moment" NumberOfComponents="3" format="ascii">
                       0.00000                       0.00000                       0.00000
                       0.00000                       0.00000                       0.00000
                       0.00000                       0.00000                       0.00000
                       0.00000                       0.00000                       0.00000
                      92.97129                     563.73858                     615.75533
                     186.62197                    1143.34478                    1249.02493
                     214.24292                    1325.47717                    1448.19048
                     278.11044                    1733.32856                    1893.99456
                     370.06063                    2313.37341                    2527.91028
                     395.09197                    2462.23362                    2690.46063
                     427.21379                    2634.39905                    2878.16072
                     449.88552                    2722.30102                    2973.40340
                     332.80005                    1959.58732                    2139.49368
                     334.25923                    1900.44985                    2073.84334
                     330.59621                    1803.53848                    1966.82933
                     323.75708                    1700.90258                    1853.77285
                     296.36237                    1508.82649                    1643.57029
                     153.81213                     758.73102                     826.03796
                     -64.74996                    -314.46505                    -342.26694
        </DataArray>
      </PointData>
      <Lines>
        <DataArray type="Int32" Name="connectivity" format="ascii">
      0      1
      1      2
      2      3
      3      4
      4      5
      5      6
      6      7
      7      8
      8      9
      9     10
     10     11
     11     12
     12     13
     13     14
     14     15
     15     16
     16     17
     17     18
        </DataArray>
        <DataArray type="Int32" Name="offsets" format="ascii">
      2
      4
      6
      8
     10
     12
     14
     16
     18
     20
     22
     24
     26
     28
     30
     32
     34
     36
        </DataArray>
      </Lines>
    </Piece>
  </PolyData>
</VTKFile>
