<?xml version="1.0"?>
<VTKFile type="PolyData" version="0.1" byte_order="LittleEndian">
  <PolyData>
    <Piece NumberOfPoints="    550" NumberOfVerts="  0" NumberOfLines="     21"
           NumberOfStrips="  0" NumberOfPolys="    567">
      <Points>
        <DataArray type="Float32" NumberOfComponents="3" format="ascii">
                       2.97347                      -0.00001                       2.18975
                       2.88005                       0.73944                       2.18976
                       2.60568                       1.43242                       2.18979
                       2.16759                       2.03540                       2.18984
                       1.59330                       2.51049                       2.18989
                       0.91891                       2.82784                       2.18995
                       0.18679                       2.96750                       2.19002
                      -0.55706                       2.92070                       2.19008
                      -1.26591                       2.69038                       2.19014
                      -1.89521                       2.29101                       2.19019
                      -2.40542                       1.74769                       2.19022
                      -2.76448                       1.09456                       2.19025
                      -2.94984                       0.37265                       2.19026
                      -2.94984                      -0.37267                       2.19025
                      -2.76448                      -1.09458                       2.19022
                      -2.40542                      -1.74772                       2.19019
                      -1.89521                      -2.29104                       2.19014
                      -1.26591                      -2.69040                       2.19008
                      -0.55706                      -2.92072                       2.19001
                       0.18679                      -2.96752                       2.18995
                       0.91891                      -2.82786                       2.18989
                       1.59330                      -2.51052                       2.18984
                       2.16759                      -2.03543                       2.18979
                       2.60568                      -1.43245                       2.18976
                       2.88005                      -0.73946                       2.18975
                       2.92103                      -0.00011                       6.56914
                       2.82929                       0.72610                       6.56919
                       2.55983                       1.40667                       6.56929
                       2.12959                       1.99885                       6.56944
                       1.56559                       2.46543                       6.56962
                       0.90328                       2.77709                       6.56982
                       0.18426                       2.91425                       6.57004
                      -0.54627                       2.86829                       6.57026
                      -1.24242                       2.64210                       6.57045
                      -1.86045                       2.24989                       6.57062
                      -2.36152                       1.71630                       6.57075
                      -2.71416                       1.07486                       6.57084
                      -2.89619                       0.36588                       6.57087
                      -2.89619                      -0.36610                       6.57084
                      -2.71416                      -1.07508                       6.57077
                      -2.36152                      -1.71652                       6.57064
                      -1.86045                      -2.25010                       6.57048
                      -1.24242                      -2.64232                       6.57028
                      -0.54627                      -2.86851                       6.57007
                       0.18426                      -2.91447                       6.56985
                       0.90328                      -2.77731                       6.56964
                       1.56559                      -2.46565                       6.56946
                       2.12959                      -1.99907                       6.56931
                       2.55983                      -1.40689                       6.56920
                       2.82929                      -0.72631                       6.56914
                       2.86959                      -0.00030                      10.94847
                       2.77952                       0.71266                      10.94855
                       2.51498                       1.38083                      10.94873
                       2.09258                       1.96221                      10.94899
                       1.53887                       2.42028                      10.94931
                       0.88863                       2.72626                      10.94967
                       0.18273                       2.86092                      10.95006
                      -0.53448                       2.81579                      10.95044
                      -1.21794                       2.59372                      10.95079
                      -1.82470                       2.20866                      10.95110
                      -2.31663                       1.68481                      10.95133
                      -2.66283                       1.05507                      10.95148
                      -2.84155                       0.35901                      10.95154
                      -2.84155                      -0.35962                      10.95150
                      -2.66283                      -1.05567                      10.95137
                      -2.31663                      -1.68541                      10.95115
                      -1.82470                      -2.20927                      10.95086
                      -1.21794                      -2.59433                      10.95051
                      -0.53448                      -2.81640                      10.95013
                       0.18273                      -2.86152                      10.94975
                       0.88863                      -2.72686                      10.94938
                       1.53887                      -2.42088                      10.94905
                       2.09258                      -1.96281                      10.94877
                       2.51498                      -1.38143                      10.94858
                       2.77952                      -0.71326                      10.94848
                       2.81923                      -0.00059                      15.32779
                       2.73084                       0.69913                      15.32791
                       2.47120                       1.35488                      15.32817
                       2.05665                       1.92547                      15.32854
                       1.51322                       2.37503                      15.32900
                       0.87506                       2.67533                      15.32953
                       0.18228                       2.80748                      15.33008
                      -0.52161                       2.76320                      15.33063
                      -1.19238                       2.54525                      15.33114
                      -1.78786                       2.16734                      15.33158
                      -2.27066                       1.65322                      15.33191
                      -2.61043                       1.03517                      15.33213
                      -2.78583                       0.35205                      15.33222
                      -2.78583                      -0.35323                      15.33216
                      -2.61043                      -1.03636                      15.33197
                      -2.27066                      -1.65440                      15.33166
                      -1.78786                      -2.16853                      15.33124
                      -1.19238                      -2.54644                      15.33074
                      -0.52161                      -2.76438                      15.33020
                       0.18228                      -2.80866                      15.32964
                       0.87506                      -2.67651                      15.32911
                       1.51322                      -2.37621                      15.32863
                       2.05665                      -1.92665                      15.32824
                       2.47120                      -1.35607                      15.32796
                       2.73084                      -0.70031                      15.32780
                       2.76996                      -0.00099                      19.70714
                       2.68324                       0.68548                      19.70731
                       2.42852                       1.32883                      19.70764
                       2.02182                       1.88861                      19.70812
                       1.48867                       2.32967                      19.70872
                       0.86259                       2.62428                      19.70939
                       0.18292                       2.75393                      19.71011
                      -0.50765                       2.71049                      19.71082
                      -1.16572                       2.49667                      19.71148
                      -1.74994                       2.12591                      19.71204
                      -2.22360                       1.62151                      19.71248
                      -2.55694                       1.01517                      19.71276
                      -2.72902                       0.34497                      19.71286
                      -2.72902                      -0.34696                      19.71279
                      -2.55694                      -1.01716                      19.71254
                      -2.22360                      -1.62350                      19.71213
                      -1.74994                      -2.12790                      19.71159
                      -1.16572                      -2.49866                      19.71095
                      -0.50765                      -2.71248                      19.71024
                       0.18292                      -2.75592                      19.70952
                       0.86259                      -2.62627                      19.70884
                       1.48867                      -2.33166                      19.70822
                       2.02182                      -1.89060                      19.70772
                       2.42852                      -1.33081                      19.70736
                       2.68324                      -0.68747                      19.70716
                       2.72177                      -0.00153                      24.08654
                       2.63672                       0.67171                      24.08675
                       2.38692                       1.30264                      24.08715
                       1.98806                       1.85163                      24.08774
                       1.46520                       2.28417                      24.08846
                       0.85120                       2.57310                      24.08929
                       0.18463                       2.70025                      24.09015
                      -0.49262                       2.65764                      24.09101
                      -1.13799                       2.44795                      24.09180
                      -1.71094                       2.08435                      24.09248
                      -2.17546                       1.58968                      24.09301
                      -2.50237                       0.99503                      24.09334
                      -2.67113                       0.33776                      24.09346
                      -2.67113                      -0.34082                      24.09337
                      -2.50237                      -0.99809                      24.09306
                      -2.17546                      -1.59274                      24.09256
                      -1.71094                      -2.08741                      24.09190
                      -1.13799                      -2.45101                      24.09112
                      -0.49262                      -2.66070                      24.09027
                       0.18463                      -2.70331                      24.08940
                       0.85120                      -2.57616                      24.08857
                       1.46520                      -2.28723                      24.08783
                       1.98806                      -1.85468                      24.08722
                       2.38692                      -1.30570                      24.08679
                       2.63672                      -0.67476                      24.08656
                       2.67462                      -0.00223                      28.46599
                       2.59124                       0.65777                      28.46623
                       2.34635                       1.27629                      28.46671
                       1.95533                       1.81448                      28.46740
                       1.44276                       2.23851                      28.46825
                       0.84084                       2.52176                      28.46921
                       0.18738                       2.64641                      28.47021
                      -0.47654                       2.60464                      28.47121
                      -1.10922                       2.39907                      28.47212
                      -1.67090                       2.04262                      28.47291
                      -2.12628                       1.55768                      28.47351
                      -2.44676                       0.97473                      28.47388
                      -2.61220                       0.33039                      28.47402
                      -2.61220                      -0.33484                      28.47390
                      -2.44676                      -0.97918                      28.47353
                      -2.12628                      -1.56214                      28.47295
                      -1.67090                      -2.04707                      28.47217
                      -1.10922                      -2.40352                      28.47126
                      -0.47654                      -2.60909                      28.47027
                       0.18738                      -2.65086                      28.46926
                       0.84084                      -2.52621                      28.46830
                       1.44276                      -2.24297                      28.46744
                       1.95533                      -1.81893                      28.46675
                       2.34635                      -1.28074                      28.46625
                       2.59124                      -0.66222                      28.46600
                       2.62846                      -0.00311                      32.84547
                       2.54676                       0.64363                      32.84576
                       2.30679                       1.24975                      32.84632
                       1.92362                       1.77714                      32.84710
                       1.42133                       2.19267                      32.84807
                       0.83148                       2.47023                      32.84915
                       0.19114                       2.59238                      32.85029
                      -0.45946                       2.55145                      32.85141
                      -1.07945                       2.35000                      32.85244
                      -1.62985                       2.00070                      32.85331
                      -2.07610                       1.52549                      32.85398
                      -2.39015                       0.95424                      32.85439
                      -2.55227                       0.32283                      32.85453
                      -2.55227                      -0.32906                      32.85438
                      -2.39015                      -0.96047                      32.85396
                      -2.07610                      -1.53172                      32.85328
                      -1.62985                      -2.00693                      32.85240
                      -1.07945                      -2.35623                      32.85137
                      -0.45946                      -2.55768                      32.85025
                       0.19114                      -2.59861                      32.84911
                       0.83148                      -2.47646                      32.84803
                       1.42133                      -2.19890                      32.84707
                       1.92361                      -1.78337                      32.84629
                       2.30678                      -1.25598                      32.84575
                       2.54676                      -0.64986                      32.84547
                       2.58330                      -0.00423                      37.22499
                       2.50327                       0.62927                      37.22532
                       2.26821                       1.22297                      37.22595
                       1.89288                       1.73956                      37.22684
                       1.40088                       2.14659                      37.22791
                       0.82311                       2.41846                      37.22912
                       0.19588                       2.53811                      37.23039
                      -0.44140                       2.49802                      37.23162
                      -1.04869                       2.30070                      37.23276
                      -1.58783                       1.95855                      37.23371
                      -2.02494                       1.49307                      37.23444
                      -2.33256                       0.93352                      37.23488
                      -2.49135                       0.31504                      37.23502
                      -2.49135                      -0.32351                      37.23483
                      -2.33256                      -0.94199                      37.23435
                      -2.02494                      -1.50154                      37.23359
                      -1.58783                      -1.96702                      37.23260
                      -1.04869                      -2.30917                      37.23144
                      -0.44140                      -2.50649                      37.23020
                       0.19588                      -2.54658                      37.22894
                       0.82311                      -2.42693                      37.22774
                       1.40088                      -2.15505                      37.22669
                       1.89288                      -1.74803                      37.22584
                       2.26821                      -1.23144                      37.22525
                       2.50327                      -0.63774                      37.22496
                       2.53912                      -0.00562                      41.60451
                       2.46077                       0.61464                      41.60490
                       2.23062                       1.19593                      41.60561
                       1.86314                       1.70172                      41.60659
                       1.38142                       2.10024                      41.60778
                       0.81573                       2.36643                      41.60911
                       0.20161                       2.48358                      41.61050
                      -0.42234                       2.44433                      41.61185
                      -1.01694                       2.25113                      41.61308
                      -1.54480                       1.91613                      41.61412
                      -1.97278                       1.46039                      41.61489
                      -2.27397                       0.91253                      41.61536
                      -2.42945                       0.30697                      41.61549
                      -2.42945                      -0.31822                      41.61527
                      -2.27397                      -0.92377                      41.61472
                      -1.97278                      -1.47163                      41.61387
                      -1.54481                      -1.92738                      41.61277
                      -1.01694                      -2.26237                      41.61150
                      -0.42235                      -2.45557                      41.61013
                       0.20161                      -2.49482                      41.60875
                       0.81573                      -2.37767                      41.60745
                       1.38142                      -2.11148                      41.60631
                       1.86314                      -1.71297                      41.60539
                       2.23062                      -1.20717                      41.60476
                       2.46077                      -0.62588                      41.60447
                       2.49597                      -0.00732                      45.98404
                       2.41929                       0.59970                      45.98448
                       2.19405                       1.16858                      45.98527
                       1.83442                       1.66358                      45.98635
                       1.36299                       2.05358                      45.98766
                       0.80937                       2.31409                      45.98911
                       0.20837                       2.42874                      45.99062
                      -0.40227                       2.39032                      45.99208
                      -0.98417                       2.20125                      45.99341
                      -1.50076                       1.87341                      45.99453
                      -1.91960                       1.42739                      45.99535
                      -2.21436                       0.89123                      45.99584
                      -2.36652                       0.29860                      45.99596
                      -2.36652                      -0.31324                      45.99570
                      -2.21436                      -0.90586                      45.99507
                      -1.91960                      -1.44203                      45.99413
                      -1.50077                      -1.88805                      45.99293
                      -0.98417                      -2.21589                      45.99153
                      -0.40227                      -2.40496                      45.99004
                       0.20836                      -2.44338                      45.98855
                       0.80937                      -2.32873                      45.98714
                       1.36298                      -2.06822                      45.98591
                       1.83442                      -1.67821                      45.98493
                       2.19405                      -1.18322                      45.98427
                       2.41929                      -0.61434                      45.98396
                       2.45388                      -0.00936                      50.36355
                       2.37887                       0.58442                      50.36406
                       2.15855                       1.14089                      50.36493
                       1.80676                       1.62508                      50.36611
                       1.34562                       2.00658                      50.36754
                       0.80408                       2.26141                      50.36912
                       0.21619                       2.37355                      50.37075
                      -0.38113                       2.33597                      50.37233
                      -0.95033                       2.15103                      50.37376
                      -1.45566                       1.83034                      50.37495
                      -1.86536                       1.39405                      50.37582
                      -2.15368                       0.86958                      50.37632
                      -2.30252                       0.28989                      50.37643
                      -2.30252                      -0.30861                      50.37612
                      -2.15368                      -0.88830                      50.37543
                      -1.86536                      -1.41277                      50.37439
                      -1.45566                      -1.84906                      50.37307
                      -0.95033                      -2.16975                      50.37156
                      -0.38113                      -2.35469                      50.36994
                       0.21618                      -2.39227                      50.36833
                       0.80408                      -2.28013                      50.36681
                       1.34561                      -2.02530                      50.36549
                       1.80676                      -1.64380                      50.36445
                       2.15855                      -1.15961                      50.36376
                       2.37887                      -0.60314                      50.36345
                       2.41292                      -0.01178                      54.74306
                       2.33958                       0.56876                      54.74363
                       2.12417                       1.11281                      54.74458
                       1.78023                       1.58621                      54.74588
                       1.32937                       1.95920                      54.74743
                       0.79991                       2.20834                      54.74913
                       0.22513                       2.31799                      54.75089
                      -0.35886                       2.28124                      54.75258
                      -0.91537                       2.10042                      54.75411
                      -1.40943                       1.78688                      54.75537
                      -1.80999                       1.36033                      54.75629
                      -2.09188                       0.84756                      54.75681
                      -2.23740                       0.28079                      54.75690
                      -2.23740                      -0.30436                      54.75655
                      -2.09189                      -0.87112                      54.75578
                      -1.80999                      -1.38389                      54.75465
                      -1.40943                      -1.81045                      54.75322
                      -0.91537                      -2.12399                      54.75158
                      -0.35887                      -2.30481                      54.74983
                       0.22513                      -2.34155                      54.74810
                       0.79991                      -2.23190                      54.74647
                       1.32937                      -1.98276                      54.74507
                       1.78023                      -1.60977                      54.74397
                       2.12417                      -1.13637                      54.74324
                       2.33958                      -0.59232                      54.74293
                       2.37313                      -0.01461                      59.12258
                       2.30146                       0.55268                      59.12320
                       2.09097                       1.08433                      59.12425
                       1.75488                       1.54693                      59.12565
                       1.31430                       1.91141                      59.12731
                       0.79692                       2.15487                      59.12914
                       0.23525                       2.26201                      59.13102
                      -0.33542                       2.22611                      59.13283
                      -0.87923                       2.04941                      59.13445
                      -1.36202                       1.74302                      59.13579
                      -1.75344                       1.32620                      59.13676
                      -2.02891                       0.82512                      59.13729
                      -2.17111                       0.27129                      59.13736
                      -2.17111                      -0.30052                      59.13697
                      -2.02891                      -0.85435                      59.13613
                      -1.75344                      -1.35543                      59.13489
                      -1.36202                      -1.77225                      59.13335
                      -0.87924                      -2.07864                      59.13158
                      -0.33542                      -2.25533                      59.12972
                       0.23525                      -2.29124                      59.12786
                       0.79692                      -2.18409                      59.12613
                       1.31429                      -1.94063                      59.12464
                       1.75487                      -1.57615                      59.12348
                       2.09097                      -1.11355                      59.12272
                       2.30146                      -0.58190                      59.12241
                       2.33454                      -0.01787                      63.50212
                       2.26455                       0.53618                      63.50280
                       2.05897                       1.05542                      63.50393
                       1.73072                       1.50722                      63.50543
                       1.30043                       1.86319                      63.50721
                       0.79513                       2.10097                      63.50916
                       0.24657                       2.20561                      63.51115
                      -0.31078                       2.17054                      63.51306
                      -0.84190                       1.99797                      63.51478
                      -1.31341                       1.69873                      63.51618
                      -1.69570                       1.29164                      63.51719
                      -1.96474                       0.80226                      63.51774
                      -2.10362                       0.26135                      63.51779
                      -2.10362                      -0.29710                      63.51735
                      -1.96474                      -0.83801                      63.51644
                      -1.69570                      -1.32738                      63.51511
                      -1.31342                      -1.73448                      63.51346
                      -0.84190                      -2.03371                      63.51158
                      -0.31079                      -2.20628                      63.50959
                       0.24656                      -2.24135                      63.50762
                       0.79512                      -2.13670                      63.50580
                       1.30042                      -1.89893                      63.50422
                       1.73071                      -1.54295                      63.50301
                       2.05896                      -1.09115                      63.50222
                       2.26454                      -0.57192                      63.50192
                       2.29711                      -0.02156                      67.88171
                       2.22879                       0.51925                      67.88245
                       2.02813                       1.02608                      67.88365
                       1.70773                       1.46707                      67.88524
                       1.28772                       1.81454                      67.88712
                       0.79450                       2.04663                      67.88918
                       0.25905                       2.14877                      67.89127
                      -0.28498                       2.11454                      67.89327
                      -0.80340                       1.94610                      67.89506
                      -1.26364                       1.65401                      67.89652
                      -1.63679                       1.25665                      67.89756
                      -1.89940                       0.77897                      67.89812
                      -2.03496                       0.25099                      67.89815
                      -2.03496                      -0.29412                      67.89767
                      -1.89940                      -0.82210                      67.89669
                      -1.63680                      -1.29978                      67.89528
                      -1.26365                      -1.69714                      67.89353
                      -0.80341                      -1.98922                      67.89155
                      -0.28498                      -2.15767                      67.88946
                       0.25904                      -2.19189                      67.88740
                       0.79449                      -2.08975                      67.88549
                       1.28771                      -1.85766                      67.88385
                       1.70772                      -1.51019                      67.88259
                       2.02812                      -1.06919                      67.88178
                       2.22879                      -0.56236                      67.88149
                       2.26073                      -0.02567                      72.26142
                       2.19408                       0.50189                      72.26220
                       1.99833                       0.99631                      72.26346
                       1.68578                       1.42651                      72.26513
                       1.27606                       1.76546                      72.26708
                       0.79491                       1.99187                      72.26921
                       0.27258                       2.09151                      72.27137
                      -0.25813                       2.05812                      72.27344
                      -0.76386                       1.89380                      72.27527
                      -1.21283                       1.60887                      72.27677
                      -1.57684                       1.22123                      72.27783
                      -1.83302                       0.75525                      72.27838
                      -1.96526                       0.24020                      72.27840
                      -1.96526                      -0.29156                      72.27787
                      -1.83302                      -0.80661                      72.27684
                      -1.57685                      -1.27259                      72.27537
                      -1.21284                      -1.66023                      72.27355
                      -0.76386                      -1.94515                      72.27149
                      -0.25814                      -2.10948                      72.26933
                       0.27257                      -2.14286                      72.26719
                       0.79490                      -2.04322                      72.26523
                       1.27605                      -1.81681                      72.26355
                       1.68577                      -1.47785                      72.26226
                       1.99833                      -1.04765                      72.26145
                       2.19408                      -0.55324                      72.26116
                       2.22515                      -0.03018                      76.64130
                       2.16018                       0.48414                      76.64212
                       1.96934                       0.96614                      76.64341
                       1.66463                       1.38554                      76.64511
                       1.26519                       1.71599                      76.64710
                       0.79613                       1.93672                      76.64926
                       0.28690                       2.03385                      76.65145
                      -0.23048                       2.00130                      76.65354
                      -0.72351                       1.84110                      76.65539
                      -1.16122                       1.56333                      76.65688
                      -1.51609                       1.18542                      76.65793
                      -1.76583                       0.73113                      76.65847
                      -1.89476                       0.22901                      76.65846
                      -1.89476                      -0.28940                      76.65790
                      -1.76584                      -0.79152                      76.65683
                      -1.51610                      -1.24580                      76.65532
                      -1.16122                      -1.62371                      76.65346
                      -0.72352                      -1.90148                      76.65137
                      -0.23049                      -2.06168                      76.64918
                       0.28689                      -2.09423                      76.64703
                       0.79612                      -1.99709                      76.64504
                       1.26518                      -1.77636                      76.64336
                       1.66462                      -1.44591                      76.64208
                       1.96934                      -1.02651                      76.64128
                       2.16017                      -0.54450                      76.64101
                       2.18995                      -0.03504                      81.02143
                       2.12665                       0.46604                      81.02226
                       1.94073                       0.93563                      81.02356
                       1.64387                       1.34423                      81.02526
                       1.25471                       1.66617                      81.02723
                       0.79772                       1.88121                      81.02936
                       0.30161                       1.97585                      81.03151
                      -0.20245                       1.94414                      81.03355
                      -0.68279                       1.78806                      81.03535
                      -1.10922                       1.51744                      81.03680
                      -1.45496                       1.14926                      81.03781
                      -1.69827                       0.70667                      81.03830
                      -1.82387                       0.21748                      81.03826
                      -1.82388                      -0.28758                      81.03768
                      -1.69827                      -0.77678                      81.03661
                      -1.45496                      -1.21936                      81.03510
                      -1.10923                      -1.58754                      81.03325
                      -0.68279                      -1.85816                      81.03118
                      -0.20246                      -2.01423                      81.02902
                       0.30160                      -2.04594                      81.02691
                       0.79772                      -1.95130                      81.02497
                       1.25470                      -1.73626                      81.02334
                       1.64386                      -1.41432                      81.02210
                       1.94073                      -1.00572                      81.02134
                       2.12665                      -0.53612                      81.02111
                       2.15451                      -0.04017                      85.40190
                       2.09288                       0.44767                      85.40273
                       1.91187                       0.90485                      85.40399
                       1.62285                       1.30265                      85.40562
                       1.24398                       1.61608                      85.40750
                       0.79907                       1.82544                      85.40951
                       0.31607                       1.91758                      85.41154
                      -0.17467                       1.88670                      85.41345
                      -0.64231                       1.73475                      85.41513
                      -1.05748                       1.47128                      85.41646
                      -1.39408                       1.11283                      85.41737
                      -1.63096                       0.68194                      85.41780
                      -1.75325                       0.20568                      85.41772
                      -1.75325                      -0.28604                      85.41713
                      -1.63096                      -0.76230                      85.41608
                      -1.39408                      -1.19319                      85.41462
                      -1.05748                      -1.55164                      85.41285
                      -0.64232                      -1.81511                      85.41089
                      -0.17468                      -1.96705                      85.40885
                       0.31606                      -1.99793                      85.40687
                       0.79906                      -1.90579                      85.40506
                       1.24397                      -1.69643                      85.40354
                       1.62284                      -1.38300                      85.40241
                       1.91186                      -0.98519                      85.40174
                       2.09288                      -0.52801                      85.40156
                       2.13642                      -0.04281                      87.59230
                       2.07563                       0.43841                      87.59311
                       1.89707                       0.88938                      87.59434
                       1.61198                       1.28179                      87.59590
                       1.23825                       1.59096                      87.59770
                       0.79938                       1.79748                      87.59962
                       0.32293                       1.88837                      87.60155
                      -0.16115                       1.85791                      87.60335
                      -0.62244                       1.70802                      87.60493
                      -1.03197                       1.44813                      87.60618
                      -1.36400                       1.09455                      87.60702
                      -1.59767                       0.66950                      87.60739
                      -1.71830                       0.19970                      87.60728
                      -1.71830                      -0.28534                      87.60670
                      -1.59768                      -0.75514                      87.60567
                      -1.36401                      -1.18018                      87.60426
                      -1.03198                      -1.53376                      87.60257
                      -0.62245                      -1.79365                      87.60070
                      -0.16115                      -1.94354                      87.59876
                       0.32292                      -1.97399                      87.59688
                       0.79937                      -1.88310                      87.59517
                       1.23824                      -1.67658                      87.59375
                       1.61197                      -1.36741                      87.59270
                       1.89707                      -0.97500                      87.59209
                       2.07562                      -0.52402                      87.59195
                       3.00000                       0.00000                       0.00000
                       2.90575                       0.74607                       0.00000
                       2.62892                       1.44526                       0.00000
                       2.18691                       2.05364                       0.00000
                       1.60748                       2.53298                       0.00000
                       0.92705                       2.85317                       0.00000
                       0.18837                       2.99408                       0.00000
                      -0.56214                       2.94686                       0.00000
                      -1.27734                       2.71448                       0.00000
                      -1.91227                       2.31154                       0.00000
                      -2.42705                       1.76336                       0.00000
                      -2.78933                       1.10437                       0.00000
                      -2.97634                       0.37600                       0.00000
                      -2.97634                      -0.37600                       0.00000
                      -2.78933                      -1.10437                       0.00000
                      -2.42705                      -1.76336                       0.00000
                      -1.91227                      -2.31154                       0.00000
                      -1.27734                      -2.71448                       0.00000
                      -0.56214                      -2.94686                       0.00000
                       0.18837                      -2.99408                       0.00000
                       0.92705                      -2.85317                       0.00000
                       1.60748                      -2.53298                       0.00000
                       2.18691                      -2.05364                       0.00000
                       2.62892                      -1.44526                       0.00000
                       2.90575                      -0.74607                       0.00000
        </DataArray>
      </Points>
      <Polys>
        <DataArray type="Int32" Name="connectivity" format="ascii">
      0      1     26     25
      1      2     27     26
      2      3     28     27
      3      4     29     28
      4      5     30     29
      5      6     31     30
      6      7     32     31
      7      8     33     32
      8      9     34     33
      9     10     35     34
     10     11     36     35
     11     12     37     36
     12     13     38     37
     13     14     39     38
     14     15     40     39
     15     16     41     40
     16     17     42     41
     17     18     43     42
     18     19     44     43
     19     20     45     44
     20     21     46     45
     21     22     47     46
     22     23     48     47
     23     24     49     48
     24      0     25     49
     24     23     22     21     20     19     18     17     16     15     14     13     12     11     10      9      8      7      6      5      4      3      2      1      0
     25     26     27     28     29     30     31     32     33     34     35     36     37     38     39     40     41     42     43     44     45     46     47     48     49
     25     26     51     50
     26     27     52     51
     27     28     53     52
     28     29     54     53
     29     30     55     54
     30     31     56     55
     31     32     57     56
     32     33     58     57
     33     34     59     58
     34     35     60     59
     35     36     61     60
     36     37     62     61
     37     38     63     62
     38     39     64     63
     39     40     65     64
     40     41     66     65
     41     42     67     66
     42     43     68     67
     43     44     69     68
     44     45     70     69
     45     46     71     70
     46     47     72     71
     47     48     73     72
     48     49     74     73
     49     25     50     74
     49     48     47     46     45     44     43     42     41     40     39     38     37     36     35     34     33     32     31     30     29     28     27     26     25
     50     51     52     53     54     55     56     57     58     59     60     61     62     63     64     65     66     67     68     69     70     71     72     73     74
     50     51     76     75
     51     52     77     76
     52     53     78     77
     53     54     79     78
     54     55     80     79
     55     56     81     80
     56     57     82     81
     57     58     83     82
     58     59     84     83
     59     60     85     84
     60     61     86     85
     61     62     87     86
     62     63     88     87
     63     64     89     88
     64     65     90     89
     65     66     91     90
     66     67     92     91
     67     68     93     92
     68     69     94     93
     69     70     95     94
     70     71     96     95
     71     72     97     96
     72     73     98     97
     73     74     99     98
     74     50     75     99
     74     73     72     71     70     69     68     67     66     65     64     63     62     61     60     59     58     57     56     55     54     53     52     51     50
     75     76     77     78     79     80     81     82     83     84     85     86     87     88     89     90     91     92     93     94     95     96     97     98     99
     75     76    101    100
     76     77    102    101
     77     78    103    102
     78     79    104    103
     79     80    105    104
     80     81    106    105
     81     82    107    106
     82     83    108    107
     83     84    109    108
     84     85    110    109
     85     86    111    110
     86     87    112    111
     87     88    113    112
     88     89    114    113
     89     90    115    114
     90     91    116    115
     91     92    117    116
     92     93    118    117
     93     94    119    118
     94     95    120    119
     95     96    121    120
     96     97    122    121
     97     98    123    122
     98     99    124    123
     99     75    100    124
     99     98     97     96     95     94     93     92     91     90     89     88     87     86     85     84     83     82     81     80     79     78     77     76     75
    100    101    102    103    104    105    106    107    108    109    110    111    112    113    114    115    116    117    118    119    120    121    122    123    124
    100    101    126    125
    101    102    127    126
    102    103    128    127
    103    104    129    128
    104    105    130    129
    105    106    131    130
    106    107    132    131
    107    108    133    132
    108    109    134    133
    109    110    135    134
    110    111    136    135
    111    112    137    136
    112    113    138    137
    113    114    139    138
    114    115    140    139
    115    116    141    140
    116    117    142    141
    117    118    143    142
    118    119    144    143
    119    120    145    144
    120    121    146    145
    121    122    147    146
    122    123    148    147
    123    124    149    148
    124    100    125    149
    124    123    122    121    120    119    118    117    116    115    114    113    112    111    110    109    108    107    106    105    104    103    102    101    100
    125    126    127    128    129    130    131    132    133    134    135    136    137    138    139    140    141    142    143    144    145    146    147    148    149
    125    126    151    150
    126    127    152    151
    127    128    153    152
    128    129    154    153
    129    130    155    154
    130    131    156    155
    131    132    157    156
    132    133    158    157
    133    134    159    158
    134    135    160    159
    135    136    161    160
    136    137    162    161
    137    138    163    162
    138    139    164    163
    139    140    165    164
    140    141    166    165
    141    142    167    166
    142    143    168    167
    143    144    169    168
    144    145    170    169
    145    146    171    170
    146    147    172    171
    147    148    173    172
    148    149    174    173
    149    125    150    174
    149    148    147    146    145    144    143    142    141    140    139    138    137    136    135    134    133    132    131    130    129    128    127    126    125
    150    151    152    153    154    155    156    157    158    159    160    161    162    163    164    165    166    167    168    169    170    171    172    173    174
    150    151    176    175
    151    152    177    176
    152    153    178    177
    153    154    179    178
    154    155    180    179
    155    156    181    180
    156    157    182    181
    157    158    183    182
    158    159    184    183
    159    160    185    184
    160    161    186    185
    161    162    187    186
    162    163    188    187
    163    164    189    188
    164    165    190    189
    165    166    191    190
    166    167    192    191
    167    168    193    192
    168    169    194    193
    169    170    195    194
    170    171    196    195
    171    172    197    196
    172    173    198    197
    173    174    199    198
    174    150    175    199
    174    173    172    171    170    169    168    167    166    165    164    163    162    161    160    159    158    157    156    155    154    153    152    151    150
    175    176    177    178    179    180    181    182    183    184    185    186    187    188    189    190    191    192    193    194    195    196    197    198    199
    175    176    201    200
    176    177    202    201
    177    178    203    202
    178    179    204    203
    179    180    205    204
    180    181    206    205
    181    182    207    206
    182    183    208    207
    183    184    209    208
    184    185    210    209
    185    186    211    210
    186    187    212    211
    187    188    213    212
    188    189    214    213
    189    190    215    214
    190    191    216    215
    191    192    217    216
    192    193    218    217
    193    194    219    218
    194    195    220    219
    195    196    221    220
    196    197    222    221
    197    198    223    222
    198    199    224    223
    199    175    200    224
    199    198    197    196    195    194    193    192    191    190    189    188    187    186    185    184    183    182    181    180    179    178    177    176    175
    200    201    202    203    204    205    206    207    208    209    210    211    212    213    214    215    216    217    218    219    220    221    222    223    224
    200    201    226    225
    201    202    227    226
    202    203    228    227
    203    204    229    228
    204    205    230    229
    205    206    231    230
    206    207    232    231
    207    208    233    232
    208    209    234    233
    209    210    235    234
    210    211    236    235
    211    212    237    236
    212    213    238    237
    213    214    239    238
    214    215    240    239
    215    216    241    240
    216    217    242    241
    217    218    243    242
    218    219    244    243
    219    220    245    244
    220    221    246    245
    221    222    247    246
    222    223    248    247
    223    224    249    248
    224    200    225    249
    224    223    222    221    220    219    218    217    216    215    214    213    212    211    210    209    208    207    206    205    204    203    202    201    200
    225    226    227    228    229    230    231    232    233    234    235    236    237    238    239    240    241    242    243    244    245    246    247    248    249
    225    226    251    250
    226    227    252    251
    227    228    253    252
    228    229    254    253
    229    230    255    254
    230    231    256    255
    231    232    257    256
    232    233    258    257
    233    234    259    258
    234    235    260    259
    235    236    261    260
    236    237    262    261
    237    238    263    262
    238    239    264    263
    239    240    265    264
    240    241    266    265
    241    242    267    266
    242    243    268    267
    243    244    269    268
    244    245    270    269
    245    246    271    270
    246    247    272    271
    247    248    273    272
    248    249    274    273
    249    225    250    274
    249    248    247    246    245    244    243    242    241    240    239    238    237    236    235    234    233    232    231    230    229    228    227    226    225
    250    251    252    253    254    255    256    257    258    259    260    261    262    263    264    265    266    267    268    269    270    271    272    273    274
    250    251    276    275
    251    252    277    276
    252    253    278    277
    253    254    279    278
    254    255    280    279
    255    256    281    280
    256    257    282    281
    257    258    283    282
    258    259    284    283
    259    260    285    284
    260    261    286    285
    261    262    287    286
    262    263    288    287
    263    264    289    288
    264    265    290    289
    265    266    291    290
    266    267    292    291
    267    268    293    292
    268    269    294    293
    269    270    295    294
    270    271    296    295
    271    272    297    296
    272    273    298    297
    273    274    299    298
    274    250    275    299
    274    273    272    271    270    269    268    267    266    265    264    263    262    261    260    259    258    257    256    255    254    253    252    251    250
    275    276    277    278    279    280    281    282    283    284    285    286    287    288    289    290    291    292    293    294    295    296    297    298    299
    275    276    301    300
    276    277    302    301
    277    278    303    302
    278    279    304    303
    279    280    305    304
    280    281    306    305
    281    282    307    306
    282    283    308    307
    283    284    309    308
    284    285    310    309
    285    286    311    310
    286    287    312    311
    287    288    313    312
    288    289    314    313
    289    290    315    314
    290    291    316    315
    291    292    317    316
    292    293    318    317
    293    294    319    318
    294    295    320    319
    295    296    321    320
    296    297    322    321
    297    298    323    322
    298    299    324    323
    299    275    300    324
    299    298    297    296    295    294    293    292    291    290    289    288    287    286    285    284    283    282    281    280    279    278    277    276    275
    300    301    302    303    304    305    306    307    308    309    310    311    312    313    314    315    316    317    318    319    320    321    322    323    324
    300    301    326    325
    301    302    327    326
    302    303    328    327
    303    304    329    328
    304    305    330    329
    305    306    331    330
    306    307    332    331
    307    308    333    332
    308    309    334    333
    309    310    335    334
    310    311    336    335
    311    312    337    336
    312    313    338    337
    313    314    339    338
    314    315    340    339
    315    316    341    340
    316    317    342    341
    317    318    343    342
    318    319    344    343
    319    320    345    344
    320    321    346    345
    321    322    347    346
    322    323    348    347
    323    324    349    348
    324    300    325    349
    324    323    322    321    320    319    318    317    316    315    314    313    312    311    310    309    308    307    306    305    304    303    302    301    300
    325    326    327    328    329    330    331    332    333    334    335    336    337    338    339    340    341    342    343    344    345    346    347    348    349
    325    326    351    350
    326    327    352    351
    327    328    353    352
    328    329    354    353
    329    330    355    354
    330    331    356    355
    331    332    357    356
    332    333    358    357
    333    334    359    358
    334    335    360    359
    335    336    361    360
    336    337    362    361
    337    338    363    362
    338    339    364    363
    339    340    365    364
    340    341    366    365
    341    342    367    366
    342    343    368    367
    343    344    369    368
    344    345    370    369
    345    346    371    370
    346    347    372    371
    347    348    373    372
    348    349    374    373
    349    325    350    374
    349    348    347    346    345    344    343    342    341    340    339    338    337    336    335    334    333    332    331    330    329    328    327    326    325
    350    351    352    353    354    355    356    357    358    359    360    361    362    363    364    365    366    367    368    369    370    371    372    373    374
    350    351    376    375
    351    352    377    376
    352    353    378    377
    353    354    379    378
    354    355    380    379
    355    356    381    380
    356    357    382    381
    357    358    383    382
    358    359    384    383
    359    360    385    384
    360    361    386    385
    361    362    387    386
    362    363    388    387
    363    364    389    388
    364    365    390    389
    365    366    391    390
    366    367    392    391
    367    368    393    392
    368    369    394    393
    369    370    395    394
    370    371    396    395
    371    372    397    396
    372    373    398    397
    373    374    399    398
    374    350    375    399
    374    373    372    371    370    369    368    367    366    365    364    363    362    361    360    359    358    357    356    355    354    353    352    351    350
    375    376    377    378    379    380    381    382    383    384    385    386    387    388    389    390    391    392    393    394    395    396    397    398    399
    375    376    401    400
    376    377    402    401
    377    378    403    402
    378    379    404    403
    379    380    405    404
    380    381    406    405
    381    382    407    406
    382    383    408    407
    383    384    409    408
    384    385    410    409
    385    386    411    410
    386    387    412    411
    387    388    413    412
    388    389    414    413
    389    390    415    414
    390    391    416    415
    391    392    417    416
    392    393    418    417
    393    394    419    418
    394    395    420    419
    395    396    421    420
    396    397    422    421
    397    398    423    422
    398    399    424    423
    399    375    400    424
    399    398    397    396    395    394    393    392    391    390    389    388    387    386    385    384    383    382    381    380    379    378    377    376    375
    400    401    402    403    404    405    406    407    408    409    410    411    412    413    414    415    416    417    418    419    420    421    422    423    424
    400    401    426    425
    401    402    427    426
    402    403    428    427
    403    404    429    428
    404    405    430    429
    405    406    431    430
    406    407    432    431
    407    408    433    432
    408    409    434    433
    409    410    435    434
    410    411    436    435
    411    412    437    436
    412    413    438    437
    413    414    439    438
    414    415    440    439
    415    416    441    440
    416    417    442    441
    417    418    443    442
    418    419    444    443
    419    420    445    444
    420    421    446    445
    421    422    447    446
    422    423    448    447
    423    424    449    448
    424    400    425    449
    424    423    422    421    420    419    418    417    416    415    414    413    412    411    410    409    408    407    406    405    404    403    402    401    400
    425    426    427    428    429    430    431    432    433    434    435    436    437    438    439    440    441    442    443    444    445    446    447    448    449
    425    426    451    450
    426    427    452    451
    427    428    453    452
    428    429    454    453
    429    430    455    454
    430    431    456    455
    431    432    457    456
    432    433    458    457
    433    434    459    458
    434    435    460    459
    435    436    461    460
    436    437    462    461
    437    438    463    462
    438    439    464    463
    439    440    465    464
    440    441    466    465
    441    442    467    466
    442    443    468    467
    443    444    469    468
    444    445    470    469
    445    446    471    470
    446    447    472    471
    447    448    473    472
    448    449    474    473
    449    425    450    474
    449    448    447    446    445    444    443    442    441    440    439    438    437    436    435    434    433    432    431    430    429    428    427    426    425
    450    451    452    453    454    455    456    457    458    459    460    461    462    463    464    465    466    467    468    469    470    471    472    473    474
    450    451    476    475
    451    452    477    476
    452    453    478    477
    453    454    479    478
    454    455    480    479
    455    456    481    480
    456    457    482    481
    457    458    483    482
    458    459    484    483
    459    460    485    484
    460    461    486    485
    461    462    487    486
    462    463    488    487
    463    464    489    488
    464    465    490    489
    465    466    491    490
    466    467    492    491
    467    468    493    492
    468    469    494    493
    469    470    495    494
    470    471    496    495
    471    472    497    496
    472    473    498    497
    473    474    499    498
    474    450    475    499
    474    473    472    471    470    469    468    467    466    465    464    463    462    461    460    459    458    457    456    455    454    453    452    451    450
    475    476    477    478    479    480    481    482    483    484    485    486    487    488    489    490    491    492    493    494    495    496    497    498    499
    475    476    501    500
    476    477    502    501
    477    478    503    502
    478    479    504    503
    479    480    505    504
    480    481    506    505
    481    482    507    506
    482    483    508    507
    483    484    509    508
    484    485    510    509
    485    486    511    510
    486    487    512    511
    487    488    513    512
    488    489    514    513
    489    490    515    514
    490    491    516    515
    491    492    517    516
    492    493    518    517
    493    494    519    518
    494    495    520    519
    495    496    521    520
    496    497    522    521
    497    498    523    522
    498    499    524    523
    499    475    500    524
    499    498    497    496    495    494    493    492    491    490    489    488    487    486    485    484    483    482    481    480    479    478    477    476    475
    500    501    502    503    504    505    506    507    508    509    510    511    512    513    514    515    516    517    518    519    520    521    522    523    524
    525    526      1      0
    526    527      2      1
    527    528      3      2
    528    529      4      3
    529    530      5      4
    530    531      6      5
    531    532      7      6
    532    533      8      7
    533    534      9      8
    534    535     10      9
    535    536     11     10
    536    537     12     11
    537    538     13     12
    538    539     14     13
    539    540     15     14
    540    541     16     15
    541    542     17     16
    542    543     18     17
    543    544     19     18
    544    545     20     19
    545    546     21     20
    546    547     22     21
    547    548     23     22
    548    549     24     23
    549    525      0     24
    549    548    547    546    545    544    543    542    541    540    539    538    537    536    535    534    533    532    531    530    529    528    527    526    525
      0      1      2      3      4      5      6      7      8      9     10     11     12     13     14     15     16     17     18     19     20     21     22     23     24
        </DataArray>
        <DataArray type="Int32" Name="offsets" format="ascii">
      4
      8
     12
     16
     20
     24
     28
     32
     36
     40
     44
     48
     52
     56
     60
     64
     68
     72
     76
     80
     84
     88
     92
     96
    100
    125
    150
    154
    158
    162
    166
    170
    174
    178
    182
    186
    190
    194
    198
    202
    206
    210
    214
    218
    222
    226
    230
    234
    238
    242
    246
    250
    275
    300
    304
    308
    312
    316
    320
    324
    328
    332
    336
    340
    344
    348
    352
    356
    360
    364
    368
    372
    376
    380
    384
    388
    392
    396
    400
    425
    450
    454
    458
    462
    466
    470
    474
    478
    482
    486
    490
    494
    498
    502
    506
    510
    514
    518
    522
    526
    530
    534
    538
    542
    546
    550
    575
    600
    604
    608
    612
    616
    620
    624
    628
    632
    636
    640
    644
    648
    652
    656
    660
    664
    668
    672
    676
    680
    684
    688
    692
    696
    700
    725
    750
    754
    758
    762
    766
    770
    774
    778
    782
    786
    790
    794
    798
    802
    806
    810
    814
    818
    822
    826
    830
    834
    838
    842
    846
    850
    875
    900
    904
    908
    912
    916
    920
    924
    928
    932
    936
    940
    944
    948
    952
    956
    960
    964
    968
    972
    976
    980
    984
    988
    992
    996
   1000
   1025
   1050
   1054
   1058
   1062
   1066
   1070
   1074
   1078
   1082
   1086
   1090
   1094
   1098
   1102
   1106
   1110
   1114
   1118
   1122
   1126
   1130
   1134
   1138
   1142
   1146
   1150
   1175
   1200
   1204
   1208
   1212
   1216
   1220
   1224
   1228
   1232
   1236
   1240
   1244
   1248
   1252
   1256
   1260
   1264
   1268
   1272
   1276
   1280
   1284
   1288
   1292
   1296
   1300
   1325
   1350
   1354
   1358
   1362
   1366
   1370
   1374
   1378
   1382
   1386
   1390
   1394
   1398
   1402
   1406
   1410
   1414
   1418
   1422
   1426
   1430
   1434
   1438
   1442
   1446
   1450
   1475
   1500
   1504
   1508
   1512
   1516
   1520
   1524
   1528
   1532
   1536
   1540
   1544
   1548
   1552
   1556
   1560
   1564
   1568
   1572
   1576
   1580
   1584
   1588
   1592
   1596
   1600
   1625
   1650
   1654
   1658
   1662
   1666
   1670
   1674
   1678
   1682
   1686
   1690
   1694
   1698
   1702
   1706
   1710
   1714
   1718
   1722
   1726
   1730
   1734
   1738
   1742
   1746
   1750
   1775
   1800
   1804
   1808
   1812
   1816
   1820
   1824
   1828
   1832
   1836
   1840
   1844
   1848
   1852
   1856
   1860
   1864
   1868
   1872
   1876
   1880
   1884
   1888
   1892
   1896
   1900
   1925
   1950
   1954
   1958
   1962
   1966
   1970
   1974
   1978
   1982
   1986
   1990
   1994
   1998
   2002
   2006
   2010
   2014
   2018
   2022
   2026
   2030
   2034
   2038
   2042
   2046
   2050
   2075
   2100
   2104
   2108
   2112
   2116
   2120
   2124
   2128
   2132
   2136
   2140
   2144
   2148
   2152
   2156
   2160
   2164
   2168
   2172
   2176
   2180
   2184
   2188
   2192
   2196
   2200
   2225
   2250
   2254
   2258
   2262
   2266
   2270
   2274
   2278
   2282
   2286
   2290
   2294
   2298
   2302
   2306
   2310
   2314
   2318
   2322
   2326
   2330
   2334
   2338
   2342
   2346
   2350
   2375
   2400
   2404
   2408
   2412
   2416
   2420
   2424
   2428
   2432
   2436
   2440
   2444
   2448
   2452
   2456
   2460
   2464
   2468
   2472
   2476
   2480
   2484
   2488
   2492
   2496
   2500
   2525
   2550
   2554
   2558
   2562
   2566
   2570
   2574
   2578
   2582
   2586
   2590
   2594
   2598
   2602
   2606
   2610
   2614
   2618
   2622
   2626
   2630
   2634
   2638
   2642
   2646
   2650
   2675
   2700
   2704
   2708
   2712
   2716
   2720
   2724
   2728
   2732
   2736
   2740
   2744
   2748
   2752
   2756
   2760
   2764
   2768
   2772
   2776
   2780
   2784
   2788
   2792
   2796
   2800
   2825
   2850
   2854
   2858
   2862
   2866
   2870
   2874
   2878
   2882
   2886
   2890
   2894
   2898
   2902
   2906
   2910
   2914
   2918
   2922
   2926
   2930
   2934
   2938
   2942
   2946
   2950
   2975
   3000
   3004
   3008
   3012
   3016
   3020
   3024
   3028
   3032
   3036
   3040
   3044
   3048
   3052
   3056
   3060
   3064
   3068
   3072
   3076
   3080
   3084
   3088
   3092
   3096
   3100
   3125
   3150
        </DataArray>
      </Polys>
    </Piece>
  </PolyData>
</VTKFile>
