<?xml version="1.0"?>
<VTKFile type="PolyData" version="0.1" byte_order="LittleEndian">
  <PolyData>
    <Piece NumberOfPoints="     19" NumberOfVerts="  0" NumberOfLines="     18"
           NumberOfStrips="  0" NumberOfPolys="      0">
      <Points>
        <DataArray type="Float32" NumberOfComponents="3" format="ascii">
                      -4.91844                       1.22625                      89.29646
                      -5.03988                       2.41942                      88.64095
                      -5.32241                       4.84506                      87.40826
                      -5.62245                       7.28928                      86.21183
                      -6.00577                      10.35563                      84.73666
                      -6.38022                      13.97790                      82.84683
                      -6.69885                      17.54342                      80.84472
                      -7.01267                      21.10633                      78.83713
                      -7.31967                      24.66617                      76.82296
                      -7.62224                      28.22368                      74.80397
                      -7.92410                      31.78032                      72.78335
                      -8.22636                      35.33544                      70.76010
                      -8.53214                      38.88877                      68.73429
                      -8.84501                      42.43995                      66.70591
                      -9.16647                      45.98892                      64.67526
                      -9.44360                      48.94430                      62.98112
                      -9.67093                      51.30328                      61.61773
                      -9.89416                      53.63500                      60.20569
                     -10.01923                      54.81918                      59.53474
        </DataArray>
      </Points>
      <PointData>
        <DataArray type="Float32" Name="TranslationalVelocity" NumberOfComponents="3" format="ascii">
                       0.15039                       0.93289                       1.64894
                       0.28791                       1.77354                       3.15366
                       0.56851                       3.36052                       6.21225
                       0.85291                       4.90375                       9.29362
                       1.21271                       6.80809                      13.15827
                       1.64329                       9.23414                      17.72225
                       2.07480                      11.79518                      22.21365
                       2.51538                      14.36293                      26.70103
                       2.96666                      16.93887                      31.18434
                       3.43036                      19.52150                      35.66501
                       3.90812                      22.10768                      40.14537
                       4.40108                      24.69915                      44.62504
                       4.91007                      27.29656                      49.10397
                       5.43552                      29.90061                      53.58184
                       5.97742                      32.51116                      58.05849
                       6.44140                      34.69223                      61.78739
                       6.81921                      36.44909                      64.76411
                       7.19912                      38.26739                      67.70651
                       7.39396                      39.13458                      69.20068
        </DataArray>
        <DataArray type="Float32" Name="RotationalVelocity" NumberOfComponents="3" format="ascii">
                       1.26120                       0.00008                      -0.11524
                       1.26111                       0.00007                      -0.11539
                       1.26091                      -0.00003                      -0.11583
                       1.26068                      -0.00025                      -0.11645
                       1.26040                      -0.00064                      -0.11746
                       1.26010                      -0.00121                      -0.11902
                       1.25989                      -0.00186                      -0.12098
                       1.25980                      -0.00252                      -0.12337
                       1.25984                      -0.00315                      -0.12622
                       1.26001                      -0.00373                      -0.12955
                       1.26031                      -0.00425                      -0.13335
                       1.26072                      -0.00467                      -0.13757
                       1.26119                      -0.00500                      -0.14212
                       1.26169                      -0.00522                      -0.14682
                       1.26217                      -0.00534                      -0.15143
                       1.26252                      -0.00534                      -0.15499
                       1.26273                      -0.00528                      -0.15745
                       1.26286                      -0.00516                      -0.15942
                       1.26289                      -0.00508                      -0.16016
        </DataArray>
        <DataArray type="Float32" Name="TranslationalAcceleration" NumberOfComponents="3" format="ascii">
                       0.12603                      -2.04326                       1.18336
                       0.13340                      -2.52169                       1.41307
                       0.37022                      -7.28436                       3.92480
                       0.58401                     -11.70264                       6.17107
                       0.83706                     -16.88673                       8.75340
                       1.14839                     -22.69198                      11.85862
                       1.46046                     -28.25393                      15.05473
                       1.75625                     -33.79377                      18.25412
                       2.03683                     -39.38167                      21.49772
                       2.30485                     -45.04251                      24.79627
                       2.56553                     -50.76821                      28.13929
                       2.82887                     -56.52622                      31.51108
                       3.11077                     -62.27665                      34.89128
                       3.43531                     -67.98430                      38.26456
                       3.83731                     -73.63234                      41.62750
                       4.26986                     -78.30071                      44.43550
                       4.70378                     -82.02292                      46.71183
                       5.25584                     -85.72524                      49.10213
                       5.57206                     -87.62834                      50.26679
        </DataArray>
        <DataArray type="Float32" Name="OrientationX" NumberOfComponents="3" format="ascii">
                       0.90442                       0.27252                       0.32826
                       0.90443                       0.27244                       0.32831
                       0.90444                       0.27217                       0.32849
                       0.90446                       0.27178                       0.32876
                       0.90448                       0.27116                       0.32922
                       0.91736                       0.25709                       0.30391
                       0.92601                       0.24650                       0.28592
                       0.93305                       0.23718                       0.27050
                       0.93994                       0.22761                       0.25436
                       0.94644                       0.21819                       0.23801
                       0.95196                       0.20990                       0.22297
                       0.95687                       0.20242                       0.20839
                       0.96075                       0.19663                       0.19569
                       0.96308                       0.19372                       0.18693
                       0.96513                       0.19169                       0.17824
                       0.96675                       0.19044                       0.17064
                       0.96788                       0.18994                       0.16469
                       0.96813                       0.19132                       0.16161
                       0.96776                       0.19305                       0.16177
        </DataArray>
        <DataArray type="Float32" Name="OrientationY" NumberOfComponents="3" format="ascii">
                       0.41748                      -0.40668                      -0.81260
                       0.41749                      -0.40685                      -0.81251
                       0.41757                      -0.40729                      -0.81225
                       0.41768                      -0.40787                      -0.81190
                       0.41786                      -0.40871                      -0.81139
                       0.38912                      -0.41821                      -0.82079
                       0.36843                      -0.42501                      -0.82682
                       0.35058                      -0.43074                      -0.83160
                       0.33197                      -0.43630                      -0.83632
                       0.31323                      -0.44153                      -0.84080
                       0.29616                      -0.44602                      -0.84460
                       0.27988                      -0.45002                      -0.84803
                       0.26605                      -0.45326                      -0.85075
                       0.25704                      -0.45534                      -0.85241
                       0.24851                      -0.45721                      -0.85393
                       0.24131                      -0.45873                      -0.85518
                       0.23591                      -0.45984                      -0.85609
                       0.23392                      -0.46026                      -0.85641
                       0.23490                      -0.46006                      -0.85625
        </DataArray>
        <DataArray type="Float32" Name="OrientationZ" NumberOfComponents="3" format="ascii">
                      -0.08795                       0.87198                      -0.48158
                      -0.08779                       0.87193                      -0.48170
                      -0.08728                       0.87180                      -0.48202
                      -0.08657                       0.87165                      -0.48242
                      -0.08546                       0.87145                      -0.48298
                      -0.08392                       0.87121                      -0.48368
                      -0.08229                       0.87098                      -0.48438
                      -0.08073                       0.87075                      -0.48505
                      -0.07937                       0.87054                      -0.48566
                      -0.07837                       0.87031                      -0.48623
                      -0.07783                       0.87006                      -0.48675
                      -0.07788                       0.86977                      -0.48726
                      -0.07858                       0.86942                      -0.48778
                      -0.08001                       0.86899                      -0.48832
                      -0.08220                       0.86846                      -0.48891
                      -0.08458                       0.86793                      -0.48943
                      -0.08687                       0.86745                      -0.48988
                      -0.08947                       0.86692                      -0.49035
                      -0.09088                       0.86664                      -0.49058
        </DataArray>
        <DataArray type="Float32" Name="Force" NumberOfComponents="3" format="ascii">
                      -0.00757                      -0.04659                      -0.08298
                     395.42610                      -2.16405                     -75.98779
                     456.59054                     -38.97409                    -153.26666
                     369.97244                     -66.54039                    -186.88644
                    2740.61738                    1112.35633                    1527.59932
                    3101.21499                    1278.44316                    1774.03742
                    2864.09068                    1003.11758                    1326.68648
                    2887.15863                     876.26813                    1102.64619
                    2502.11520                     663.87978                     789.91076
                    2158.11311                     507.39614                     568.00615
                    2150.08704                     451.94189                     471.60002
                    1794.45204                     339.37153                     325.26355
                    1182.04791                     200.20404                     170.48226
                     513.90861                      68.16061                      38.54584
                     437.24711                      57.82064                      30.57573
                      36.80194                     -15.88012                     -35.13907
                    -241.26400                     -57.77209                     -61.42608
                    -420.71297                     -78.77822                     -65.16911
                   -5325.95348                    -553.85595                      -6.74261
        </DataArray>
        <DataArray type="Float32" Name="Moment" NumberOfComponents="3" format="ascii">
                       0.00000                       0.00000                       0.00000
                       0.00000                       0.00000                       0.00000
                       0.00000                       0.00000                       0.00000
                       0.00000                       0.00000                       0.00000
                     114.73302                   -1172.11734                     647.66514
                      84.29741                    -877.60292                     485.07492
                     110.93549                   -1178.57066                     651.63523
                     139.12557                   -1507.65255                     833.83980
                     172.68569                   -1904.38085                    1053.53731
                     178.64682                   -1996.55328                    1104.74749
                     183.76614                   -2069.04246                    1144.98248
                     187.34905                   -2109.42494                    1167.32999
                     139.50972                   -1557.59510                     861.84717
                     135.64072                   -1488.25599                     823.26681
                     129.18225                   -1380.57917                     763.39640
                     123.76841                   -1286.11048                     710.84694
                     111.60533                   -1129.66954                     624.11642
                      57.23942                    -562.76528                     310.76507
                     -16.66710                     161.35756                     -89.08009
        </DataArray>
      </PointData>
      <Lines>
        <DataArray type="Int32" Name="connectivity" format="ascii">
      0      1
      1      2
      2      3
      3      4
      4      5
      5      6
      6      7
      7      8
      8      9
      9     10
     10     11
     11     12
     12     13
     13     14
     14     15
     15     16
     16     17
     17     18
        </DataArray>
        <DataArray type="Int32" Name="offsets" format="ascii">
      2
      4
      6
      8
     10
     12
     14
     16
     18
     20
     22
     24
     26
     28
     30
     32
     34
     36
        </DataArray>
      </Lines>
    </Piece>
  </PolyData>
</VTKFile>
