<?xml version="1.0"?>
<VTKFile type="PolyData" version="0.1" byte_order="LittleEndian">
  <PolyData>
    <Piece NumberOfPoints="    550" NumberOfVerts="  0" NumberOfLines="     21"
           NumberOfStrips="  0" NumberOfPolys="    567">
      <Points>
        <DataArray type="Float32" NumberOfComponents="3" format="ascii">
                       2.97347                      -0.00002                       2.18974
                       2.88005                       0.73943                       2.18976
                       2.60568                       1.43242                       2.18980
                       2.16759                       2.03540                       2.18985
                       1.59331                       2.51049                       2.18990
                       0.91892                       2.82783                       2.18997
                       0.18679                       2.96749                       2.19003
                      -0.55706                       2.92069                       2.19010
                      -1.26591                       2.69037                       2.19015
                      -1.89521                       2.29101                       2.19020
                      -2.40542                       1.74769                       2.19024
                      -2.76448                       1.09455                       2.19026
                      -2.94984                       0.37264                       2.19026
                      -2.94984                      -0.37268                       2.19025
                      -2.76448                      -1.09459                       2.19022
                      -2.40542                      -1.74772                       2.19018
                      -1.89521                      -2.29104                       2.19013
                      -1.26591                      -2.69041                       2.19007
                      -0.55706                      -2.92073                       2.19000
                       0.18679                      -2.96753                       2.18993
                       0.91892                      -2.82787                       2.18987
                       1.59331                      -2.51052                       2.18982
                       2.16759                      -2.03543                       2.18978
                       2.60568                      -1.43245                       2.18975
                       2.88005                      -0.73947                       2.18974
                       2.92105                      -0.00016                       6.56912
                       2.82931                       0.72605                       6.56918
                       2.55985                       1.40662                       6.56930
                       2.12960                       1.99880                       6.56946
                       1.56561                       2.46538                       6.56965
                       0.90329                       2.77704                       6.56986
                       0.18428                       2.91420                       6.57008
                      -0.54625                       2.86824                       6.57030
                      -1.24240                       2.64205                       6.57050
                      -1.86043                       2.24983                       6.57067
                      -2.36151                       1.71625                       6.57079
                      -2.71414                       1.07481                       6.57087
                      -2.89617                       0.36583                       6.57089
                      -2.89617                      -0.36615                       6.57085
                      -2.71414                      -1.07513                       6.57076
                      -2.36151                      -1.71657                       6.57063
                      -1.86043                      -2.25016                       6.57045
                      -1.24240                      -2.64237                       6.57025
                      -0.54625                      -2.86856                       6.57003
                       0.18428                      -2.91452                       6.56981
                       0.90329                      -2.77736                       6.56960
                       1.56561                      -2.46570                       6.56941
                       2.12960                      -1.99912                       6.56927
                       2.55985                      -1.40694                       6.56916
                       2.82931                      -0.72637                       6.56912
                       2.86964                      -0.00043                      10.94844
                       2.77957                       0.71253                      10.94854
                       2.51503                       1.38069                      10.94874
                       2.09263                       1.96208                      10.94901
                       1.53892                       2.42015                      10.94935
                       0.88868                       2.72613                      10.94973
                       0.18278                       2.86078                      10.95012
                      -0.53443                       2.81566                      10.95051
                      -1.21789                       2.59359                      10.95086
                      -1.82465                       2.20853                      10.95117
                      -2.31658                       1.68467                      10.95139
                      -2.66278                       1.05493                      10.95153
                      -2.84150                       0.35888                      10.95158
                      -2.84150                      -0.35975                      10.95152
                      -2.66278                      -1.05580                      10.95137
                      -2.31658                      -1.68554                      10.95113
                      -1.82465                      -2.20940                      10.95082
                      -1.21789                      -2.59446                      10.95046
                      -0.53443                      -2.81653                      10.95007
                       0.18278                      -2.86165                      10.94968
                       0.88868                      -2.72699                      10.94931
                       1.53892                      -2.42102                      10.94898
                       2.09263                      -1.96295                      10.94871
                       2.51503                      -1.38156                      10.94853
                       2.77957                      -0.71340                      10.94843
                       2.81933                      -0.00084                      15.32775
                       2.73094                       0.69888                      15.32790
                       2.47130                       1.35463                      15.32818
                       2.05675                       1.92522                      15.32857
                       1.51332                       2.37478                      15.32905
                       0.87517                       2.67508                      15.32960
                       0.18238                       2.80723                      15.33016
                      -0.52151                       2.76295                      15.33072
                      -1.19228                       2.54500                      15.33123
                      -1.78776                       2.16709                      15.33167
                      -2.27056                       1.65297                      15.33200
                      -2.61033                       1.03492                      15.33220
                      -2.78573                       0.35180                      15.33227
                      -2.78573                      -0.35348                      15.33219
                      -2.61033                      -1.03661                      15.33197
                      -2.27056                      -1.65465                      15.33164
                      -1.78776                      -2.16878                      15.33119
                      -1.19228                      -2.54668                      15.33068
                      -0.52151                      -2.76463                      15.33012
                       0.18238                      -2.80891                      15.32955
                       0.87517                      -2.67676                      15.32901
                       1.51332                      -2.37646                      15.32854
                       2.05675                      -1.92690                      15.32815
                       2.47130                      -1.35632                      15.32788
                       2.73094                      -0.70056                      15.32775
                       2.77013                      -0.00139                      19.70710
                       2.68341                       0.68509                      19.70729
                       2.42869                       1.32843                      19.70765
                       2.02199                       1.88821                      19.70815
                       1.48884                       2.32927                      19.70878
                       0.86276                       2.62388                      19.70948
                       0.18309                       2.75354                      19.71021
                      -0.50748                       2.71009                      19.71093
                      -1.16555                       2.49627                      19.71159
                      -1.74977                       2.12551                      19.71215
                      -2.22343                       1.62111                      19.71258
                      -2.55677                       1.01477                      19.71284
                      -2.72885                       0.34457                      19.71292
                      -2.72885                      -0.34736                      19.71282
                      -2.55677                      -1.01755                      19.71255
                      -2.22343                      -1.62390                      19.71211
                      -1.74977                      -2.12830                      19.71154
                      -1.16555                      -2.49905                      19.71087
                      -0.50748                      -2.71287                      19.71015
                       0.18308                      -2.75632                      19.70942
                       0.86276                      -2.62666                      19.70872
                       1.48884                      -2.33205                      19.70811
                       2.02198                      -1.89100                      19.70761
                       2.42869                      -1.33121                      19.70726
                       2.68341                      -0.68787                      19.70709
                       2.72202                      -0.00211                      24.08649
                       2.63698                       0.67113                      24.08672
                       2.38717                       1.30206                      24.08716
                       1.98831                       1.85105                      24.08778
                       1.46545                       2.28359                      24.08853
                       0.85145                       2.57252                      24.08938
                       0.18488                       2.69967                      24.09027
                      -0.49236                       2.65707                      24.09114
                      -1.13773                       2.44737                      24.09194
                      -1.71068                       2.08377                      24.09261
                      -2.17521                       1.58910                      24.09312
                      -2.50212                       0.99445                      24.09344
                      -2.67087                       0.33718                      24.09354
                      -2.67087                      -0.34140                      24.09341
                      -2.50212                      -0.99867                      24.09307
                      -2.17521                      -1.59332                      24.09254
                      -1.71068                      -2.08798                      24.09185
                      -1.13774                      -2.45159                      24.09104
                      -0.49236                      -2.66128                      24.09016
                       0.18488                      -2.70389                      24.08928
                       0.85145                      -2.57674                      24.08844
                       1.46545                      -2.28781                      24.08769
                       1.98831                      -1.85526                      24.08710
                       2.38717                      -1.30628                      24.08668
                       2.63698                      -0.67534                      24.08647
                       2.67497                      -0.00301                      28.46593
                       2.59159                       0.65698                      28.46621
                       2.34670                       1.27550                      28.46672
                       1.95569                       1.81369                      28.46745
                       1.44311                       2.23773                      28.46833
                       0.84119                       2.52097                      28.46932
                       0.18773                       2.64562                      28.47035
                      -0.47619                       2.60385                      28.47135
                      -1.10887                       2.39828                      28.47227
                      -1.67055                       2.04183                      28.47305
                      -2.12593                       1.55689                      28.47364
                      -2.44641                       0.97394                      28.47399
                      -2.61185                       0.32960                      28.47410
                      -2.61185                      -0.33563                      28.47394
                      -2.44641                      -0.97997                      28.47354
                      -2.12593                      -1.56292                      28.47292
                      -1.67055                      -2.04786                      28.47211
                      -1.10887                      -2.40431                      28.47116
                      -0.47619                      -2.60988                      28.47015
                       0.18773                      -2.65165                      28.46912
                       0.84119                      -2.52700                      28.46815
                       1.44311                      -2.24376                      28.46729
                       1.95568                      -1.81972                      28.46661
                       2.34670                      -1.28153                      28.46613
                       2.59159                      -0.66301                      28.46590
                       2.62893                      -0.00415                      32.84541
                       2.54722                       0.64260                      32.84573
                       2.30725                       1.24871                      32.84633
                       1.92408                       1.77610                      32.84716
                       1.42179                       2.19163                      32.84816
                       0.83194                       2.46919                      32.84928
                       0.19160                       2.59135                      32.85044
                      -0.45900                       2.55041                      32.85157
                      -1.07898                       2.34897                      32.85261
                      -1.62939                       1.99967                      32.85348
                      -2.07564                       1.52446                      32.85412
                      -2.38969                       0.95321                      32.85451
                      -2.55181                       0.32180                      32.85462
                      -2.55181                      -0.33009                      32.85443
                      -2.38969                      -0.96150                      32.85396
                      -2.07564                      -1.53276                      32.85325
                      -1.62939                      -2.00796                      32.85233
                      -1.07899                      -2.35726                      32.85126
                      -0.45900                      -2.55871                      32.85011
                       0.19160                      -2.59964                      32.84895
                       0.83194                      -2.47749                      32.84786
                       1.42179                      -2.19993                      32.84690
                       1.92408                      -1.78440                      32.84613
                       2.30725                      -1.25701                      32.84561
                       2.54722                      -0.65090                      32.84536
                       2.58388                      -0.00554                      37.22491
                       2.50385                       0.62796                      37.22529
                       2.26879                       1.22167                      37.22597
                       1.89347                       1.73826                      37.22690
                       1.40146                       2.14528                      37.22802
                       0.82369                       2.41715                      37.22926
                       0.19646                       2.53681                      37.23055
                      -0.44082                       2.49671                      37.23180
                      -1.04810                       2.29939                      37.23294
                      -1.58724                       1.95724                      37.23389
                      -2.02435                       1.49177                      37.23460
                      -2.33197                       0.93221                      37.23501
                      -2.49077                       0.31373                      37.23511
                      -2.49077                      -0.32481                      37.23488
                      -2.33197                      -0.94329                      37.23435
                      -2.02435                      -1.50285                      37.23354
                      -1.58724                      -1.96833                      37.23251
                      -1.04811                      -2.31048                      37.23132
                      -0.44082                      -2.50780                      37.23004
                       0.19646                      -2.54789                      37.22876
                       0.82369                      -2.42824                      37.22756
                       1.40146                      -2.15636                      37.22651
                       1.89346                      -1.74934                      37.22567
                       2.26879                      -1.23275                      37.22511
                       2.50385                      -0.63905                      37.22485
                       2.53984                      -0.00724                      41.60443
                       2.46148                       0.61302                      41.60487
                       2.23133                       1.19431                      41.60563
                       1.86385                       1.70011                      41.60666
                       1.38214                       2.09862                      41.60790
                       0.81644                       2.36481                      41.60926
                       0.20233                       2.48196                      41.61068
                      -0.42163                       2.44271                      41.61204
                      -1.01622                       2.24951                      41.61328
                      -1.54409                       1.91451                      41.61431
                      -1.97207                       1.45877                      41.61506
                      -2.27325                       0.91091                      41.61550
                      -2.42873                       0.30535                      41.61559
                      -2.42873                      -0.31984                      41.61532
                      -2.27325                      -0.92539                      41.61472
                      -1.97207                      -1.47325                      41.61382
                      -1.54409                      -1.92900                      41.61267
                      -1.01623                      -2.26399                      41.61136
                      -0.42163                      -2.45719                      41.60996
                       0.20232                      -2.49644                      41.60856
                       0.81644                      -2.37929                      41.60725
                       1.38213                      -2.11310                      41.60611
                       1.86385                      -1.71459                      41.60521
                       2.23133                      -1.20879                      41.60461
                       2.46148                      -0.62750                      41.60434
                       2.49682                      -0.00928                      45.98396
                       2.42014                       0.59774                      45.98445
                       2.19490                       1.16662                      45.98529
                       1.83527                       1.66161                      45.98643
                       1.36384                       2.05162                      45.98779
                       0.81022                       2.31213                      45.98928
                       0.20922                       2.42678                      45.99081
                      -0.40142                       2.38836                      45.99229
                      -0.98332                       2.19929                      45.99363
                      -1.49991                       1.87144                      45.99473
                      -1.91875                       1.42543                      45.99553
                      -2.21351                       0.88926                      45.99598
                      -2.36567                       0.29664                      45.99606
                      -2.36567                      -0.31521                      45.99575
                      -2.21351                      -0.90783                      45.99507
                      -1.91875                      -1.44399                      45.99407
                      -1.49992                      -1.89001                      45.99282
                      -0.98332                      -2.21785                      45.99138
                      -0.40142                      -2.40692                      45.98986
                       0.20921                      -2.44534                      45.98834
                       0.81022                      -2.33069                      45.98692
                       1.36383                      -2.07018                      45.98569
                       1.83527                      -1.68018                      45.98473
                       2.19490                      -1.18518                      45.98410
                       2.42014                      -0.61630                      45.98384
                       2.45488                      -0.01170                      50.36347
                       2.37986                       0.58207                      50.36403
                       2.15954                       1.13854                      50.36496
                       1.80776                       1.62274                      50.36620
                       1.34661                       2.00423                      50.36768
                       0.80508                       2.25906                      50.36930
                       0.21718                       2.37121                      50.37096
                      -0.38013                       2.33363                      50.37255
                      -0.94934                       2.14868                      50.37399
                      -1.45466                       1.82799                      50.37516
                      -1.86436                       1.39170                      50.37601
                      -2.15269                       0.86724                      50.37648
                      -2.30153                       0.28754                      50.37653
                      -2.30153                      -0.31096                      50.37617
                      -2.15269                      -0.89065                      50.37542
                      -1.86436                      -1.41512                      50.37433
                      -1.45467                      -1.85140                      50.37296
                      -0.94934                      -2.17209                      50.37140
                      -0.38014                      -2.35704                      50.36974
                       0.21718                      -2.39462                      50.36810
                       0.80507                      -2.28247                      50.36658
                       1.34661                      -2.02764                      50.36526
                       1.80776                      -1.64615                      50.36424
                       2.15954                      -1.16195                      50.36358
                       2.37986                      -0.60548                      50.36332
                       2.41406                      -0.01454                      54.74298
                       2.34072                       0.56599                      54.74360
                       2.12532                       1.11005                      54.74462
                       1.78138                       1.58345                      54.74597
                       1.33051                       1.95643                      54.74758
                       0.80106                       2.20558                      54.74932
                       0.22628                       2.31522                      54.75111
                      -0.35772                       2.27848                      54.75282
                      -0.91422                       2.09766                      54.75435
                      -1.40828                       1.78412                      54.75560
                      -1.80884                       1.35756                      54.75649
                      -2.09074                       0.84479                      54.75697
                      -2.23626                       0.27803                      54.75701
                      -2.23626                      -0.30712                      54.75660
                      -2.09074                      -0.87389                      54.75577
                      -1.80884                      -1.38666                      54.75458
                      -1.40828                      -1.81321                      54.75309
                      -0.91423                      -2.12675                      54.75140
                      -0.35772                      -2.30757                      54.74962
                       0.22627                      -2.34431                      54.74786
                       0.80105                      -2.23467                      54.74622
                       1.33051                      -1.98552                      54.74482
                       1.78137                      -1.61253                      54.74374
                       2.12532                      -1.13914                      54.74305
                       2.34072                      -0.59508                      54.74279
                       2.37443                      -0.01782                      59.12249
                       2.30276                       0.54947                      59.12318
                       2.09227                       1.08112                      59.12429
                       1.75618                       1.54371                      59.12575
                       1.31560                       1.90819                      59.12747
                       0.79822                       2.15165                      59.12935
                       0.23655                       2.25880                      59.13126
                      -0.33412                       2.22289                      59.13308
                      -0.87793                       2.04619                      59.13470
                      -1.36072                       1.73981                      59.13602
                      -1.75214                       1.32298                      59.13696
                      -2.02761                       0.82191                      59.13745
                      -2.16981                       0.26807                      59.13747
                      -2.16981                      -0.30373                      59.13701
                      -2.02761                      -0.85757                      59.13611
                      -1.75215                      -1.35864                      59.13481
                      -1.36072                      -1.77547                      59.13321
                      -0.87794                      -2.08185                      59.13139
                      -0.33413                      -2.25855                      59.12949
                       0.23654                      -2.29445                      59.12761
                       0.79822                      -2.18730                      59.12587
                       1.31559                      -1.94384                      59.12438
                       1.75617                      -1.57936                      59.12325
                       2.09227                      -1.11676                      59.12253
                       2.30276                      -0.58512                      59.12227
                       2.33600                      -0.02157                      63.50203
                       2.26601                       0.53248                      63.50278
                       2.06043                       1.05172                      63.50397
                       1.73218                       1.50352                      63.50554
                       1.30189                       1.85949                      63.50737
                       0.79659                       2.09727                      63.50937
                       0.24803                       2.20191                      63.51139
                      -0.30932                       2.16684                      63.51332
                      -0.84044                       1.99427                      63.51504
                      -1.31195                       1.69504                      63.51643
                      -1.69424                       1.28794                      63.51740
                      -1.96328                       0.79856                      63.51790
                      -2.10216                       0.25765                      63.51790
                      -2.10216                      -0.30080                      63.51740
                      -1.96328                      -0.84171                      63.51642
                      -1.69424                      -1.33108                      63.51503
                      -1.31196                      -1.73818                      63.51331
                      -0.84044                      -2.03741                      63.51138
                      -0.30933                      -2.20998                      63.50935
                       0.24802                      -2.24505                      63.50736
                       0.79658                      -2.14040                      63.50552
                       1.30188                      -1.90262                      63.50396
                       1.73217                      -1.54665                      63.50277
                       2.06042                      -1.09485                      63.50202
                       2.26600                      -0.57561                      63.50177
                       2.29874                      -0.02577                      67.88162
                       2.23042                       0.51504                      67.88243
                       2.02975                       1.02186                      67.88370
                       1.70935                       1.46286                      67.88536
                       1.28934                       1.81032                      67.88730
                       0.79612                       2.04242                      67.88939
                       0.26067                       2.14456                      67.89152
                      -0.28335                       2.11033                      67.89354
                      -0.80177                       1.94188                      67.89533
                      -1.26202                       1.64980                      67.89677
                      -1.63517                       1.25243                      67.89778
                      -1.89777                       0.77475                      67.89829
                      -2.03334                       0.24677                      67.89826
                      -2.03334                      -0.29833                      67.89771
                      -1.89778                      -0.82631                      67.89666
                      -1.63517                      -1.30399                      67.89519
                      -1.26203                      -1.70135                      67.89338
                      -0.80178                      -1.99343                      67.89134
                      -0.28336                      -2.16188                      67.88921
                       0.26067                      -2.19611                      67.88712
                       0.79611                      -2.09396                      67.88521
                       1.28934                      -1.86187                      67.88358
                       1.70935                      -1.51440                      67.88234
                       2.02975                      -1.07340                      67.88158
                       2.23042                      -0.56658                      67.88133
                       2.26252                      -0.03043                      72.26133
                       2.19588                       0.49714                      72.26218
                       2.00013                       0.99155                      72.26352
                       1.68757                       1.42175                      72.26524
                       1.27785                       1.76071                      72.26726
                       0.79670                       1.98712                      72.26943
                       0.27437                       2.08676                      72.27163
                      -0.25633                       2.05337                      72.27371
                      -0.76206                       1.88904                      72.27555
                      -1.21104                       1.60411                      72.27702
                      -1.57505                       1.21648                      72.27804
                      -1.83122                       0.75049                      72.27855
                      -1.96347                       0.23544                      72.27850
                      -1.96347                      -0.29632                      72.27791
                      -1.83123                      -0.81137                      72.27681
                      -1.57505                      -1.27735                      72.27527
                      -1.21104                      -1.66498                      72.27338
                      -0.76207                      -1.94991                      72.27127
                      -0.25634                      -2.11423                      72.26907
                       0.27436                      -2.14762                      72.26691
                       0.79670                      -2.04798                      72.26494
                       1.27784                      -1.82156                      72.26327
                       1.68756                      -1.48261                      72.26201
                       2.00012                      -1.05241                      72.26124
                       2.19587                      -0.55799                      72.26101
                       2.22711                      -0.03551                      76.64121
                       2.16214                       0.47882                      76.64210
                       1.97130                       0.96082                      76.64347
                       1.66659                       1.38022                      76.64523
                       1.26715                       1.71067                      76.64728
                       0.79809                       1.93139                      76.64949
                       0.28886                       2.02853                      76.65171
                      -0.22852                       1.99598                      76.65381
                      -0.72155                       1.83578                      76.65566
                      -1.15926                       1.55800                      76.65713
                      -1.51413                       1.18010                      76.65815
                      -1.76387                       0.72581                      76.65863
                      -1.89280                       0.22369                      76.65856
                      -1.89280                      -0.29472                      76.65794
                      -1.76388                      -0.79684                      76.65680
                      -1.51414                      -1.25113                      76.65522
                      -1.15926                      -1.62903                      76.65330
                      -0.72156                      -1.90681                      76.65115
                      -0.22853                      -2.06700                      76.64892
                       0.28885                      -2.09955                      76.64674
                       0.79808                      -2.00241                      76.64475
                       1.26714                      -1.78168                      76.64308
                       1.66658                      -1.45123                      76.64182
                       1.97130                      -1.03183                      76.64107
                       2.16213                      -0.54983                      76.64086
                       2.19208                      -0.04095                      81.02134
                       2.12878                       0.46013                      81.02225
                       1.94286                       0.92972                      81.02362
                       1.64599                       1.33832                      81.02538
                       1.25684                       1.66026                      81.02741
                       0.79985                       1.87530                      81.02958
                       0.30374                       1.96994                      81.03177
                      -0.20032                       1.93823                      81.03382
                      -0.68066                       1.78215                      81.03562
                      -1.10710                       1.51153                      81.03705
                      -1.45283                       1.14335                      81.03802
                      -1.69615                       0.70076                      81.03846
                      -1.82175                       0.21157                      81.03836
                      -1.82175                      -0.29349                      81.03771
                      -1.69615                      -0.78268                      81.03656
                      -1.45284                      -1.22527                      81.03499
                      -1.10710                      -1.59345                      81.03308
                      -0.68067                      -1.86407                      81.03096
                      -0.20033                      -2.02014                      81.02876
                       0.30373                      -2.05185                      81.02662
                       0.79984                      -1.95721                      81.02468
                       1.25683                      -1.74217                      81.02306
                       1.64598                      -1.42023                      81.02185
                       1.94285                      -1.01162                      81.02114
                       2.12878                      -0.54203                      81.02097
                       2.15678                      -0.04668                      85.40182
                       2.09516                       0.44116                      85.40272
                       1.91415                       0.89834                      85.40406
                       1.62513                       1.29614                      85.40574
                       1.24626                       1.60957                      85.40768
                       0.80135                       1.81893                      85.40974
                       0.31835                       1.91107                      85.41180
                      -0.17239                       1.88019                      85.41372
                      -0.64003                       1.72824                      85.41539
                      -1.05520                       1.46477                      85.41671
                      -1.39180                       1.10632                      85.41758
                      -1.62868                       0.67543                      85.41795
                      -1.75096                       0.19917                      85.41781
                      -1.75097                      -0.29255                      85.41715
                      -1.62868                      -0.76881                      85.41603
                      -1.39180                      -1.19970                      85.41450
                      -1.05520                      -1.55815                      85.41268
                      -0.64004                      -1.82162                      85.41066
                      -0.17240                      -1.97356                      85.40859
                       0.31834                      -2.00444                      85.40658
                       0.80134                      -1.91230                      85.40477
                       1.24625                      -1.70294                      85.40326
                       1.62512                      -1.38950                      85.40216
                       1.91414                      -0.99170                      85.40154
                       2.09516                      -0.53452                      85.40142
                       2.13877                      -0.04962                      87.59223
                       2.07798                       0.43159                      87.59311
                       1.89942                       0.88257                      87.59441
                       1.61433                       1.27497                      87.59603
                       1.24060                       1.58415                      87.59788
                       0.80173                       1.79067                      87.59985
                       0.32528                       1.88155                      87.60180
                      -0.15879                       1.85109                      87.60362
                      -0.62009                       1.70121                      87.60519
                      -1.02962                       1.44131                      87.60641
                      -1.36165                       1.08773                      87.60721
                      -1.59532                       0.66269                      87.60754
                      -1.71595                       0.19289                      87.60737
                      -1.71595                      -0.29215                      87.60671
                      -1.59532                      -0.76195                      87.60561
                      -1.36166                      -1.18700                      87.60414
                      -1.02963                      -1.54057                      87.60239
                      -0.62010                      -1.80047                      87.60047
                      -0.15880                      -1.95035                      87.59849
                       0.32527                      -1.98081                      87.59659
                       0.80172                      -1.88992                      87.59488
                       1.24059                      -1.68340                      87.59347
                       1.61432                      -1.37422                      87.59246
                       1.89942                      -0.98182                      87.59189
                       2.07797                      -0.53084                      87.59181
                       3.00000                       0.00000                       0.00000
                       2.90575                       0.74607                       0.00000
                       2.62892                       1.44526                       0.00000
                       2.18691                       2.05364                       0.00000
                       1.60748                       2.53298                       0.00000
                       0.92705                       2.85317                       0.00000
                       0.18837                       2.99408                       0.00000
                      -0.56214                       2.94686                       0.00000
                      -1.27734                       2.71448                       0.00000
                      -1.91227                       2.31154                       0.00000
                      -2.42705                       1.76336                       0.00000
                      -2.78933                       1.10437                       0.00000
                      -2.97634                       0.37600                       0.00000
                      -2.97634                      -0.37600                       0.00000
                      -2.78933                      -1.10437                       0.00000
                      -2.42705                      -1.76336                       0.00000
                      -1.91227                      -2.31154                       0.00000
                      -1.27734                      -2.71448                       0.00000
                      -0.56214                      -2.94686                       0.00000
                       0.18837                      -2.99408                       0.00000
                       0.92705                      -2.85317                       0.00000
                       1.60748                      -2.53298                       0.00000
                       2.18691                      -2.05364                       0.00000
                       2.62892                      -1.44526                       0.00000
                       2.90575                      -0.74607                       0.00000
        </DataArray>
      </Points>
      <Polys>
        <DataArray type="Int32" Name="connectivity" format="ascii">
      0      1     26     25
      1      2     27     26
      2      3     28     27
      3      4     29     28
      4      5     30     29
      5      6     31     30
      6      7     32     31
      7      8     33     32
      8      9     34     33
      9     10     35     34
     10     11     36     35
     11     12     37     36
     12     13     38     37
     13     14     39     38
     14     15     40     39
     15     16     41     40
     16     17     42     41
     17     18     43     42
     18     19     44     43
     19     20     45     44
     20     21     46     45
     21     22     47     46
     22     23     48     47
     23     24     49     48
     24      0     25     49
     24     23     22     21     20     19     18     17     16     15     14     13     12     11     10      9      8      7      6      5      4      3      2      1      0
     25     26     27     28     29     30     31     32     33     34     35     36     37     38     39     40     41     42     43     44     45     46     47     48     49
     25     26     51     50
     26     27     52     51
     27     28     53     52
     28     29     54     53
     29     30     55     54
     30     31     56     55
     31     32     57     56
     32     33     58     57
     33     34     59     58
     34     35     60     59
     35     36     61     60
     36     37     62     61
     37     38     63     62
     38     39     64     63
     39     40     65     64
     40     41     66     65
     41     42     67     66
     42     43     68     67
     43     44     69     68
     44     45     70     69
     45     46     71     70
     46     47     72     71
     47     48     73     72
     48     49     74     73
     49     25     50     74
     49     48     47     46     45     44     43     42     41     40     39     38     37     36     35     34     33     32     31     30     29     28     27     26     25
     50     51     52     53     54     55     56     57     58     59     60     61     62     63     64     65     66     67     68     69     70     71     72     73     74
     50     51     76     75
     51     52     77     76
     52     53     78     77
     53     54     79     78
     54     55     80     79
     55     56     81     80
     56     57     82     81
     57     58     83     82
     58     59     84     83
     59     60     85     84
     60     61     86     85
     61     62     87     86
     62     63     88     87
     63     64     89     88
     64     65     90     89
     65     66     91     90
     66     67     92     91
     67     68     93     92
     68     69     94     93
     69     70     95     94
     70     71     96     95
     71     72     97     96
     72     73     98     97
     73     74     99     98
     74     50     75     99
     74     73     72     71     70     69     68     67     66     65     64     63     62     61     60     59     58     57     56     55     54     53     52     51     50
     75     76     77     78     79     80     81     82     83     84     85     86     87     88     89     90     91     92     93     94     95     96     97     98     99
     75     76    101    100
     76     77    102    101
     77     78    103    102
     78     79    104    103
     79     80    105    104
     80     81    106    105
     81     82    107    106
     82     83    108    107
     83     84    109    108
     84     85    110    109
     85     86    111    110
     86     87    112    111
     87     88    113    112
     88     89    114    113
     89     90    115    114
     90     91    116    115
     91     92    117    116
     92     93    118    117
     93     94    119    118
     94     95    120    119
     95     96    121    120
     96     97    122    121
     97     98    123    122
     98     99    124    123
     99     75    100    124
     99     98     97     96     95     94     93     92     91     90     89     88     87     86     85     84     83     82     81     80     79     78     77     76     75
    100    101    102    103    104    105    106    107    108    109    110    111    112    113    114    115    116    117    118    119    120    121    122    123    124
    100    101    126    125
    101    102    127    126
    102    103    128    127
    103    104    129    128
    104    105    130    129
    105    106    131    130
    106    107    132    131
    107    108    133    132
    108    109    134    133
    109    110    135    134
    110    111    136    135
    111    112    137    136
    112    113    138    137
    113    114    139    138
    114    115    140    139
    115    116    141    140
    116    117    142    141
    117    118    143    142
    118    119    144    143
    119    120    145    144
    120    121    146    145
    121    122    147    146
    122    123    148    147
    123    124    149    148
    124    100    125    149
    124    123    122    121    120    119    118    117    116    115    114    113    112    111    110    109    108    107    106    105    104    103    102    101    100
    125    126    127    128    129    130    131    132    133    134    135    136    137    138    139    140    141    142    143    144    145    146    147    148    149
    125    126    151    150
    126    127    152    151
    127    128    153    152
    128    129    154    153
    129    130    155    154
    130    131    156    155
    131    132    157    156
    132    133    158    157
    133    134    159    158
    134    135    160    159
    135    136    161    160
    136    137    162    161
    137    138    163    162
    138    139    164    163
    139    140    165    164
    140    141    166    165
    141    142    167    166
    142    143    168    167
    143    144    169    168
    144    145    170    169
    145    146    171    170
    146    147    172    171
    147    148    173    172
    148    149    174    173
    149    125    150    174
    149    148    147    146    145    144    143    142    141    140    139    138    137    136    135    134    133    132    131    130    129    128    127    126    125
    150    151    152    153    154    155    156    157    158    159    160    161    162    163    164    165    166    167    168    169    170    171    172    173    174
    150    151    176    175
    151    152    177    176
    152    153    178    177
    153    154    179    178
    154    155    180    179
    155    156    181    180
    156    157    182    181
    157    158    183    182
    158    159    184    183
    159    160    185    184
    160    161    186    185
    161    162    187    186
    162    163    188    187
    163    164    189    188
    164    165    190    189
    165    166    191    190
    166    167    192    191
    167    168    193    192
    168    169    194    193
    169    170    195    194
    170    171    196    195
    171    172    197    196
    172    173    198    197
    173    174    199    198
    174    150    175    199
    174    173    172    171    170    169    168    167    166    165    164    163    162    161    160    159    158    157    156    155    154    153    152    151    150
    175    176    177    178    179    180    181    182    183    184    185    186    187    188    189    190    191    192    193    194    195    196    197    198    199
    175    176    201    200
    176    177    202    201
    177    178    203    202
    178    179    204    203
    179    180    205    204
    180    181    206    205
    181    182    207    206
    182    183    208    207
    183    184    209    208
    184    185    210    209
    185    186    211    210
    186    187    212    211
    187    188    213    212
    188    189    214    213
    189    190    215    214
    190    191    216    215
    191    192    217    216
    192    193    218    217
    193    194    219    218
    194    195    220    219
    195    196    221    220
    196    197    222    221
    197    198    223    222
    198    199    224    223
    199    175    200    224
    199    198    197    196    195    194    193    192    191    190    189    188    187    186    185    184    183    182    181    180    179    178    177    176    175
    200    201    202    203    204    205    206    207    208    209    210    211    212    213    214    215    216    217    218    219    220    221    222    223    224
    200    201    226    225
    201    202    227    226
    202    203    228    227
    203    204    229    228
    204    205    230    229
    205    206    231    230
    206    207    232    231
    207    208    233    232
    208    209    234    233
    209    210    235    234
    210    211    236    235
    211    212    237    236
    212    213    238    237
    213    214    239    238
    214    215    240    239
    215    216    241    240
    216    217    242    241
    217    218    243    242
    218    219    244    243
    219    220    245    244
    220    221    246    245
    221    222    247    246
    222    223    248    247
    223    224    249    248
    224    200    225    249
    224    223    222    221    220    219    218    217    216    215    214    213    212    211    210    209    208    207    206    205    204    203    202    201    200
    225    226    227    228    229    230    231    232    233    234    235    236    237    238    239    240    241    242    243    244    245    246    247    248    249
    225    226    251    250
    226    227    252    251
    227    228    253    252
    228    229    254    253
    229    230    255    254
    230    231    256    255
    231    232    257    256
    232    233    258    257
    233    234    259    258
    234    235    260    259
    235    236    261    260
    236    237    262    261
    237    238    263    262
    238    239    264    263
    239    240    265    264
    240    241    266    265
    241    242    267    266
    242    243    268    267
    243    244    269    268
    244    245    270    269
    245    246    271    270
    246    247    272    271
    247    248    273    272
    248    249    274    273
    249    225    250    274
    249    248    247    246    245    244    243    242    241    240    239    238    237    236    235    234    233    232    231    230    229    228    227    226    225
    250    251    252    253    254    255    256    257    258    259    260    261    262    263    264    265    266    267    268    269    270    271    272    273    274
    250    251    276    275
    251    252    277    276
    252    253    278    277
    253    254    279    278
    254    255    280    279
    255    256    281    280
    256    257    282    281
    257    258    283    282
    258    259    284    283
    259    260    285    284
    260    261    286    285
    261    262    287    286
    262    263    288    287
    263    264    289    288
    264    265    290    289
    265    266    291    290
    266    267    292    291
    267    268    293    292
    268    269    294    293
    269    270    295    294
    270    271    296    295
    271    272    297    296
    272    273    298    297
    273    274    299    298
    274    250    275    299
    274    273    272    271    270    269    268    267    266    265    264    263    262    261    260    259    258    257    256    255    254    253    252    251    250
    275    276    277    278    279    280    281    282    283    284    285    286    287    288    289    290    291    292    293    294    295    296    297    298    299
    275    276    301    300
    276    277    302    301
    277    278    303    302
    278    279    304    303
    279    280    305    304
    280    281    306    305
    281    282    307    306
    282    283    308    307
    283    284    309    308
    284    285    310    309
    285    286    311    310
    286    287    312    311
    287    288    313    312
    288    289    314    313
    289    290    315    314
    290    291    316    315
    291    292    317    316
    292    293    318    317
    293    294    319    318
    294    295    320    319
    295    296    321    320
    296    297    322    321
    297    298    323    322
    298    299    324    323
    299    275    300    324
    299    298    297    296    295    294    293    292    291    290    289    288    287    286    285    284    283    282    281    280    279    278    277    276    275
    300    301    302    303    304    305    306    307    308    309    310    311    312    313    314    315    316    317    318    319    320    321    322    323    324
    300    301    326    325
    301    302    327    326
    302    303    328    327
    303    304    329    328
    304    305    330    329
    305    306    331    330
    306    307    332    331
    307    308    333    332
    308    309    334    333
    309    310    335    334
    310    311    336    335
    311    312    337    336
    312    313    338    337
    313    314    339    338
    314    315    340    339
    315    316    341    340
    316    317    342    341
    317    318    343    342
    318    319    344    343
    319    320    345    344
    320    321    346    345
    321    322    347    346
    322    323    348    347
    323    324    349    348
    324    300    325    349
    324    323    322    321    320    319    318    317    316    315    314    313    312    311    310    309    308    307    306    305    304    303    302    301    300
    325    326    327    328    329    330    331    332    333    334    335    336    337    338    339    340    341    342    343    344    345    346    347    348    349
    325    326    351    350
    326    327    352    351
    327    328    353    352
    328    329    354    353
    329    330    355    354
    330    331    356    355
    331    332    357    356
    332    333    358    357
    333    334    359    358
    334    335    360    359
    335    336    361    360
    336    337    362    361
    337    338    363    362
    338    339    364    363
    339    340    365    364
    340    341    366    365
    341    342    367    366
    342    343    368    367
    343    344    369    368
    344    345    370    369
    345    346    371    370
    346    347    372    371
    347    348    373    372
    348    349    374    373
    349    325    350    374
    349    348    347    346    345    344    343    342    341    340    339    338    337    336    335    334    333    332    331    330    329    328    327    326    325
    350    351    352    353    354    355    356    357    358    359    360    361    362    363    364    365    366    367    368    369    370    371    372    373    374
    350    351    376    375
    351    352    377    376
    352    353    378    377
    353    354    379    378
    354    355    380    379
    355    356    381    380
    356    357    382    381
    357    358    383    382
    358    359    384    383
    359    360    385    384
    360    361    386    385
    361    362    387    386
    362    363    388    387
    363    364    389    388
    364    365    390    389
    365    366    391    390
    366    367    392    391
    367    368    393    392
    368    369    394    393
    369    370    395    394
    370    371    396    395
    371    372    397    396
    372    373    398    397
    373    374    399    398
    374    350    375    399
    374    373    372    371    370    369    368    367    366    365    364    363    362    361    360    359    358    357    356    355    354    353    352    351    350
    375    376    377    378    379    380    381    382    383    384    385    386    387    388    389    390    391    392    393    394    395    396    397    398    399
    375    376    401    400
    376    377    402    401
    377    378    403    402
    378    379    404    403
    379    380    405    404
    380    381    406    405
    381    382    407    406
    382    383    408    407
    383    384    409    408
    384    385    410    409
    385    386    411    410
    386    387    412    411
    387    388    413    412
    388    389    414    413
    389    390    415    414
    390    391    416    415
    391    392    417    416
    392    393    418    417
    393    394    419    418
    394    395    420    419
    395    396    421    420
    396    397    422    421
    397    398    423    422
    398    399    424    423
    399    375    400    424
    399    398    397    396    395    394    393    392    391    390    389    388    387    386    385    384    383    382    381    380    379    378    377    376    375
    400    401    402    403    404    405    406    407    408    409    410    411    412    413    414    415    416    417    418    419    420    421    422    423    424
    400    401    426    425
    401    402    427    426
    402    403    428    427
    403    404    429    428
    404    405    430    429
    405    406    431    430
    406    407    432    431
    407    408    433    432
    408    409    434    433
    409    410    435    434
    410    411    436    435
    411    412    437    436
    412    413    438    437
    413    414    439    438
    414    415    440    439
    415    416    441    440
    416    417    442    441
    417    418    443    442
    418    419    444    443
    419    420    445    444
    420    421    446    445
    421    422    447    446
    422    423    448    447
    423    424    449    448
    424    400    425    449
    424    423    422    421    420    419    418    417    416    415    414    413    412    411    410    409    408    407    406    405    404    403    402    401    400
    425    426    427    428    429    430    431    432    433    434    435    436    437    438    439    440    441    442    443    444    445    446    447    448    449
    425    426    451    450
    426    427    452    451
    427    428    453    452
    428    429    454    453
    429    430    455    454
    430    431    456    455
    431    432    457    456
    432    433    458    457
    433    434    459    458
    434    435    460    459
    435    436    461    460
    436    437    462    461
    437    438    463    462
    438    439    464    463
    439    440    465    464
    440    441    466    465
    441    442    467    466
    442    443    468    467
    443    444    469    468
    444    445    470    469
    445    446    471    470
    446    447    472    471
    447    448    473    472
    448    449    474    473
    449    425    450    474
    449    448    447    446    445    444    443    442    441    440    439    438    437    436    435    434    433    432    431    430    429    428    427    426    425
    450    451    452    453    454    455    456    457    458    459    460    461    462    463    464    465    466    467    468    469    470    471    472    473    474
    450    451    476    475
    451    452    477    476
    452    453    478    477
    453    454    479    478
    454    455    480    479
    455    456    481    480
    456    457    482    481
    457    458    483    482
    458    459    484    483
    459    460    485    484
    460    461    486    485
    461    462    487    486
    462    463    488    487
    463    464    489    488
    464    465    490    489
    465    466    491    490
    466    467    492    491
    467    468    493    492
    468    469    494    493
    469    470    495    494
    470    471    496    495
    471    472    497    496
    472    473    498    497
    473    474    499    498
    474    450    475    499
    474    473    472    471    470    469    468    467    466    465    464    463    462    461    460    459    458    457    456    455    454    453    452    451    450
    475    476    477    478    479    480    481    482    483    484    485    486    487    488    489    490    491    492    493    494    495    496    497    498    499
    475    476    501    500
    476    477    502    501
    477    478    503    502
    478    479    504    503
    479    480    505    504
    480    481    506    505
    481    482    507    506
    482    483    508    507
    483    484    509    508
    484    485    510    509
    485    486    511    510
    486    487    512    511
    487    488    513    512
    488    489    514    513
    489    490    515    514
    490    491    516    515
    491    492    517    516
    492    493    518    517
    493    494    519    518
    494    495    520    519
    495    496    521    520
    496    497    522    521
    497    498    523    522
    498    499    524    523
    499    475    500    524
    499    498    497    496    495    494    493    492    491    490    489    488    487    486    485    484    483    482    481    480    479    478    477    476    475
    500    501    502    503    504    505    506    507    508    509    510    511    512    513    514    515    516    517    518    519    520    521    522    523    524
    525    526      1      0
    526    527      2      1
    527    528      3      2
    528    529      4      3
    529    530      5      4
    530    531      6      5
    531    532      7      6
    532    533      8      7
    533    534      9      8
    534    535     10      9
    535    536     11     10
    536    537     12     11
    537    538     13     12
    538    539     14     13
    539    540     15     14
    540    541     16     15
    541    542     17     16
    542    543     18     17
    543    544     19     18
    544    545     20     19
    545    546     21     20
    546    547     22     21
    547    548     23     22
    548    549     24     23
    549    525      0     24
    549    548    547    546    545    544    543    542    541    540    539    538    537    536    535    534    533    532    531    530    529    528    527    526    525
      0      1      2      3      4      5      6      7      8      9     10     11     12     13     14     15     16     17     18     19     20     21     22     23     24
        </DataArray>
        <DataArray type="Int32" Name="offsets" format="ascii">
      4
      8
     12
     16
     20
     24
     28
     32
     36
     40
     44
     48
     52
     56
     60
     64
     68
     72
     76
     80
     84
     88
     92
     96
    100
    125
    150
    154
    158
    162
    166
    170
    174
    178
    182
    186
    190
    194
    198
    202
    206
    210
    214
    218
    222
    226
    230
    234
    238
    242
    246
    250
    275
    300
    304
    308
    312
    316
    320
    324
    328
    332
    336
    340
    344
    348
    352
    356
    360
    364
    368
    372
    376
    380
    384
    388
    392
    396
    400
    425
    450
    454
    458
    462
    466
    470
    474
    478
    482
    486
    490
    494
    498
    502
    506
    510
    514
    518
    522
    526
    530
    534
    538
    542
    546
    550
    575
    600
    604
    608
    612
    616
    620
    624
    628
    632
    636
    640
    644
    648
    652
    656
    660
    664
    668
    672
    676
    680
    684
    688
    692
    696
    700
    725
    750
    754
    758
    762
    766
    770
    774
    778
    782
    786
    790
    794
    798
    802
    806
    810
    814
    818
    822
    826
    830
    834
    838
    842
    846
    850
    875
    900
    904
    908
    912
    916
    920
    924
    928
    932
    936
    940
    944
    948
    952
    956
    960
    964
    968
    972
    976
    980
    984
    988
    992
    996
   1000
   1025
   1050
   1054
   1058
   1062
   1066
   1070
   1074
   1078
   1082
   1086
   1090
   1094
   1098
   1102
   1106
   1110
   1114
   1118
   1122
   1126
   1130
   1134
   1138
   1142
   1146
   1150
   1175
   1200
   1204
   1208
   1212
   1216
   1220
   1224
   1228
   1232
   1236
   1240
   1244
   1248
   1252
   1256
   1260
   1264
   1268
   1272
   1276
   1280
   1284
   1288
   1292
   1296
   1300
   1325
   1350
   1354
   1358
   1362
   1366
   1370
   1374
   1378
   1382
   1386
   1390
   1394
   1398
   1402
   1406
   1410
   1414
   1418
   1422
   1426
   1430
   1434
   1438
   1442
   1446
   1450
   1475
   1500
   1504
   1508
   1512
   1516
   1520
   1524
   1528
   1532
   1536
   1540
   1544
   1548
   1552
   1556
   1560
   1564
   1568
   1572
   1576
   1580
   1584
   1588
   1592
   1596
   1600
   1625
   1650
   1654
   1658
   1662
   1666
   1670
   1674
   1678
   1682
   1686
   1690
   1694
   1698
   1702
   1706
   1710
   1714
   1718
   1722
   1726
   1730
   1734
   1738
   1742
   1746
   1750
   1775
   1800
   1804
   1808
   1812
   1816
   1820
   1824
   1828
   1832
   1836
   1840
   1844
   1848
   1852
   1856
   1860
   1864
   1868
   1872
   1876
   1880
   1884
   1888
   1892
   1896
   1900
   1925
   1950
   1954
   1958
   1962
   1966
   1970
   1974
   1978
   1982
   1986
   1990
   1994
   1998
   2002
   2006
   2010
   2014
   2018
   2022
   2026
   2030
   2034
   2038
   2042
   2046
   2050
   2075
   2100
   2104
   2108
   2112
   2116
   2120
   2124
   2128
   2132
   2136
   2140
   2144
   2148
   2152
   2156
   2160
   2164
   2168
   2172
   2176
   2180
   2184
   2188
   2192
   2196
   2200
   2225
   2250
   2254
   2258
   2262
   2266
   2270
   2274
   2278
   2282
   2286
   2290
   2294
   2298
   2302
   2306
   2310
   2314
   2318
   2322
   2326
   2330
   2334
   2338
   2342
   2346
   2350
   2375
   2400
   2404
   2408
   2412
   2416
   2420
   2424
   2428
   2432
   2436
   2440
   2444
   2448
   2452
   2456
   2460
   2464
   2468
   2472
   2476
   2480
   2484
   2488
   2492
   2496
   2500
   2525
   2550
   2554
   2558
   2562
   2566
   2570
   2574
   2578
   2582
   2586
   2590
   2594
   2598
   2602
   2606
   2610
   2614
   2618
   2622
   2626
   2630
   2634
   2638
   2642
   2646
   2650
   2675
   2700
   2704
   2708
   2712
   2716
   2720
   2724
   2728
   2732
   2736
   2740
   2744
   2748
   2752
   2756
   2760
   2764
   2768
   2772
   2776
   2780
   2784
   2788
   2792
   2796
   2800
   2825
   2850
   2854
   2858
   2862
   2866
   2870
   2874
   2878
   2882
   2886
   2890
   2894
   2898
   2902
   2906
   2910
   2914
   2918
   2922
   2926
   2930
   2934
   2938
   2942
   2946
   2950
   2975
   3000
   3004
   3008
   3012
   3016
   3020
   3024
   3028
   3032
   3036
   3040
   3044
   3048
   3052
   3056
   3060
   3064
   3068
   3072
   3076
   3080
   3084
   3088
   3092
   3096
   3100
   3125
   3150
        </DataArray>
      </Polys>
    </Piece>
  </PolyData>
</VTKFile>
