<?xml version="1.0"?>
<VTKFile type="PolyData" version="0.1" byte_order="LittleEndian">
  <PolyData>
    <Piece NumberOfPoints="     19" NumberOfVerts="  0" NumberOfLines="     18"
           NumberOfStrips="  0" NumberOfPolys="      0">
      <Points>
        <DataArray type="Float32" NumberOfComponents="3" format="ascii">
                      -4.91910                       1.23448                      89.27708
                      -5.04215                       2.41752                      88.60375
                      -5.32798                       4.82403                      87.33486
                      -5.63139                       7.24964                      86.10196
                      -6.01900                      10.29304                      84.58112
                      -6.39863                      13.88615                      82.63746
                      -6.72250                      17.42097                      80.58249
                      -7.04176                      20.95314                      78.52218
                      -7.35444                      24.48220                      76.45544
                      -7.66298                      28.00888                      74.38398
                      -7.97111                      31.53469                      72.31097
                      -8.27998                      35.05894                      70.23541
                      -8.59273                      38.58134                      68.15734
                      -8.91293                      42.10152                      66.07674
                      -9.24210                      45.61941                      63.99392
                      -9.52592                      48.54881                      62.25633
                      -9.75876                      50.88685                      60.85826
                      -9.98756                      53.19693                      59.41194
                     -10.11552                      54.37076                      58.72359
        </DataArray>
      </Points>
      <PointData>
        <DataArray type="Float32" Name="TranslationalVelocity" NumberOfComponents="3" format="ascii">
                       0.14548                       0.98432                       1.63453
                       0.28197                       1.84759                       3.12639
                       0.56059                       3.48059                       6.16077
                       0.84297                       5.07020                       9.21875
                       1.20012                       7.03275                      13.05482
                       1.62713                       9.52761                      17.58291
                       2.05475                      12.15655                      22.03700
                       2.49138                      14.79239                      26.48759
                       2.93878                      17.43664                      30.93460
                       3.39878                      20.08784                      35.37945
                       3.87302                      22.74291                      39.82448
                       4.36258                      25.40357                      44.26921
                       4.86811                      28.07045                      48.71352
                       5.38971                      30.74419                      53.15698
                       5.92682                      33.42459                      57.59937
                       6.38554                      35.66389                      61.29975
                       6.75795                      37.46723                      64.25354
                       7.13094                      39.33150                      67.17208
                       7.32172                      40.22193                      68.65497
        </DataArray>
        <DataArray type="Float32" Name="RotationalVelocity" NumberOfComponents="3" format="ascii">
                       1.26113                      -0.00002                      -0.11531
                       1.26106                      -0.00001                      -0.11546
                       1.26090                      -0.00010                      -0.11589
                       1.26074                      -0.00030                      -0.11648
                       1.26055                      -0.00067                      -0.11744
                       1.26039                      -0.00125                      -0.11895
                       1.26033                      -0.00190                      -0.12088
                       1.26039                      -0.00258                      -0.12327
                       1.26058                      -0.00326                      -0.12614
                       1.26090                      -0.00388                      -0.12951
                       1.26134                      -0.00444                      -0.13335
                       1.26187                      -0.00490                      -0.13759
                       1.26245                      -0.00523                      -0.14211
                       1.26303                      -0.00541                      -0.14671
                       1.26355                      -0.00541                      -0.15111
                       1.26389                      -0.00525                      -0.15438
                       1.26407                      -0.00499                      -0.15652
                       1.26413                      -0.00460                      -0.15808
                       1.26411                      -0.00435                      -0.15857
        </DataArray>
        <DataArray type="Float32" Name="TranslationalAcceleration" NumberOfComponents="3" format="ascii">
                       0.12449                      -2.09078                       1.20983
                       0.13604                      -2.51810                       1.45318
                       0.37921                      -7.26816                       4.03948
                       0.60019                     -11.66793                       6.35151
                       0.86167                     -16.82504                       9.00391
                       1.18390                     -22.59404                      12.17789
                       1.51581                     -28.11792                      15.43505
                       1.84097                     -33.62130                      18.69443
                       2.15571                     -39.17489                      22.00049
                       2.45614                     -44.80350                      25.36591
                       2.74111                     -50.49873                      28.78036
                       3.01557                     -56.22818                      32.22602
                       3.29292                     -61.95324                      35.67764
                       3.59810                     -67.64196                      39.11152
                       3.97063                     -73.28362                      42.51159
                       4.37636                     -77.96312                      45.32020
                       4.79226                     -81.71040                      47.56822
                       5.32546                     -85.45990                      49.89510
                       5.64038                     -87.39504                      51.01286
        </DataArray>
        <DataArray type="Float32" Name="OrientationX" NumberOfComponents="3" format="ascii">
                       0.90399                       0.27869                       0.32424
                       0.90400                       0.27861                       0.32429
                       0.90401                       0.27835                       0.32447
                       0.90403                       0.27797                       0.32475
                       0.90405                       0.27737                       0.32521
                       0.91694                       0.26296                       0.30011
                       0.92560                       0.25215                       0.28227
                       0.93265                       0.24265                       0.26698
                       0.93955                       0.23291                       0.25098
                       0.94605                       0.22332                       0.23475
                       0.95158                       0.21489                       0.21983
                       0.95648                       0.20729                       0.20535
                       0.96036                       0.20141                       0.19273
                       0.96268                       0.19848                       0.18400
                       0.96472                       0.19642                       0.17533
                       0.96633                       0.19513                       0.16774
                       0.96745                       0.19460                       0.16180
                       0.96768                       0.19598                       0.15870
                       0.96730                       0.19773                       0.15883
        </DataArray>
        <DataArray type="Float32" Name="OrientationY" NumberOfComponents="3" format="ascii">
                       0.41816                      -0.41822                      -0.80637
                       0.41818                      -0.41838                      -0.80628
                       0.41825                      -0.41881                      -0.80602
                       0.41836                      -0.41936                      -0.80567
                       0.41855                      -0.42017                      -0.80516
                       0.38982                      -0.42981                      -0.81443
                       0.36915                      -0.43670                      -0.82038
                       0.35131                      -0.44248                      -0.82510
                       0.33273                      -0.44811                      -0.82975
                       0.31402                      -0.45340                      -0.83416
                       0.29698                      -0.45793                      -0.83791
                       0.28074                      -0.46198                      -0.84128
                       0.26694                      -0.46525                      -0.84397
                       0.25797                      -0.46735                      -0.84560
                       0.24949                      -0.46924                      -0.84710
                       0.24232                      -0.47077                      -0.84832
                       0.23695                      -0.47190                      -0.84921
                       0.23498                      -0.47232                      -0.84953
                       0.23597                      -0.47212                      -0.84937
        </DataArray>
        <DataArray type="Float32" Name="OrientationZ" NumberOfComponents="3" format="ascii">
                      -0.08912                       0.86454                      -0.49460
                      -0.08896                       0.86449                      -0.49472
                      -0.08847                       0.86436                      -0.49503
                      -0.08777                       0.86421                      -0.49541
                      -0.08668                       0.86402                      -0.49594
                      -0.08518                       0.86378                      -0.49662
                      -0.08359                       0.86355                      -0.49729
                      -0.08208                       0.86332                      -0.49793
                      -0.08079                       0.86311                      -0.49852
                      -0.07985                       0.86288                      -0.49906
                      -0.07940                       0.86262                      -0.49958
                      -0.07952                       0.86232                      -0.50007
                      -0.08032                       0.86196                      -0.50058
                      -0.08184                       0.86151                      -0.50111
                      -0.08412                       0.86095                      -0.50168
                      -0.08657                       0.86040                      -0.50221
                      -0.08890                       0.85991                      -0.50265
                      -0.09153                       0.85936                      -0.50311
                      -0.09295                       0.85908                      -0.50334
        </DataArray>
        <DataArray type="Float32" Name="Force" NumberOfComponents="3" format="ascii">
                      -0.00868                      -0.05528                      -0.09507
                     393.46022                      -2.75752                     -75.57825
                     455.88365                     -40.71447                    -152.65635
                     369.74968                     -68.93590                    -186.01287
                    2730.77505                    1137.41478                    1509.39961
                    3087.87253                    1301.64879                    1743.08222
                    2850.71441                    1020.85289                    1302.39698
                    2872.30652                     891.49380                    1081.61035
                    2487.23222                     674.83254                     773.54170
                    2140.82598                     514.63728                     554.38079
                    2130.91602                     457.91421                     459.09408
                    1771.84757                     342.47095                     314.64643
                    1151.38335                     198.82370                     161.36450
                     484.88426                      64.53303                      33.03211
                     401.47320                      51.24489                      21.75175
                      -2.77857                     -22.62361                     -39.03885
                    -282.21170                     -65.45684                     -64.08238
                    -452.99301                     -85.43473                     -66.22163
                   -5335.56155                    -569.07735                      -0.52554
        </DataArray>
        <DataArray type="Float32" Name="Moment" NumberOfComponents="3" format="ascii">
                       0.00000                       0.00000                       0.00000
                       0.00000                       0.00000                       0.00000
                       0.00000                       0.00000                       0.00000
                       0.00000                       0.00000                       0.00000
                     114.22124                   -1140.54435                     652.81552
                      86.01681                    -874.66158                     500.77571
                     113.26918                   -1174.35341                     672.56297
                     141.58100                   -1495.81558                     856.91328
                     175.89564                   -1889.15143                    1082.51120
                     182.12884                   -1980.10465                    1134.83282
                     187.58461                   -2052.24796                    1176.28716
                     191.44501                   -2092.24640                    1199.19440
                     142.58818                   -1543.73187                     884.68542
                     138.67804                   -1474.36331                     844.70351
                     132.12595                   -1367.57064                     783.20011
                     126.72520                   -1275.19098                     729.97298
                     114.28184                   -1120.28530                     641.02902
                      58.67535                    -558.85562                     319.62597
                     -17.41225                     163.34023                     -93.39508
        </DataArray>
      </PointData>
      <Lines>
        <DataArray type="Int32" Name="connectivity" format="ascii">
      0      1
      1      2
      2      3
      3      4
      4      5
      5      6
      6      7
      7      8
      8      9
      9     10
     10     11
     11     12
     12     13
     13     14
     14     15
     15     16
     16     17
     17     18
        </DataArray>
        <DataArray type="Int32" Name="offsets" format="ascii">
      2
      4
      6
      8
     10
     12
     14
     16
     18
     20
     22
     24
     26
     28
     30
     32
     34
     36
        </DataArray>
      </Lines>
    </Piece>
  </PolyData>
</VTKFile>
