<?xml version="1.0"?>
<VTKFile type="PolyData" version="0.1" byte_order="LittleEndian">
  <PolyData>
    <Piece NumberOfPoints="     22" NumberOfVerts="  0" NumberOfLines="     21"
           NumberOfStrips="  0" NumberOfPolys="      0">
      <Points>
        <DataArray type="Float32" NumberOfComponents="3" format="ascii">
                       0.00009                      -0.00003                       2.19000
                       0.00093                      -0.00025                       6.57000
                       0.00279                      -0.00066                      10.95000
                       0.00575                      -0.00126                      15.33000
                       0.00984                      -0.00207                      19.71000
                       0.01502                      -0.00309                      24.08999
                       0.02127                      -0.00435                      28.46999
                       0.02853                      -0.00589                      32.84998
                       0.03680                      -0.00774                      37.22997
                       0.04608                      -0.00996                      41.60996
                       0.05639                      -0.01257                      45.98995
                       0.06778                      -0.01563                      50.36993
                       0.08031                      -0.01915                      54.74992
                       0.09403                      -0.02317                      59.12989
                       0.10895                      -0.02770                      63.50986
                       0.12506                      -0.03275                      67.88983
                       0.14221                      -0.03828                      72.26979
                       0.16017                      -0.04428                      76.64975
                       0.17852                      -0.05066                      81.02971
                       0.19659                      -0.05736                      85.40967
                       0.20526                      -0.06079                      87.59965
                       0.00000                       0.00000                       0.00000
        </DataArray>
      </Points>
      <PointData>
        <DataArray type="Float32" Name="TranslationalVelocity" NumberOfComponents="3" format="ascii">
                      -0.00000                       0.00002                       0.00000
                      -0.00002                       0.00017                       0.00000
                      -0.00005                       0.00045                       0.00000
                      -0.00009                       0.00084                       0.00000
                      -0.00014                       0.00133                       0.00000
                      -0.00019                       0.00193                       0.00000
                      -0.00023                       0.00263                       0.00000
                      -0.00025                       0.00343                       0.00000
                      -0.00026                       0.00433                       0.00000
                      -0.00023                       0.00534                       0.00000
                      -0.00017                       0.00646                       0.00000
                      -0.00005                       0.00768                       0.00000
                       0.00012                       0.00901                       0.00000
                       0.00036                       0.01043                       0.00000
                       0.00066                       0.01195                       0.00000
                       0.00103                       0.01356                       0.00001
                       0.00146                       0.01524                       0.00001
                       0.00196                       0.01698                       0.00001
                       0.00250                       0.01878                       0.00001
                       0.00308                       0.02061                       0.00001
                       0.00337                       0.02154                       0.00001
                       0.00000                      -0.00000                       0.00000
        </DataArray>
        <DataArray type="Float32" Name="RotationalVelocity" NumberOfComponents="3" format="ascii">
                      -0.00002                      -0.00000                       0.00000
                      -0.00005                      -0.00001                       0.00000
                      -0.00008                      -0.00001                       0.00000
                      -0.00010                      -0.00001                       0.00000
                      -0.00012                      -0.00001                       0.00000
                      -0.00015                      -0.00001                       0.00000
                      -0.00017                      -0.00001                       0.00000
                      -0.00019                      -0.00000                       0.00000
                      -0.00022                       0.00000                       0.00000
                      -0.00024                       0.00001                       0.00000
                      -0.00027                       0.00002                       0.00000
                      -0.00029                       0.00003                       0.00000
                      -0.00031                       0.00005                       0.00000
                      -0.00034                       0.00006                       0.00000
                      -0.00036                       0.00008                       0.00000
                      -0.00038                       0.00009                       0.00000
                      -0.00039                       0.00011                       0.00000
                      -0.00040                       0.00012                       0.00000
                      -0.00041                       0.00013                       0.00000
                      -0.00042                       0.00013                       0.00000
                      -0.00042                       0.00013                       0.00000
                       0.00000                      -0.00000                       0.00000
        </DataArray>
        <DataArray type="Float32" Name="TranslationalAcceleration" NumberOfComponents="3" format="ascii">
                      -0.00007                      -0.00000                       0.00000
                      -0.00068                      -0.00003                       0.00000
                      -0.00191                      -0.00009                       0.00000
                      -0.00369                      -0.00017                       0.00000
                      -0.00595                      -0.00029                       0.00000
                      -0.00856                      -0.00044                       0.00001
                      -0.01135                      -0.00064                       0.00001
                      -0.01415                      -0.00088                       0.00002
                      -0.01677                      -0.00119                       0.00002
                      -0.01903                      -0.00156                       0.00002
                      -0.02074                      -0.00201                       0.00003
                      -0.02173                      -0.00255                       0.00003
                      -0.02186                      -0.00319                       0.00003
                      -0.02100                      -0.00392                       0.00002
                      -0.01907                      -0.00477                       0.00002
                      -0.01602                      -0.00572                       0.00000
                      -0.01186                      -0.00678                      -0.00001
                      -0.00666                      -0.00794                      -0.00004
                      -0.00055                      -0.00918                      -0.00007
                       0.00630                      -0.01049                      -0.00010
                       0.00991                      -0.01116                      -0.00011
                       0.00000                      -0.00000                       0.00000
        </DataArray>
        <DataArray type="Float32" Name="RotationalAcceleration" NumberOfComponents="3" format="ascii">
                       0.00000                      -0.00007                       0.00000
                       0.00001                      -0.00021                       0.00000
                       0.00002                      -0.00035                       0.00000
                       0.00002                      -0.00047                       0.00000
                       0.00003                      -0.00056                       0.00000
                       0.00004                      -0.00062                       0.00000
                       0.00005                      -0.00065                       0.00000
                       0.00006                      -0.00063                       0.00000
                       0.00008                      -0.00056                       0.00000
                       0.00009                      -0.00046                       0.00000
                       0.00011                      -0.00031                       0.00000
                       0.00013                      -0.00013                       0.00000
                       0.00016                       0.00008                       0.00000
                       0.00018                       0.00032                       0.00000
                       0.00021                       0.00057                       0.00000
                       0.00023                       0.00082                       0.00000
                       0.00025                       0.00107                       0.00000
                       0.00027                       0.00130                       0.00000
                       0.00029                       0.00149                       0.00000
                       0.00030                       0.00163                       0.00000
                       0.00031                       0.00167                       0.00000
                       0.00000                      -0.00000                       0.00000
        </DataArray>
        <DataArray type="Float32" Name="OrientationX" NumberOfComponents="3" format="ascii">
                       1.00000                       0.00000                      -0.00009
                       1.00000                       0.00000                      -0.00030
                       1.00000                       0.00000                      -0.00055
                       1.00000                       0.00000                      -0.00080
                       1.00000                       0.00000                      -0.00106
                       1.00000                       0.00000                      -0.00131
                       1.00000                       0.00000                      -0.00154
                       1.00000                       0.00000                      -0.00177
                       1.00000                       0.00000                      -0.00200
                       1.00000                       0.00000                      -0.00223
                       1.00000                       0.00000                      -0.00248
                       1.00000                       0.00000                      -0.00273
                       1.00000                       0.00000                      -0.00299
                       0.99999                       0.00000                      -0.00327
                       0.99999                       0.00000                      -0.00354
                       0.99999                       0.00000                      -0.00380
                       0.99999                       0.00000                      -0.00402
                       0.99999                       0.00000                      -0.00416
                       0.99999                       0.00000                      -0.00419
                       0.99999                       0.00000                      -0.00403
                       0.99999                       0.00000                      -0.00387
                       1.00000                      -0.00000                       0.00000
        </DataArray>
        <DataArray type="Float32" Name="OrientationY" NumberOfComponents="3" format="ascii">
                       0.00000                       1.00000                       0.00003
                       0.00000                       1.00000                       0.00007
                       0.00000                       1.00000                       0.00012
                       0.00000                       1.00000                       0.00016
                       0.00000                       1.00000                       0.00021
                       0.00000                       1.00000                       0.00026
                       0.00000                       1.00000                       0.00032
                       0.00000                       1.00000                       0.00039
                       0.00000                       1.00000                       0.00046
                       0.00000                       1.00000                       0.00055
                       0.00000                       1.00000                       0.00065
                       0.00000                       1.00000                       0.00075
                       0.00000                       1.00000                       0.00086
                       0.00000                       1.00000                       0.00098
                       0.00000                       1.00000                       0.00109
                       0.00000                       1.00000                       0.00121
                       0.00000                       1.00000                       0.00132
                       0.00000                       1.00000                       0.00142
                       0.00000                       1.00000                       0.00150
                       0.00000                       1.00000                       0.00156
                       0.00000                       1.00000                       0.00157
                      -0.00000                       1.00000                      -0.00000
        </DataArray>
        <DataArray type="Float32" Name="OrientationZ" NumberOfComponents="3" format="ascii">
                       0.00009                      -0.00003                       1.00000
                       0.00030                      -0.00007                       1.00000
                       0.00055                      -0.00012                       1.00000
                       0.00080                      -0.00016                       1.00000
                       0.00106                      -0.00021                       1.00000
                       0.00131                      -0.00026                       1.00000
                       0.00154                      -0.00032                       1.00000
                       0.00177                      -0.00039                       1.00000
                       0.00200                      -0.00046                       1.00000
                       0.00223                      -0.00055                       1.00000
                       0.00248                      -0.00065                       1.00000
                       0.00273                      -0.00075                       1.00000
                       0.00299                      -0.00086                       1.00000
                       0.00327                      -0.00098                       0.99999
                       0.00354                      -0.00109                       0.99999
                       0.00380                      -0.00121                       0.99999
                       0.00402                      -0.00132                       0.99999
                       0.00416                      -0.00142                       0.99999
                       0.00419                      -0.00150                       0.99999
                       0.00403                      -0.00156                       0.99999
                       0.00387                      -0.00157                       0.99999
                       0.00000                      -0.00000                       1.00000
        </DataArray>
      </PointData>
      <Lines>
        <DataArray type="Int32" Name="connectivity" format="ascii">
      0      1
      1      2
      2      3
      3      4
      4      5
      5      6
      6      7
      7      8
      8      9
      9     10
     10     11
     11     12
     12     13
     13     14
     14     15
     15     16
     16     17
     17     18
     18     19
     19     20
     21      0
        </DataArray>
        <DataArray type="Int32" Name="offsets" format="ascii">
      2
      4
      6
      8
     10
     12
     14
     16
     18
     20
     22
     24
     26
     28
     30
     32
     34
     36
     38
     40
     42
        </DataArray>
      </Lines>
    </Piece>
  </PolyData>
</VTKFile>
