<?xml version="1.0"?>
<VTKFile type="PolyData" version="0.1" byte_order="LittleEndian">
  <PolyData>
    <Piece NumberOfPoints="      8" NumberOfVerts="  0" NumberOfLines="      0"
           NumberOfStrips="  0" NumberOfPolys="      6">
      <Points>
        <DataArray type="Float32" NumberOfComponents="3" format="ascii">
                      -3.48621                       2.33598                      87.60512
                       3.51379                       2.33598                      87.60282
                       3.51379                      -2.46402                      87.59481
                      -3.48621                      -2.46402                      87.59711
                      -3.48464                      -2.47203                      92.39711
                       3.51537                      -2.47203                      92.39481
                       3.51537                       2.32797                      92.40282
                      -3.48463                       2.32797                      92.40512
        </DataArray>
      </Points>
      <Polys>
        <DataArray type="Int32" Name="connectivity" format="ascii">
      0      1      2      3
      4      5      6      7
      7      6      1      0
      6      5      2      1
      5      4      3      2
      4      7      0      3
        </DataArray>
        <DataArray type="Int32" Name="offsets" format="ascii">
      4
      8
     12
     16
     20
     24
        </DataArray>
      </Polys>
    </Piece>
  </PolyData>
</VTKFile>
